level_1,level_2,amount,hue
Protein,Transcription,2.96714033,220
Protein,Translation,7.71412641,220
Protein,"Folding, Sorting and Degradation",10.3899453,220
Protein,DNA Maintenance,3.87378183,220
Protein,Environment Info Processing,2.05292717,220
Protein,Cellular Processes,10.6718924,220
Protein,Membrane Transport,0.057874815,220
Protein,Central Carbon Metabolism,6.60344271,220
Protein,Energy Metabolism,1.167094476,220
Protein,Biosynthesis,3.1643601,220
Protein,Other Enzymes,1.27437329,220
Protein,Organismal Systems,0.613062513,220
Protein,Human Diseases,0.278349426,220
Protein,Not Mapped,9.1716291,220
Nucleic acids,rRNA,2.850202429,300
Nucleic acids,tRNA,0.534412955,300
Nucleic acids,mRNA,0.178137652,300
Nucleic acids,DNA,0.809716599,300
Lipids,Lipids,16.19433198,120
Carbohydrates,Carbohydrates,6.477732794,0
Other,Inorganic ions,3.238866397,40
Other,Small metabolites,9.71659919,40
