%!PS-Adobe-3.0 EPSF-3.0
%%Title: dynamic_model_scheme.fig
%%Creator: fig2dev Version 3.2.6a
%%CreationDate: 2019-03-30 13:18:34
%%BoundingBox: 0 0 782 140
%Magnification: 1.0000
%%EndComments
%%BeginProlog
/$F2psDict 200 dict def
$F2psDict begin
$F2psDict /mtrx matrix put
/col-1 {0 setgray} bind def
/col0 {0.000 0.000 0.000 srgb} bind def
/col7 {1.000 1.000 1.000 srgb} bind def

end

/cp {closepath} bind def
/ef {eofill} bind def
/gr {grestore} bind def
/gs {gsave} bind def
/sa {save} bind def
/rs {restore} bind def
/l {lineto} bind def
/m {moveto} bind def
/rm {rmoveto} bind def
/n {newpath} bind def
/s {stroke} bind def
/sh {show} bind def
/slc {setlinecap} bind def
/slj {setlinejoin} bind def
/slw {setlinewidth} bind def
/srgb {setrgbcolor} bind def
/rot {rotate} bind def
/sc {scale} bind def
/sd {setdash} bind def
/ff {findfont} bind def
/sf {setfont} bind def
/scf {scalefont} bind def
/sw {stringwidth} bind def
/tr {translate} bind def
/tnt {dup dup currentrgbcolor
  4 -2 roll dup 1 exch sub 3 -1 roll mul add
  4 -2 roll dup 1 exch sub 3 -1 roll mul add
  4 -2 roll dup 1 exch sub 3 -1 roll mul add srgb}
  bind def
/shd {dup dup currentrgbcolor 4 -2 roll mul 4 -2 roll mul
  4 -2 roll mul srgb} bind def
 /DrawEllipse {
	/endangle exch def
	/startangle exch def
	/yrad exch def
	/xrad exch def
	/y exch def
	/x exch def
	/savematrix mtrx currentmatrix def
	x y tr xrad yrad sc 0 0 1 startangle endangle arc
	closepath
	savematrix setmatrix
	} def

/$F2psBegin {$F2psDict begin /$F2psEnteredState save def} def
/$F2psEnd {$F2psEnteredState restore end} def

/pageheader {
save
newpath 0 140 moveto 0 0 lineto 782 0 lineto 782 140 lineto closepath clip newpath
-26.1 161.1 translate
1 -1 scale
$F2psBegin
10 setmiterlimit
0 slj 0 slc
 0.06299 0.06299 sc
} bind def
/pagefooter {
$F2psEnd
restore
} bind def
%%EndProlog
pageheader
%
% Fig objects follow
%
% 
% here starts figure with depth 50
% Polyline
0 slj
0 slc
30.000 slw
gs  clippath
10499 744 m 10506 779 l 10307 859 l 10285 741 l cp
eoclip
n 9270 990 m
 10485 765 l gs col0 s gr gr

% arrowhead
7.500 slw
n 10307 859 m 10473 767 l 10285 741 l 10307 859 l  cp gs 0.00 setgray ef gr  col0 s
% Polyline
30.000 slw
gs  clippath
10461 1290 m 10455 1326 l 10241 1334 l 10260 1215 l cp
eoclip
n 9315 1125 m
 10440 1305 l gs col0 s gr gr

% arrowhead
7.500 slw
n 10241 1334 m 10428 1303 l 10260 1215 l 10241 1334 l  cp gs 0.00 setgray ef gr  col0 s
% Polyline
2 slj
30.000 slw
gs  clippath
8080 1424 m 8116 1420 l 8182 1624 l 8063 1638 l cp
eoclip
n 12465 1080 m 12467 1082 l 12473 1086 l 12482 1093 l 12496 1105 l 12514 1119 l
 12536 1138 l 12561 1159 l 12587 1181 l 12613 1205 l 12639 1229 l
 12663 1253 l 12686 1276 l 12706 1298 l 12724 1320 l 12739 1340 l
 12752 1361 l 12763 1381 l 12772 1401 l 12779 1421 l 12784 1441 l
 12788 1463 l 12789 1479 l 12790 1495 l 12790 1512 l 12789 1529 l
 12787 1547 l 12784 1566 l 12780 1585 l 12774 1604 l 12768 1624 l
 12759 1645 l 12750 1665 l 12739 1686 l 12726 1707 l 12712 1728 l
 12696 1749 l 12679 1770 l 12660 1790 l 12640 1810 l 12618 1830 l
 12595 1849 l 12570 1868 l 12544 1886 l 12516 1903 l 12487 1919 l
 12457 1935 l 12426 1950 l 12393 1964 l 12359 1978 l 12323 1990 l
 12285 2003 l 12257 2011 l 12228 2019 l 12198 2026 l 12167 2033 l
 12134 2040 l 12101 2047 l 12066 2054 l 12030 2060 l 11992 2066 l
 11953 2072 l 11913 2077 l 11872 2083 l 11830 2088 l 11786 2093 l
 11741 2097 l 11695 2102 l 11648 2106 l 11600 2110 l 11552 2113 l
 11502 2117 l 11452 2120 l 11401 2123 l 11350 2126 l 11298 2128 l
 11246 2130 l 11194 2132 l 11141 2134 l 11089 2136 l 11037 2138 l
 10984 2139 l 10933 2140 l 10881 2141 l 10829 2142 l 10778 2143 l
 10727 2143 l 10677 2144 l 10627 2144 l 10577 2145 l 10528 2145 l
 10478 2145 l 10429 2145 l 10380 2145 l 10331 2145 l 10282 2145 l
 10232 2145 l 10182 2145 l 10132 2144 l 10082 2144 l 10031 2143 l
 9979 2143 l 9928 2142 l 9876 2141 l 9823 2140 l 9771 2139 l
 9718 2138 l 9665 2136 l 9612 2135 l 9559 2133 l 9506 2131 l
 9454 2129 l 9401 2126 l 9350 2124 l 9298 2121 l 9248 2118 l
 9198 2115 l 9149 2111 l 9101 2107 l 9054 2103 l 9008 2099 l
 8964 2095 l 8920 2090 l 8878 2086 l 8838 2081 l 8798 2075 l
 8760 2070 l 8724 2064 l 8689 2058 l 8655 2052 l 8623 2046 l
 8593 2039 l 8563 2032 l 8535 2025 l 8508 2018 l 8483 2010 l
 8446 1998 l 8413 1985 l 8382 1971 l 8353 1956 l 8327 1939 l
 8303 1922 l 8280 1902 l 8260 1881 l 8241 1858 l 8223 1833 l
 8207 1807 l 8192 1778 l 8179 1748 l 8166 1716 l 8154 1683 l
 8144 1650 l 8135 1617 l 8127 1584 l 8120 1554 l 8114 1526 l
 8109 1502 l 8106 1481 l 8103 1465 l
 8100 1440 l gs col0 s gr gr

% arrowhead
0 slj
7.500 slw
n 8182 1624 m 8101 1452 l 8063 1638 l 8182 1624 l  cp gs 0.00 setgray ef gr  col0 s
% Ellipse
n 585 990 162 162 0 360 DrawEllipse gs col0 s gr

% Ellipse
n 2160 990 162 162 0 360 DrawEllipse gs col0 s gr

% Ellipse
n 3780 990 162 162 0 360 DrawEllipse gs col0 s gr

% Ellipse
n 5535 990 162 162 0 360 DrawEllipse gs col0 s gr

% Polyline
30.000 slw
gs  clippath
1908 972 m 1908 1008 l 1699 1058 l 1699 923 l cp
eoclip
n 855 990 m
 1890 990 l gs col0 s gr gr

% arrowhead
7.500 slw
n 1699 1058 m 1879 990 l 1699 923 l 1699 1058 l  cp gs 0.00 setgray ef gr  col0 s
% Polyline
30.000 slw
gs  clippath
3528 972 m 3528 1008 l 3319 1058 l 3319 923 l cp
eoclip
n 2475 990 m
 3510 990 l gs col0 s gr gr

% arrowhead
7.500 slw
n 3319 1058 m 3499 990 l 3319 923 l 3319 1058 l  cp gs 0.00 setgray ef gr  col0 s
% Polyline
30.000 slw
gs  clippath
5193 972 m 5193 1008 l 4984 1058 l 4984 923 l cp
eoclip
n 4140 990 m
 5175 990 l gs col0 s gr gr

% arrowhead
7.500 slw
n 4984 1058 m 5164 990 l 4984 923 l 4984 1058 l  cp gs 0.00 setgray ef gr  col0 s
% Polyline
n 1035 1710 m 1305 1575 l 1530 1755 l 1440 1845 l 1170 1890 l
 cp gs col0 s gr 
% Polyline
n 2655 1755 m 2925 1620 l 3150 1800 l 3060 1890 l 2790 1935 l
 cp gs col0 s gr 
% Polyline
n 4365 1710 m 4635 1575 l 4860 1755 l 4770 1845 l 4500 1890 l
 cp gs col0 s gr 
% Polyline
gs  clippath
1298 1077 m 1312 1077 l 1365 1144 l 1364 1153 l 1362 1163 l 1358 1172 l 1353 1180 l 1347 1187 l 1339 1193 l 1331 1198 l 1322 1201 l 1312 1203 l 1303 1204 l 1293 1203 l 1284 1200 l 1275 1196 l 1267 1190 l 1260 1184 l 1254 1176 l 1250 1167 l 1247 1158 l 1245 1149 l cp
eoclip
n 1305 1440 m
 1305 1080 l gs col0 s gr gr

% arrowhead
n 1365 1144 m 1364 1134 l 1362 1125 l 1358 1116 l 1353 1108 l 
1347 1100 l 1339 1094 l 1331 1090 l 1322 1086 l 1312 1084 l 
1303 1084 l 1293 1085 l 1284 1088 l 1275 1092 l 1267 1097 l 
1260 1104 l 1254 1112 l 1250 1120 l 1247 1129 l 1245 1139 l 
1245 1149 l 1247 1158 l 1250 1167 l 1254 1176 l 1260 1184 l 
1267 1190 l 1275 1196 l 1284 1200 l 1293 1203 l 1303 1204 l 
1312 1203 l 1322 1201 l 1331 1198 l 1339 1193 l 1347 1187 l 
1353 1180 l 1358 1172 l 1362 1163 l 1364 1153 l 1365 1144 l 
 cp gs col7 1.00 shd ef gr  col0 s
% Polyline
gs  clippath
4628 1122 m 4642 1122 l 4695 1189 l 4694 1198 l 4692 1208 l 4688 1217 l 4683 1225 l 4677 1232 l 4669 1238 l 4661 1243 l 4652 1246 l 4642 1248 l 4633 1249 l 4623 1248 l 4614 1245 l 4605 1241 l 4597 1235 l 4590 1229 l 4584 1221 l 4580 1212 l 4577 1203 l 4575 1194 l cp
eoclip
n 4635 1485 m
 4635 1125 l gs col0 s gr gr

% arrowhead
n 4695 1189 m 4694 1179 l 4692 1170 l 4688 1161 l 4683 1153 l 
4677 1145 l 4669 1139 l 4661 1135 l 4652 1131 l 4642 1129 l 
4633 1129 l 4623 1130 l 4614 1133 l 4605 1137 l 4597 1142 l 
4590 1149 l 4584 1157 l 4580 1165 l 4577 1174 l 4575 1184 l 
4575 1194 l 4577 1203 l 4580 1212 l 4584 1221 l 4590 1229 l 
4597 1235 l 4605 1241 l 4614 1245 l 4623 1248 l 4633 1249 l 
4642 1248 l 4652 1246 l 4661 1243 l 4669 1238 l 4677 1232 l 
4683 1225 l 4688 1217 l 4692 1208 l 4694 1198 l 4695 1189 l 
 cp gs col7 1.00 shd ef gr  col0 s
% Polyline
gs  clippath
2918 1122 m 2932 1122 l 2985 1189 l 2984 1198 l 2982 1208 l 2978 1217 l 2973 1225 l 2967 1232 l 2959 1238 l 2951 1243 l 2942 1246 l 2932 1248 l 2923 1249 l 2913 1248 l 2904 1245 l 2895 1241 l 2887 1235 l 2880 1229 l 2874 1221 l 2870 1212 l 2867 1203 l 2865 1194 l cp
eoclip
n 2925 1485 m
 2925 1125 l gs col0 s gr gr

% arrowhead
n 2985 1189 m 2984 1179 l 2982 1170 l 2978 1161 l 2973 1153 l 
2967 1145 l 2959 1139 l 2951 1135 l 2942 1131 l 2932 1129 l 
2923 1129 l 2913 1130 l 2904 1133 l 2895 1137 l 2887 1142 l 
2880 1149 l 2874 1157 l 2870 1165 l 2867 1174 l 2865 1184 l 
2865 1194 l 2867 1203 l 2870 1212 l 2874 1221 l 2880 1229 l 
2887 1235 l 2895 1241 l 2904 1245 l 2913 1248 l 2923 1249 l 
2932 1248 l 2942 1246 l 2951 1243 l 2959 1238 l 2967 1232 l 
2973 1225 l 2978 1217 l 2982 1208 l 2984 1198 l 2985 1189 l 
 cp gs col7 1.00 shd ef gr  col0 s
/Helvetica ff 254.00 scf sf
7470 945 m
gs 1 -1 sc (Metabolite) col0 sh gr
/Helvetica ff 222.25 scf sf
9180 1575 m
gs 1 -1 sc (Grow rate) col0 sh gr
/Helvetica ff 222.25 scf sf
9000 540 m
gs 1 -1 sc (Kinetic rate law) col0 sh gr
/Times-Roman ff 190.50 scf sf
9045 1260 m
gs 1 -1 sc ( ) col0 sh gr
/Helvetica ff 254.00 scf sf
7200 1260 m
gs 1 -1 sc (concentrations c) col0 sh gr
/Helvetica ff 254.00 scf sf
10665 900 m
gs 1 -1 sc (Fluxes v) col0 sh gr
/Helvetica ff 222.25 scf sf
8775 2475 m
gs 1 -1 sc (Change in time: r = dc/dt) col0 sh gr
/Helvetica ff 254.00 scf sf
10575 1440 m
gs 1 -1 sc (Dilution fluxes) col0 sh gr
/Helvetica ff 254.00 scf sf
1260 810 m
gs 1 -1 sc (v) col0 sh gr
/Helvetica ff 254.00 scf sf
720 1800 m
gs 1 -1 sc (e) col0 sh gr
/Helvetica ff 254.00 scf sf
2115 630 m
gs 1 -1 sc (c) col0 sh gr
% here ends figure;
pagefooter
showpage
%%Trailer
%EOF
