%!PS-Adobe-3.0 EPSF-3.0
%%Title: enumeration_of_states.fig
%%Creator: fig2dev Version 3.2 Patchlevel 5e
%%CreationDate: Sat Jan 13 21:12:05 2018
%%BoundingBox: 0 0 491 420
%Magnification: 1.0000
%%EndComments
%%BeginProlog
/$F2psDict 200 dict def
$F2psDict begin
$F2psDict /mtrx matrix put
/col-1 {0 setgray} bind def
/col0 {0.000 0.000 0.000 srgb} bind def
/col1 {0.000 0.000 1.000 srgb} bind def
/col2 {0.000 1.000 0.000 srgb} bind def
/col3 {0.000 1.000 1.000 srgb} bind def
/col4 {1.000 0.000 0.000 srgb} bind def
/col5 {1.000 0.000 1.000 srgb} bind def
/col6 {1.000 1.000 0.000 srgb} bind def
/col7 {1.000 1.000 1.000 srgb} bind def
/col8 {0.000 0.000 0.560 srgb} bind def
/col9 {0.000 0.000 0.690 srgb} bind def
/col10 {0.000 0.000 0.820 srgb} bind def
/col11 {0.530 0.810 1.000 srgb} bind def
/col12 {0.000 0.560 0.000 srgb} bind def
/col13 {0.000 0.690 0.000 srgb} bind def
/col14 {0.000 0.820 0.000 srgb} bind def
/col15 {0.000 0.560 0.560 srgb} bind def
/col16 {0.000 0.690 0.690 srgb} bind def
/col17 {0.000 0.820 0.820 srgb} bind def
/col18 {0.560 0.000 0.000 srgb} bind def
/col19 {0.690 0.000 0.000 srgb} bind def
/col20 {0.820 0.000 0.000 srgb} bind def
/col21 {0.560 0.000 0.560 srgb} bind def
/col22 {0.690 0.000 0.690 srgb} bind def
/col23 {0.820 0.000 0.820 srgb} bind def
/col24 {0.500 0.190 0.000 srgb} bind def
/col25 {0.630 0.250 0.000 srgb} bind def
/col26 {0.750 0.380 0.000 srgb} bind def
/col27 {1.000 0.500 0.500 srgb} bind def
/col28 {1.000 0.630 0.630 srgb} bind def
/col29 {1.000 0.750 0.750 srgb} bind def
/col30 {1.000 0.880 0.880 srgb} bind def
/col31 {1.000 0.840 0.000 srgb} bind def
/col32 {0.800 0.800 0.800 srgb} bind def
/col33 {1.000 0.867 0.533 srgb} bind def
/col34 {0.533 0.533 1.000 srgb} bind def
/col35 {0.667 0.667 1.000 srgb} bind def
/col36 {0.800 0.800 1.000 srgb} bind def
/col37 {0.890 0.600 0.133 srgb} bind def
/col38 {0.702 0.408 0.122 srgb} bind def

end

/cp {closepath} bind def
/ef {eofill} bind def
/gr {grestore} bind def
/gs {gsave} bind def
/sa {save} bind def
/rs {restore} bind def
/l {lineto} bind def
/m {moveto} bind def
/rm {rmoveto} bind def
/n {newpath} bind def
/s {stroke} bind def
/sh {show} bind def
/slc {setlinecap} bind def
/slj {setlinejoin} bind def
/slw {setlinewidth} bind def
/srgb {setrgbcolor} bind def
/rot {rotate} bind def
/sc {scale} bind def
/sd {setdash} bind def
/ff {findfont} bind def
/sf {setfont} bind def
/scf {scalefont} bind def
/sw {stringwidth} bind def
/tr {translate} bind def
/tnt {dup dup currentrgbcolor
  4 -2 roll dup 1 exch sub 3 -1 roll mul add
  4 -2 roll dup 1 exch sub 3 -1 roll mul add
  4 -2 roll dup 1 exch sub 3 -1 roll mul add srgb}
  bind def
/shd {dup dup currentrgbcolor 4 -2 roll mul 4 -2 roll mul
  4 -2 roll mul srgb} bind def
/$F2psBegin {$F2psDict begin /$F2psEnteredState save def} def
/$F2psEnd {$F2psEnteredState restore end} def

/pageheader {
save
newpath 0 420 moveto 0 0 lineto 491 0 lineto 491 420 lineto closepath clip newpath
-38.7 410.8 translate
1 -1 scale
$F2psBegin
10 setmiterlimit
0 slj 0 slc
 0.06299 0.06299 sc
} bind def
/pagefooter {
$F2psEnd
restore
} bind def
%%EndProlog
pageheader
%
% Fig objects follow
%
% 
% here starts figure with depth 150
% Polyline
0 slj
0 slc
7.500 slw
n 2250 630 m 3870 630 l 3870 2025 l 2250 2025 l
 cp gs col33 1.00 shd ef gr gs col33 s gr 
% Polyline
n 630 2025 m 2250 2025 l 2250 3420 l 630 3420 l
 cp gs col33 1.00 shd ef gr gs col33 s gr 
% here ends figure;
% 
% here starts figure with depth 50
% Arc
7.500 slw
0 slc
gs  clippath
5295 4028 m 5263 4230 l 5441 4259 l 5473 4057 l 5473 4057 l 5356 4221 l 5295 4028 l cp
eoclip
n 2977.5 3750.6 2425.4 -76.2247 11.4001 arc
gs col0 s gr
 gr

% arrowhead
0 slj
n 5295 4028 m 5356 4221 l 5473 4057 l  col0 s
% Arc
gs  clippath
2829 4308 m 2674 4441 l 2792 4577 l 2946 4444 l 2946 4444 l 2752 4494 l 2829 4308 l cp
eoclip
n 963.2 2300.6 2830.6 -18.6585 50.9875 arc
gs col0 s gr
 gr

% arrowhead
n 2829 4308 m 2752 4494 l 2946 4444 l  col0 s
% Polyline
gs  clippath
2280 812 m 2280 660 l 2220 660 l 2220 812 l 2220 812 l 2250 692 l 2280 812 l cp
eoclip
n 2250 675 m
 2250 3600 l gs col0 s gr gr

% arrowhead
n 2280 812 m 2250 692 l 2220 812 l  col0 s
% Polyline
gs  clippath
3913 2055 m 4065 2055 l 4065 1995 l 3913 1995 l 3913 1995 l 4033 2025 l 3913 2055 l cp
eoclip
n 675 2025 m
 4050 2025 l gs col0 s gr gr

% arrowhead
n 3913 2055 m 4033 2025 l 3913 1995 l  col0 s
% Polyline
gs  clippath
2203 6465 m 2355 6465 l 2355 6405 l 2203 6405 l 2203 6405 l 2323 6435 l 2203 6465 l cp
705 5312 m 705 5160 l 645 5160 l 645 5312 l 645 5312 l 675 5192 l 705 5312 l cp
eoclip
n 675 5175 m 675 6435 l
 2340 6435 l gs col0 s gr gr

% arrowhead
n 705 5312 m 675 5192 l 645 5312 l  col0 s
% arrowhead
n 2203 6465 m 2323 6435 l 2203 6405 l  col0 s
% Polyline
n 675 6435 m 675 5400 l 1755 5940 l 1755 6435 l
 cp gs col33 1.00 shd ef gr gs col0 s gr 
% Polyline
gs  clippath
6208 6510 m 6360 6510 l 6360 6450 l 6208 6450 l 6208 6450 l 6328 6480 l 6208 6510 l cp
4710 5312 m 4710 5160 l 4650 5160 l 4650 5312 l 4650 5312 l 4680 5192 l 4710 5312 l cp
eoclip
n 4680 5175 m 4680 6480 l
 6345 6480 l gs col0 s gr gr

% arrowhead
n 4710 5312 m 4680 5192 l 4650 5312 l  col0 s
% arrowhead
n 6208 6510 m 6328 6480 l 6208 6450 l  col0 s
% Polyline
n 5040 6120 m 5805 5355 l 5805 6120 l
 cp gs col36 1.00 shd ef gr gs col0 s gr 
% here ends figure;
% 
% here starts figure with depth 5
/Helvetica ff 190.50 scf sf
1035 1485 m
gs 1 -1 sc (Excluded) col0 sh gr
/Helvetica ff 190.50 scf sf
2655 2700 m
gs 1 -1 sc (Excluded) col0 sh gr
/Helvetica ff 190.50 scf sf
4410 1575 m
gs 1 -1 sc (Each flow pattern yields) col0 sh gr
/Helvetica ff 317.50 scf sf
630 135 m
gs 1 -1 sc (Feasible flow patterns \(orthants in flux space\)) col0 sh gr
/Helvetica ff 190.50 scf sf
2115 5715 m
gs 1 -1 sc (Stationarity flux bounds,) col0 sh gr
/Helvetica-Bold ff 190.50 scf sf
2115 5445 m
gs 1 -1 sc (Constraints:) col0 sh gr
/Helvetica ff 190.50 scf sf
2115 6030 m
gs 1 -1 sc (Predefine flux benefit) col0 sh gr
/Helvetica-Bold ff 190.50 scf sf
6210 5445 m
gs 1 -1 sc (Constraints) col0 sh gr
/Helvetica ff 190.50 scf sf
6210 5715 m
gs 1 -1 sc (Physiological bounds) col0 sh gr
/Helvetica ff 190.50 scf sf
6210 6030 m
gs 1 -1 sc (Positive thermod. forces) col0 sh gr
/Helvetica ff 317.50 scf sf
630 4815 m
gs 1 -1 sc (Flux polytope) col0 sh gr
/Helvetica ff 317.50 scf sf
4590 4815 m
gs 1 -1 sc (Metabolite polytope) col0 sh gr
% here ends figure;
pagefooter
showpage
%%Trailer
%EOF
