%!PS-Adobe-3.0 EPSF-3.0
%%Title: enzyme_optimality_problem.fig
%%Creator: fig2dev Version 3.2.6a
%%CreationDate: 2019-03-06 20:25:56
%%BoundingBox: 0 0 589 213
%Magnification: 1.0000
%%EndComments
%%BeginProlog
/$F2psDict 200 dict def
$F2psDict begin
$F2psDict /mtrx matrix put
/col-1 {0 setgray} bind def
/col0 {0.000 0.000 0.000 srgb} bind def
/col4 {1.000 0.000 0.000 srgb} bind def
/col7 {1.000 1.000 1.000 srgb} bind def
/col10 {0.000 0.000 0.820 srgb} bind def
/col32 {0.867 0.867 0.867 srgb} bind def
/col33 {0.267 0.267 0.933 srgb} bind def
/col34 {0.533 0.533 1.000 srgb} bind def
/col35 {0.800 0.816 1.000 srgb} bind def
/col36 {0.933 0.933 0.933 srgb} bind def
/col37 {1.000 0.733 0.267 srgb} bind def
/col38 {0.910 0.667 0.314 srgb} bind def
/col39 {0.996 0.910 0.584 srgb} bind def
/col40 {1.000 0.400 0.000 srgb} bind def

end

/cp {closepath} bind def
/ef {eofill} bind def
/gr {grestore} bind def
/gs {gsave} bind def
/sa {save} bind def
/rs {restore} bind def
/l {lineto} bind def
/m {moveto} bind def
/rm {rmoveto} bind def
/n {newpath} bind def
/s {stroke} bind def
/sh {show} bind def
/slc {setlinecap} bind def
/slj {setlinejoin} bind def
/slw {setlinewidth} bind def
/srgb {setrgbcolor} bind def
/rot {rotate} bind def
/sc {scale} bind def
/sd {setdash} bind def
/ff {findfont} bind def
/sf {setfont} bind def
/scf {scalefont} bind def
/sw {stringwidth} bind def
/tr {translate} bind def
/tnt {dup dup currentrgbcolor
  4 -2 roll dup 1 exch sub 3 -1 roll mul add
  4 -2 roll dup 1 exch sub 3 -1 roll mul add
  4 -2 roll dup 1 exch sub 3 -1 roll mul add srgb}
  bind def
/shd {dup dup currentrgbcolor 4 -2 roll mul 4 -2 roll mul
  4 -2 roll mul srgb} bind def
/reencdict 12 dict def /ReEncode { reencdict begin
/newcodesandnames exch def /newfontname exch def /basefontname exch def
/basefontdict basefontname findfont def /newfont basefontdict maxlength dict def
basefontdict { exch dup /FID ne { dup /Encoding eq
{ exch dup length array copy newfont 3 1 roll put }
{ exch newfont 3 1 roll put } ifelse } { pop pop } ifelse } forall
newfont /FontName newfontname put newcodesandnames aload pop
128 1 255 { newfont /Encoding get exch /.notdef put } for
newcodesandnames length 2 idiv { newfont /Encoding get 3 1 roll put } repeat
newfontname newfont definefont pop end } def
/isovec [
8#055 /minus 8#200 /grave 8#201 /acute 8#202 /circumflex 8#203 /tilde
8#204 /macron 8#205 /breve 8#206 /dotaccent 8#207 /dieresis
8#210 /ring 8#211 /cedilla 8#212 /hungarumlaut 8#213 /ogonek 8#214 /caron
8#220 /dotlessi 8#230 /oe 8#231 /OE
8#240 /space 8#241 /exclamdown 8#242 /cent 8#243 /sterling
8#244 /currency 8#245 /yen 8#246 /brokenbar 8#247 /section 8#250 /dieresis
8#251 /copyright 8#252 /ordfeminine 8#253 /guillemotleft 8#254 /logicalnot
8#255 /hyphen 8#256 /registered 8#257 /macron 8#260 /degree 8#261 /plusminus
8#262 /twosuperior 8#263 /threesuperior 8#264 /acute 8#265 /mu 8#266 /paragraph
8#267 /periodcentered 8#270 /cedilla 8#271 /onesuperior 8#272 /ordmasculine
8#273 /guillemotright 8#274 /onequarter 8#275 /onehalf
8#276 /threequarters 8#277 /questiondown 8#300 /Agrave 8#301 /Aacute
8#302 /Acircumflex 8#303 /Atilde 8#304 /Adieresis 8#305 /Aring
8#306 /AE 8#307 /Ccedilla 8#310 /Egrave 8#311 /Eacute
8#312 /Ecircumflex 8#313 /Edieresis 8#314 /Igrave 8#315 /Iacute
8#316 /Icircumflex 8#317 /Idieresis 8#320 /Eth 8#321 /Ntilde 8#322 /Ograve
8#323 /Oacute 8#324 /Ocircumflex 8#325 /Otilde 8#326 /Odieresis 8#327 /multiply
8#330 /Oslash 8#331 /Ugrave 8#332 /Uacute 8#333 /Ucircumflex
8#334 /Udieresis 8#335 /Yacute 8#336 /Thorn 8#337 /germandbls 8#340 /agrave
8#341 /aacute 8#342 /acircumflex 8#343 /atilde 8#344 /adieresis 8#345 /aring
8#346 /ae 8#347 /ccedilla 8#350 /egrave 8#351 /eacute
8#352 /ecircumflex 8#353 /edieresis 8#354 /igrave 8#355 /iacute
8#356 /icircumflex 8#357 /idieresis 8#360 /eth 8#361 /ntilde 8#362 /ograve
8#363 /oacute 8#364 /ocircumflex 8#365 /otilde 8#366 /odieresis 8#367 /divide
8#370 /oslash 8#371 /ugrave 8#372 /uacute 8#373 /ucircumflex
8#374 /udieresis 8#375 /yacute 8#376 /thorn 8#377 /ydieresis] def
/Helvetica /Helvetica-iso isovec ReEncode
 /DrawEllipse {
	/endangle exch def
	/startangle exch def
	/yrad exch def
	/xrad exch def
	/y exch def
	/x exch def
	/savematrix mtrx currentmatrix def
	x y tr xrad yrad sc 0 0 1 startangle endangle arc
	closepath
	savematrix setmatrix
	} def

/$F2psBegin {$F2psDict begin /$F2psEnteredState save def} def
/$F2psEnd {$F2psEnteredState restore end} def

/pageheader {
save
newpath 0 213 moveto 0 0 lineto 589 0 lineto 589 213 lineto closepath clip newpath
-95.9 237.0 translate
1 -1 scale
$F2psBegin
10 setmiterlimit
0 slj 0 slc
 0.06299 0.06299 sc
} bind def
/pagefooter {
$F2psEnd
restore
} bind def
%%EndProlog
pageheader
%
% Fig objects follow
%
% 
% here starts figure with depth 250
% Polyline
0 slj
0 slc
15.000 slw
gs  clippath
2915 928 m 2936 928 l 2990 1058 l 2860 1058 l cp
eoclip
n 2925 1410 m
 2925 938 l gs col40 s gr gr

% arrowhead
n 2990 1058 m 2925 953 l 2860 1058 l 2990 1058 l  cp gs col7 1.00 shd ef gr  col40 s
% here ends figure;
% 
% here starts figure with depth 100
% Ellipse
7.500 slw
n 1699 1512 168 168 0 360 DrawEllipse gs col7 1.00 shd ef gr gs col0 s gr

% Ellipse
n 2942 1503 168 168 0 360 DrawEllipse gs col7 1.00 shd ef gr gs col0 s gr

% Ellipse
n 4083 1503 168 168 0 360 DrawEllipse gs col7 1.00 shd ef gr gs col0 s gr

% Ellipse
n 5246 1504 168 168 0 360 DrawEllipse gs col7 1.00 shd ef gr gs col0 s gr

% here ends figure;
% 
% here starts figure with depth 50
% Arc
15.000 slw
0 slc
gs  clippath
4330 3100 m 4322 3120 l 4181 3125 l 4227 3003 l cp
eoclip
n 4379.4 2772.0 340.0 -100.7547 100.7547 arcn
gs col4 s gr
 gr

% arrowhead
0 slj
n 4181 3125 m 4302 3101 l 4227 3003 l 4181 3125 l  cp gs col7 1.00 shd ef gr  col4 s
% Arc
gs  clippath
4286 3172 m 4289 3193 l 4168 3266 l 4149 3137 l cp
eoclip
n 4086.3 2313.7 891.0 147.6064 77.6419 arcn
gs col4 s gr
 gr

% arrowhead
n 4168 3266 m 4262 3186 l 4149 3137 l 4168 3266 l  cp gs col7 1.00 shd ef gr  col4 s
% Arc
gs  clippath
4286 3290 m 4289 3311 l 4167 3382 l 4150 3252 l cp
eoclip
n 3867.3 539.7 2792.5 124.8640 81.5629 arcn
gs col4 s gr
 gr

% arrowhead
n 4167 3382 m 4262 3304 l 4150 3252 l 4167 3382 l  cp gs col7 1.00 shd ef gr  col4 s
% Polyline
7.500 slw
gs  clippath
10807 3413 m 10807 3427 l 10673 3495 l 10793 3420 l 10673 3345 l cp
6923 398 m 6937 398 l 7005 540 l 6930 420 l 6855 540 l cp
eoclip
n 6930 405 m 6930 3420 l
 10800 3420 l gs col0 s gr gr

% arrowhead
15.000 slw
n 6855 540 m 6930 420 l 7005 540 l  col0 s
% arrowhead
7.500 slw
n 10673 3345 m 10793 3420 l 10673 3495 l  col0 s
% Polyline
45.000 slw
gs  clippath
2771 1469 m 2771 1520 l 2567 1560 l 2567 1428 l cp
eoclip
n 1919 1494 m
 2745 1494 l gs col33 s gr gr

% arrowhead
15.000 slw
n 2567 1560 m 2725 1494 l 2567 1428 l 2567 1560 l  cp gs col33 1.00 shd ef gr  col33 s
% Polyline
45.000 slw
gs  clippath
5091 1478 m 5091 1529 l 4887 1569 l 4887 1437 l cp
eoclip
n 4279 1503 m
 5065 1503 l gs col33 s gr gr

% arrowhead
15.000 slw
n 4887 1569 m 5045 1503 l 4887 1437 l 4887 1569 l  cp gs col33 1.00 shd ef gr  col33 s
% Polyline
45.000 slw
gs  clippath
3911 1478 m 3911 1529 l 3707 1569 l 3707 1437 l cp
eoclip
n 3099 1503 m
 3885 1503 l gs col33 s gr gr

% arrowhead
15.000 slw
n 3707 1569 m 3865 1503 l 3707 1437 l 3707 1569 l  cp gs col33 1.00 shd ef gr  col33 s
% Polyline
75.000 slw
gs  clippath
3371 1533 m 3452 1533 l 3477 1751 l 3345 1751 l cp
eoclip
n 3411 2045 m
 3411 1573 l gs col38 s gr gr

% arrowhead
n 3477 1751 m 3411 1646 l 3345 1751 l 3477 1751 l  cp gs col38 1.00 shd ef gr  col38 s
% Polyline
gs  clippath
4591 1533 m 4672 1533 l 4697 1751 l 4565 1751 l cp
eoclip
n 4631 2045 m
 4631 1573 l gs col38 s gr gr

% arrowhead
n 4697 1751 m 4631 1646 l 4565 1751 l 4697 1751 l  cp gs col38 1.00 shd ef gr  col38 s
% Polyline
15.000 slw
gs  clippath
4621 934 m 4642 934 l 4697 1063 l 4565 1063 l cp
eoclip
n 4631 1416 m
 4631 944 l gs col10 s gr gr

% arrowhead
n 4697 1063 m 4631 959 l 4565 1063 l 4697 1063 l  cp gs col7 1.00 shd ef gr  col10 s
% Polyline
7.500 slw
n 2036 2123 m 2311 2123 l 2468 2320 l 2271 2516 l 1917 2359 l
 cp gs col38 1.00 shd ef gr gs col0 s gr 
% Polyline
n 4395 2280 m 4631 2123 l 4788 2202 l 4788 2398 l 4512 2516 l
 cp gs col38 1.00 shd ef gr gs col0 s gr 
% Polyline
75.000 slw
gs  clippath
2165 1533 m 2246 1533 l 2271 1751 l 2139 1751 l cp
eoclip
n 2205 2045 m
 2205 1573 l gs col38 s gr gr

% arrowhead
n 2271 1751 m 2205 1646 l 2139 1751 l 2271 1751 l  cp gs col38 1.00 shd ef gr  col38 s
% Polyline
7.500 slw
n 3202 2273 m 3398 2076 l 3555 2115 l 3594 2312 l 3398 2469 l
 cp gs col38 1.00 shd ef gr gs col0 s gr 
% Polyline
45.000 slw
gs  clippath
8197 1900 m 8225 1942 l 8079 2081 l 8146 1965 l 8012 1981 l cp
eoclip
n 7686 2271 m
 8190 1935 l gs col10 s gr gr

% arrowhead
n 8012 1981 m 8146 1965 l 8079 2081 l  col10 s
% Polyline
gs  clippath
8919 1430 m 8875 1404 l 8945 1215 l 8937 1349 l 9049 1275 l cp
eoclip
n 9261 792 m
 8910 1395 l gs col4 s gr gr

% arrowhead
n 9049 1275 m 8937 1349 l 8945 1215 l  col4 s
% Polyline
7.500 slw
n 4564 3066 m 4459 3066 4459 3236 105 arcto 4 {pop} repeat
  4459 3341 5391 3341 105 arcto 4 {pop} repeat
  5496 3341 5496 3171 105 arcto 4 {pop} repeat
  5496 3066 4564 3066 105 arcto 4 {pop} repeat
 cp gs col4 s gr 
% Polyline
n 4197 671 m 4092 671 4092 840 105 arcto 4 {pop} repeat
  4092 945 5025 945 105 arcto 4 {pop} repeat
  5130 945 5130 776 105 arcto 4 {pop} repeat
  5130 671 4197 671 105 arcto 4 {pop} repeat
 cp gs col10 s gr 
% Polyline
n 2472 669 m 2367 669 2367 840 105 arcto 4 {pop} repeat
  2367 945 3495 945 105 arcto 4 {pop} repeat
  3600 945 3600 774 105 arcto 4 {pop} repeat
  3600 669 2472 669 105 arcto 4 {pop} repeat
 cp gs col40 s gr 
% Polyline
45.000 slw
gs  clippath
8627 2141 m 8673 2119 l 8791 2283 l 8684 2201 l 8683 2335 l cp
eoclip
n 8911 2668 m
 8661 2153 l gs col40 s gr gr

% arrowhead
n 8683 2335 m 8684 2201 l 8791 2283 l  col40 s
% Polyline
2 slj
15.000 slw
n 7515 585 m 7517 585 l 7522 585 l 7531 586 l 7546 586 l 7566 587 l
 7592 588 l 7624 590 l 7661 591 l 7704 593 l 7750 595 l
 7800 597 l 7851 600 l 7903 602 l 7956 605 l 8008 607 l
 8059 610 l 8108 612 l 8155 615 l 8200 617 l 8242 619 l
 8282 622 l 8320 624 l 8356 626 l 8390 628 l 8422 631 l
 8452 633 l 8481 635 l 8509 638 l 8536 640 l 8562 642 l
 8588 645 l 8618 648 l 8648 652 l 8678 655 l 8707 659 l
 8736 663 l 8766 667 l 8795 672 l 8824 677 l 8853 682 l
 8882 688 l 8910 694 l 8939 700 l 8967 707 l 8995 714 l
 9022 721 l 9049 729 l 9076 736 l 9102 744 l 9127 753 l
 9152 761 l 9176 770 l 9200 779 l 9223 788 l 9247 798 l
 9270 807 l 9293 818 l 9316 828 l 9339 839 l 9363 851 l
 9387 863 l 9412 876 l 9437 889 l 9463 903 l 9489 918 l
 9515 933 l 9542 949 l 9569 965 l 9596 982 l 9623 999 l
 9649 1017 l 9675 1035 l 9701 1053 l 9726 1071 l 9750 1089 l
 9774 1107 l 9797 1125 l 9819 1143 l 9839 1160 l 9860 1178 l
 9879 1195 l 9897 1213 l 9915 1230 l 9934 1249 l 9952 1268 l
 9969 1288 l 9986 1308 l 10003 1329 l 10020 1350 l 10036 1372 l
 10052 1394 l 10067 1417 l 10083 1441 l 10097 1464 l 10111 1488 l
 10125 1512 l 10138 1536 l 10151 1560 l 10163 1584 l 10174 1607 l
 10184 1630 l 10194 1653 l 10204 1676 l 10213 1698 l 10221 1719 l
 10230 1741 l 10238 1763 l 10245 1784 l 10253 1806 l 10260 1828 l
 10267 1851 l 10274 1874 l 10282 1897 l 10289 1922 l 10296 1946 l
 10303 1971 l 10309 1997 l 10316 2023 l 10322 2049 l 10329 2075 l
 10334 2100 l 10340 2126 l 10346 2152 l 10351 2177 l 10356 2201 l
 10360 2225 l 10365 2249 l 10369 2272 l 10373 2295 l 10376 2318 l
 10380 2340 l 10383 2362 l 10387 2385 l 10390 2408 l 10393 2431 l
 10396 2456 l 10399 2482 l 10402 2509 l 10405 2537 l 10408 2568 l
 10411 2600 l 10414 2635 l 10418 2670 l 10421 2707 l 10424 2743 l
 10428 2779 l 10430 2813 l 10433 2843 l 10435 2869 l 10437 2891 l
 10438 2906 l 10439 2917 l 10440 2922 l
 10440 2925 l gs col4 s gr 
% Polyline
n 7287 645 m 7287 647 l 7287 652 l 7288 662 l 7289 676 l 7290 696 l
 7292 722 l 7294 752 l 7297 788 l 7300 826 l 7303 868 l
 7306 910 l 7310 954 l 7313 997 l 7317 1039 l 7320 1079 l
 7324 1118 l 7328 1155 l 7331 1191 l 7335 1224 l 7339 1256 l
 7343 1286 l 7347 1315 l 7351 1342 l 7355 1369 l 7360 1396 l
 7364 1422 l 7370 1448 l 7375 1475 l 7381 1503 l 7388 1531 l
 7394 1560 l 7402 1588 l 7409 1617 l 7417 1647 l 7425 1676 l
 7434 1706 l 7443 1736 l 7453 1766 l 7462 1796 l 7472 1826 l
 7482 1855 l 7492 1884 l 7503 1912 l 7513 1940 l 7523 1966 l
 7533 1992 l 7544 2016 l 7554 2040 l 7563 2063 l 7573 2085 l
 7583 2106 l 7592 2126 l 7602 2145 l 7614 2169 l 7627 2193 l
 7640 2216 l 7653 2238 l 7666 2261 l 7680 2283 l 7695 2304 l
 7709 2325 l 7724 2346 l 7739 2366 l 7754 2385 l 7770 2404 l
 7785 2421 l 7800 2438 l 7815 2454 l 7830 2470 l 7844 2484 l
 7859 2498 l 7873 2512 l 7888 2525 l 7901 2537 l 7914 2549 l
 7929 2561 l 7943 2573 l 7959 2585 l 7975 2597 l 7992 2609 l
 8009 2622 l 8028 2635 l 8047 2647 l 8067 2660 l 8087 2672 l
 8109 2684 l 8130 2696 l 8152 2708 l 8175 2719 l 8197 2730 l
 8220 2741 l 8244 2751 l 8267 2761 l 8292 2771 l 8317 2780 l
 8338 2788 l 8361 2796 l 8384 2804 l 8409 2812 l 8434 2819 l
 8460 2827 l 8488 2835 l 8516 2843 l 8546 2851 l 8576 2859 l
 8607 2867 l 8639 2875 l 8671 2883 l 8704 2890 l 8737 2897 l
 8770 2905 l 8802 2911 l 8835 2918 l 8867 2924 l 8899 2930 l
 8930 2936 l 8961 2941 l 8991 2946 l 9021 2951 l 9051 2956 l
 9080 2960 l 9107 2964 l 9135 2968 l 9162 2971 l 9190 2975 l
 9218 2978 l 9247 2981 l 9276 2984 l 9306 2987 l 9335 2990 l
 9366 2993 l 9396 2996 l 9427 2999 l 9458 3002 l 9489 3004 l
 9520 3006 l 9550 3009 l 9581 3011 l 9611 3013 l 9640 3015 l
 9669 3017 l 9698 3019 l 9726 3021 l 9753 3022 l 9780 3024 l
 9806 3026 l 9832 3027 l 9857 3029 l 9882 3030 l 9909 3032 l
 9936 3033 l 9963 3035 l 9991 3036 l 10019 3038 l 10049 3040 l
 10080 3042 l 10112 3044 l 10146 3046 l 10182 3048 l 10220 3050 l
 10260 3053 l 10301 3055 l 10343 3058 l 10385 3061 l 10426 3063 l
 10465 3066 l 10502 3068 l 10534 3070 l 10561 3072 l 10583 3073 l
 10598 3074 l 10609 3074 l 10614 3075 l
 10617 3075 l gs col10 s gr 
% Polyline
n 8010 3375 m 8012 3373 l 8016 3369 l 8024 3361 l 8036 3349 l 8053 3333 l
 8073 3313 l 8096 3290 l 8122 3264 l 8150 3237 l 8178 3210 l
 8206 3183 l 8233 3156 l 8260 3131 l 8285 3107 l 8308 3085 l
 8330 3064 l 8351 3044 l 8371 3026 l 8390 3009 l 8408 2993 l
 8425 2977 l 8443 2962 l 8460 2948 l 8477 2933 l 8495 2919 l
 8512 2904 l 8530 2890 l 8549 2875 l 8568 2861 l 8587 2846 l
 8607 2831 l 8627 2816 l 8648 2802 l 8669 2787 l 8690 2773 l
 8712 2758 l 8733 2744 l 8755 2731 l 8777 2717 l 8799 2704 l
 8820 2692 l 8841 2680 l 8863 2668 l 8884 2657 l 8905 2646 l
 8926 2635 l 8948 2625 l 8969 2615 l 8991 2605 l 9014 2594 l
 9038 2584 l 9062 2574 l 9087 2564 l 9113 2553 l 9139 2543 l
 9166 2533 l 9194 2523 l 9222 2513 l 9251 2503 l 9279 2493 l
 9308 2484 l 9336 2474 l 9364 2465 l 9391 2457 l 9419 2449 l
 9445 2441 l 9471 2434 l 9496 2427 l 9521 2420 l 9546 2414 l
 9570 2408 l 9594 2402 l 9618 2396 l 9642 2390 l 9667 2385 l
 9692 2379 l 9717 2374 l 9743 2369 l 9770 2364 l 9796 2358 l
 9823 2354 l 9850 2349 l 9878 2344 l 9905 2340 l 9932 2335 l
 9959 2331 l 9985 2327 l 10012 2324 l 10038 2320 l 10063 2317 l
 10088 2314 l 10113 2311 l 10137 2308 l 10161 2305 l 10185 2303 l
 10209 2300 l 10234 2297 l 10259 2295 l 10285 2293 l 10312 2290 l
 10340 2288 l 10371 2285 l 10403 2282 l 10438 2280 l 10474 2277 l
 10513 2274 l 10553 2271 l 10595 2268 l 10637 2265 l 10678 2262 l
 10716 2259 l 10751 2257 l 10781 2254 l 10805 2253 l 10823 2251 l
 10835 2251 l 10842 2250 l
 10845 2250 l gs col40 s gr 
% Polyline
7.500 slw
 [60] 0 sd
n 7515 450 m 7517 450 l 7522 450 l 7532 450 l 7547 450 l 7568 450 l
 7595 450 l 7628 451 l 7667 451 l 7711 451 l 7759 451 l
 7810 452 l 7864 452 l 7918 453 l 7973 453 l 8026 454 l
 8079 455 l 8130 455 l 8178 456 l 8225 457 l 8269 458 l
 8310 459 l 8350 460 l 8387 461 l 8421 462 l 8455 463 l
 8486 464 l 8516 466 l 8545 467 l 8572 469 l 8599 471 l
 8625 473 l 8656 475 l 8687 478 l 8717 481 l 8747 484 l
 8777 487 l 8807 491 l 8837 495 l 8866 500 l 8896 505 l
 8925 510 l 8954 516 l 8983 522 l 9011 528 l 9039 535 l
 9067 542 l 9094 549 l 9121 557 l 9147 565 l 9172 573 l
 9197 581 l 9221 590 l 9245 599 l 9268 608 l 9292 618 l
 9315 627 l 9338 638 l 9361 648 l 9384 659 l 9408 671 l
 9432 683 l 9457 695 l 9482 709 l 9508 722 l 9534 737 l
 9560 752 l 9587 767 l 9614 783 l 9641 799 l 9668 815 l
 9694 832 l 9720 848 l 9746 865 l 9771 882 l 9795 898 l
 9819 914 l 9842 930 l 9864 946 l 9884 961 l 9905 976 l
 9924 991 l 9942 1006 l 9960 1020 l 9980 1037 l 10000 1054 l
 10019 1071 l 10038 1088 l 10056 1106 l 10074 1124 l 10092 1143 l
 10109 1162 l 10126 1182 l 10143 1203 l 10159 1223 l 10174 1245 l
 10189 1266 l 10203 1288 l 10217 1310 l 10230 1332 l 10242 1354 l
 10254 1377 l 10266 1400 l 10277 1423 l 10287 1446 l 10298 1470 l
 10306 1491 l 10315 1513 l 10324 1535 l 10332 1558 l 10341 1583 l
 10350 1608 l 10359 1634 l 10368 1662 l 10377 1690 l 10386 1719 l
 10395 1748 l 10404 1779 l 10413 1809 l 10422 1840 l 10431 1872 l
 10439 1903 l 10447 1934 l 10455 1965 l 10463 1995 l 10470 2026 l
 10477 2055 l 10483 2084 l 10490 2113 l 10496 2142 l 10502 2170 l
 10508 2198 l 10513 2225 l 10518 2253 l 10523 2281 l 10529 2310 l
 10534 2340 l 10539 2371 l 10544 2403 l 10549 2437 l 10554 2473 l
 10560 2511 l 10565 2550 l 10571 2592 l 10577 2635 l 10583 2680 l
 10589 2724 l 10594 2768 l 10600 2809 l 10605 2848 l 10609 2882 l
 10613 2911 l 10615 2934 l 10618 2950 l 10619 2961 l 10620 2967 l

 10620 2970 l gs col4 s gr  [] 0 sd
% Polyline
 [60] 0 sd
n 8230 3401 m 8231 3400 l 8233 3398 l 8237 3394 l 8242 3388 l 8250 3381 l
 8260 3370 l 8273 3358 l 8287 3344 l 8303 3329 l 8321 3312 l
 8340 3294 l 8360 3275 l 8382 3255 l 8404 3235 l 8428 3214 l
 8453 3192 l 8480 3170 l 8509 3147 l 8539 3122 l 8573 3097 l
 8608 3070 l 8646 3043 l 8685 3015 l 8728 2986 l 8768 2959 l
 8804 2936 l 8835 2916 l 8861 2900 l 8881 2888 l 8897 2878 l
 8908 2871 l 8917 2866 l 8924 2862 l 8929 2859 l 8935 2856 l
 8942 2853 l 8950 2848 l 8962 2843 l 8978 2835 l 8999 2825 l
 9025 2813 l 9057 2799 l 9094 2782 l 9136 2764 l 9180 2745 l
 9224 2727 l 9266 2712 l 9303 2698 l 9335 2687 l 9360 2679 l
 9380 2672 l 9395 2668 l 9406 2665 l 9414 2664 l 9419 2663 l
 9424 2662 l 9428 2662 l 9434 2662 l 9442 2661 l 9453 2659 l
 9468 2656 l 9489 2652 l 9515 2646 l 9547 2639 l 9585 2630 l
 9629 2620 l 9675 2610 l 9722 2600 l 9766 2591 l 9805 2583 l
 9838 2576 l 9865 2570 l 9887 2566 l 9903 2562 l 9914 2559 l
 9923 2557 l 9929 2555 l 9934 2554 l 9939 2552 l 9945 2551 l
 9954 2549 l 9966 2547 l 9984 2544 l 10006 2541 l 10035 2538 l
 10072 2534 l 10114 2529 l 10163 2524 l 10215 2520 l 10264 2517 l
 10311 2514 l 10357 2512 l 10401 2510 l 10442 2509 l 10481 2509 l
 10517 2508 l 10552 2509 l 10586 2509 l 10618 2510 l 10649 2511 l
 10679 2512 l 10707 2513 l 10734 2514 l 10758 2515 l 10780 2516 l
 10798 2517 l 10814 2518 l 10826 2519 l 10835 2519 l 10840 2520 l
 10844 2520 l
 10845 2520 l gs col40 s gr  [] 0 sd
% Polyline
 [60] 0 sd
n 7110 632 m 7110 634 l 7111 640 l 7112 649 l 7113 664 l 7115 685 l
 7118 712 l 7121 744 l 7125 782 l 7129 824 l 7134 870 l
 7139 918 l 7144 967 l 7149 1017 l 7155 1066 l 7160 1114 l
 7165 1161 l 7171 1206 l 7176 1248 l 7181 1289 l 7186 1327 l
 7191 1363 l 7195 1397 l 7200 1430 l 7205 1461 l 7210 1491 l
 7215 1520 l 7220 1549 l 7225 1576 l 7231 1604 l 7237 1635 l
 7244 1666 l 7251 1697 l 7259 1728 l 7266 1759 l 7274 1791 l
 7283 1823 l 7292 1854 l 7301 1886 l 7310 1918 l 7320 1949 l
 7330 1981 l 7340 2011 l 7350 2042 l 7361 2071 l 7371 2100 l
 7382 2128 l 7392 2155 l 7402 2181 l 7412 2206 l 7423 2230 l
 7432 2253 l 7442 2275 l 7452 2296 l 7461 2316 l 7471 2335 l
 7482 2357 l 7494 2379 l 7505 2400 l 7517 2420 l 7530 2441 l
 7542 2461 l 7556 2481 l 7569 2500 l 7584 2520 l 7598 2539 l
 7613 2557 l 7629 2575 l 7644 2593 l 7660 2609 l 7676 2626 l
 7692 2641 l 7709 2656 l 7725 2671 l 7742 2685 l 7759 2699 l
 7776 2712 l 7794 2725 l 7810 2737 l 7827 2749 l 7845 2761 l
 7864 2774 l 7883 2786 l 7904 2799 l 7925 2812 l 7947 2825 l
 7970 2839 l 7993 2852 l 8017 2865 l 8042 2878 l 8067 2891 l
 8092 2904 l 8117 2917 l 8142 2929 l 8167 2940 l 8191 2952 l
 8216 2962 l 8240 2973 l 8264 2983 l 8287 2992 l 8310 3001 l
 8334 3010 l 8357 3018 l 8380 3027 l 8404 3035 l 8429 3043 l
 8454 3051 l 8480 3058 l 8506 3066 l 8533 3073 l 8561 3081 l
 8589 3088 l 8617 3095 l 8646 3101 l 8675 3108 l 8705 3114 l
 8734 3120 l 8763 3125 l 8792 3131 l 8820 3136 l 8848 3140 l
 8876 3145 l 8904 3149 l 8931 3153 l 8959 3156 l 8986 3160 l
 9010 3163 l 9034 3166 l 9058 3168 l 9083 3171 l 9109 3174 l
 9135 3176 l 9162 3179 l 9190 3181 l 9218 3184 l 9247 3186 l
 9276 3188 l 9306 3191 l 9337 3193 l 9367 3195 l 9398 3197 l
 9429 3199 l 9460 3201 l 9490 3202 l 9521 3204 l 9551 3206 l
 9581 3207 l 9610 3209 l 9639 3210 l 9668 3211 l 9697 3213 l
 9725 3214 l 9753 3215 l 9781 3216 l 9809 3217 l 9837 3218 l
 9866 3219 l 9895 3220 l 9926 3221 l 9957 3222 l 9990 3224 l
 10025 3225 l 10062 3226 l 10101 3227 l 10142 3228 l 10184 3229 l
 10229 3230 l 10276 3232 l 10323 3233 l 10371 3234 l 10418 3236 l
 10464 3237 l 10507 3238 l 10546 3239 l 10580 3240 l 10608 3241 l
 10630 3241 l 10646 3242 l 10657 3242 l 10662 3242 l
 10665 3242 l gs col10 s gr  [] 0 sd
/Helvetica-iso ff 174.63 scf sf
1642 1573 m
gs 1 -1 sc (S) col0 sh gr
/Helvetica-iso ff 174.63 scf sf
2888 1555 m
gs 1 -1 sc (A) col0 sh gr
/Helvetica-iso ff 174.63 scf sf
4049 1565 m
gs 1 -1 sc (B) col0 sh gr
/Helvetica-iso ff 174.63 scf sf
5211 1565 m
gs 1 -1 sc (P) col0 sh gr
/Helvetica-iso ff 158.75 scf sf
4197 866 m
gs 1 -1 sc (Flux benefit) col10 sh gr
/Helvetica-iso ff 158.75 scf sf
4512 3263 m
gs 1 -1 sc (Enzyme cost) col4 sh gr
/Helvetica-iso ff 158.75 scf sf
1957 2713 m
gs 1 -1 sc (Enzyme 1) col0 sh gr
/Helvetica-iso ff 158.75 scf sf
3097 2713 m
gs 1 -1 sc (Enzyme 2) col0 sh gr
/Helvetica-iso ff 158.75 scf sf
4316 2713 m
gs 1 -1 sc (Enzyme  3) col0 sh gr
/Helvetica-iso ff 158.75 scf sf
7650 1935 m
gs 1 -1 sc (flux) col10 sh gr
/Helvetica-iso ff 158.75 scf sf
7650 1755 m
gs 1 -1 sc (Higher) col10 sh gr
/Helvetica-iso ff 158.75 scf sf
8370 1890 m
gs 1 -1 sc (pathway) col0 sh gr
/Helvetica-iso ff 158.75 scf sf
8370 1665 m
gs 1 -1 sc (Balanced) col0 sh gr
/Helvetica-iso ff 158.75 scf sf
7965 1125 m
gs 1 -1 sc (protein cost) col4 sh gr
/Helvetica-iso ff 158.75 scf sf
7965 945 m
gs 1 -1 sc (Lower) col4 sh gr
/Helvetica-iso ff 190.50 scf sf
8235 3690 m
gs 1 -1 sc (Enzyme 1 \(log-concentration\)) col0 sh gr
/Helvetica-iso ff 190.50 scf sf
6705 3060 m
gs 1 -1 sc  90.0 rot (Enzyme 2 \(log-concentration\)) col0 sh gr
/Helvetica-iso ff 158.75 scf sf
2430 855 m
gs 1 -1 sc (Metabolite cost) col40 sh gr
/Helvetica-iso ff 158.75 scf sf
8955 2115 m
gs 1 -1 sc (Lower metabolite) col40 sh gr
/Helvetica-iso ff 158.75 scf sf
8955 2295 m
gs 1 -1 sc (accumulation) col40 sh gr
% here ends figure;
pagefooter
showpage
%%Trailer
%EOF
