%!PS-Adobe-3.0 EPSF-3.0
%%Title: fermentation_respiration_simple.fig
%%Creator: fig2dev Version 3.2.6a
%%CreationDate: 2019-03-30 16:18:13
%%BoundingBox: 0 0 413 159
%Magnification: 1.0000
%%EndComments
%%BeginProlog
/$F2psDict 200 dict def
$F2psDict begin
$F2psDict /mtrx matrix put
/col-1 {0 setgray} bind def
/col0 {0.000 0.000 0.000 srgb} bind def
/col1 {0.000 0.000 1.000 srgb} bind def
/col4 {1.000 0.000 0.000 srgb} bind def
/col7 {1.000 1.000 1.000 srgb} bind def

end

/cp {closepath} bind def
/ef {eofill} bind def
/gr {grestore} bind def
/gs {gsave} bind def
/sa {save} bind def
/rs {restore} bind def
/l {lineto} bind def
/m {moveto} bind def
/rm {rmoveto} bind def
/n {newpath} bind def
/s {stroke} bind def
/sh {show} bind def
/slc {setlinecap} bind def
/slj {setlinejoin} bind def
/slw {setlinewidth} bind def
/srgb {setrgbcolor} bind def
/rot {rotate} bind def
/sc {scale} bind def
/sd {setdash} bind def
/ff {findfont} bind def
/sf {setfont} bind def
/scf {scalefont} bind def
/sw {stringwidth} bind def
/tr {translate} bind def
/tnt {dup dup currentrgbcolor
  4 -2 roll dup 1 exch sub 3 -1 roll mul add
  4 -2 roll dup 1 exch sub 3 -1 roll mul add
  4 -2 roll dup 1 exch sub 3 -1 roll mul add srgb}
  bind def
/shd {dup dup currentrgbcolor 4 -2 roll mul 4 -2 roll mul
  4 -2 roll mul srgb} bind def
/$F2psBegin {$F2psDict begin /$F2psEnteredState save def} def
/$F2psEnd {$F2psEnteredState restore end} def

/pageheader {
save
newpath 0 159 moveto 0 0 lineto 413 0 lineto 413 159 lineto closepath clip newpath
-35.9 185.2 translate
1 -1 scale
$F2psBegin
10 setmiterlimit
0 slj 0 slc
 0.06299 0.06299 sc
} bind def
/pagefooter {
$F2psEnd
restore
} bind def
%%EndProlog
pageheader
%
% Fig objects follow
%
% 
% here starts figure with depth 50
% Polyline
0 slj
0 slc
7.500 slw
n 1215 630 m
 1215 1395 l gs col0 s gr 
% Polyline
15.000 slw
gs  clippath
2126 1475 m 2126 1496 l 1923 1545 l 1923 1425 l cp
eoclip
n 1260 1485 m
 2115 1485 l gs col0 s gr gr

% arrowhead
7.500 slw
n 1923 1545 m 2103 1485 l 1923 1425 l 1923 1545 l  cp gs 0.00 setgray ef gr  col0 s
% Polyline
15.000 slw
gs  clippath
1226 2621 m 1205 2621 l 1155 2418 l 1275 2418 l cp
eoclip
n 1215 1575 m
 1215 2610 l gs col0 s gr gr

% arrowhead
7.500 slw
n 1155 2418 m 1215 2598 l 1275 2418 l 1155 2418 l  cp gs 0.00 setgray ef gr  col0 s
% Polyline
15.000 slw
gs  clippath
4421 2531 m 4400 2531 l 4350 2328 l 4470 2328 l cp
eoclip
n 4410 720 m
 4410 2520 l gs col4 s gr gr

% arrowhead
7.500 slw
n 4350 2328 m 4410 2508 l 4470 2328 l 4350 2328 l  cp gs col4 1.00 shd ef gr  col4 s
% Polyline
2 slj
15.000 slw
gs  clippath
1630 1069 m 1631 1090 l 1430 1146 l 1426 1026 l cp
eoclip
n 1215 855 m 1214 857 l 1213 860 l 1210 866 l 1207 875 l 1204 886 l
 1200 899 l 1197 913 l 1195 927 l 1194 942 l 1196 958 l
 1200 973 l 1208 989 l 1220 1004 l 1237 1020 l 1260 1035 l
 1284 1047 l 1310 1056 l 1337 1064 l 1364 1070 l 1392 1074 l
 1419 1077 l 1447 1079 l 1474 1081 l 1500 1081 l 1526 1082 l
 1550 1082 l 1571 1081 l 1589 1081 l
 1620 1080 l gs col0 s gr gr

% arrowhead
0 slj
7.500 slw
n 1430 1146 m 1608 1080 l 1426 1026 l 1430 1146 l  cp gs 0.00 setgray ef gr  col0 s
% Polyline
2 slj
15.000 slw
n 945 1710 m 947 1709 l 951 1706 l 958 1702 l 968 1698 l 979 1693 l
 991 1689 l 1005 1687 l 1021 1687 l 1038 1690 l 1058 1698 l
 1080 1710 l 1099 1724 l 1116 1741 l 1132 1758 l 1146 1775 l
 1159 1793 l 1171 1810 l 1181 1828 l 1191 1845 l 1199 1860 l
 1206 1873 l 1211 1882 l 1214 1887 l
 1215 1890 l gs col0 s gr 
% Polyline
gs  clippath
1632 2421 m 1629 2442 l 1421 2462 l 1438 2343 l cp
eoclip
n 1215 2115 m 1216 2117 l 1218 2121 l 1222 2128 l 1228 2139 l 1236 2152 l
 1245 2167 l 1256 2184 l 1267 2202 l 1280 2220 l 1294 2239 l
 1310 2258 l 1328 2278 l 1348 2299 l 1370 2320 l 1395 2340 l
 1424 2361 l 1451 2378 l 1476 2391 l 1499 2402 l 1521 2409 l
 1541 2416 l 1560 2420 l 1577 2424 l 1592 2426 l
 1620 2430 l gs col0 s gr gr

% arrowhead
0 slj
7.500 slw
n 1421 2462 m 1608 2428 l 1438 2343 l 1421 2462 l  cp gs 0.00 setgray ef gr  col0 s
% Polyline
2 slj
15.000 slw
gs  clippath
5456 1565 m 5455 1586 l 5251 1631 l 5254 1511 l cp
eoclip
n 4545 720 m 4545 723 l 4546 730 l 4547 743 l 4549 762 l 4551 788 l
 4554 818 l 4558 853 l 4562 890 l 4566 928 l 4570 966 l
 4574 1002 l 4578 1037 l 4583 1069 l 4587 1099 l 4591 1126 l
 4595 1151 l 4600 1174 l 4605 1195 l 4609 1215 l 4615 1234 l
 4620 1253 l 4626 1272 l 4633 1291 l 4641 1309 l 4649 1327 l
 4658 1345 l 4668 1362 l 4679 1379 l 4690 1395 l 4703 1411 l
 4716 1426 l 4730 1441 l 4745 1455 l 4760 1467 l 4776 1479 l
 4793 1490 l 4810 1499 l 4827 1508 l 4845 1516 l 4863 1523 l
 4883 1530 l 4901 1535 l 4920 1540 l 4940 1545 l 4962 1549 l
 4986 1552 l 5013 1555 l 5041 1558 l 5073 1561 l 5107 1563 l
 5143 1565 l 5182 1567 l 5222 1569 l 5263 1570 l 5303 1572 l
 5340 1573 l 5372 1574 l 5400 1574 l
 5445 1575 l gs col1 s gr gr

% arrowhead
0 slj
7.500 slw
n 5251 1631 m 5433 1575 l 5254 1511 l 5251 1631 l  cp gs col1 1.00 shd ef gr  col1 s
/Times-Roman ff 190.50 scf sf
765 1980 m
gs 1 -1 sc (2) col0 sh gr
/Helvetica ff 190.50 scf sf
990 585 m
gs 1 -1 sc (Glucose) col0 sh gr
/Helvetica ff 190.50 scf sf
1710 1080 m
gs 1 -1 sc (2 ATP) col0 sh gr
/Helvetica ff 190.50 scf sf
585 1890 m
gs 1 -1 sc (O) col0 sh gr
/Helvetica ff 190.50 scf sf
1710 2475 m
gs 1 -1 sc (16 ATP) col0 sh gr
/Helvetica ff 190.50 scf sf
1035 2835 m
gs 1 -1 sc (CO) col0 sh gr
/Helvetica ff 190.50 scf sf
1395 2925 m
gs 1 -1 sc (2) col0 sh gr
/Helvetica ff 190.50 scf sf
2205 1575 m
gs 1 -1 sc (Ethanol / Lactate) col0 sh gr
/Helvetica ff 190.50 scf sf
4320 585 m
gs 1 -1 sc (Glucose) col0 sh gr
/Helvetica ff 190.50 scf sf
4365 2835 m
gs 1 -1 sc (CO) col0 sh gr
/Helvetica ff 190.50 scf sf
4725 2925 m
gs 1 -1 sc (2) col0 sh gr
/Helvetica ff 190.50 scf sf
5580 1665 m
gs 1 -1 sc (Ethanol / Lactate) col0 sh gr
/Helvetica ff 190.50 scf sf
4815 1080 m
gs 1 -1 sc (Fermentation:) col1 sh gr
/Helvetica ff 190.50 scf sf
4635 2070 m
gs 1 -1 sc (Respiration:) col4 sh gr
/Helvetica ff 190.50 scf sf
4815 1320 m
gs 1 -1 sc (low ATP yield) col1 sh gr
/Helvetica ff 190.50 scf sf
4635 2310 m
gs 1 -1 sc (high ATP yield) col4 sh gr
% here ends figure;
pagefooter
showpage
%%Trailer
%EOF
