%!PS-Adobe-3.0 EPSF-3.0
%%Title: metabolic_state_manifold.fig
%%Creator: fig2dev Version 3.2 Patchlevel 5e
%%CreationDate: Sat Nov 24 14:32:03 2018
%%BoundingBox: 0 0 492 262
%Magnification: 1.0000
%%EndComments
%%BeginProlog
/$F2psDict 200 dict def
$F2psDict begin
$F2psDict /mtrx matrix put
/col-1 {0 setgray} bind def
/col0 {0.000 0.000 0.000 srgb} bind def
/col1 {0.000 0.000 1.000 srgb} bind def
/col2 {0.000 1.000 0.000 srgb} bind def
/col3 {0.000 1.000 1.000 srgb} bind def
/col4 {1.000 0.000 0.000 srgb} bind def
/col5 {1.000 0.000 1.000 srgb} bind def
/col6 {1.000 1.000 0.000 srgb} bind def
/col7 {1.000 1.000 1.000 srgb} bind def
/col8 {0.000 0.000 0.560 srgb} bind def
/col9 {0.000 0.000 0.690 srgb} bind def
/col10 {0.000 0.000 0.820 srgb} bind def
/col11 {0.530 0.810 1.000 srgb} bind def
/col12 {0.000 0.560 0.000 srgb} bind def
/col13 {0.000 0.690 0.000 srgb} bind def
/col14 {0.000 0.820 0.000 srgb} bind def
/col15 {0.000 0.560 0.560 srgb} bind def
/col16 {0.000 0.690 0.690 srgb} bind def
/col17 {0.000 0.820 0.820 srgb} bind def
/col18 {0.560 0.000 0.000 srgb} bind def
/col19 {0.690 0.000 0.000 srgb} bind def
/col20 {0.820 0.000 0.000 srgb} bind def
/col21 {0.560 0.000 0.560 srgb} bind def
/col22 {0.690 0.000 0.690 srgb} bind def
/col23 {0.820 0.000 0.820 srgb} bind def
/col24 {0.500 0.190 0.000 srgb} bind def
/col25 {0.630 0.250 0.000 srgb} bind def
/col26 {0.750 0.380 0.000 srgb} bind def
/col27 {1.000 0.500 0.500 srgb} bind def
/col28 {1.000 0.630 0.630 srgb} bind def
/col29 {1.000 0.750 0.750 srgb} bind def
/col30 {1.000 0.880 0.880 srgb} bind def
/col31 {1.000 0.840 0.000 srgb} bind def
/col32 {0.867 0.867 0.867 srgb} bind def
/col33 {0.733 0.733 1.000 srgb} bind def
/col34 {0.267 0.267 1.000 srgb} bind def
/col35 {1.000 0.800 0.800 srgb} bind def
/col36 {1.000 0.267 0.267 srgb} bind def
/col37 {0.957 0.937 0.918 srgb} bind def

end

/cp {closepath} bind def
/ef {eofill} bind def
/gr {grestore} bind def
/gs {gsave} bind def
/sa {save} bind def
/rs {restore} bind def
/l {lineto} bind def
/m {moveto} bind def
/rm {rmoveto} bind def
/n {newpath} bind def
/s {stroke} bind def
/sh {show} bind def
/slc {setlinecap} bind def
/slj {setlinejoin} bind def
/slw {setlinewidth} bind def
/srgb {setrgbcolor} bind def
/rot {rotate} bind def
/sc {scale} bind def
/sd {setdash} bind def
/ff {findfont} bind def
/sf {setfont} bind def
/scf {scalefont} bind def
/sw {stringwidth} bind def
/tr {translate} bind def
/tnt {dup dup currentrgbcolor
  4 -2 roll dup 1 exch sub 3 -1 roll mul add
  4 -2 roll dup 1 exch sub 3 -1 roll mul add
  4 -2 roll dup 1 exch sub 3 -1 roll mul add srgb}
  bind def
/shd {dup dup currentrgbcolor 4 -2 roll mul 4 -2 roll mul
  4 -2 roll mul srgb} bind def
 /DrawEllipse {
	/endangle exch def
	/startangle exch def
	/yrad exch def
	/xrad exch def
	/y exch def
	/x exch def
	/savematrix mtrx currentmatrix def
	x y tr xrad yrad sc 0 0 1 startangle endangle arc
	closepath
	savematrix setmatrix
	} def

/$F2psBegin {$F2psDict begin /$F2psEnteredState save def} def
/$F2psEnd {$F2psEnteredState restore end} def

/pageheader {
save
newpath 0 262 moveto 0 0 lineto 492 0 lineto 492 262 lineto closepath clip newpath
127.9 375.7 translate
1 -1 scale
$F2psBegin
10 setmiterlimit
0 slj 0 slc
 0.06299 0.06299 sc
} bind def
/pagefooter {
$F2psEnd
restore
} bind def
%%EndProlog
pageheader
%
% Fig objects follow
%
% 
% here starts figure with depth 100
% Polyline
0 slj
0 slc
7.500 slw
n -920 4583 m 807 5129 l 2454 4290 l 855 3825 l
 cp gs col33 1.00 shd ef gr gs col33 s gr 
% Polyline
n 2487 4283 m 4126 4765 l 5348 4005 l 3863 3600 l
 cp gs col35 1.00 shd ef gr gs col35 s gr 
% Polyline
n 799 5174 m 2611 5796 l 4135 4806 l 2476 4311 l
 cp gs col37 1.00 shd ef gr gs col37 s gr 
% Polyline
n 902 3802 m 2477 4252 l 3872 3577 l 2297 3262 l
 cp gs col37 1.00 shd ef gr gs col37 s gr 
% here ends figure;
% 
% here starts figure with depth 50
% Ellipse
7.500 slw
n -1018 2311 127 127 0 360 DrawEllipse gs col0 s gr

% Ellipse
n 914 2300 127 127 0 360 DrawEllipse gs col0 s gr

% Ellipse
n 62 2806 298 140 0 360 DrawEllipse gs col0 s gr

% Polyline
0 slj
0 slc
 [60] 0 sd
n 801 5129 m
 800 3390 l gs col0 s gr  [] 0 sd
% Polyline
gs  clippath
5490 4123 m 5616 4039 l 5582 3989 l 5456 4073 l 5456 4073 l 5573 4032 l 5490 4123 l cp
eoclip
n 3034 5736 m
 5587 4023 l gs col0 s gr gr

% arrowhead
n 5490 4123 m 5573 4032 l 5456 4073 l  col0 s
% Polyline
gs  clippath
2048 5806 m 2192 5855 l 2211 5798 l 2067 5750 l 2067 5750 l 2172 5817 l 2048 5806 l cp
eoclip
n -745 4829 m
 2188 5822 l gs col0 s gr gr

% arrowhead
n 2048 5806 m 2172 5817 l 2067 5750 l  col0 s
% Polyline
 [60] 0 sd
n 3847 3582 m
 3847 1962 l gs col0 s gr  [] 0 sd
% Polyline
n 787 3470 m 1603 3127 l
 2468 2671 l gs col34 s gr 
% Polyline
gs  clippath
2497 2486 m 2496 2334 l 2436 2335 l 2437 2487 l 2437 2487 l 2467 2367 l 2497 2486 l cp
eoclip
n 2474 4290 m
 2467 2350 l gs col0 s gr gr

% arrowhead
n 2497 2486 m 2467 2367 l 2437 2487 l  col0 s
% Polyline
n -932 4579 m
 594 3930 l gs col34 s gr 
% Polyline
15.000 slw
n 2520 4320 m
 3870 2160 l gs col36 s gr 
% Polyline
7.500 slw
n 2480 2657 m 3118 2337 l 3503 2166 l
 3864 2027 l gs col36 s gr 
% Polyline
15.000 slw
n 2745 4365 m
 3960 2835 l gs col36 s gr 
% Polyline
n 2925 4410 m
 4095 3330 l gs col36 s gr 
% Polyline
n 3240 4500 m
 4455 3690 l gs col36 s gr 
% Polyline
n 3690 4635 m
 5040 3870 l gs col36 s gr 
% Polyline
7.500 slw
n 790 5136 m 798 5136 l gs col0 s gr
% Polyline
n 2475 4275 m
 4095 4770 l gs col36 s gr 
% Polyline
n 900 3825 m
 2514 4292 l gs col34 s gr 
% Polyline
gs  clippath
600 2341 m 752 2341 l 752 2281 l 600 2281 l 600 2281 l 720 2311 l 600 2341 l cp
eoclip
n -748 2311 m
 737 2311 l gs col0 s gr gr

% arrowhead
n 600 2341 m 720 2311 l 600 2281 l  col0 s
% Polyline
gs  clippath
92 2526 m 92 2341 l 32 2341 l 32 2526 l 32 2526 l 62 2376 l 92 2526 l cp
eoclip
n 62 2626 m
 62 2356 l gs col0 s gr gr

% arrowhead
n 92 2526 m 62 2376 l 32 2526 l 62 2496 l 92 2526 l 
 cp gs col7 1.00 shd ef gr  col0 s
% Polyline
2 slj
n 2165 4271 m
 2477 4236 l gs col1 s gr 
% Polyline
n 2361 4263 m
 2470 4277 l gs col1 s gr 
% Polyline
n 2467 2586 m 2465 2587 l 2459 2590 l 2450 2595 l 2435 2603 l 2415 2614 l
 2389 2627 l 2359 2643 l 2326 2661 l 2289 2681 l 2251 2701 l
 2212 2722 l 2173 2742 l 2136 2762 l 2099 2781 l 2065 2799 l
 2032 2816 l 2002 2832 l 1973 2848 l 1945 2862 l 1919 2875 l
 1895 2888 l 1871 2900 l 1848 2912 l 1825 2924 l 1803 2935 l
 1778 2947 l 1754 2959 l 1730 2971 l 1705 2983 l 1680 2995 l
 1655 3008 l 1630 3020 l 1604 3032 l 1578 3045 l 1552 3057 l
 1526 3069 l 1500 3082 l 1474 3094 l 1449 3105 l 1424 3117 l
 1400 3128 l 1376 3139 l 1353 3149 l 1331 3159 l 1310 3168 l
 1289 3177 l 1269 3186 l 1249 3195 l 1230 3203 l 1208 3213 l
 1185 3222 l 1163 3231 l 1140 3241 l 1116 3251 l 1091 3261 l
 1065 3271 l 1037 3282 l 1007 3294 l 976 3306 l 945 3318 l
 913 3330 l 883 3342 l 856 3352 l 833 3361 l 816 3368 l
 804 3372 l 797 3375 l
 794 3376 l gs col34 s gr 
% Polyline
n 754 3570 m 756 3569 l 762 3567 l 772 3564 l 787 3558 l 807 3551 l
 833 3541 l 864 3530 l 899 3517 l 936 3504 l 975 3489 l
 1015 3475 l 1055 3460 l 1094 3446 l 1131 3432 l 1166 3418 l
 1200 3406 l 1232 3394 l 1262 3382 l 1290 3371 l 1317 3360 l
 1343 3350 l 1368 3340 l 1393 3330 l 1417 3320 l 1440 3310 l
 1464 3299 l 1488 3289 l 1512 3279 l 1536 3268 l 1561 3257 l
 1586 3245 l 1611 3234 l 1637 3222 l 1662 3210 l 1688 3198 l
 1714 3185 l 1740 3173 l 1766 3160 l 1792 3148 l 1817 3136 l
 1842 3123 l 1866 3111 l 1890 3100 l 1913 3088 l 1935 3077 l
 1956 3066 l 1977 3056 l 1997 3045 l 2016 3035 l 2035 3026 l
 2054 3016 l 2077 3004 l 2100 2992 l 2122 2980 l 2145 2968 l
 2169 2956 l 2193 2943 l 2218 2929 l 2245 2914 l 2274 2899 l
 2303 2883 l 2333 2867 l 2363 2851 l 2391 2836 l 2416 2822 l
 2437 2810 l 2454 2801 l 2465 2795 l 2471 2792 l
 2474 2790 l gs col34 s gr 
% Polyline
n 720 3676 m 722 3675 l 727 3674 l 737 3671 l 751 3667 l 771 3661 l
 797 3654 l 827 3645 l 863 3635 l 901 3624 l 942 3612 l
 985 3599 l 1028 3586 l 1071 3574 l 1112 3561 l 1153 3549 l
 1191 3537 l 1228 3526 l 1262 3515 l 1295 3504 l 1326 3494 l
 1355 3484 l 1383 3475 l 1410 3465 l 1436 3456 l 1461 3447 l
 1486 3437 l 1511 3428 l 1537 3417 l 1563 3407 l 1589 3396 l
 1615 3384 l 1642 3373 l 1669 3361 l 1696 3349 l 1723 3336 l
 1750 3324 l 1777 3311 l 1804 3298 l 1831 3285 l 1858 3272 l
 1884 3259 l 1909 3246 l 1934 3233 l 1958 3221 l 1982 3209 l
 2004 3197 l 2026 3186 l 2047 3175 l 2066 3164 l 2085 3154 l
 2103 3144 l 2121 3135 l 2137 3126 l 2160 3113 l 2183 3101 l
 2204 3089 l 2225 3077 l 2247 3066 l 2268 3053 l 2291 3041 l
 2315 3027 l 2339 3014 l 2363 3000 l 2387 2987 l 2409 2974 l
 2428 2963 l 2443 2955 l 2453 2949 l 2459 2946 l
 2462 2944 l gs col34 s gr 
% Polyline
n 680 3796 m 683 3795 l 689 3794 l 701 3791 l 718 3786 l 740 3781 l
 768 3773 l 799 3765 l 833 3757 l 868 3747 l 903 3738 l
 937 3729 l 970 3720 l 1001 3712 l 1030 3704 l 1057 3696 l
 1083 3689 l 1107 3682 l 1131 3675 l 1154 3668 l 1177 3660 l
 1199 3653 l 1220 3646 l 1241 3639 l 1263 3632 l 1285 3624 l
 1307 3616 l 1331 3608 l 1354 3599 l 1379 3590 l 1404 3581 l
 1429 3571 l 1455 3561 l 1482 3551 l 1508 3540 l 1534 3530 l
 1561 3519 l 1587 3508 l 1613 3497 l 1639 3486 l 1664 3475 l
 1690 3464 l 1715 3453 l 1739 3442 l 1764 3431 l 1788 3420 l
 1811 3409 l 1834 3398 l 1858 3387 l 1882 3376 l 1908 3363 l
 1934 3350 l 1962 3337 l 1992 3322 l 2024 3306 l 2058 3289 l
 2093 3271 l 2131 3252 l 2170 3233 l 2209 3212 l 2250 3192 l
 2289 3172 l 2327 3152 l 2362 3134 l 2394 3118 l 2420 3105 l
 2441 3094 l 2456 3086 l 2466 3081 l 2472 3078 l
 2474 3077 l gs col34 s gr 
% Polyline
n 627 3930 m 629 3929 l 635 3928 l 645 3926 l 660 3922 l 681 3917 l
 707 3910 l 738 3903 l 773 3894 l 811 3885 l 850 3875 l
 890 3865 l 930 3855 l 969 3845 l 1006 3835 l 1042 3826 l
 1075 3817 l 1107 3809 l 1137 3801 l 1166 3793 l 1193 3785 l
 1218 3778 l 1243 3770 l 1267 3763 l 1291 3756 l 1314 3749 l
 1339 3740 l 1365 3732 l 1390 3724 l 1416 3715 l 1442 3705 l
 1469 3696 l 1496 3686 l 1523 3676 l 1551 3666 l 1579 3655 l
 1607 3644 l 1634 3633 l 1662 3622 l 1690 3611 l 1717 3599 l
 1743 3588 l 1769 3577 l 1794 3566 l 1819 3555 l 1843 3544 l
 1866 3534 l 1889 3523 l 1911 3512 l 1933 3502 l 1955 3491 l
 1977 3481 l 1999 3470 l 2021 3458 l 2045 3447 l 2069 3434 l
 2094 3421 l 2121 3407 l 2149 3392 l 2179 3375 l 2210 3359 l
 2242 3341 l 2275 3323 l 2309 3304 l 2341 3286 l 2372 3269 l
 2399 3254 l 2423 3241 l 2442 3230 l 2456 3222 l 2465 3217 l
 2471 3214 l
 2473 3213 l gs col34 s gr 
% Polyline
n 540 4056 m 541 4056 l 544 4055 l 549 4054 l 557 4053 l 568 4051 l
 583 4048 l 600 4045 l 620 4042 l 644 4037 l 669 4032 l
 696 4027 l 725 4022 l 755 4015 l 787 4009 l 819 4002 l
 852 3995 l 887 3987 l 923 3978 l 960 3969 l 999 3959 l
 1040 3948 l 1083 3937 l 1128 3924 l 1174 3910 l 1220 3896 l
 1273 3879 l 1322 3862 l 1366 3847 l 1402 3834 l 1431 3822 l
 1454 3813 l 1471 3805 l 1483 3799 l 1491 3794 l 1498 3790 l
 1503 3786 l 1507 3782 l 1513 3778 l 1521 3773 l 1532 3767 l
 1546 3760 l 1566 3750 l 1591 3739 l 1622 3726 l 1658 3711 l
 1698 3694 l 1740 3677 l 1785 3659 l 1827 3642 l 1862 3628 l
 1891 3617 l 1913 3609 l 1930 3603 l 1942 3599 l 1950 3596 l
 1956 3595 l 1961 3594 l 1965 3593 l 1970 3592 l 1977 3589 l
 1988 3586 l 2003 3580 l 2023 3573 l 2048 3563 l 2078 3550 l
 2112 3536 l 2149 3520 l 2189 3502 l 2226 3486 l 2260 3470 l
 2290 3456 l 2317 3443 l 2341 3431 l 2363 3420 l 2384 3409 l
 2403 3399 l 2420 3390 l 2435 3381 l 2448 3374 l 2459 3368 l
 2467 3364 l 2473 3361 l 2476 3359 l
 2477 3358 l gs col34 s gr 
% Polyline
n 450 4140 m 452 4140 l 458 4139 l 468 4137 l 482 4135 l 503 4132 l
 529 4128 l 559 4124 l 594 4118 l 631 4112 l 671 4106 l
 711 4100 l 751 4093 l 790 4086 l 828 4080 l 864 4073 l
 899 4067 l 932 4060 l 964 4054 l 994 4047 l 1024 4041 l
 1052 4034 l 1080 4027 l 1107 4020 l 1135 4013 l 1163 4005 l
 1188 3997 l 1215 3990 l 1242 3981 l 1269 3973 l 1297 3964 l
 1325 3954 l 1354 3944 l 1384 3934 l 1414 3924 l 1445 3913 l
 1476 3902 l 1507 3890 l 1538 3878 l 1570 3867 l 1601 3855 l
 1632 3843 l 1662 3831 l 1692 3819 l 1721 3807 l 1750 3795 l
 1777 3784 l 1804 3773 l 1830 3762 l 1856 3751 l 1880 3741 l
 1904 3730 l 1927 3720 l 1949 3710 l 1974 3699 l 1999 3688 l
 2023 3677 l 2047 3665 l 2072 3654 l 2096 3642 l 2122 3630 l
 2148 3617 l 2175 3603 l 2203 3589 l 2232 3574 l 2262 3559 l
 2292 3544 l 2322 3528 l 2351 3513 l 2379 3499 l 2403 3486 l
 2424 3475 l 2441 3466 l 2453 3460 l 2461 3455 l 2466 3453 l

 2468 3452 l gs col34 s gr 
% Polyline
n 367 4243 m 368 4243 l 370 4243 l 374 4243 l 380 4243 l 389 4243 l
 399 4242 l 412 4242 l 426 4241 l 443 4240 l 461 4238 l
 482 4236 l 506 4233 l 534 4230 l 566 4225 l 604 4219 l
 646 4212 l 694 4203 l 732 4196 l 768 4189 l 803 4182 l
 833 4176 l 860 4171 l 882 4167 l 900 4164 l 915 4162 l
 927 4160 l 936 4159 l 944 4158 l 951 4158 l 959 4157 l
 967 4156 l 978 4154 l 991 4152 l 1007 4148 l 1028 4143 l
 1054 4137 l 1085 4128 l 1122 4118 l 1164 4106 l 1211 4092 l
 1260 4076 l 1306 4061 l 1350 4046 l 1391 4031 l 1428 4018 l
 1459 4007 l 1486 3996 l 1509 3988 l 1527 3980 l 1541 3974 l
 1553 3969 l 1562 3965 l 1569 3961 l 1576 3957 l 1583 3954 l
 1591 3950 l 1600 3945 l 1612 3939 l 1626 3933 l 1644 3924 l
 1667 3914 l 1694 3902 l 1725 3889 l 1762 3873 l 1803 3855 l
 1848 3836 l 1894 3816 l 1944 3794 l 1992 3773 l 2037 3753 l
 2079 3735 l 2118 3717 l 2154 3701 l 2188 3685 l 2220 3671 l
 2249 3657 l 2278 3644 l 2305 3631 l 2330 3619 l 2354 3608 l
 2376 3597 l 2396 3587 l 2414 3579 l 2430 3571 l 2443 3565 l
 2452 3561 l 2460 3557 l 2464 3555 l 2467 3554 l
 2468 3553 l gs col34 s gr 
% Polyline
n 340 4276 m 343 4276 l 348 4275 l 359 4275 l 375 4273 l 398 4272 l
 426 4269 l 459 4267 l 497 4264 l 537 4260 l 580 4256 l
 624 4252 l 667 4248 l 710 4244 l 751 4240 l 790 4236 l
 828 4231 l 863 4227 l 897 4222 l 930 4218 l 961 4213 l
 991 4208 l 1020 4203 l 1049 4197 l 1078 4191 l 1107 4185 l
 1134 4179 l 1161 4173 l 1189 4166 l 1217 4159 l 1246 4151 l
 1275 4143 l 1305 4135 l 1335 4126 l 1366 4117 l 1397 4108 l
 1429 4098 l 1461 4088 l 1493 4078 l 1525 4067 l 1556 4057 l
 1588 4046 l 1619 4035 l 1649 4025 l 1679 4014 l 1709 4003 l
 1737 3993 l 1765 3983 l 1791 3972 l 1818 3962 l 1843 3952 l
 1867 3943 l 1891 3933 l 1914 3924 l 1941 3912 l 1967 3901 l
 1993 3890 l 2019 3879 l 2045 3867 l 2071 3855 l 2099 3842 l
 2128 3829 l 2157 3815 l 2189 3800 l 2221 3784 l 2254 3768 l
 2288 3751 l 2322 3734 l 2354 3718 l 2385 3702 l 2413 3688 l
 2436 3676 l 2455 3667 l 2469 3660 l 2479 3655 l 2484 3652 l

 2486 3651 l gs col34 s gr 
% Polyline
n 254 4350 m 255 4350 l 257 4350 l 262 4350 l 268 4350 l 277 4351 l
 289 4351 l 303 4351 l 319 4351 l 338 4351 l 358 4351 l
 380 4350 l 404 4350 l 430 4348 l 458 4347 l 489 4345 l
 523 4342 l 561 4339 l 602 4334 l 649 4329 l 700 4323 l
 754 4316 l 801 4309 l 848 4303 l 891 4296 l 930 4291 l
 965 4286 l 994 4282 l 1019 4279 l 1039 4276 l 1056 4275 l
 1069 4274 l 1080 4273 l 1090 4273 l 1099 4272 l 1108 4272 l
 1117 4271 l 1129 4270 l 1143 4268 l 1161 4265 l 1183 4260 l
 1210 4255 l 1242 4247 l 1280 4238 l 1323 4227 l 1372 4214 l
 1425 4199 l 1480 4183 l 1535 4166 l 1588 4148 l 1637 4131 l
 1681 4116 l 1720 4101 l 1753 4088 l 1781 4077 l 1804 4067 l
 1824 4058 l 1840 4050 l 1854 4043 l 1866 4036 l 1877 4030 l
 1887 4023 l 1899 4017 l 1911 4009 l 1926 4001 l 1943 3993 l
 1964 3982 l 1988 3971 l 2015 3958 l 2047 3943 l 2082 3928 l
 2121 3911 l 2160 3893 l 2200 3876 l 2259 3850 l 2309 3828 l
 2349 3810 l 2381 3795 l 2406 3783 l 2427 3774 l 2443 3766 l
 2455 3759 l 2465 3754 l 2473 3750 l 2478 3747 l 2482 3745 l
 2484 3743 l 2485 3742 l
 2486 3742 l gs col34 s gr 
% Polyline
n 147 4410 m 149 4410 l 155 4410 l 164 4410 l 179 4410 l 199 4410 l
 225 4409 l 256 4409 l 292 4409 l 332 4408 l 374 4408 l
 418 4407 l 462 4406 l 506 4405 l 549 4404 l 591 4403 l
 631 4401 l 669 4399 l 706 4398 l 740 4396 l 773 4394 l
 805 4391 l 835 4389 l 865 4386 l 893 4383 l 921 4379 l
 949 4376 l 977 4372 l 1005 4367 l 1033 4363 l 1061 4358 l
 1090 4352 l 1120 4347 l 1149 4341 l 1180 4334 l 1211 4327 l
 1242 4320 l 1274 4312 l 1306 4304 l 1338 4296 l 1370 4287 l
 1403 4279 l 1435 4270 l 1467 4260 l 1499 4251 l 1530 4242 l
 1560 4232 l 1590 4223 l 1620 4213 l 1648 4204 l 1676 4194 l
 1704 4185 l 1730 4175 l 1756 4166 l 1781 4157 l 1806 4147 l
 1833 4137 l 1859 4127 l 1886 4116 l 1912 4105 l 1939 4094 l
 1967 4082 l 1996 4070 l 2026 4057 l 2058 4042 l 2091 4028 l
 2126 4012 l 2162 3995 l 2199 3978 l 2237 3960 l 2275 3942 l
 2312 3925 l 2347 3908 l 2380 3892 l 2409 3879 l 2433 3867 l
 2452 3858 l 2466 3851 l 2476 3847 l 2481 3844 l
 2483 3843 l gs col34 s gr 
% Polyline
n -13 4490 m -12 4490 l -9 4490 l -4 4490 l 4 4490 l 15 4490 l
 29 4491 l 46 4491 l 65 4491 l 87 4491 l 112 4491 l
 138 4491 l 167 4491 l 197 4491 l 228 4490 l 262 4490 l
 298 4489 l 337 4487 l 378 4486 l 423 4484 l 472 4481 l
 525 4478 l 581 4474 l 640 4470 l 691 4466 l 741 4462 l
 787 4458 l 830 4455 l 868 4452 l 901 4449 l 929 4447 l
 953 4446 l 973 4445 l 989 4444 l 1003 4444 l 1014 4444 l
 1024 4444 l 1033 4444 l 1042 4444 l 1052 4444 l 1064 4444 l
 1077 4443 l 1093 4441 l 1113 4439 l 1136 4436 l 1164 4432 l
 1197 4427 l 1234 4420 l 1276 4413 l 1322 4404 l 1370 4394 l
 1420 4383 l 1477 4369 l 1530 4356 l 1578 4342 l 1619 4330 l
 1654 4319 l 1681 4310 l 1703 4301 l 1720 4294 l 1733 4288 l
 1742 4283 l 1750 4278 l 1756 4274 l 1762 4269 l 1768 4264 l
 1777 4259 l 1788 4252 l 1803 4245 l 1822 4236 l 1846 4225 l
 1875 4213 l 1909 4199 l 1948 4184 l 1990 4167 l 2034 4150 l
 2085 4130 l 2132 4112 l 2175 4095 l 2214 4080 l 2248 4066 l
 2278 4054 l 2306 4042 l 2332 4032 l 2355 4023 l 2376 4014 l
 2396 4006 l 2413 3999 l 2429 3992 l 2441 3987 l 2452 3983 l
 2459 3980 l 2464 3978 l 2467 3977 l
 2468 3976 l gs col34 s gr 
% Polyline
n 1654 4410 m 1657 4409 l 1663 4407 l 1674 4404 l 1691 4400 l 1713 4393 l
 1741 4386 l 1773 4377 l 1808 4367 l 1845 4356 l 1883 4346 l
 1920 4335 l 1956 4325 l 1991 4315 l 2023 4306 l 2052 4298 l
 2079 4290 l 2105 4283 l 2128 4277 l 2149 4271 l 2168 4265 l
 2187 4260 l 2204 4255 l 2220 4251 l 2243 4244 l 2265 4238 l
 2286 4232 l 2306 4226 l 2326 4220 l 2347 4214 l 2368 4208 l
 2390 4202 l 2412 4196 l 2432 4190 l 2451 4184 l 2466 4180 l
 2477 4177 l 2483 4175 l
 2486 4174 l gs col34 s gr 
% Polyline
n -173 4263 m -172 4263 l -168 4265 l -159 4268 l -143 4273 l -122 4280 l
 -99 4288 l -74 4296 l -51 4304 l -30 4311 l -11 4316 l
 7 4322 l 23 4326 l 38 4330 l 52 4333 l 67 4337 l
 82 4340 l 97 4342 l 114 4345 l 133 4348 l 153 4351 l
 176 4354 l 199 4357 l 221 4359 l 241 4362 l 256 4363 l
 265 4364 l 269 4365 l
 270 4365 l gs col34 s gr 
% Polyline
n 807 3383 m 806 3386 l 804 3393 l 799 3405 l 793 3423 l 784 3448 l
 773 3478 l 761 3513 l 747 3552 l 732 3592 l 717 3634 l
 702 3675 l 687 3714 l 673 3752 l 660 3787 l 647 3820 l
 635 3850 l 624 3877 l 613 3903 l 603 3926 l 593 3948 l
 584 3968 l 574 3988 l 565 4006 l 554 4027 l 542 4047 l
 530 4067 l 518 4086 l 506 4104 l 493 4123 l 479 4141 l
 465 4158 l 451 4175 l 436 4192 l 421 4207 l 406 4223 l
 391 4237 l 375 4251 l 360 4265 l 344 4278 l 329 4290 l
 314 4302 l 298 4314 l 282 4326 l 267 4336 l 252 4347 l
 236 4358 l 219 4369 l 201 4380 l 183 4392 l 163 4403 l
 143 4415 l 122 4426 l 100 4438 l 78 4449 l 54 4460 l
 31 4471 l 7 4482 l -18 4491 l -42 4501 l -67 4509 l
 -91 4517 l -116 4525 l -141 4532 l -166 4538 l -192 4544 l
 -214 4548 l -237 4552 l -260 4556 l -285 4559 l -311 4562 l
 -339 4565 l -368 4568 l -400 4570 l -434 4572 l -470 4574 l
 -508 4575 l -549 4577 l -591 4578 l -635 4579 l -679 4580 l
 -722 4581 l -764 4582 l -803 4582 l -837 4582 l -866 4583 l
 -889 4583 l -906 4583 l -917 4583 l -923 4583 l
 -926 4583 l gs col34 s gr 
% Polyline
n -548 4579 m -546 4579 l -542 4579 l -533 4579 l -521 4579 l -502 4580 l
 -478 4580 l -448 4580 l -412 4581 l -371 4581 l -325 4582 l
 -275 4582 l -221 4583 l -165 4583 l -107 4584 l -48 4584 l
 11 4585 l 69 4585 l 126 4585 l 181 4585 l 234 4585 l
 286 4584 l 335 4584 l 382 4584 l 427 4583 l 470 4582 l
 510 4581 l 549 4580 l 587 4579 l 622 4577 l 657 4576 l
 690 4574 l 723 4572 l 755 4570 l 786 4567 l 817 4565 l
 853 4562 l 889 4558 l 925 4554 l 961 4550 l 996 4545 l
 1032 4540 l 1068 4535 l 1104 4530 l 1140 4524 l 1176 4518 l
 1212 4511 l 1248 4504 l 1284 4497 l 1319 4490 l 1354 4483 l
 1389 4475 l 1423 4467 l 1456 4459 l 1489 4451 l 1520 4443 l
 1551 4435 l 1581 4427 l 1610 4419 l 1639 4411 l 1666 4403 l
 1693 4395 l 1718 4387 l 1744 4379 l 1768 4371 l 1792 4363 l
 1820 4353 l 1847 4344 l 1874 4334 l 1901 4325 l 1928 4314 l
 1956 4303 l 1985 4292 l 2015 4280 l 2047 4267 l 2080 4254 l
 2114 4239 l 2150 4224 l 2186 4209 l 2224 4192 l 2261 4176 l
 2297 4160 l 2332 4145 l 2364 4131 l 2392 4118 l 2416 4108 l
 2435 4099 l 2449 4093 l 2458 4089 l 2463 4087 l
 2465 4086 l gs col34 s gr 
% Polyline
n 3858 1956 m 3855 1957 l 3848 1960 l 3837 1964 l 3819 1971 l 3794 1981 l
 3764 1992 l 3730 2006 l 3692 2021 l 3651 2036 l 3610 2052 l
 3570 2068 l 3530 2083 l 3493 2098 l 3457 2112 l 3425 2125 l
 3394 2137 l 3366 2148 l 3340 2159 l 3315 2169 l 3292 2178 l
 3271 2187 l 3250 2196 l 3230 2204 l 3206 2214 l 3184 2224 l
 3161 2234 l 3139 2244 l 3116 2254 l 3094 2264 l 3072 2274 l
 3050 2284 l 3028 2294 l 3007 2304 l 2986 2315 l 2966 2325 l
 2946 2334 l 2927 2344 l 2908 2353 l 2890 2362 l 2873 2371 l
 2856 2380 l 2840 2388 l 2824 2397 l 2807 2405 l 2791 2414 l
 2774 2423 l 2756 2432 l 2738 2442 l 2718 2453 l 2696 2465 l
 2673 2477 l 2649 2491 l 2623 2505 l 2596 2519 l 2569 2534 l
 2544 2548 l 2521 2561 l 2501 2571 l 2486 2580 l 2476 2585 l
 2470 2589 l
 2467 2590 l gs col36 s gr 
% Polyline
n 2474 2802 m 2475 2801 l 2478 2800 l 2483 2798 l 2490 2794 l 2500 2789 l
 2512 2783 l 2526 2775 l 2543 2767 l 2561 2757 l 2580 2748 l
 2601 2737 l 2624 2725 l 2648 2713 l 2674 2700 l 2702 2685 l
 2733 2669 l 2767 2651 l 2804 2632 l 2843 2612 l 2882 2592 l
 2920 2572 l 2953 2555 l 2980 2540 l 3003 2528 l 3021 2518 l
 3034 2511 l 3045 2505 l 3053 2500 l 3061 2495 l 3068 2491 l
 3076 2486 l 3086 2480 l 3100 2473 l 3117 2464 l 3139 2453 l
 3165 2440 l 3197 2424 l 3232 2407 l 3269 2390 l 3309 2372 l
 3344 2356 l 3373 2344 l 3396 2334 l 3412 2328 l 3423 2324 l
 3430 2322 l 3434 2321 l 3436 2321 l 3439 2321 l 3442 2320 l
 3448 2318 l 3458 2315 l 3473 2310 l 3493 2303 l 3519 2294 l
 3549 2282 l 3583 2269 l 3617 2256 l 3649 2244 l 3678 2233 l
 3705 2222 l 3730 2213 l 3753 2205 l 3774 2197 l 3793 2189 l
 3812 2182 l 3829 2176 l 3844 2170 l 3858 2165 l 3869 2161 l
 3877 2158 l 3882 2156 l 3886 2155 l
 3887 2154 l gs col36 s gr 
% Polyline
n 2467 2938 m 2470 2937 l 2475 2934 l 2486 2929 l 2501 2922 l 2521 2912 l
 2546 2901 l 2574 2887 l 2605 2873 l 2636 2858 l 2667 2844 l
 2697 2829 l 2726 2816 l 2754 2803 l 2779 2790 l 2803 2779 l
 2826 2768 l 2847 2758 l 2867 2748 l 2887 2739 l 2906 2730 l
 2925 2721 l 2945 2710 l 2966 2700 l 2988 2690 l 3009 2679 l
 3031 2668 l 3054 2657 l 3076 2646 l 3099 2635 l 3122 2624 l
 3145 2612 l 3168 2601 l 3190 2590 l 3212 2580 l 3233 2570 l
 3253 2560 l 3272 2551 l 3290 2542 l 3308 2534 l 3325 2526 l
 3341 2519 l 3361 2510 l 3380 2501 l 3400 2493 l 3419 2484 l
 3439 2476 l 3458 2468 l 3477 2460 l 3496 2452 l 3515 2445 l
 3533 2438 l 3551 2431 l 3568 2425 l 3584 2418 l 3600 2412 l
 3615 2407 l 3630 2401 l 3645 2396 l 3660 2390 l 3676 2384 l
 3693 2377 l 3712 2370 l 3732 2363 l 3754 2354 l 3778 2345 l
 3803 2336 l 3828 2327 l 3850 2318 l 3869 2311 l 3882 2306 l
 3890 2303 l 3893 2302 l
 3894 2302 l gs col36 s gr 
% Polyline
n 2479 3080 m 2482 3079 l 2487 3076 l 2497 3071 l 2512 3064 l 2532 3054 l
 2557 3042 l 2586 3028 l 2619 3013 l 2652 2996 l 2687 2980 l
 2721 2963 l 2755 2947 l 2787 2932 l 2817 2918 l 2845 2905 l
 2871 2892 l 2895 2881 l 2918 2870 l 2939 2860 l 2959 2851 l
 2979 2842 l 2997 2834 l 3016 2826 l 3037 2816 l 3058 2807 l
 3080 2797 l 3101 2788 l 3123 2779 l 3145 2769 l 3167 2760 l
 3189 2751 l 3212 2742 l 3234 2733 l 3256 2724 l 3278 2715 l
 3300 2707 l 3322 2698 l 3343 2690 l 3364 2682 l 3384 2675 l
 3404 2667 l 3424 2660 l 3444 2652 l 3462 2646 l 3481 2639 l
 3501 2632 l 3521 2624 l 3543 2617 l 3566 2608 l 3591 2599 l
 3618 2590 l 3646 2580 l 3677 2569 l 3709 2557 l 3743 2546 l
 3776 2534 l 3808 2523 l 3839 2512 l 3865 2503 l 3887 2495 l
 3904 2489 l 3915 2485 l 3921 2483 l
 3924 2482 l gs col36 s gr 
% Polyline
n 2467 3216 m 2468 3215 l 2471 3214 l 2475 3212 l 2483 3208 l 2493 3204 l
 2506 3197 l 2522 3189 l 2541 3180 l 2563 3170 l 2587 3158 l
 2613 3146 l 2641 3132 l 2671 3118 l 2701 3104 l 2733 3089 l
 2765 3074 l 2798 3059 l 2832 3043 l 2867 3027 l 2903 3010 l
 2940 2993 l 2978 2976 l 3018 2958 l 3059 2940 l 3101 2921 l
 3144 2902 l 3187 2884 l 3239 2862 l 3287 2842 l 3329 2825 l
 3363 2811 l 3391 2800 l 3413 2791 l 3428 2785 l 3440 2781 l
 3448 2779 l 3453 2778 l 3457 2777 l 3461 2776 l 3466 2775 l
 3472 2773 l 3481 2771 l 3494 2767 l 3510 2761 l 3531 2753 l
 3557 2744 l 3587 2732 l 3621 2720 l 3655 2707 l 3700 2690 l
 3740 2675 l 3774 2662 l 3803 2651 l 3828 2642 l 3850 2634 l
 3869 2626 l 3885 2620 l 3900 2615 l 3912 2610 l 3922 2606 l
 3930 2603 l 3935 2602 l 3938 2600 l
 3939 2600 l gs col36 s gr 
% Polyline
n 2467 3352 m 2469 3351 l 2472 3349 l 2478 3346 l 2487 3341 l 2500 3334 l
 2515 3325 l 2534 3315 l 2554 3304 l 2576 3292 l 2600 3279 l
 2625 3266 l 2651 3252 l 2679 3238 l 2708 3223 l 2740 3207 l
 2773 3190 l 2810 3173 l 2848 3154 l 2888 3136 l 2927 3118 l
 2963 3102 l 2994 3089 l 3019 3078 l 3038 3070 l 3053 3064 l
 3062 3061 l 3068 3059 l 3072 3057 l 3075 3057 l 3078 3056 l
 3082 3055 l 3089 3053 l 3098 3050 l 3113 3045 l 3132 3037 l
 3158 3028 l 3190 3015 l 3227 3001 l 3267 2985 l 3308 2969 l
 3347 2954 l 3382 2940 l 3411 2929 l 3436 2919 l 3456 2911 l
 3472 2905 l 3484 2900 l 3495 2896 l 3504 2892 l 3514 2889 l
 3524 2885 l 3536 2880 l 3550 2874 l 3569 2868 l 3591 2859 l
 3617 2849 l 3647 2838 l 3680 2825 l 3714 2813 l 3758 2797 l
 3795 2784 l 3825 2773 l 3849 2765 l 3868 2759 l 3883 2754 l
 3896 2750 l 3906 2747 l 3914 2745 l 3920 2744 l 3924 2743 l
 3926 2742 l
 3927 2742 l gs col36 s gr 
% Polyline
n 2477 3461 m 2478 3460 l 2482 3459 l 2487 3457 l 2496 3453 l 2507 3448 l
 2521 3442 l 2537 3434 l 2555 3426 l 2575 3418 l 2596 3408 l
 2619 3398 l 2642 3388 l 2666 3377 l 2692 3366 l 2720 3353 l
 2749 3340 l 2780 3326 l 2813 3311 l 2847 3296 l 2884 3279 l
 2916 3264 l 2943 3252 l 2964 3242 l 2978 3235 l 2988 3230 l
 2993 3227 l 2996 3225 l 2998 3224 l 2999 3223 l 3002 3221 l
 3008 3218 l 3018 3213 l 3033 3206 l 3054 3197 l 3082 3185 l
 3116 3170 l 3155 3154 l 3191 3139 l 3225 3126 l 3255 3114 l
 3281 3103 l 3301 3095 l 3317 3089 l 3330 3084 l 3339 3080 l
 3346 3078 l 3352 3075 l 3358 3073 l 3365 3070 l 3375 3066 l
 3388 3062 l 3405 3055 l 3427 3048 l 3455 3038 l 3488 3027 l
 3525 3014 l 3566 3000 l 3607 2987 l 3646 2974 l 3682 2963 l
 3716 2952 l 3747 2943 l 3775 2935 l 3802 2927 l 3828 2920 l
 3852 2914 l 3874 2907 l 3895 2902 l 3915 2897 l 3932 2892 l
 3946 2889 l 3958 2886 l 3967 2884 l 3972 2882 l 3976 2881 l

 3977 2881 l gs col36 s gr 
% Polyline
n 2470 3550 m 2471 3550 l 2474 3548 l 2478 3546 l 2486 3543 l 2496 3539 l
 2508 3534 l 2524 3527 l 2541 3519 l 2561 3511 l 2583 3502 l
 2606 3492 l 2631 3481 l 2657 3470 l 2684 3459 l 2712 3447 l
 2742 3435 l 2773 3422 l 2806 3408 l 2842 3394 l 2879 3378 l
 2919 3362 l 2961 3345 l 3004 3328 l 3051 3309 l 3094 3292 l
 3133 3277 l 3167 3264 l 3195 3253 l 3218 3244 l 3236 3237 l
 3250 3231 l 3261 3227 l 3270 3224 l 3278 3221 l 3285 3218 l
 3294 3215 l 3304 3211 l 3317 3206 l 3332 3200 l 3352 3193 l
 3376 3184 l 3405 3173 l 3437 3162 l 3471 3149 l 3507 3136 l
 3553 3120 l 3591 3106 l 3620 3096 l 3641 3089 l 3654 3085 l
 3661 3083 l 3665 3082 l 3666 3082 l 3667 3082 l 3669 3081 l
 3674 3080 l 3684 3078 l 3699 3073 l 3720 3067 l 3746 3059 l
 3776 3050 l 3809 3040 l 3839 3032 l 3864 3025 l 3887 3019 l
 3906 3014 l 3923 3009 l 3939 3005 l 3953 3002 l 3965 2999 l
 3974 2997 l 3980 2995 l 3984 2994 l
 3986 2994 l gs col36 s gr 
% Polyline
n 2476 3657 m 2477 3656 l 2481 3655 l 2486 3653 l 2495 3650 l 2507 3645 l
 2521 3640 l 2539 3633 l 2559 3625 l 2581 3617 l 2605 3608 l
 2630 3598 l 2656 3588 l 2684 3577 l 2712 3566 l 2742 3555 l
 2774 3542 l 2807 3529 l 2842 3516 l 2880 3501 l 2919 3486 l
 2959 3470 l 3002 3453 l 3041 3437 l 3075 3424 l 3103 3413 l
 3125 3404 l 3141 3397 l 3153 3392 l 3161 3388 l 3167 3385 l
 3172 3382 l 3177 3380 l 3182 3377 l 3190 3374 l 3201 3369 l
 3215 3363 l 3234 3356 l 3258 3347 l 3287 3336 l 3320 3324 l
 3355 3311 l 3397 3296 l 3433 3284 l 3462 3275 l 3482 3268 l
 3495 3264 l 3503 3262 l 3507 3261 l 3509 3261 l 3511 3261 l
 3515 3261 l 3522 3259 l 3535 3256 l 3554 3251 l 3582 3243 l
 3616 3233 l 3656 3222 l 3692 3212 l 3727 3202 l 3760 3193 l
 3790 3185 l 3819 3177 l 3845 3170 l 3870 3163 l 3894 3157 l
 3917 3151 l 3937 3146 l 3956 3141 l 3973 3137 l 3987 3133 l
 3997 3130 l 4004 3128 l 4008 3127 l
 4010 3127 l gs col36 s gr 
% Polyline
n 2485 3757 m 2486 3757 l 2489 3755 l 2494 3753 l 2501 3750 l 2512 3746 l
 2525 3740 l 2542 3734 l 2562 3725 l 2585 3716 l 2610 3706 l
 2637 3695 l 2666 3683 l 2696 3671 l 2727 3659 l 2760 3646 l
 2793 3633 l 2827 3619 l 2861 3606 l 2897 3592 l 2933 3578 l
 2971 3564 l 3009 3549 l 3049 3534 l 3090 3519 l 3132 3503 l
 3174 3488 l 3216 3473 l 3272 3453 l 3321 3436 l 3363 3422 l
 3395 3412 l 3420 3404 l 3437 3398 l 3447 3395 l 3454 3394 l
 3457 3393 l 3458 3393 l 3459 3393 l 3461 3393 l 3466 3393 l
 3474 3391 l 3488 3387 l 3508 3382 l 3534 3376 l 3566 3367 l
 3604 3357 l 3645 3346 l 3686 3335 l 3725 3326 l 3762 3317 l
 3795 3309 l 3825 3302 l 3854 3296 l 3880 3290 l 3905 3285 l
 3928 3280 l 3950 3276 l 3970 3272 l 3988 3268 l 4005 3265 l
 4019 3262 l 4030 3260 l 4038 3259 l 4044 3258 l 4047 3257 l

 4048 3257 l gs col36 s gr 
% Polyline
n 2479 3849 m 2480 3848 l 2484 3847 l 2490 3845 l 2499 3841 l 2511 3836 l
 2527 3829 l 2546 3821 l 2568 3812 l 2593 3802 l 2619 3791 l
 2648 3780 l 2678 3768 l 2709 3756 l 2741 3743 l 2774 3730 l
 2809 3717 l 2845 3703 l 2883 3689 l 2922 3674 l 2964 3659 l
 3008 3643 l 3052 3628 l 3098 3612 l 3146 3596 l 3191 3581 l
 3229 3569 l 3262 3558 l 3287 3550 l 3307 3544 l 3322 3540 l
 3332 3537 l 3339 3535 l 3343 3533 l 3346 3533 l 3350 3532 l
 3354 3531 l 3360 3530 l 3369 3528 l 3382 3524 l 3400 3520 l
 3423 3514 l 3452 3507 l 3486 3498 l 3525 3489 l 3566 3479 l
 3611 3469 l 3653 3459 l 3690 3451 l 3722 3445 l 3748 3439 l
 3769 3436 l 3786 3433 l 3799 3431 l 3810 3429 l 3820 3428 l
 3829 3427 l 3839 3426 l 3851 3424 l 3865 3422 l 3882 3419 l
 3903 3416 l 3928 3411 l 3955 3407 l 3984 3401 l 4013 3396 l
 4024 3394 l 4035 3392 l 4045 3390 l 4054 3389 l 4062 3387 l
 4070 3386 l 4077 3384 l 4083 3383 l 4089 3382 l 4094 3381 l
 4099 3381 l 4103 3380 l 4107 3379 l 4110 3379 l 4113 3378 l
 4115 3378 l 4117 3377 l 4119 3377 l 4121 3377 l 4122 3377 l
 4123 3377 l 4124 3376 l 4125 3376 l 4125 3377 l 4124 3377 l
 4123 3377 l 4122 3377 l 4121 3377 l 4121 3378 l 4120 3378 l

 4119 3378 l gs col36 s gr 
% Polyline
n 2479 3976 m 2480 3975 l 2483 3974 l 2488 3972 l 2496 3969 l 2508 3964 l
 2522 3958 l 2539 3951 l 2558 3943 l 2580 3934 l 2604 3925 l
 2629 3914 l 2656 3904 l 2683 3893 l 2712 3881 l 2741 3869 l
 2772 3857 l 2803 3845 l 2836 3832 l 2871 3818 l 2907 3804 l
 2945 3790 l 2985 3775 l 3024 3760 l 3070 3743 l 3111 3728 l
 3146 3715 l 3175 3704 l 3197 3696 l 3212 3691 l 3223 3686 l
 3231 3684 l 3235 3682 l 3238 3680 l 3241 3679 l 3246 3678 l
 3252 3675 l 3261 3672 l 3275 3668 l 3294 3662 l 3319 3654 l
 3349 3645 l 3384 3635 l 3421 3624 l 3462 3613 l 3499 3603 l
 3529 3595 l 3553 3589 l 3570 3585 l 3581 3582 l 3589 3580 l
 3593 3579 l 3596 3579 l 3599 3579 l 3603 3578 l 3610 3577 l
 3622 3575 l 3640 3572 l 3664 3567 l 3696 3561 l 3734 3555 l
 3776 3547 l 3815 3540 l 3853 3534 l 3890 3528 l 3923 3523 l
 3955 3519 l 3985 3515 l 4013 3511 l 4040 3507 l 4066 3504 l
 4091 3501 l 4114 3498 l 4135 3496 l 4154 3494 l 4170 3492 l
 4183 3490 l 4193 3489 l 4200 3489 l 4203 3488 l
 4205 3488 l gs col36 s gr 
% Polyline
n 3854 1956 m 3854 1959 l 3855 1965 l 3856 1976 l 3858 1993 l 3860 2015 l
 3863 2041 l 3867 2072 l 3870 2105 l 3874 2139 l 3878 2173 l
 3882 2207 l 3885 2239 l 3889 2270 l 3892 2299 l 3895 2326 l
 3898 2352 l 3901 2377 l 3904 2402 l 3907 2425 l 3910 2449 l
 3913 2473 l 3915 2495 l 3918 2518 l 3921 2541 l 3924 2565 l
 3927 2589 l 3930 2614 l 3934 2640 l 3937 2666 l 3941 2692 l
 3945 2719 l 3949 2746 l 3953 2773 l 3957 2800 l 3961 2827 l
 3965 2853 l 3969 2879 l 3974 2904 l 3978 2929 l 3982 2952 l
 3986 2975 l 3991 2997 l 3995 3018 l 3999 3038 l 4004 3058 l
 4009 3081 l 4015 3104 l 4021 3126 l 4027 3148 l 4034 3171 l
 4041 3193 l 4049 3215 l 4057 3237 l 4066 3258 l 4075 3279 l
 4085 3300 l 4095 3320 l 4106 3340 l 4117 3359 l 4128 3377 l
 4140 3394 l 4152 3411 l 4165 3427 l 4177 3443 l 4191 3458 l
 4203 3472 l 4217 3486 l 4231 3500 l 4246 3515 l 4262 3529 l
 4280 3544 l 4298 3559 l 4317 3574 l 4337 3589 l 4358 3604 l
 4380 3618 l 4403 3633 l 4426 3648 l 4450 3662 l 4474 3675 l
 4499 3688 l 4523 3701 l 4548 3713 l 4573 3725 l 4599 3736 l
 4624 3747 l 4650 3758 l 4672 3766 l 4696 3775 l 4720 3783 l
 4745 3791 l 4771 3800 l 4799 3809 l 4830 3817 l 4862 3827 l
 4896 3836 l 4933 3846 l 4972 3856 l 5014 3867 l 5057 3878 l
 5102 3889 l 5147 3900 l 5192 3911 l 5234 3921 l 5274 3930 l
 5309 3939 l 5339 3946 l 5362 3951 l 5380 3955 l 5391 3958 l
 5397 3959 l
 5400 3960 l gs col36 s gr 
% Polyline
n 2477 4189 m 2478 4189 l 2481 4188 l 2486 4187 l 2494 4184 l 2505 4181 l
 2518 4178 l 2535 4173 l 2554 4168 l 2576 4162 l 2600 4156 l
 2625 4149 l 2652 4142 l 2681 4135 l 2711 4128 l 2742 4120 l
 2775 4112 l 2810 4103 l 2848 4094 l 2888 4085 l 2931 4075 l
 2977 4065 l 3025 4055 l 3075 4044 l 3125 4034 l 3172 4024 l
 3215 4015 l 3253 4008 l 3284 4002 l 3310 3997 l 3330 3993 l
 3346 3990 l 3358 3987 l 3366 3986 l 3373 3984 l 3379 3983 l
 3385 3982 l 3392 3981 l 3401 3979 l 3413 3977 l 3428 3975 l
 3449 3971 l 3475 3967 l 3507 3962 l 3545 3956 l 3588 3950 l
 3636 3942 l 3687 3935 l 3738 3928 l 3786 3921 l 3830 3915 l
 3869 3910 l 3901 3906 l 3928 3903 l 3949 3901 l 3966 3899 l
 3979 3897 l 3989 3897 l 3997 3896 l 4004 3895 l 4011 3895 l
 4019 3894 l 4029 3894 l 4042 3893 l 4058 3891 l 4079 3889 l
 4105 3887 l 4136 3884 l 4173 3880 l 4214 3876 l 4260 3872 l
 4308 3867 l 4360 3862 l 4409 3858 l 4454 3854 l 4496 3850 l
 4535 3847 l 4570 3844 l 4603 3841 l 4633 3839 l 4662 3837 l
 4689 3835 l 4714 3833 l 4738 3831 l 4759 3830 l 4778 3829 l
 4795 3828 l 4809 3827 l 4820 3826 l 4828 3826 l 4834 3825 l
 4837 3825 l
 4838 3825 l gs col36 s gr 
% Polyline
n 2482 4080 m 2483 4080 l 2486 4079 l 2491 4077 l 2500 4074 l 2511 4070 l
 2525 4066 l 2541 4060 l 2561 4054 l 2583 4047 l 2606 4039 l
 2632 4031 l 2659 4022 l 2688 4013 l 2720 4003 l 2753 3993 l
 2790 3981 l 2830 3969 l 2873 3956 l 2921 3942 l 2973 3927 l
 3027 3911 l 3074 3898 l 3119 3885 l 3161 3872 l 3199 3861 l
 3233 3852 l 3261 3843 l 3285 3836 l 3305 3830 l 3321 3825 l
 3334 3821 l 3345 3817 l 3355 3814 l 3363 3811 l 3372 3808 l
 3381 3805 l 3392 3801 l 3405 3798 l 3422 3793 l 3441 3788 l
 3465 3781 l 3494 3774 l 3527 3766 l 3565 3757 l 3607 3748 l
 3652 3738 l 3699 3728 l 3753 3717 l 3803 3708 l 3848 3700 l
 3886 3694 l 3918 3689 l 3944 3685 l 3964 3683 l 3980 3682 l
 3992 3681 l 4002 3681 l 4011 3681 l 4020 3681 l 4029 3681 l
 4040 3681 l 4053 3681 l 4069 3680 l 4089 3678 l 4113 3676 l
 4142 3673 l 4173 3670 l 4207 3666 l 4240 3662 l 4293 3656 l
 4334 3652 l 4363 3649 l 4382 3648 l 4395 3647 l 4404 3647 l
 4408 3647 l 4411 3647 l
 4412 3648 l gs col36 s gr 
% Polyline
n 2477 4248 m 2478 4248 l 2481 4248 l 2487 4248 l 2496 4247 l 2508 4247 l
 2523 4246 l 2541 4245 l 2563 4244 l 2587 4243 l 2614 4242 l
 2642 4241 l 2672 4239 l 2704 4238 l 2737 4237 l 2772 4236 l
 2809 4234 l 2848 4233 l 2890 4232 l 2934 4230 l 2982 4229 l
 3033 4228 l 3087 4226 l 3143 4225 l 3195 4224 l 3244 4223 l
 3289 4222 l 3330 4221 l 3365 4221 l 3395 4220 l 3420 4220 l
 3440 4219 l 3456 4219 l 3469 4218 l 3479 4218 l 3488 4218 l
 3496 4217 l 3504 4217 l 3512 4217 l 3522 4217 l 3535 4217 l
 3550 4216 l 3569 4216 l 3593 4216 l 3621 4216 l 3654 4217 l
 3692 4217 l 3734 4217 l 3779 4218 l 3826 4219 l 3880 4220 l
 3930 4222 l 3973 4223 l 4010 4224 l 4039 4225 l 4061 4226 l
 4078 4227 l 4090 4227 l 4098 4228 l 4104 4228 l 4109 4228 l
 4113 4229 l 4118 4229 l 4126 4230 l 4136 4231 l 4151 4232 l
 4172 4234 l 4198 4236 l 4230 4239 l 4268 4242 l 4311 4246 l
 4356 4251 l 4405 4256 l 4452 4262 l 4496 4268 l 4535 4273 l
 4571 4278 l 4604 4283 l 4635 4288 l 4664 4293 l 4691 4298 l
 4716 4303 l 4739 4307 l 4761 4311 l 4779 4315 l 4795 4318 l
 4808 4321 l 4818 4323 l 4824 4324 l 4827 4325 l
 4829 4325 l gs col36 s gr 
/Helvetica ff 222.25 scf sf
-585 5175 m
gs 1 -1 sc  340.0 rot (Metabolite level c) col0 sh gr
/Helvetica ff 222.25 scf sf
3330 5895 m
gs 1 -1 sc  35.0 rot (Negative flux) col0 sh gr
/Helvetica ff 222.25 scf sf
4680 4950 m
gs 1 -1 sc  35.0 rot (Positive flux) col0 sh gr
/Helvetica ff 222.25 scf sf
-2015 2028 m
gs 1 -1 sc (Metabolite) col0 sh gr
/Helvetica ff 222.25 scf sf
-2008 2288 m
gs 1 -1 sc (level c) col0 sh gr
/Helvetica ff 222.25 scf sf
-233 2168 m
gs 1 -1 sc (Flux v) col0 sh gr
/Helvetica ff 222.25 scf sf
-1198 2881 m
gs 1 -1 sc (Enzyme) col0 sh gr
/Helvetica ff 222.25 scf sf
-1205 3121 m
gs 1 -1 sc (level e) col0 sh gr
/Helvetica ff 222.25 scf sf
2088 2003 m
gs 1 -1 sc (Enzyme) col0 sh gr
/Helvetica ff 222.25 scf sf
2088 2250 m
gs 1 -1 sc (level e) col0 sh gr
/Helvetica ff 222.25 scf sf
4592 5533 m
gs 1 -1 sc  35.0 rot (Flux v) col0 sh gr
% here ends figure;
pagefooter
showpage
%%Trailer
%EOF
