%!PS-Adobe-3.0 EPSF-3.0
%%Title: projected_optimality_problems.fig
%%Creator: fig2dev Version 3.2.6a
%%CreationDate: 2019-03-08 13:48:33
%%BoundingBox: 0 0 727 425
%Magnification: 1.0000
%%EndComments
%%BeginProlog
/$F2psDict 200 dict def
$F2psDict begin
$F2psDict /mtrx matrix put
/col-1 {0 setgray} bind def
/col0 {0.000 0.000 0.000 srgb} bind def
/col1 {0.000 0.000 1.000 srgb} bind def
/col4 {1.000 0.000 0.000 srgb} bind def
/col7 {1.000 1.000 1.000 srgb} bind def
/col10 {0.000 0.000 0.820 srgb} bind def
/col32 {0.867 0.867 0.867 srgb} bind def
/col33 {0.733 0.733 1.000 srgb} bind def
/col34 {0.267 0.267 1.000 srgb} bind def
/col35 {1.000 0.800 0.800 srgb} bind def
/col36 {1.000 0.267 0.267 srgb} bind def
/col37 {0.957 0.937 0.918 srgb} bind def
/col38 {0.267 0.267 0.933 srgb} bind def
/col39 {0.533 0.533 1.000 srgb} bind def
/col40 {0.800 0.816 1.000 srgb} bind def
/col41 {0.933 0.933 0.933 srgb} bind def
/col42 {1.000 0.733 0.267 srgb} bind def
/col43 {0.867 0.667 0.000 srgb} bind def
/col44 {0.600 0.600 1.000 srgb} bind def
/col45 {0.467 0.467 1.000 srgb} bind def
/col46 {1.000 0.867 0.867 srgb} bind def
/col47 {1.000 0.733 0.733 srgb} bind def
/col48 {1.000 0.600 0.600 srgb} bind def
/col49 {1.000 0.467 0.467 srgb} bind def
/col50 {1.000 0.933 0.533 srgb} bind def
/col51 {0.867 0.800 0.533 srgb} bind def
/col52 {0.800 0.667 0.400 srgb} bind def

end

/cp {closepath} bind def
/ef {eofill} bind def
/gr {grestore} bind def
/gs {gsave} bind def
/sa {save} bind def
/rs {restore} bind def
/l {lineto} bind def
/m {moveto} bind def
/rm {rmoveto} bind def
/n {newpath} bind def
/s {stroke} bind def
/sh {show} bind def
/slc {setlinecap} bind def
/slj {setlinejoin} bind def
/slw {setlinewidth} bind def
/srgb {setrgbcolor} bind def
/rot {rotate} bind def
/sc {scale} bind def
/sd {setdash} bind def
/ff {findfont} bind def
/sf {setfont} bind def
/scf {scalefont} bind def
/sw {stringwidth} bind def
/tr {translate} bind def
/tnt {dup dup currentrgbcolor
  4 -2 roll dup 1 exch sub 3 -1 roll mul add
  4 -2 roll dup 1 exch sub 3 -1 roll mul add
  4 -2 roll dup 1 exch sub 3 -1 roll mul add srgb}
  bind def
/shd {dup dup currentrgbcolor 4 -2 roll mul 4 -2 roll mul
  4 -2 roll mul srgb} bind def
 /DrawEllipse {
	/endangle exch def
	/startangle exch def
	/yrad exch def
	/xrad exch def
	/y exch def
	/x exch def
	/savematrix mtrx currentmatrix def
	x y tr xrad yrad sc 0 0 1 startangle endangle arc
	closepath
	savematrix setmatrix
	} def

/$F2psBegin {$F2psDict begin /$F2psEnteredState save def} def
/$F2psEnd {$F2psEnteredState restore end} def

/pageheader {
save
newpath 0 425 moveto 0 0 lineto 727 0 lineto 727 425 lineto closepath clip newpath
-138.0 428.6 translate
1 -1 scale
$F2psBegin
10 setmiterlimit
0 slj 0 slc
 0.06299 0.06299 sc
} bind def
/pagefooter {
$F2psEnd
restore
} bind def
%%EndProlog
pageheader
%
% Fig objects follow
%
% 
% here starts figure with depth 250
% Polyline
0 slj
0 slc
7.500 slw
n 2422 6792 m 2422 5865 l 3153 5085 l 4128 5085 l 4128 6792 l
 cp gs col45 1.00 shd ef gr gs col0 s gr 
% Polyline
n 10868 6526 m 12174 4818 l 13229 5572 l 12878 6275 l
 cp gs col46 1.00 shd ef gr gs col0 s gr 
% Polyline
n 11160 540 m 13410 540 l 13410 2655 l 11160 2655 l
 cp gs col52 1.00 shd ef gr gs col52 s gr 
% here ends figure;
% 
% here starts figure with depth 240
% Polyline
2 slj
0 slc
7.500 slw
n 2635 6048 m 2624 6070 l 2614 6091 l 2605 6113 l 2597 6136 l 2590 6158 l
 2584 6181 l 2579 6204 l 2575 6227 l 2572 6251 l 2571 6274 l
 2571 6297 l 2572 6320 l 2575 6342 l 2579 6364 l 2584 6385 l
 2591 6405 l 2599 6424 l 2608 6442 l 2619 6459 l 2631 6475 l
 2644 6490 l 2659 6503 l 2674 6516 l 2691 6528 l 2710 6538 l
 2730 6548 l 2751 6557 l 2774 6566 l 2799 6573 l 2825 6580 l
 2852 6587 l 2881 6592 l 2911 6597 l 2942 6602 l 2974 6605 l
 3006 6608 l 3038 6610 l 3070 6612 l 3102 6613 l 3134 6613 l
 3164 6613 l 3194 6612 l 3223 6611 l 3251 6610 l 3277 6608 l
 3302 6606 l 3326 6603 l 3349 6601 l 3371 6598 l 3392 6595 l
 3412 6591 l 3432 6587 l 3451 6582 l 3469 6577 l 3486 6571 l
 3503 6564 l 3520 6557 l 3535 6549 l 3550 6540 l 3564 6529 l
 3577 6519 l 3589 6507 l 3600 6494 l 3611 6480 l 3620 6466 l
 3629 6451 l 3637 6435 l 3644 6418 l 3650 6400 l 3656 6381 l
 3661 6362 l 3666 6341 l 3670 6321 l 3674 6299 l 3678 6276 l
 3681 6252 l 3684 6227 l 3686 6201 l 3688 6174 l 3689 6146 l
 3690 6116 l 3690 6087 l 3690 6056 l 3689 6026 l 3688 5995 l
 3686 5964 l 3683 5934 l 3679 5904 l 3675 5875 l 3671 5847 l
 3665 5820 l 3659 5794 l 3652 5769 l 3645 5746 l 3637 5724 l
 3629 5704 l 3619 5684 l 3610 5667 l 3599 5650 l 3587 5635 l
 3575 5620 l 3561 5607 l 3547 5595 l 3532 5584 l 3516 5574 l
 3499 5565 l 3481 5558 l 3462 5551 l 3442 5546 l 3422 5542 l
 3401 5539 l 3380 5537 l 3358 5537 l 3336 5537 l 3314 5539 l
 3292 5541 l 3270 5545 l 3248 5550 l 3227 5555 l 3205 5561 l
 3184 5568 l 3163 5576 l 3143 5584 l 3122 5593 l 3100 5604 l
 3077 5616 l 3054 5628 l 3031 5642 l 3008 5656 l 2985 5672 l
 2961 5689 l 2937 5706 l 2913 5725 l 2890 5744 l 2866 5765 l
 2843 5786 l 2820 5807 l 2799 5829 l 2777 5851 l 2757 5873 l
 2738 5896 l 2720 5918 l 2703 5940 l 2687 5962 l 2672 5984 l
 2659 6005 l 2646 6027 l
 cp gs col44 1.00 shd ef gr gs col44 s gr 
% Polyline
0 slj
n 11521 5723 m 12175 4853 l 12845 6274 l 12023 6358 l
 cp gs col47 1.00 shd ef gr gs col47 s gr 
% Polyline
2 slj
n 12457 1043 m 12435 1032 l 12414 1022 l 12392 1013 l 12369 1005 l 12347 998 l
 12324 992 l 12301 987 l 12278 983 l 12254 980 l 12231 979 l
 12208 979 l 12185 980 l 12163 983 l 12141 987 l 12120 992 l
 12100 999 l 12081 1007 l 12063 1016 l 12046 1027 l 12030 1039 l
 12015 1052 l 12002 1067 l 11989 1082 l 11978 1099 l 11967 1118 l
 11957 1138 l 11948 1159 l 11939 1182 l 11932 1207 l 11925 1233 l
 11918 1260 l 11913 1289 l 11908 1319 l 11903 1350 l 11900 1382 l
 11897 1414 l 11895 1446 l 11893 1478 l 11892 1510 l 11892 1542 l
 11892 1572 l 11893 1602 l 11894 1631 l 11895 1659 l 11897 1685 l
 11899 1710 l 11902 1734 l 11904 1757 l 11907 1779 l 11910 1800 l
 11914 1820 l 11918 1840 l 11923 1859 l 11928 1877 l 11934 1894 l
 11941 1911 l 11948 1928 l 11956 1943 l 11965 1958 l 11976 1972 l
 11986 1985 l 11998 1997 l 12011 2008 l 12025 2019 l 12039 2028 l
 12054 2037 l 12070 2045 l 12087 2052 l 12105 2058 l 12124 2064 l
 12143 2069 l 12164 2074 l 12184 2078 l 12206 2082 l 12229 2086 l
 12253 2089 l 12278 2092 l 12304 2094 l 12331 2096 l 12359 2097 l
 12389 2098 l 12418 2098 l 12449 2098 l 12479 2097 l 12510 2096 l
 12541 2094 l 12571 2091 l 12601 2087 l 12630 2083 l 12658 2079 l
 12685 2073 l 12711 2067 l 12736 2060 l 12759 2053 l 12781 2045 l
 12801 2037 l 12821 2027 l 12839 2018 l 12855 2007 l 12870 1995 l
 12885 1983 l 12898 1969 l 12910 1955 l 12921 1940 l 12931 1924 l
 12940 1907 l 12947 1889 l 12954 1870 l 12959 1850 l 12963 1830 l
 12966 1809 l 12968 1788 l 12968 1766 l 12968 1744 l 12966 1722 l
 12964 1700 l 12960 1678 l 12955 1656 l 12950 1635 l 12944 1613 l
 12937 1592 l 12929 1571 l 12921 1551 l 12912 1530 l 12901 1508 l
 12889 1485 l 12877 1462 l 12863 1439 l 12849 1416 l 12833 1393 l
 12816 1369 l 12799 1345 l 12780 1321 l 12761 1298 l 12740 1274 l
 12719 1251 l 12698 1228 l 12676 1207 l 12654 1185 l 12632 1165 l
 12609 1146 l 12587 1128 l 12565 1111 l 12543 1095 l 12521 1080 l
 12500 1067 l 12478 1054 l
 cp gs col51 1.00 shd ef gr gs col51 s gr 
% here ends figure;
% 
% here starts figure with depth 230
% Polyline
2 slj
0 slc
7.500 slw
n 2641 6434 m 2643 6445 l 2645 6455 l 2649 6464 l 2654 6473 l 2660 6480 l
 2667 6488 l 2675 6494 l 2684 6499 l 2694 6504 l 2706 6508 l
 2718 6511 l 2731 6513 l 2745 6514 l 2759 6514 l 2774 6513 l
 2789 6512 l 2804 6510 l 2820 6507 l 2836 6503 l 2853 6499 l
 2870 6494 l 2887 6489 l 2906 6483 l 2925 6475 l 2945 6467 l
 2965 6459 l 2986 6449 l 3008 6438 l 3029 6427 l 3050 6415 l
 3071 6402 l 3092 6389 l 3111 6375 l 3130 6361 l 3148 6346 l
 3165 6332 l 3180 6317 l 3194 6302 l 3207 6287 l 3219 6272 l
 3229 6256 l 3239 6239 l 3248 6222 l 3255 6205 l 3262 6187 l
 3267 6168 l 3271 6150 l 3274 6131 l 3276 6113 l 3276 6095 l
 3275 6077 l 3273 6060 l 3269 6045 l 3264 6030 l 3258 6017 l
 3251 6004 l 3242 5994 l 3233 5985 l 3222 5977 l 3211 5971 l
 3199 5966 l 3186 5963 l 3172 5961 l 3157 5959 l 3141 5959 l
 3124 5960 l 3106 5963 l 3087 5966 l 3068 5971 l 3048 5976 l
 3027 5983 l 3006 5990 l 2985 5999 l 2965 6008 l 2944 6018 l
 2925 6028 l 2905 6039 l 2887 6051 l 2869 6063 l 2852 6075 l
 2836 6088 l 2820 6101 l 2802 6117 l 2784 6134 l 2768 6153 l
 2751 6172 l 2736 6192 l 2721 6212 l 2708 6233 l 2695 6255 l
 2684 6276 l 2673 6297 l 2664 6318 l 2657 6338 l 2651 6357 l
 2646 6375 l 2643 6391 l 2641 6407 l 2641 6421 l
 cp gs col33 1.00 shd ef gr gs col33 s gr 
% Polyline
0 slj
n 11868 5281 m 12191 4853 l 13211 5581 l 12878 6275 l
 cp gs col48 1.00 shd ef gr gs col48 s gr 
% Polyline
2 slj
n 12121 1276 m 12110 1278 l 12100 1280 l 12091 1284 l 12082 1289 l 12075 1295 l
 12067 1302 l 12061 1310 l 12056 1319 l 12051 1329 l 12047 1341 l
 12044 1353 l 12042 1366 l 12041 1380 l 12041 1394 l 12042 1409 l
 12043 1424 l 12045 1439 l 12048 1455 l 12052 1471 l 12056 1488 l
 12061 1505 l 12066 1522 l 12072 1541 l 12080 1560 l 12088 1580 l
 12096 1600 l 12106 1621 l 12117 1643 l 12128 1664 l 12140 1685 l
 12153 1706 l 12166 1727 l 12180 1746 l 12194 1765 l 12209 1783 l
 12223 1800 l 12238 1815 l 12253 1829 l 12268 1842 l 12284 1854 l
 12298 1863 l 12313 1872 l 12328 1880 l 12344 1888 l 12360 1894 l
 12376 1899 l 12393 1904 l 12410 1907 l 12427 1910 l 12444 1911 l
 12460 1911 l 12476 1910 l 12492 1908 l 12506 1905 l 12520 1901 l
 12533 1896 l 12544 1890 l 12555 1883 l 12564 1875 l 12572 1866 l
 12579 1856 l 12584 1846 l 12589 1834 l 12592 1821 l 12594 1807 l
 12596 1792 l 12596 1776 l 12595 1759 l 12592 1741 l 12589 1722 l
 12584 1703 l 12579 1683 l 12572 1662 l 12565 1641 l 12556 1620 l
 12547 1600 l 12537 1579 l 12527 1560 l 12516 1540 l 12504 1522 l
 12492 1504 l 12480 1487 l 12467 1471 l 12454 1455 l 12438 1437 l
 12421 1419 l 12402 1403 l 12383 1386 l 12363 1371 l 12343 1356 l
 12322 1343 l 12300 1330 l 12279 1319 l 12258 1308 l 12237 1299 l
 12217 1292 l 12198 1286 l 12180 1281 l 12164 1278 l 12148 1276 l
 12134 1276 l
 cp gs col50 1.00 shd ef gr gs col50 s gr 
% here ends figure;
% 
% here starts figure with depth 220
% Polyline
2 slj
0 slc
7.500 slw
n 2715 6353 m 2723 6363 l 2734 6371 l 2744 6379 l 2754 6385 l 2763 6390 l
 2771 6394 l 2779 6398 l 2788 6401 l 2796 6405 l 2806 6407 l
 2818 6409 l 2831 6409 l 2845 6407 l 2860 6402 l 2873 6393 l
 2883 6383 l 2891 6372 l 2898 6361 l 2903 6351 l 2906 6342 l
 2909 6333 l 2912 6323 l 2914 6314 l 2916 6303 l 2917 6292 l
 2917 6279 l 2915 6267 l 2910 6255 l 2901 6246 l 2891 6240 l
 2881 6236 l 2871 6234 l 2861 6234 l 2853 6234 l 2845 6235 l
 2836 6236 l 2827 6237 l 2817 6239 l 2805 6241 l 2792 6245 l
 2778 6249 l 2763 6255 l 2752 6262 l 2742 6269 l 2735 6276 l
 2729 6282 l 2724 6287 l 2720 6292 l 2717 6296 l 2715 6300 l
 2713 6304 l 2711 6308 l 2709 6313 l 2708 6319 l 2707 6326 l
 2708 6335 l 2710 6344 l
 cp gs col40 1.00 shd ef gr gs col40 s gr 
% Polyline
0 slj
n 12080 4980 m 12147 4869 l 13197 5583 l 13074 5884 l
 cp gs col49 1.00 shd ef gr gs col49 s gr 
% here ends figure;
% 
% here starts figure with depth 200
% Ellipse
15.000 slw
n 2860 6304 69 69 0 360 DrawEllipse gs col7 1.00 shd ef gr gs col4 s gr

% Ellipse
n 10890 6515 72 72 0 360 DrawEllipse gs col7 1.00 shd ef gr gs col4 s gr

% Polyline
0 slj
0 slc
7.500 slw
n 5130 5040 m 4725 5310 l 4545 5220 l 4500 5535 l 5400 5535 l 4995 5400 l
 5445 5130 l
 cp gs col40 1.00 shd ef gr gs col40 s gr 
% Polyline
n 10079 4720 m 10754 4900 l 10619 5035 l 11429 4855 l 11249 4540 l 10979 4675 l
 10349 4540 l
 cp gs col47 1.00 shd ef gr gs col47 s gr 
% Polyline
n 9765 1980 m 9765 2340 l 10080 2160 l 10080 2340 l 10395 1890 l 10035 1575 l
 10035 1890 l
 cp gs col51 1.00 shd ef gr gs col51 s gr 
/Helvetica ff 238.13 scf sf
2205 450 m
gs 1 -1 sc (Kinetic model) col0 sh gr
/Helvetica ff 238.13 scf sf
2385 4905 m
gs 1 -1 sc (Metabolite space) col0 sh gr
/Helvetica ff 238.13 scf sf
11475 270 m
gs 1 -1 sc (Enzyme space) col0 sh gr
/Helvetica ff 238.13 scf sf
11880 4590 m
gs 1 -1 sc (Flux space) col0 sh gr
% here ends figure;
% 
% here starts figure with depth 100
% Polyline
0 slj
0 slc
7.500 slw
n 4525 4268 m 6252 4814 l 7899 3975 l 6300 3510 l
 cp gs col33 1.00 shd ef gr gs col33 s gr 
% Polyline
n 7932 3968 m 9571 4450 l 10793 3690 l 9308 3285 l
 cp gs col33 1.00 shd ef gr gs col33 s gr 
% here ends figure;
% 
% here starts figure with depth 50
% Ellipse
7.500 slw
n 5369 1310 127 127 0 360 DrawEllipse gs col0 s gr

% Ellipse
n 3437 1321 127 127 0 360 DrawEllipse gs col43 1.00 shd ef gr gs col0 s gr

% Ellipse
n 4517 1816 298 140 0 360 DrawEllipse gs col4 1.00 shd ef gr gs col0 s gr

% Polyline
0 slj
0 slc
gs  clippath
5199 1314 m 5199 1328 l 5055 1351 l 5175 1321 l 5055 1291 l cp
eoclip
n 3707 1321 m
 5192 1321 l gs col0 s gr gr

% arrowhead
n 5055 1291 m 5175 1321 l 5055 1351 l  col0 s
% Polyline
gs  clippath
4510 1359 m 4524 1359 l 4547 1536 l 4517 1506 l 4487 1536 l cp
eoclip
n 4517 1636 m
 4517 1366 l gs col0 s gr gr

% arrowhead
n 4547 1536 m 4517 1386 l 4487 1536 l 4517 1506 l 4547 1536 l 
 cp gs col7 1.00 shd ef gr  col0 s
% Polyline
 [60] 0 sd
n 6246 4814 m
 6245 3075 l gs col0 s gr  [] 0 sd
% Polyline
 [60] 0 sd
n 9292 3267 m
 9292 1647 l gs col0 s gr  [] 0 sd
% Polyline
n 6232 3155 m 7048 2812 l
 7913 2356 l gs col34 s gr 
% Polyline
gs  clippath
7905 2028 m 7919 2028 l 7942 2171 l 7912 2052 l 7882 2172 l cp
eoclip
n 7919 3975 m
 7912 2035 l gs col0 s gr gr

% arrowhead
n 7882 2172 m 7912 2052 l 7942 2171 l  col0 s
% Polyline
n 4513 4264 m
 6039 3615 l gs col34 s gr 
% Polyline
n 6235 4821 m 6243 4821 l gs col0 s gr
% Polyline
n 6345 3510 m
 7959 3977 l gs col34 s gr 
% Polyline
gs  clippath
13673 2634 m 13673 2648 l 13580 2690 l 13659 2641 l 13580 2592 l cp
11136 668 m 11150 668 l 11192 768 l 11143 690 l 11094 768 l cp
eoclip
n 11143 675 m 11143 2641 l
 13666 2641 l gs col0 s gr gr

% arrowhead
15.000 slw
n 11094 768 m 11143 690 l 11192 768 l  col0 s
% arrowhead
7.500 slw
n 13580 2592 m 13659 2641 l 13580 2690 l  col0 s
% Polyline
45.000 slw
gs  clippath
11971 1638 m 11999 1680 l 11876 1779 l 11920 1703 l 11833 1714 l cp
eoclip
n 11636 1892 m
 11964 1673 l gs col10 s gr gr

% arrowhead
n 11833 1714 m 11920 1703 l 11876 1779 l  col10 s
% Polyline
gs  clippath
12443 1356 m 12399 1330 l 12466 1188 l 12461 1275 l 12534 1227 l cp
eoclip
n 12663 927 m
 12434 1321 l gs col4 s gr gr

% arrowhead
n 12534 1227 m 12461 1275 l 12466 1188 l  col4 s
% Polyline
gs  clippath
12237 1803 m 12283 1781 l 12364 1916 l 12294 1863 l 12293 1950 l cp
eoclip
n 12434 2151 m
 12271 1815 l gs col43 s gr gr

% arrowhead
n 12293 1950 m 12294 1863 l 12364 1916 l  col43 s
% Polyline
7.500 slw
n 7925 2342 m 8563 2022 l 8948 1851 l
 9309 1712 l gs col34 s gr 
% Polyline
n 7920 3960 m
 9540 4455 l gs col34 s gr 
% Polyline
2 slj
n 7610 3956 m
 7922 3921 l gs col1 s gr 
% Polyline
n 7806 3948 m
 7915 3962 l gs col1 s gr 
% Polyline
n 7912 2271 m 7910 2272 l 7904 2275 l 7895 2280 l 7880 2288 l 7860 2299 l
 7834 2312 l 7804 2328 l 7771 2346 l 7734 2366 l 7696 2386 l
 7657 2407 l 7618 2427 l 7581 2447 l 7544 2466 l 7510 2484 l
 7477 2501 l 7447 2517 l 7418 2533 l 7390 2547 l 7364 2560 l
 7340 2573 l 7316 2585 l 7293 2597 l 7270 2609 l 7248 2620 l
 7223 2632 l 7199 2644 l 7175 2656 l 7150 2668 l 7125 2680 l
 7100 2693 l 7075 2705 l 7049 2717 l 7023 2730 l 6997 2742 l
 6971 2754 l 6945 2767 l 6919 2779 l 6894 2790 l 6869 2802 l
 6845 2813 l 6821 2824 l 6798 2834 l 6776 2844 l 6755 2853 l
 6734 2862 l 6714 2871 l 6694 2880 l 6675 2888 l 6653 2898 l
 6630 2907 l 6608 2916 l 6585 2926 l 6561 2936 l 6536 2946 l
 6510 2956 l 6482 2967 l 6452 2979 l 6421 2991 l 6390 3003 l
 6358 3015 l 6328 3027 l 6301 3037 l 6278 3046 l 6261 3053 l
 6249 3057 l 6242 3060 l
 6239 3061 l gs col34 s gr 
% Polyline
n 6199 3255 m 6201 3254 l 6207 3252 l 6217 3249 l 6232 3243 l 6252 3236 l
 6278 3226 l 6309 3215 l 6344 3202 l 6381 3189 l 6420 3174 l
 6460 3160 l 6500 3145 l 6539 3131 l 6576 3117 l 6611 3103 l
 6645 3091 l 6677 3079 l 6707 3067 l 6735 3056 l 6762 3045 l
 6788 3035 l 6813 3025 l 6838 3015 l 6862 3005 l 6885 2995 l
 6909 2984 l 6933 2974 l 6957 2964 l 6981 2953 l 7006 2942 l
 7031 2930 l 7056 2919 l 7082 2907 l 7107 2895 l 7133 2883 l
 7159 2870 l 7185 2858 l 7211 2845 l 7237 2833 l 7262 2821 l
 7287 2808 l 7311 2796 l 7335 2785 l 7358 2773 l 7380 2762 l
 7401 2751 l 7422 2741 l 7442 2730 l 7461 2720 l 7480 2711 l
 7499 2701 l 7522 2689 l 7545 2677 l 7567 2665 l 7590 2653 l
 7614 2641 l 7638 2628 l 7663 2614 l 7690 2599 l 7719 2584 l
 7748 2568 l 7778 2552 l 7808 2536 l 7836 2521 l 7861 2507 l
 7882 2495 l 7899 2486 l 7910 2480 l 7916 2477 l
 7919 2475 l gs col34 s gr 
% Polyline
n 6165 3361 m 6167 3360 l 6172 3359 l 6182 3356 l 6196 3352 l 6216 3346 l
 6242 3339 l 6272 3330 l 6308 3320 l 6346 3309 l 6387 3297 l
 6430 3284 l 6473 3271 l 6516 3259 l 6557 3246 l 6598 3234 l
 6636 3222 l 6673 3211 l 6707 3200 l 6740 3189 l 6771 3179 l
 6800 3169 l 6828 3160 l 6855 3150 l 6881 3141 l 6906 3132 l
 6931 3122 l 6956 3113 l 6982 3102 l 7008 3092 l 7034 3081 l
 7060 3069 l 7087 3058 l 7114 3046 l 7141 3034 l 7168 3021 l
 7195 3009 l 7222 2996 l 7249 2983 l 7276 2970 l 7303 2957 l
 7329 2944 l 7354 2931 l 7379 2918 l 7403 2906 l 7427 2894 l
 7449 2882 l 7471 2871 l 7492 2860 l 7511 2849 l 7530 2839 l
 7548 2829 l 7566 2820 l 7582 2811 l 7605 2798 l 7628 2786 l
 7649 2774 l 7670 2762 l 7692 2751 l 7713 2738 l 7736 2726 l
 7760 2712 l 7784 2699 l 7808 2685 l 7832 2672 l 7854 2659 l
 7873 2648 l 7888 2640 l 7898 2634 l 7904 2631 l
 7907 2629 l gs col34 s gr 
% Polyline
n 6125 3481 m 6128 3480 l 6134 3479 l 6146 3476 l 6163 3471 l 6185 3466 l
 6213 3458 l 6244 3450 l 6278 3442 l 6313 3432 l 6348 3423 l
 6382 3414 l 6415 3405 l 6446 3397 l 6475 3389 l 6502 3381 l
 6528 3374 l 6552 3367 l 6576 3360 l 6599 3353 l 6622 3345 l
 6644 3338 l 6665 3331 l 6686 3324 l 6708 3317 l 6730 3309 l
 6752 3301 l 6776 3293 l 6799 3284 l 6824 3275 l 6849 3266 l
 6874 3256 l 6900 3246 l 6927 3236 l 6953 3225 l 6979 3215 l
 7006 3204 l 7032 3193 l 7058 3182 l 7084 3171 l 7109 3160 l
 7135 3149 l 7160 3138 l 7184 3127 l 7209 3116 l 7233 3105 l
 7256 3094 l 7279 3083 l 7303 3072 l 7327 3061 l 7353 3048 l
 7379 3035 l 7407 3022 l 7437 3007 l 7469 2991 l 7503 2974 l
 7538 2956 l 7576 2937 l 7615 2918 l 7654 2897 l 7695 2877 l
 7734 2857 l 7772 2837 l 7807 2819 l 7839 2803 l 7865 2790 l
 7886 2779 l 7901 2771 l 7911 2766 l 7917 2763 l
 7919 2762 l gs col34 s gr 
% Polyline
n 6072 3615 m 6074 3614 l 6080 3613 l 6090 3611 l 6105 3607 l 6126 3602 l
 6152 3595 l 6183 3588 l 6218 3579 l 6256 3570 l 6295 3560 l
 6335 3550 l 6375 3540 l 6414 3530 l 6451 3520 l 6487 3511 l
 6520 3502 l 6552 3494 l 6582 3486 l 6611 3478 l 6638 3470 l
 6663 3463 l 6688 3455 l 6712 3448 l 6736 3441 l 6759 3434 l
 6784 3425 l 6810 3417 l 6835 3409 l 6861 3400 l 6887 3390 l
 6914 3381 l 6941 3371 l 6968 3361 l 6996 3351 l 7024 3340 l
 7052 3329 l 7079 3318 l 7107 3307 l 7135 3296 l 7162 3284 l
 7188 3273 l 7214 3262 l 7239 3251 l 7264 3240 l 7288 3229 l
 7311 3219 l 7334 3208 l 7356 3197 l 7378 3187 l 7400 3176 l
 7422 3166 l 7444 3155 l 7466 3143 l 7490 3132 l 7514 3119 l
 7539 3106 l 7566 3092 l 7594 3077 l 7624 3060 l 7655 3044 l
 7687 3026 l 7720 3008 l 7754 2989 l 7786 2971 l 7817 2954 l
 7844 2939 l 7868 2926 l 7887 2915 l 7901 2907 l 7910 2902 l
 7916 2899 l
 7918 2898 l gs col34 s gr 
% Polyline
n 5985 3741 m 5986 3741 l 5989 3740 l 5994 3739 l 6002 3738 l 6013 3736 l
 6028 3733 l 6045 3730 l 6065 3727 l 6089 3722 l 6114 3717 l
 6141 3712 l 6170 3707 l 6200 3700 l 6232 3694 l 6264 3687 l
 6297 3680 l 6332 3672 l 6368 3663 l 6405 3654 l 6444 3644 l
 6485 3633 l 6528 3622 l 6573 3609 l 6619 3595 l 6665 3581 l
 6718 3564 l 6767 3547 l 6811 3532 l 6847 3519 l 6876 3507 l
 6899 3498 l 6916 3490 l 6928 3484 l 6936 3479 l 6943 3475 l
 6948 3471 l 6952 3467 l 6958 3463 l 6966 3458 l 6977 3452 l
 6991 3445 l 7011 3435 l 7036 3424 l 7067 3411 l 7103 3396 l
 7143 3379 l 7185 3362 l 7230 3344 l 7272 3327 l 7307 3313 l
 7336 3302 l 7358 3294 l 7375 3288 l 7387 3284 l 7395 3281 l
 7401 3280 l 7406 3279 l 7410 3278 l 7415 3277 l 7422 3274 l
 7433 3271 l 7448 3265 l 7468 3258 l 7493 3248 l 7523 3235 l
 7557 3221 l 7594 3205 l 7634 3187 l 7671 3171 l 7705 3155 l
 7735 3141 l 7762 3128 l 7786 3116 l 7808 3105 l 7829 3094 l
 7848 3084 l 7865 3075 l 7880 3066 l 7893 3059 l 7904 3053 l
 7912 3049 l 7918 3046 l 7921 3044 l
 7922 3043 l gs col34 s gr 
% Polyline
n 5895 3825 m 5897 3825 l 5903 3824 l 5913 3822 l 5927 3820 l 5948 3817 l
 5974 3813 l 6004 3809 l 6039 3803 l 6076 3797 l 6116 3791 l
 6156 3785 l 6196 3778 l 6235 3771 l 6273 3765 l 6309 3758 l
 6344 3752 l 6377 3745 l 6409 3739 l 6439 3732 l 6469 3726 l
 6497 3719 l 6525 3712 l 6552 3705 l 6580 3698 l 6608 3690 l
 6633 3682 l 6660 3675 l 6687 3666 l 6714 3658 l 6742 3649 l
 6770 3639 l 6799 3629 l 6829 3619 l 6859 3609 l 6890 3598 l
 6921 3587 l 6952 3575 l 6983 3563 l 7015 3552 l 7046 3540 l
 7077 3528 l 7107 3516 l 7137 3504 l 7166 3492 l 7195 3480 l
 7222 3469 l 7249 3458 l 7275 3447 l 7301 3436 l 7325 3426 l
 7349 3415 l 7372 3405 l 7394 3395 l 7419 3384 l 7444 3373 l
 7468 3362 l 7492 3350 l 7517 3339 l 7541 3327 l 7567 3315 l
 7593 3302 l 7620 3288 l 7648 3274 l 7677 3259 l 7707 3244 l
 7737 3229 l 7767 3213 l 7796 3198 l 7824 3184 l 7848 3171 l
 7869 3160 l 7886 3151 l 7898 3145 l 7906 3140 l 7911 3138 l

 7913 3137 l gs col34 s gr 
% Polyline
n 5812 3928 m 5813 3928 l 5815 3928 l 5819 3928 l 5825 3928 l 5834 3928 l
 5844 3927 l 5857 3927 l 5871 3926 l 5888 3925 l 5906 3923 l
 5927 3921 l 5951 3918 l 5979 3915 l 6011 3910 l 6049 3904 l
 6091 3897 l 6139 3888 l 6177 3881 l 6213 3874 l 6248 3867 l
 6278 3861 l 6305 3856 l 6327 3852 l 6345 3849 l 6360 3847 l
 6372 3845 l 6381 3844 l 6389 3843 l 6396 3843 l 6404 3842 l
 6412 3841 l 6423 3839 l 6436 3837 l 6452 3833 l 6473 3828 l
 6499 3822 l 6530 3813 l 6567 3803 l 6609 3791 l 6656 3777 l
 6705 3761 l 6751 3746 l 6795 3731 l 6836 3716 l 6873 3703 l
 6904 3692 l 6931 3681 l 6954 3673 l 6972 3665 l 6986 3659 l
 6998 3654 l 7007 3650 l 7014 3646 l 7021 3642 l 7028 3639 l
 7036 3635 l 7045 3630 l 7057 3624 l 7071 3618 l 7089 3609 l
 7112 3599 l 7139 3587 l 7170 3574 l 7207 3558 l 7248 3540 l
 7293 3521 l 7339 3501 l 7389 3479 l 7437 3458 l 7482 3438 l
 7524 3420 l 7563 3402 l 7599 3386 l 7633 3370 l 7665 3356 l
 7694 3342 l 7723 3329 l 7750 3316 l 7775 3304 l 7799 3293 l
 7821 3282 l 7841 3272 l 7859 3264 l 7875 3256 l 7888 3250 l
 7897 3246 l 7905 3242 l 7909 3240 l 7912 3239 l
 7913 3238 l gs col34 s gr 
% Polyline
n 5785 3961 m 5788 3961 l 5793 3960 l 5804 3960 l 5820 3958 l 5843 3957 l
 5871 3954 l 5904 3952 l 5942 3949 l 5982 3945 l 6025 3941 l
 6069 3937 l 6112 3933 l 6155 3929 l 6196 3925 l 6235 3921 l
 6273 3916 l 6308 3912 l 6342 3907 l 6375 3903 l 6406 3898 l
 6436 3893 l 6465 3888 l 6494 3882 l 6523 3876 l 6552 3870 l
 6579 3864 l 6606 3858 l 6634 3851 l 6662 3844 l 6691 3836 l
 6720 3828 l 6750 3820 l 6780 3811 l 6811 3802 l 6842 3793 l
 6874 3783 l 6906 3773 l 6938 3763 l 6970 3752 l 7001 3742 l
 7033 3731 l 7064 3720 l 7094 3710 l 7124 3699 l 7154 3688 l
 7182 3678 l 7210 3668 l 7236 3657 l 7263 3647 l 7288 3637 l
 7312 3628 l 7336 3618 l 7359 3609 l 7386 3597 l 7412 3586 l
 7438 3575 l 7464 3564 l 7490 3552 l 7516 3540 l 7544 3527 l
 7573 3514 l 7602 3500 l 7634 3485 l 7666 3469 l 7699 3453 l
 7733 3436 l 7767 3419 l 7799 3403 l 7830 3387 l 7858 3373 l
 7881 3361 l 7900 3352 l 7914 3345 l 7924 3340 l 7929 3337 l

 7931 3336 l gs col34 s gr 
% Polyline
n 5699 4035 m 5700 4035 l 5702 4035 l 5707 4035 l 5713 4035 l 5722 4036 l
 5734 4036 l 5748 4036 l 5764 4036 l 5783 4036 l 5803 4036 l
 5825 4035 l 5849 4035 l 5875 4033 l 5903 4032 l 5934 4030 l
 5968 4027 l 6006 4024 l 6047 4019 l 6094 4014 l 6145 4008 l
 6199 4001 l 6246 3994 l 6293 3988 l 6336 3981 l 6375 3976 l
 6410 3971 l 6439 3967 l 6464 3964 l 6484 3961 l 6501 3960 l
 6514 3959 l 6525 3958 l 6535 3958 l 6544 3957 l 6553 3957 l
 6562 3956 l 6574 3955 l 6588 3953 l 6606 3950 l 6628 3945 l
 6655 3940 l 6687 3932 l 6725 3923 l 6768 3912 l 6817 3899 l
 6870 3884 l 6925 3868 l 6980 3851 l 7033 3833 l 7082 3816 l
 7126 3801 l 7165 3786 l 7198 3773 l 7226 3762 l 7249 3752 l
 7269 3743 l 7285 3735 l 7299 3728 l 7311 3721 l 7322 3715 l
 7332 3708 l 7344 3702 l 7356 3694 l 7371 3686 l 7388 3678 l
 7409 3667 l 7433 3656 l 7460 3643 l 7492 3628 l 7527 3613 l
 7566 3596 l 7605 3578 l 7645 3561 l 7704 3535 l 7754 3513 l
 7794 3495 l 7826 3480 l 7851 3468 l 7872 3459 l 7888 3451 l
 7900 3444 l 7910 3439 l 7918 3435 l 7923 3432 l 7927 3430 l
 7929 3428 l 7930 3427 l
 7931 3427 l gs col34 s gr 
% Polyline
n 5592 4095 m 5594 4095 l 5600 4095 l 5609 4095 l 5624 4095 l 5644 4095 l
 5670 4094 l 5701 4094 l 5737 4094 l 5777 4093 l 5819 4093 l
 5863 4092 l 5907 4091 l 5951 4090 l 5994 4089 l 6036 4088 l
 6076 4086 l 6114 4084 l 6151 4083 l 6185 4081 l 6218 4079 l
 6250 4076 l 6280 4074 l 6310 4071 l 6338 4068 l 6366 4064 l
 6394 4061 l 6422 4057 l 6450 4052 l 6478 4048 l 6506 4043 l
 6535 4037 l 6565 4032 l 6594 4026 l 6625 4019 l 6656 4012 l
 6687 4005 l 6719 3997 l 6751 3989 l 6783 3981 l 6815 3972 l
 6848 3964 l 6880 3955 l 6912 3945 l 6944 3936 l 6975 3927 l
 7005 3917 l 7035 3908 l 7065 3898 l 7093 3889 l 7121 3879 l
 7149 3870 l 7175 3860 l 7201 3851 l 7226 3842 l 7251 3832 l
 7278 3822 l 7304 3812 l 7331 3801 l 7357 3790 l 7384 3779 l
 7412 3767 l 7441 3755 l 7471 3742 l 7503 3727 l 7536 3713 l
 7571 3697 l 7607 3680 l 7644 3663 l 7682 3645 l 7720 3627 l
 7757 3610 l 7792 3593 l 7825 3577 l 7854 3564 l 7878 3552 l
 7897 3543 l 7911 3536 l 7921 3532 l 7926 3529 l
 7928 3528 l gs col34 s gr 
% Polyline
n 5432 4175 m 5433 4175 l 5436 4175 l 5441 4175 l 5449 4175 l 5460 4175 l
 5474 4176 l 5491 4176 l 5510 4176 l 5532 4176 l 5557 4176 l
 5583 4176 l 5612 4176 l 5642 4176 l 5673 4175 l 5707 4175 l
 5743 4174 l 5782 4172 l 5823 4171 l 5868 4169 l 5917 4166 l
 5970 4163 l 6026 4159 l 6085 4155 l 6136 4151 l 6186 4147 l
 6232 4143 l 6275 4140 l 6313 4137 l 6346 4134 l 6374 4132 l
 6398 4131 l 6418 4130 l 6434 4129 l 6448 4129 l 6459 4129 l
 6469 4129 l 6478 4129 l 6487 4129 l 6497 4129 l 6509 4129 l
 6522 4128 l 6538 4126 l 6558 4124 l 6581 4121 l 6609 4117 l
 6642 4112 l 6679 4105 l 6721 4098 l 6767 4089 l 6815 4079 l
 6865 4068 l 6922 4054 l 6975 4041 l 7023 4027 l 7064 4015 l
 7099 4004 l 7126 3995 l 7148 3986 l 7165 3979 l 7178 3973 l
 7187 3968 l 7195 3963 l 7201 3959 l 7207 3954 l 7213 3949 l
 7222 3944 l 7233 3937 l 7248 3930 l 7267 3921 l 7291 3910 l
 7320 3898 l 7354 3884 l 7393 3869 l 7435 3852 l 7479 3835 l
 7530 3815 l 7577 3797 l 7620 3780 l 7659 3765 l 7693 3751 l
 7723 3739 l 7751 3727 l 7777 3717 l 7800 3708 l 7821 3699 l
 7841 3691 l 7858 3684 l 7874 3677 l 7886 3672 l 7897 3668 l
 7904 3665 l 7909 3663 l 7912 3662 l
 7913 3661 l gs col34 s gr 
% Polyline
n 7099 4095 m 7102 4094 l 7108 4092 l 7119 4089 l 7136 4085 l 7158 4078 l
 7186 4071 l 7218 4062 l 7253 4052 l 7290 4041 l 7328 4031 l
 7365 4020 l 7401 4010 l 7436 4000 l 7468 3991 l 7497 3983 l
 7524 3975 l 7550 3968 l 7573 3962 l 7594 3956 l 7613 3950 l
 7632 3945 l 7649 3940 l 7665 3936 l 7688 3929 l 7710 3923 l
 7731 3917 l 7751 3911 l 7771 3905 l 7792 3899 l 7813 3893 l
 7835 3887 l 7857 3881 l 7877 3875 l 7896 3869 l 7911 3865 l
 7922 3862 l 7928 3860 l
 7931 3859 l gs col34 s gr 
% Polyline
n 5272 3948 m 5273 3948 l 5277 3950 l 5286 3953 l 5302 3958 l 5323 3965 l
 5346 3973 l 5371 3981 l 5394 3989 l 5415 3996 l 5434 4001 l
 5452 4007 l 5468 4011 l 5483 4015 l 5497 4018 l 5512 4022 l
 5527 4025 l 5542 4027 l 5559 4030 l 5578 4033 l 5598 4036 l
 5621 4039 l 5644 4042 l 5666 4044 l 5686 4047 l 5701 4048 l
 5710 4049 l 5714 4050 l
 5715 4050 l gs col34 s gr 
% Polyline
n 6252 3068 m 6251 3071 l 6249 3078 l 6244 3090 l 6238 3108 l 6229 3133 l
 6218 3163 l 6206 3198 l 6192 3237 l 6177 3277 l 6162 3319 l
 6147 3360 l 6132 3399 l 6118 3437 l 6105 3472 l 6092 3505 l
 6080 3535 l 6069 3562 l 6058 3588 l 6048 3611 l 6038 3633 l
 6029 3653 l 6019 3673 l 6010 3691 l 5999 3712 l 5987 3732 l
 5975 3752 l 5963 3771 l 5951 3789 l 5938 3808 l 5924 3826 l
 5910 3843 l 5896 3860 l 5881 3877 l 5866 3892 l 5851 3908 l
 5836 3922 l 5820 3936 l 5805 3950 l 5789 3963 l 5774 3975 l
 5759 3987 l 5743 3999 l 5727 4011 l 5712 4021 l 5697 4032 l
 5681 4043 l 5664 4054 l 5646 4065 l 5628 4077 l 5608 4088 l
 5588 4100 l 5567 4111 l 5545 4123 l 5523 4134 l 5499 4145 l
 5476 4156 l 5452 4167 l 5427 4176 l 5403 4186 l 5378 4194 l
 5354 4202 l 5329 4210 l 5304 4217 l 5279 4223 l 5253 4229 l
 5231 4233 l 5208 4237 l 5185 4241 l 5160 4244 l 5134 4247 l
 5106 4250 l 5077 4253 l 5045 4255 l 5011 4257 l 4975 4259 l
 4937 4260 l 4896 4262 l 4854 4263 l 4810 4264 l 4766 4265 l
 4723 4266 l 4681 4267 l 4642 4267 l 4608 4267 l 4579 4268 l
 4556 4268 l 4539 4268 l 4528 4268 l 4522 4268 l
 4519 4268 l gs col34 s gr 
% Polyline
n 4897 4264 m 4899 4264 l 4903 4264 l 4912 4264 l 4924 4264 l 4943 4265 l
 4967 4265 l 4997 4265 l 5033 4266 l 5074 4266 l 5120 4267 l
 5170 4267 l 5224 4268 l 5280 4268 l 5338 4269 l 5397 4269 l
 5456 4270 l 5514 4270 l 5571 4270 l 5626 4270 l 5679 4270 l
 5731 4269 l 5780 4269 l 5827 4269 l 5872 4268 l 5915 4267 l
 5955 4266 l 5994 4265 l 6032 4264 l 6067 4262 l 6102 4261 l
 6135 4259 l 6168 4257 l 6200 4255 l 6231 4252 l 6262 4250 l
 6298 4247 l 6334 4243 l 6370 4239 l 6406 4235 l 6441 4230 l
 6477 4225 l 6513 4220 l 6549 4215 l 6585 4209 l 6621 4203 l
 6657 4196 l 6693 4189 l 6729 4182 l 6764 4175 l 6799 4168 l
 6834 4160 l 6868 4152 l 6901 4144 l 6934 4136 l 6965 4128 l
 6996 4120 l 7026 4112 l 7055 4104 l 7084 4096 l 7111 4088 l
 7138 4080 l 7163 4072 l 7189 4064 l 7213 4056 l 7237 4048 l
 7265 4038 l 7292 4029 l 7319 4019 l 7346 4010 l 7373 3999 l
 7401 3988 l 7430 3977 l 7460 3965 l 7492 3952 l 7525 3939 l
 7559 3924 l 7595 3909 l 7631 3894 l 7669 3877 l 7706 3861 l
 7742 3845 l 7777 3830 l 7809 3816 l 7837 3803 l 7861 3793 l
 7880 3784 l 7894 3778 l 7903 3774 l 7908 3772 l
 7910 3771 l gs col34 s gr 
% Polyline
15.000 slw
n 11524 792 m 11527 792 l 11533 792 l 11543 793 l 11559 794 l 11582 795 l
 11610 796 l 11643 797 l 11680 799 l 11720 801 l 11762 803 l
 11804 805 l 11846 807 l 11886 809 l 11925 811 l 11962 813 l
 11996 815 l 12028 817 l 12058 818 l 12086 820 l 12112 822 l
 12137 824 l 12160 826 l 12182 828 l 12203 830 l 12224 832 l
 12249 834 l 12275 837 l 12300 841 l 12325 844 l 12349 848 l
 12374 852 l 12399 856 l 12423 861 l 12447 867 l 12471 872 l
 12495 878 l 12518 884 l 12540 891 l 12562 898 l 12584 905 l
 12605 912 l 12625 920 l 12645 928 l 12664 936 l 12684 944 l
 12701 952 l 12719 961 l 12738 970 l 12757 980 l 12776 990 l
 12796 1001 l 12816 1012 l 12837 1024 l 12857 1037 l 12878 1050 l
 12899 1063 l 12919 1077 l 12939 1090 l 12959 1104 l 12978 1118 l
 12996 1132 l 13013 1146 l 13030 1160 l 13046 1173 l 13061 1187 l
 13076 1200 l 13089 1214 l 13104 1228 l 13118 1244 l 13131 1259 l
 13145 1275 l 13158 1292 l 13170 1309 l 13183 1326 l 13195 1345 l
 13207 1363 l 13218 1382 l 13228 1400 l 13239 1419 l 13248 1438 l
 13257 1456 l 13265 1474 l 13273 1492 l 13281 1509 l 13287 1526 l
 13294 1543 l 13300 1560 l 13307 1579 l 13313 1598 l 13320 1618 l
 13326 1638 l 13332 1659 l 13338 1680 l 13344 1702 l 13350 1724 l
 13356 1747 l 13361 1769 l 13366 1792 l 13371 1814 l 13375 1836 l
 13379 1857 l 13383 1877 l 13387 1898 l 13390 1917 l 13393 1937 l
 13396 1956 l 13399 1976 l 13401 1996 l 13404 2018 l 13407 2041 l
 13409 2066 l 13412 2092 l 13415 2121 l 13418 2152 l 13421 2184 l
 13423 2215 l 13426 2245 l 13428 2271 l 13430 2291 l 13431 2306 l
 13432 2314 l 13432 2317 l
 13432 2318 l gs col4 s gr 
% Polyline
n 11375 832 m 11375 835 l 11376 842 l 11376 853 l 11378 871 l 11379 894 l
 11381 923 l 11384 955 l 11386 989 l 11389 1025 l 11392 1061 l
 11395 1096 l 11398 1129 l 11401 1160 l 11405 1189 l 11408 1216 l
 11411 1242 l 11414 1266 l 11418 1289 l 11421 1311 l 11425 1333 l
 11430 1355 l 11434 1378 l 11440 1402 l 11445 1426 l 11452 1450 l
 11458 1475 l 11465 1500 l 11473 1525 l 11480 1551 l 11488 1576 l
 11497 1602 l 11505 1626 l 11514 1651 l 11523 1674 l 11532 1696 l
 11540 1718 l 11549 1738 l 11557 1758 l 11565 1776 l 11574 1793 l
 11582 1810 l 11592 1830 l 11602 1849 l 11613 1867 l 11624 1885 l
 11635 1903 l 11647 1921 l 11659 1937 l 11671 1954 l 11683 1969 l
 11696 1984 l 11708 1998 l 11720 2012 l 11732 2024 l 11744 2036 l
 11756 2047 l 11767 2058 l 11778 2067 l 11789 2076 l 11800 2086 l
 11813 2096 l 11825 2105 l 11839 2115 l 11853 2125 l 11868 2135 l
 11884 2145 l 11901 2155 l 11918 2165 l 11935 2174 l 11953 2183 l
 11971 2192 l 11989 2200 l 12008 2208 l 12027 2216 l 12047 2224 l
 12064 2230 l 12082 2236 l 12100 2242 l 12119 2248 l 12140 2254 l
 12161 2260 l 12183 2267 l 12206 2273 l 12230 2279 l 12254 2285 l
 12279 2291 l 12304 2297 l 12329 2302 l 12354 2308 l 12380 2313 l
 12404 2318 l 12429 2322 l 12453 2327 l 12477 2331 l 12500 2335 l
 12523 2338 l 12545 2342 l 12568 2345 l 12590 2348 l 12613 2351 l
 12637 2353 l 12661 2356 l 12685 2359 l 12710 2361 l 12735 2364 l
 12760 2366 l 12786 2368 l 12812 2370 l 12837 2372 l 12862 2374 l
 12887 2376 l 12912 2378 l 12936 2379 l 12959 2381 l 12982 2382 l
 13004 2383 l 13025 2385 l 13047 2386 l 13068 2387 l 13090 2388 l
 13113 2390 l 13137 2391 l 13161 2392 l 13186 2394 l 13213 2396 l
 13242 2397 l 13273 2399 l 13306 2401 l 13341 2403 l 13376 2406 l
 13412 2408 l 13445 2410 l 13476 2412 l 13502 2413 l 13522 2414 l
 13536 2415 l 13543 2416 l
 13547 2416 l gs col10 s gr 
% Polyline
7.500 slw
 [60] 0 sd
n 11524 704 m 11527 704 l 11533 704 l 11544 704 l 11561 704 l 11584 704 l
 11613 704 l 11647 705 l 11685 705 l 11727 705 l 11770 706 l
 11814 706 l 11857 707 l 11899 707 l 11940 708 l 11978 708 l
 12013 709 l 12047 710 l 12077 710 l 12106 711 l 12133 712 l
 12158 713 l 12182 715 l 12205 716 l 12227 717 l 12248 719 l
 12274 721 l 12300 723 l 12326 726 l 12351 729 l 12376 732 l
 12401 736 l 12426 740 l 12451 744 l 12475 749 l 12500 755 l
 12523 761 l 12547 767 l 12569 773 l 12591 780 l 12613 787 l
 12633 794 l 12654 802 l 12674 810 l 12693 818 l 12713 826 l
 12732 835 l 12752 845 l 12773 855 l 12794 866 l 12815 877 l
 12837 889 l 12860 902 l 12882 915 l 12905 929 l 12928 942 l
 12950 956 l 12972 971 l 12994 985 l 13014 999 l 13034 1012 l
 13053 1026 l 13070 1039 l 13087 1052 l 13103 1064 l 13118 1076 l
 13134 1090 l 13150 1103 l 13165 1117 l 13180 1131 l 13194 1146 l
 13208 1161 l 13222 1176 l 13235 1192 l 13248 1209 l 13260 1226 l
 13272 1243 l 13283 1261 l 13294 1278 l 13304 1296 l 13313 1314 l
 13322 1332 l 13331 1351 l 13339 1370 l 13346 1386 l 13352 1403 l
 13359 1421 l 13366 1439 l 13373 1458 l 13380 1479 l 13387 1500 l
 13394 1522 l 13401 1544 l 13408 1567 l 13415 1591 l 13421 1615 l
 13428 1639 l 13434 1663 l 13441 1687 l 13446 1711 l 13452 1734 l
 13457 1757 l 13462 1779 l 13467 1801 l 13472 1823 l 13476 1844 l
 13480 1866 l 13484 1887 l 13488 1909 l 13492 1932 l 13496 1955 l
 13500 1980 l 13504 2006 l 13508 2035 l 13512 2065 l 13517 2096 l
 13521 2130 l 13526 2164 l 13530 2198 l 13534 2231 l 13538 2262 l
 13542 2289 l 13544 2311 l 13546 2328 l 13548 2339 l 13549 2345 l

 13549 2348 l gs col4 s gr  [] 0 sd
% Polyline
 [60] 0 sd
n 11260 823 m 11260 826 l 11261 832 l 11262 844 l 11264 861 l 11266 885 l
 11269 914 l 11272 948 l 11276 986 l 11280 1025 l 11285 1066 l
 11289 1106 l 11293 1145 l 11298 1182 l 11302 1218 l 11306 1251 l
 11310 1282 l 11314 1311 l 11318 1338 l 11322 1364 l 11326 1388 l
 11330 1411 l 11334 1434 l 11339 1456 l 11344 1480 l 11349 1504 l
 11354 1528 l 11360 1552 l 11366 1577 l 11373 1601 l 11380 1626 l
 11387 1650 l 11394 1674 l 11402 1699 l 11410 1722 l 11418 1746 l
 11426 1769 l 11434 1790 l 11442 1812 l 11450 1832 l 11458 1851 l
 11465 1869 l 11473 1887 l 11480 1903 l 11488 1919 l 11495 1934 l
 11504 1951 l 11513 1968 l 11523 1985 l 11533 2001 l 11543 2017 l
 11554 2033 l 11565 2049 l 11576 2064 l 11588 2079 l 11601 2093 l
 11613 2107 l 11626 2120 l 11639 2132 l 11652 2144 l 11665 2156 l
 11678 2167 l 11692 2178 l 11706 2188 l 11721 2198 l 11736 2209 l
 11752 2220 l 11769 2231 l 11787 2242 l 11806 2253 l 11826 2265 l
 11847 2276 l 11868 2288 l 11889 2299 l 11911 2310 l 11933 2321 l
 11955 2331 l 11976 2340 l 11997 2349 l 12018 2358 l 12038 2366 l
 12058 2374 l 12076 2380 l 12095 2387 l 12114 2393 l 12133 2399 l
 12153 2405 l 12174 2411 l 12195 2417 l 12217 2423 l 12239 2428 l
 12262 2433 l 12285 2439 l 12308 2443 l 12330 2448 l 12353 2452 l
 12375 2456 l 12397 2460 l 12419 2463 l 12441 2466 l 12462 2469 l
 12484 2472 l 12503 2475 l 12523 2477 l 12544 2479 l 12565 2481 l
 12587 2484 l 12610 2486 l 12633 2488 l 12657 2490 l 12682 2492 l
 12707 2493 l 12732 2495 l 12758 2497 l 12783 2499 l 12809 2500 l
 12834 2502 l 12859 2503 l 12884 2504 l 12908 2505 l 12932 2506 l
 12955 2507 l 12978 2508 l 13002 2509 l 13023 2510 l 13045 2511 l
 13067 2512 l 13089 2513 l 13113 2513 l 13138 2514 l 13165 2515 l
 13193 2516 l 13223 2517 l 13255 2518 l 13289 2518 l 13324 2519 l
 13360 2520 l 13397 2521 l 13432 2522 l 13466 2523 l 13496 2524 l
 13523 2525 l 13544 2525 l 13559 2526 l 13570 2526 l 13575 2526 l

 13578 2526 l gs col10 s gr  [] 0 sd
% Polyline
15.000 slw
n 11847 2612 m 11849 2610 l 11854 2605 l 11862 2597 l 11875 2584 l 11891 2569 l
 11910 2550 l 11931 2529 l 11953 2508 l 11975 2486 l 11996 2466 l
 12016 2446 l 12035 2428 l 12053 2411 l 12069 2396 l 12085 2382 l
 12099 2369 l 12113 2356 l 12127 2344 l 12140 2333 l 12155 2320 l
 12170 2308 l 12186 2295 l 12202 2283 l 12219 2270 l 12236 2257 l
 12254 2244 l 12272 2231 l 12290 2219 l 12309 2207 l 12328 2195 l
 12347 2183 l 12366 2172 l 12385 2161 l 12403 2151 l 12421 2141 l
 12440 2132 l 12458 2123 l 12475 2115 l 12493 2107 l 12511 2099 l
 12530 2091 l 12549 2083 l 12570 2075 l 12590 2067 l 12612 2059 l
 12634 2051 l 12656 2043 l 12678 2035 l 12701 2028 l 12723 2021 l
 12744 2014 l 12765 2008 l 12786 2002 l 12806 1996 l 12826 1991 l
 12845 1985 l 12864 1981 l 12883 1976 l 12902 1972 l 12921 1967 l
 12940 1963 l 12960 1959 l 12980 1955 l 13001 1951 l 13022 1947 l
 13043 1943 l 13065 1939 l 13086 1936 l 13107 1932 l 13128 1929 l
 13149 1926 l 13169 1924 l 13189 1921 l 13208 1918 l 13227 1916 l
 13246 1914 l 13265 1912 l 13284 1910 l 13303 1908 l 13323 1906 l
 13344 1904 l 13366 1902 l 13390 1900 l 13416 1898 l 13444 1896 l
 13474 1894 l 13506 1891 l 13538 1889 l 13571 1887 l 13602 1885 l
 13630 1883 l 13654 1881 l 13673 1880 l 13686 1879 l 13693 1878 l

 13696 1878 l gs col43 s gr 
% Polyline
7.500 slw
 [60] 0 sd
n 11990 2629 m 11991 2628 l 11994 2625 l 12000 2619 l 12008 2612 l 12018 2601 l
 12031 2589 l 12045 2575 l 12062 2559 l 12080 2543 l 12099 2526 l
 12119 2508 l 12141 2489 l 12165 2469 l 12192 2448 l 12221 2425 l
 12253 2402 l 12287 2378 l 12321 2355 l 12352 2335 l 12379 2318 l
 12400 2304 l 12416 2294 l 12428 2287 l 12436 2282 l 12442 2279 l
 12446 2276 l 12451 2273 l 12457 2271 l 12465 2266 l 12477 2261 l
 12493 2253 l 12515 2243 l 12543 2230 l 12575 2216 l 12610 2201 l
 12645 2187 l 12677 2175 l 12704 2165 l 12726 2158 l 12742 2153 l
 12753 2150 l 12760 2148 l 12765 2147 l 12769 2147 l 12773 2147 l
 12778 2147 l 12786 2145 l 12797 2143 l 12813 2140 l 12835 2135 l
 12863 2129 l 12896 2121 l 12933 2113 l 12970 2105 l 13004 2098 l
 13033 2092 l 13055 2087 l 13072 2084 l 13084 2081 l 13092 2079 l
 13098 2077 l 13102 2076 l 13106 2075 l 13111 2074 l 13120 2072 l
 13133 2070 l 13151 2068 l 13175 2065 l 13206 2061 l 13244 2058 l
 13285 2054 l 13323 2051 l 13360 2049 l 13395 2048 l 13428 2047 l
 13458 2046 l 13487 2046 l 13514 2047 l 13540 2047 l 13564 2048 l
 13588 2048 l 13610 2049 l 13630 2050 l 13648 2051 l 13663 2052 l
 13676 2053 l 13685 2053 l 13691 2054 l 13694 2054 l
 13696 2054 l gs col43 s gr  [] 0 sd
% Polyline
n 9303 1641 m 9300 1642 l 9293 1645 l 9282 1649 l 9264 1656 l 9239 1666 l
 9209 1677 l 9175 1691 l 9137 1706 l 9096 1721 l 9055 1737 l
 9015 1753 l 8975 1768 l 8938 1783 l 8902 1797 l 8870 1810 l
 8839 1822 l 8811 1833 l 8785 1844 l 8760 1854 l 8737 1863 l
 8716 1872 l 8695 1881 l 8675 1889 l 8651 1899 l 8629 1909 l
 8606 1919 l 8584 1929 l 8561 1939 l 8539 1949 l 8517 1959 l
 8495 1969 l 8473 1979 l 8452 1989 l 8431 2000 l 8411 2010 l
 8391 2019 l 8372 2029 l 8353 2038 l 8335 2047 l 8318 2056 l
 8301 2065 l 8285 2073 l 8269 2082 l 8252 2090 l 8236 2099 l
 8219 2108 l 8201 2117 l 8183 2127 l 8163 2138 l 8141 2150 l
 8118 2162 l 8094 2176 l 8068 2190 l 8041 2204 l 8014 2219 l
 7989 2233 l 7966 2246 l 7946 2256 l 7931 2265 l 7921 2270 l
 7915 2274 l
 7912 2275 l gs col34 s gr 
% Polyline
n 7919 2487 m 7920 2486 l 7923 2485 l 7928 2483 l 7935 2479 l 7945 2474 l
 7957 2468 l 7971 2460 l 7988 2452 l 8006 2442 l 8025 2433 l
 8046 2422 l 8069 2410 l 8093 2398 l 8119 2385 l 8147 2370 l
 8178 2354 l 8212 2336 l 8249 2317 l 8288 2297 l 8327 2277 l
 8365 2257 l 8398 2240 l 8425 2225 l 8448 2213 l 8466 2203 l
 8479 2196 l 8490 2190 l 8498 2185 l 8506 2180 l 8513 2176 l
 8521 2171 l 8531 2165 l 8545 2158 l 8562 2149 l 8584 2138 l
 8610 2125 l 8642 2109 l 8677 2092 l 8714 2075 l 8754 2057 l
 8789 2041 l 8818 2029 l 8841 2019 l 8857 2013 l 8868 2009 l
 8875 2007 l 8879 2006 l 8881 2006 l 8884 2006 l 8887 2005 l
 8893 2003 l 8903 2000 l 8918 1995 l 8938 1988 l 8964 1979 l
 8994 1967 l 9028 1954 l 9062 1941 l 9094 1929 l 9123 1918 l
 9150 1907 l 9175 1898 l 9198 1890 l 9219 1882 l 9238 1874 l
 9257 1867 l 9274 1861 l 9289 1855 l 9303 1850 l 9314 1846 l
 9322 1843 l 9327 1841 l 9331 1840 l
 9332 1839 l gs col34 s gr 
% Polyline
n 7912 2623 m 7915 2622 l 7920 2619 l 7931 2614 l 7946 2607 l 7966 2597 l
 7991 2586 l 8019 2572 l 8050 2558 l 8081 2543 l 8112 2529 l
 8142 2514 l 8171 2501 l 8199 2488 l 8224 2475 l 8248 2464 l
 8271 2453 l 8292 2443 l 8312 2433 l 8332 2424 l 8351 2415 l
 8370 2406 l 8390 2395 l 8411 2385 l 8433 2375 l 8454 2364 l
 8476 2353 l 8499 2342 l 8521 2331 l 8544 2320 l 8567 2309 l
 8590 2297 l 8613 2286 l 8635 2275 l 8657 2265 l 8678 2255 l
 8698 2245 l 8717 2236 l 8735 2227 l 8753 2219 l 8770 2211 l
 8786 2204 l 8806 2195 l 8825 2186 l 8845 2178 l 8864 2169 l
 8884 2161 l 8903 2153 l 8922 2145 l 8941 2137 l 8960 2130 l
 8978 2123 l 8996 2116 l 9013 2110 l 9029 2103 l 9045 2097 l
 9060 2092 l 9075 2086 l 9090 2081 l 9105 2075 l 9121 2069 l
 9138 2062 l 9157 2055 l 9177 2048 l 9199 2039 l 9223 2030 l
 9248 2021 l 9273 2012 l 9295 2003 l 9314 1996 l 9327 1991 l
 9335 1988 l 9338 1987 l
 9339 1987 l gs col34 s gr 
% Polyline
n 7924 2765 m 7927 2764 l 7932 2761 l 7942 2756 l 7957 2749 l 7977 2739 l
 8002 2727 l 8031 2713 l 8064 2698 l 8097 2681 l 8132 2665 l
 8166 2648 l 8200 2632 l 8232 2617 l 8262 2603 l 8290 2590 l
 8316 2577 l 8340 2566 l 8363 2555 l 8384 2545 l 8404 2536 l
 8424 2527 l 8442 2519 l 8461 2511 l 8482 2501 l 8503 2492 l
 8525 2482 l 8546 2473 l 8568 2464 l 8590 2454 l 8612 2445 l
 8634 2436 l 8657 2427 l 8679 2418 l 8701 2409 l 8723 2400 l
 8745 2392 l 8767 2383 l 8788 2375 l 8809 2367 l 8829 2360 l
 8849 2352 l 8869 2345 l 8889 2337 l 8907 2331 l 8926 2324 l
 8946 2317 l 8966 2309 l 8988 2302 l 9011 2293 l 9036 2284 l
 9063 2275 l 9091 2265 l 9122 2254 l 9154 2242 l 9188 2231 l
 9221 2219 l 9253 2208 l 9284 2197 l 9310 2188 l 9332 2180 l
 9349 2174 l 9360 2170 l 9366 2168 l
 9369 2167 l gs col34 s gr 
% Polyline
n 7912 2901 m 7913 2900 l 7916 2899 l 7920 2897 l 7928 2893 l 7938 2889 l
 7951 2882 l 7967 2874 l 7986 2865 l 8008 2855 l 8032 2843 l
 8058 2831 l 8086 2817 l 8116 2803 l 8146 2789 l 8178 2774 l
 8210 2759 l 8243 2744 l 8277 2728 l 8312 2712 l 8348 2695 l
 8385 2678 l 8423 2661 l 8463 2643 l 8504 2625 l 8546 2606 l
 8589 2587 l 8632 2569 l 8684 2547 l 8732 2527 l 8774 2510 l
 8808 2496 l 8836 2485 l 8858 2476 l 8873 2470 l 8885 2466 l
 8893 2464 l 8898 2463 l 8902 2462 l 8906 2461 l 8911 2460 l
 8917 2458 l 8926 2456 l 8939 2452 l 8955 2446 l 8976 2438 l
 9002 2429 l 9032 2417 l 9066 2405 l 9100 2392 l 9145 2375 l
 9185 2360 l 9219 2347 l 9248 2336 l 9273 2327 l 9295 2319 l
 9314 2311 l 9330 2305 l 9345 2300 l 9357 2295 l 9367 2291 l
 9375 2288 l 9380 2287 l 9383 2285 l
 9384 2285 l gs col34 s gr 
% Polyline
n 7922 3146 m 7923 3145 l 7927 3144 l 7932 3142 l 7941 3138 l 7952 3133 l
 7966 3127 l 7982 3119 l 8000 3111 l 8020 3103 l 8041 3093 l
 8064 3083 l 8087 3073 l 8111 3062 l 8137 3051 l 8165 3038 l
 8194 3025 l 8225 3011 l 8258 2996 l 8292 2981 l 8329 2964 l
 8361 2949 l 8388 2937 l 8409 2927 l 8423 2920 l 8433 2915 l
 8438 2912 l 8441 2910 l 8443 2909 l 8444 2908 l 8447 2906 l
 8453 2903 l 8463 2898 l 8478 2891 l 8499 2882 l 8527 2870 l
 8561 2855 l 8600 2839 l 8636 2824 l 8670 2811 l 8700 2799 l
 8726 2788 l 8746 2780 l 8762 2774 l 8775 2769 l 8784 2765 l
 8791 2763 l 8797 2760 l 8803 2758 l 8810 2755 l 8820 2751 l
 8833 2747 l 8850 2740 l 8872 2733 l 8900 2723 l 8933 2712 l
 8970 2699 l 9011 2685 l 9052 2672 l 9091 2659 l 9127 2648 l
 9161 2637 l 9192 2628 l 9220 2620 l 9247 2612 l 9273 2605 l
 9297 2599 l 9319 2592 l 9340 2587 l 9360 2582 l 9377 2577 l
 9391 2574 l 9403 2571 l 9412 2569 l 9417 2567 l 9421 2566 l

 9422 2566 l gs col34 s gr 
% Polyline
n 7912 3037 m 7914 3036 l 7917 3034 l 7923 3031 l 7932 3026 l 7945 3019 l
 7960 3010 l 7979 3000 l 7999 2989 l 8021 2977 l 8045 2964 l
 8070 2951 l 8096 2937 l 8124 2923 l 8153 2908 l 8185 2892 l
 8218 2875 l 8255 2858 l 8293 2839 l 8333 2821 l 8372 2803 l
 8408 2787 l 8439 2774 l 8464 2763 l 8483 2755 l 8498 2749 l
 8507 2746 l 8513 2744 l 8517 2742 l 8520 2742 l 8523 2741 l
 8527 2740 l 8534 2738 l 8543 2735 l 8558 2730 l 8577 2722 l
 8603 2713 l 8635 2700 l 8672 2686 l 8712 2670 l 8753 2654 l
 8792 2639 l 8827 2625 l 8856 2614 l 8881 2604 l 8901 2596 l
 8917 2590 l 8929 2585 l 8940 2581 l 8949 2577 l 8959 2574 l
 8969 2570 l 8981 2565 l 8995 2559 l 9014 2553 l 9036 2544 l
 9062 2534 l 9092 2523 l 9125 2510 l 9159 2498 l 9203 2482 l
 9240 2469 l 9270 2458 l 9294 2450 l 9313 2444 l 9328 2439 l
 9341 2435 l 9351 2432 l 9359 2430 l 9365 2429 l 9369 2428 l
 9371 2427 l
 9372 2427 l gs col34 s gr 
% Polyline
n 7915 3235 m 7916 3235 l 7919 3233 l 7923 3231 l 7931 3228 l 7941 3224 l
 7953 3219 l 7969 3212 l 7986 3204 l 8006 3196 l 8028 3187 l
 8051 3177 l 8076 3166 l 8102 3155 l 8129 3144 l 8157 3132 l
 8187 3120 l 8218 3107 l 8251 3093 l 8287 3079 l 8324 3063 l
 8364 3047 l 8406 3030 l 8449 3013 l 8496 2994 l 8539 2977 l
 8578 2962 l 8612 2949 l 8640 2938 l 8663 2929 l 8681 2922 l
 8695 2916 l 8706 2912 l 8715 2909 l 8723 2906 l 8730 2903 l
 8739 2900 l 8749 2896 l 8762 2891 l 8777 2885 l 8797 2878 l
 8821 2869 l 8850 2858 l 8882 2847 l 8916 2834 l 8952 2821 l
 8998 2805 l 9036 2791 l 9065 2781 l 9086 2774 l 9099 2770 l
 9106 2768 l 9110 2767 l 9111 2767 l 9112 2767 l 9114 2766 l
 9119 2765 l 9129 2763 l 9144 2758 l 9165 2752 l 9191 2744 l
 9221 2735 l 9254 2725 l 9284 2717 l 9309 2710 l 9332 2704 l
 9351 2699 l 9368 2694 l 9384 2690 l 9398 2687 l 9410 2684 l
 9419 2682 l 9425 2680 l 9429 2679 l
 9431 2679 l gs col34 s gr 
% Polyline
n 7921 3342 m 7922 3341 l 7926 3340 l 7931 3338 l 7940 3335 l 7952 3330 l
 7966 3325 l 7984 3318 l 8004 3310 l 8026 3302 l 8050 3293 l
 8075 3283 l 8101 3273 l 8129 3262 l 8157 3251 l 8187 3240 l
 8219 3227 l 8252 3214 l 8287 3201 l 8325 3186 l 8364 3171 l
 8404 3155 l 8447 3138 l 8486 3122 l 8520 3109 l 8548 3098 l
 8570 3089 l 8586 3082 l 8598 3077 l 8606 3073 l 8612 3070 l
 8617 3067 l 8622 3065 l 8627 3062 l 8635 3059 l 8646 3054 l
 8660 3048 l 8679 3041 l 8703 3032 l 8732 3021 l 8765 3009 l
 8800 2996 l 8842 2981 l 8878 2969 l 8907 2960 l 8927 2953 l
 8940 2949 l 8948 2947 l 8952 2946 l 8954 2946 l 8956 2946 l
 8960 2946 l 8967 2944 l 8980 2941 l 8999 2936 l 9027 2928 l
 9061 2918 l 9101 2907 l 9137 2897 l 9172 2887 l 9205 2878 l
 9235 2870 l 9264 2862 l 9290 2855 l 9315 2848 l 9339 2842 l
 9362 2836 l 9382 2831 l 9401 2826 l 9418 2822 l 9432 2818 l
 9442 2815 l 9449 2813 l 9453 2812 l
 9455 2812 l gs col34 s gr 
% Polyline
n 7930 3442 m 7931 3442 l 7934 3440 l 7939 3438 l 7946 3435 l 7957 3431 l
 7970 3425 l 7987 3419 l 8007 3410 l 8030 3401 l 8055 3391 l
 8082 3380 l 8111 3368 l 8141 3356 l 8172 3344 l 8205 3331 l
 8238 3318 l 8272 3304 l 8306 3291 l 8342 3277 l 8378 3263 l
 8416 3249 l 8454 3234 l 8494 3219 l 8535 3204 l 8577 3188 l
 8619 3173 l 8661 3158 l 8717 3138 l 8766 3121 l 8808 3107 l
 8840 3097 l 8865 3089 l 8882 3083 l 8892 3080 l 8899 3079 l
 8902 3078 l 8903 3078 l 8904 3078 l 8906 3078 l 8911 3078 l
 8919 3076 l 8933 3072 l 8953 3067 l 8979 3061 l 9011 3052 l
 9049 3042 l 9090 3031 l 9131 3020 l 9170 3011 l 9207 3002 l
 9240 2994 l 9270 2987 l 9299 2981 l 9325 2975 l 9350 2970 l
 9373 2965 l 9395 2961 l 9415 2957 l 9433 2953 l 9450 2950 l
 9464 2947 l 9475 2945 l 9483 2944 l 9489 2943 l 9492 2942 l

 9493 2942 l gs col34 s gr 
% Polyline
n 7924 3534 m 7925 3533 l 7929 3532 l 7935 3530 l 7944 3526 l 7956 3521 l
 7972 3514 l 7991 3506 l 8013 3497 l 8038 3487 l 8064 3476 l
 8093 3465 l 8123 3453 l 8154 3441 l 8186 3428 l 8219 3415 l
 8254 3402 l 8290 3388 l 8328 3374 l 8367 3359 l 8409 3344 l
 8453 3328 l 8497 3313 l 8543 3297 l 8591 3281 l 8636 3266 l
 8674 3254 l 8707 3243 l 8732 3235 l 8752 3229 l 8767 3225 l
 8777 3222 l 8784 3220 l 8788 3218 l 8791 3218 l 8795 3217 l
 8799 3216 l 8805 3215 l 8814 3213 l 8827 3209 l 8845 3205 l
 8868 3199 l 8897 3192 l 8931 3183 l 8970 3174 l 9011 3164 l
 9056 3154 l 9098 3144 l 9135 3136 l 9167 3130 l 9193 3124 l
 9214 3121 l 9231 3118 l 9244 3116 l 9255 3114 l 9265 3113 l
 9274 3112 l 9284 3111 l 9296 3109 l 9310 3107 l 9327 3104 l
 9348 3101 l 9373 3096 l 9400 3092 l 9429 3086 l 9458 3081 l
 9469 3079 l 9480 3077 l 9490 3075 l 9499 3074 l 9507 3072 l
 9515 3071 l 9522 3069 l 9528 3068 l 9534 3067 l 9539 3066 l
 9544 3066 l 9548 3065 l 9552 3064 l 9555 3064 l 9558 3063 l
 9560 3063 l 9562 3062 l 9564 3062 l 9566 3062 l 9567 3062 l
 9568 3062 l 9569 3061 l 9570 3061 l 9570 3062 l 9569 3062 l
 9568 3062 l 9567 3062 l 9566 3062 l 9566 3063 l 9565 3063 l

 9564 3063 l gs col34 s gr 
% Polyline
n 7924 3661 m 7925 3660 l 7928 3659 l 7933 3657 l 7941 3654 l 7953 3649 l
 7967 3643 l 7984 3636 l 8003 3628 l 8025 3619 l 8049 3610 l
 8074 3599 l 8101 3589 l 8128 3578 l 8157 3566 l 8186 3554 l
 8217 3542 l 8248 3530 l 8281 3517 l 8316 3503 l 8352 3489 l
 8390 3475 l 8430 3460 l 8469 3445 l 8515 3428 l 8556 3413 l
 8591 3400 l 8620 3389 l 8642 3381 l 8657 3376 l 8668 3371 l
 8676 3369 l 8680 3367 l 8683 3365 l 8686 3364 l 8691 3363 l
 8697 3360 l 8706 3357 l 8720 3353 l 8739 3347 l 8764 3339 l
 8794 3330 l 8829 3320 l 8866 3309 l 8907 3298 l 8944 3288 l
 8974 3280 l 8998 3274 l 9015 3270 l 9026 3267 l 9034 3265 l
 9038 3264 l 9041 3264 l 9044 3264 l 9048 3263 l 9055 3262 l
 9067 3260 l 9085 3257 l 9109 3252 l 9141 3246 l 9179 3240 l
 9221 3232 l 9260 3225 l 9298 3219 l 9335 3213 l 9368 3208 l
 9400 3204 l 9430 3200 l 9458 3196 l 9485 3192 l 9511 3189 l
 9536 3186 l 9559 3183 l 9580 3181 l 9599 3179 l 9615 3177 l
 9628 3175 l 9638 3174 l 9645 3174 l 9648 3173 l
 9650 3173 l gs col34 s gr 
% Polyline
n 7927 3765 m 7928 3765 l 7931 3764 l 7936 3762 l 7945 3759 l 7956 3755 l
 7970 3751 l 7986 3745 l 8006 3739 l 8028 3732 l 8051 3724 l
 8077 3716 l 8104 3707 l 8133 3698 l 8165 3688 l 8198 3678 l
 8235 3666 l 8275 3654 l 8318 3641 l 8366 3627 l 8418 3612 l
 8472 3596 l 8519 3583 l 8564 3570 l 8606 3557 l 8644 3546 l
 8678 3537 l 8706 3528 l 8730 3521 l 8750 3515 l 8766 3510 l
 8779 3506 l 8790 3502 l 8800 3499 l 8808 3496 l 8817 3493 l
 8826 3490 l 8837 3486 l 8850 3483 l 8867 3478 l 8886 3473 l
 8910 3466 l 8939 3459 l 8972 3451 l 9010 3442 l 9052 3433 l
 9097 3423 l 9144 3413 l 9198 3402 l 9248 3393 l 9293 3385 l
 9331 3379 l 9363 3374 l 9389 3370 l 9409 3368 l 9425 3367 l
 9437 3366 l 9447 3366 l 9456 3366 l 9465 3366 l 9474 3366 l
 9485 3366 l 9498 3366 l 9514 3365 l 9534 3363 l 9558 3361 l
 9587 3358 l 9618 3355 l 9652 3351 l 9685 3347 l 9738 3341 l
 9779 3337 l 9808 3334 l 9827 3333 l 9840 3332 l 9849 3332 l
 9853 3332 l 9856 3332 l
 9857 3333 l gs col34 s gr 
% Polyline
n 7922 3874 m 7923 3874 l 7926 3873 l 7931 3872 l 7939 3869 l 7950 3866 l
 7963 3863 l 7980 3858 l 7999 3853 l 8021 3847 l 8045 3841 l
 8070 3834 l 8097 3827 l 8126 3820 l 8156 3813 l 8187 3805 l
 8220 3797 l 8255 3788 l 8293 3779 l 8333 3770 l 8376 3760 l
 8422 3750 l 8470 3740 l 8520 3729 l 8570 3719 l 8617 3709 l
 8660 3700 l 8698 3693 l 8729 3687 l 8755 3682 l 8775 3678 l
 8791 3675 l 8803 3672 l 8811 3671 l 8818 3669 l 8824 3668 l
 8830 3667 l 8837 3666 l 8846 3664 l 8858 3662 l 8873 3660 l
 8894 3656 l 8920 3652 l 8952 3647 l 8990 3641 l 9033 3635 l
 9081 3627 l 9132 3620 l 9183 3613 l 9231 3606 l 9275 3600 l
 9314 3595 l 9346 3591 l 9373 3588 l 9394 3586 l 9411 3584 l
 9424 3582 l 9434 3582 l 9442 3581 l 9449 3580 l 9456 3580 l
 9464 3579 l 9474 3579 l 9487 3578 l 9503 3576 l 9524 3574 l
 9550 3572 l 9581 3569 l 9618 3565 l 9659 3561 l 9705 3557 l
 9753 3552 l 9805 3547 l 9854 3543 l 9899 3539 l 9941 3535 l
 9980 3532 l 10015 3529 l 10048 3526 l 10078 3524 l 10107 3522 l
 10134 3520 l 10159 3518 l 10183 3516 l 10204 3515 l 10223 3514 l
 10240 3513 l 10254 3512 l 10265 3511 l 10273 3511 l 10279 3510 l
 10282 3510 l
 10283 3510 l gs col34 s gr 
% Polyline
n 7922 3933 m 7923 3933 l 7926 3933 l 7932 3933 l 7941 3932 l 7953 3932 l
 7968 3931 l 7986 3930 l 8008 3929 l 8032 3928 l 8059 3927 l
 8087 3926 l 8117 3924 l 8149 3923 l 8182 3922 l 8217 3921 l
 8254 3919 l 8293 3918 l 8335 3917 l 8379 3915 l 8427 3914 l
 8478 3913 l 8532 3911 l 8588 3910 l 8640 3909 l 8689 3908 l
 8734 3907 l 8775 3906 l 8810 3906 l 8840 3905 l 8865 3905 l
 8885 3904 l 8901 3904 l 8914 3903 l 8924 3903 l 8933 3903 l
 8941 3902 l 8949 3902 l 8957 3902 l 8967 3902 l 8980 3902 l
 8995 3901 l 9014 3901 l 9038 3901 l 9066 3901 l 9099 3902 l
 9137 3902 l 9179 3902 l 9224 3903 l 9271 3904 l 9325 3905 l
 9375 3907 l 9418 3908 l 9455 3909 l 9484 3910 l 9506 3911 l
 9523 3912 l 9535 3912 l 9543 3913 l 9549 3913 l 9554 3913 l
 9558 3914 l 9563 3914 l 9571 3915 l 9581 3916 l 9596 3917 l
 9617 3919 l 9643 3921 l 9675 3924 l 9713 3927 l 9756 3931 l
 9801 3936 l 9850 3941 l 9897 3947 l 9941 3953 l 9980 3958 l
 10016 3963 l 10049 3968 l 10080 3973 l 10109 3978 l 10136 3983 l
 10161 3988 l 10184 3992 l 10206 3996 l 10224 4000 l 10240 4003 l
 10253 4006 l 10263 4008 l 10269 4009 l 10272 4010 l
 10274 4010 l gs col34 s gr 
% Polyline
n 9299 1641 m 9299 1644 l 9300 1650 l 9301 1661 l 9303 1678 l 9305 1700 l
 9308 1726 l 9312 1757 l 9315 1790 l 9319 1824 l 9323 1858 l
 9327 1892 l 9330 1924 l 9334 1955 l 9337 1984 l 9340 2011 l
 9343 2037 l 9346 2062 l 9349 2087 l 9352 2110 l 9355 2134 l
 9358 2158 l 9360 2180 l 9363 2203 l 9366 2226 l 9369 2250 l
 9372 2274 l 9375 2299 l 9379 2325 l 9382 2351 l 9386 2377 l
 9390 2404 l 9394 2431 l 9398 2458 l 9402 2485 l 9406 2512 l
 9410 2538 l 9414 2564 l 9419 2589 l 9423 2614 l 9427 2637 l
 9431 2660 l 9436 2682 l 9440 2703 l 9444 2723 l 9449 2743 l
 9454 2766 l 9460 2789 l 9466 2811 l 9472 2833 l 9479 2856 l
 9486 2878 l 9494 2900 l 9502 2922 l 9511 2943 l 9520 2964 l
 9530 2985 l 9540 3005 l 9551 3025 l 9562 3044 l 9573 3062 l
 9585 3079 l 9597 3096 l 9610 3112 l 9622 3128 l 9636 3143 l
 9648 3157 l 9662 3171 l 9676 3185 l 9691 3200 l 9707 3214 l
 9725 3229 l 9743 3244 l 9762 3259 l 9782 3274 l 9803 3289 l
 9825 3303 l 9848 3318 l 9871 3333 l 9895 3347 l 9919 3360 l
 9944 3373 l 9968 3386 l 9993 3398 l 10018 3410 l 10044 3421 l
 10069 3432 l 10095 3443 l 10117 3451 l 10141 3460 l 10165 3468 l
 10190 3476 l 10216 3485 l 10244 3494 l 10275 3502 l 10307 3512 l
 10341 3521 l 10378 3531 l 10417 3541 l 10459 3552 l 10502 3563 l
 10547 3574 l 10592 3585 l 10637 3596 l 10679 3606 l 10719 3615 l
 10754 3624 l 10784 3631 l 10807 3636 l 10825 3640 l 10836 3643 l
 10842 3644 l
 10845 3645 l gs col34 s gr 
/Helvetica ff 222.25 scf sf
2440 1038 m
gs 1 -1 sc (Metabolite) col0 sh gr
/Helvetica ff 222.25 scf sf
2447 1298 m
gs 1 -1 sc (level c) col0 sh gr
/Helvetica ff 222.25 scf sf
4222 1178 m
gs 1 -1 sc (Flux v) col0 sh gr
/Helvetica ff 222.25 scf sf
3257 1891 m
gs 1 -1 sc (Enzyme) col0 sh gr
/Helvetica ff 222.25 scf sf
3250 2131 m
gs 1 -1 sc (level e) col0 sh gr
/Helvetica ff 222.25 scf sf
5175 4815 m
gs 1 -1 sc  340.0 rot (Metabolite levels) col0 sh gr
/Helvetica ff 222.25 scf sf
9495 4860 m
gs 1 -1 sc  35.0 rot (Fluxes) col0 sh gr
/Helvetica ff 222.25 scf sf
9630 1620 m
gs 1 -1 sc  25.0 rot (levels) col0 sh gr
/Helvetica ff 222.25 scf sf
9495 1350 m
gs 1 -1 sc  25.0 rot (Enzyme) col0 sh gr
% here ends figure;
pagefooter
showpage
%%Trailer
%EOF
