%!PS-Adobe-3.0 EPSF-3.0
%%Title: substrate_demand_enzyme_demand.fig
%%Creator: fig2dev Version 3.2.6a
%%CreationDate: 2019-03-30 16:28:08
%%BoundingBox: 0 0 327 154
%Magnification: 1.0000
%%EndComments
%%BeginProlog
/$F2psDict 200 dict def
$F2psDict begin
$F2psDict /mtrx matrix put
/col-1 {0 setgray} bind def
/col0 {0.000 0.000 0.000 srgb} bind def
/col1 {0.000 0.000 1.000 srgb} bind def
/col4 {1.000 0.000 0.000 srgb} bind def
/col7 {1.000 1.000 1.000 srgb} bind def

end

/cp {closepath} bind def
/ef {eofill} bind def
/gr {grestore} bind def
/gs {gsave} bind def
/sa {save} bind def
/rs {restore} bind def
/l {lineto} bind def
/m {moveto} bind def
/rm {rmoveto} bind def
/n {newpath} bind def
/s {stroke} bind def
/sh {show} bind def
/slc {setlinecap} bind def
/slj {setlinejoin} bind def
/slw {setlinewidth} bind def
/srgb {setrgbcolor} bind def
/rot {rotate} bind def
/sc {scale} bind def
/sd {setdash} bind def
/ff {findfont} bind def
/sf {setfont} bind def
/scf {scalefont} bind def
/sw {stringwidth} bind def
/tr {translate} bind def
/tnt {dup dup currentrgbcolor
  4 -2 roll dup 1 exch sub 3 -1 roll mul add
  4 -2 roll dup 1 exch sub 3 -1 roll mul add
  4 -2 roll dup 1 exch sub 3 -1 roll mul add srgb}
  bind def
/shd {dup dup currentrgbcolor 4 -2 roll mul 4 -2 roll mul
  4 -2 roll mul srgb} bind def
 /DrawEllipse {
	/endangle exch def
	/startangle exch def
	/yrad exch def
	/xrad exch def
	/y exch def
	/x exch def
	/savematrix mtrx currentmatrix def
	x y tr xrad yrad sc 0 0 1 startangle endangle arc
	closepath
	savematrix setmatrix
	} def

/$F2psBegin {$F2psDict begin /$F2psEnteredState save def} def
/$F2psEnd {$F2psEnteredState restore end} def

/pageheader {
save
newpath 0 154 moveto 0 0 lineto 327 0 lineto 327 154 lineto closepath clip newpath
-13.2 169.7 translate
1 -1 scale
$F2psBegin
10 setmiterlimit
0 slj 0 slc
 0.06299 0.06299 sc
} bind def
/pagefooter {
$F2psEnd
restore
} bind def
%%EndProlog
pageheader
%
% Fig objects follow
%
% 
% here starts figure with depth 50
% Ellipse
15.000 slw
n 990 630 765 360 0 360 DrawEllipse gs col1 s gr

% Ellipse
n 990 2160 540 180 0 360 DrawEllipse gs col4 s gr

% Polyline
0 slj
0 slc
gs  clippath
4286 2195 m 4286 2216 l 4083 2265 l 4083 2145 l cp
eoclip
n 1755 2205 m
 4275 2205 l gs col4 s gr gr

% arrowhead
7.500 slw
n 4083 2265 m 4263 2205 l 4083 2145 l 4083 2265 l  cp gs col4 1.00 shd ef gr  col4 s
% Polyline
15.000 slw
gs  clippath
4286 665 m 4286 686 l 4083 735 l 4083 615 l cp
eoclip
n 1755 675 m
 4275 675 l gs col1 s gr gr

% arrowhead
7.500 slw
n 4083 735 m 4263 675 l 4083 615 l 4083 735 l  cp gs col1 1.00 shd ef gr  col1 s
% Polyline
15.000 slw
n 2565 1980 m 2835 1710 l 3285 1575 l 3600 1800 l 3150 2115 l
 cp gs col4 s gr 
% Polyline
n 2866 516 m 3007 362 l 3241 285 l 3405 413 l 3171 593 l
 cp gs col1 s gr 
/Helvetica ff 190.50 scf sf
4455 855 m
gs 1 -1 sc (production) col0 sh gr
/Helvetica ff 190.50 scf sf
360 1170 m
gs 1 -1 sc (High demand) col1 sh gr
/Helvetica ff 190.50 scf sf
540 720 m
gs 1 -1 sc (Substrate) col1 sh gr
/Helvetica ff 190.50 scf sf
540 2250 m
gs 1 -1 sc (Substrate) col4 sh gr
/Helvetica ff 190.50 scf sf
405 2565 m
gs 1 -1 sc (Low demand) col4 sh gr
/Helvetica ff 190.50 scf sf
2385 900 m
gs 1 -1 sc (enzyme demand) col1 sh gr
/Helvetica ff 190.50 scf sf
2430 585 m
gs 1 -1 sc (Low) col1 sh gr
/Helvetica ff 190.50 scf sf
2115 2430 m
gs 1 -1 sc (enzyme demand) col4 sh gr
/Helvetica ff 190.50 scf sf
2115 2115 m
gs 1 -1 sc (High) col4 sh gr
/Helvetica ff 190.50 scf sf
4455 2160 m
gs 1 -1 sc (Biomass) col0 sh gr
/Helvetica ff 190.50 scf sf
4455 630 m
gs 1 -1 sc (Biomass) col0 sh gr
/Helvetica ff 190.50 scf sf
4410 1080 m
gs 1 -1 sc (\(unit flux\)) col0 sh gr
/Helvetica ff 190.50 scf sf
4455 2385 m
gs 1 -1 sc (production) col0 sh gr
/Helvetica ff 190.50 scf sf
4455 2625 m
gs 1 -1 sc (\(unit flux\)) col0 sh gr
% here ends figure;
pagefooter
showpage
%%Trailer
%EOF
