<?xml version="1.0" encoding="UTF-8" standalone="no"?>
<!-- Created with Inkscape (http://www.inkscape.org/) -->

<svg
   width="186.24818mm"
   height="56.875069mm"
   viewBox="0 0 186.24818 56.87507"
   version="1.1"
   id="svg1"
   sodipodi:docname="PRF_NewFBA_subfigure.svg"
   inkscape:version="1.4 (e7c3feb1, 2024-10-09)"
   inkscape:export-filename="PRF_NewFBA_subfigure.pdf"
   inkscape:export-xdpi="96"
   inkscape:export-ydpi="96"
   xmlns:inkscape="http://www.inkscape.org/namespaces/inkscape"
   xmlns:sodipodi="http://sodipodi.sourceforge.net/DTD/sodipodi-0.dtd"
   xmlns="http://www.w3.org/2000/svg"
   xmlns:svg="http://www.w3.org/2000/svg">
  <sodipodi:namedview
     id="namedview1"
     pagecolor="#ffffff"
     bordercolor="#000000"
     borderopacity="0.25"
     inkscape:showpageshadow="2"
     inkscape:pageopacity="0.0"
     inkscape:pagecheckerboard="0"
     inkscape:deskcolor="#d1d1d1"
     inkscape:document-units="mm"
     inkscape:zoom="0.70148213"
     inkscape:cx="250.18456"
     inkscape:cy="235.21626"
     inkscape:window-width="1472"
     inkscape:window-height="819"
     inkscape:window-x="0"
     inkscape:window-y="38"
     inkscape:window-maximized="0"
     inkscape:current-layer="layer1" />
  <defs
     id="defs1">
    <inkscape:path-effect
       effect="bspline"
       id="path-effect2805-2"
       is_visible="true"
       lpeversion="1"
       weight="33.333333"
       steps="2"
       helper_size="0"
       apply_no_weight="true"
       apply_with_weight="true"
       only_selected="false"
       uniform="false" />
    <marker
       style="overflow:visible"
       id="Triangle"
       refX="0"
       refY="0"
       orient="auto-start-reverse"
       inkscape:stockid="Triangle arrow"
       markerWidth="1"
       markerHeight="1"
       viewBox="0 0 1 1"
       inkscape:isstock="true"
       inkscape:collect="always"
       preserveAspectRatio="xMidYMid">
      <path
         transform="scale(0.5)"
         style="fill:context-stroke;fill-rule:evenodd;stroke:context-stroke;stroke-width:1pt"
         d="M 5.77,0 -2.88,5 V -5 Z"
         id="path135" />
    </marker>
    <inkscape:path-effect
       effect="bspline"
       id="path-effect4"
       is_visible="true"
       lpeversion="1.3"
       weight="33.333333"
       steps="2"
       helper_size="0"
       apply_no_weight="true"
       apply_with_weight="true"
       only_selected="false"
       uniform="false" />
    <inkscape:path-effect
       effect="bspline"
       id="path-effect5"
       is_visible="true"
       lpeversion="1.3"
       weight="33.333333"
       steps="2"
       helper_size="0"
       apply_no_weight="true"
       apply_with_weight="true"
       only_selected="false"
       uniform="false" />
    <marker
       style="overflow:visible"
       id="RoundedArrow-8-2"
       refX="0"
       refY="0"
       orient="auto-start-reverse"
       inkscape:stockid="RoundedArrow"
       markerWidth="4.3101745"
       markerHeight="4.1666665"
       viewBox="0 0 6.1347524 5.9304951"
       inkscape:isstock="true"
       inkscape:collect="always"
       preserveAspectRatio="xMidYMid">
      <path
         transform="scale(0.7)"
         d="m -0.21114562,-4.1055728 6.42229122,3.21114561 a 1,1 90 0 1 0,1.78885438 L -0.21114562,4.1055728 A 1.236068,1.236068 31.717474 0 1 -2,3 v -6 a 1.236068,1.236068 148.28253 0 1 1.78885438,-1.1055728 z"
         style="fill:context-stroke;fill-rule:evenodd;stroke:none"
         id="path1367-3-7" />
    </marker>
    <inkscape:path-effect
       effect="bspline"
       id="path-effect2805-2-3"
       is_visible="true"
       lpeversion="1"
       weight="33.333333"
       steps="2"
       helper_size="0"
       apply_no_weight="true"
       apply_with_weight="true"
       only_selected="false"
       uniform="false" />
    <inkscape:path-effect
       effect="bspline"
       id="path-effect2805-2-9"
       is_visible="true"
       lpeversion="1"
       weight="33.333333"
       steps="2"
       helper_size="0"
       apply_no_weight="true"
       apply_with_weight="true"
       only_selected="false"
       uniform="false" />
    <marker
       style="overflow:visible"
       id="RoundedArrow-8-2-2"
       refX="0"
       refY="0"
       orient="auto-start-reverse"
       inkscape:stockid="RoundedArrow"
       markerWidth="4.3101745"
       markerHeight="4.1666665"
       viewBox="0 0 6.1347524 5.9304951"
       inkscape:isstock="true"
       inkscape:collect="always"
       preserveAspectRatio="xMidYMid">
      <path
         transform="scale(0.7)"
         d="m -0.21114562,-4.1055728 6.42229122,3.21114561 a 1,1 90 0 1 0,1.78885438 L -0.21114562,4.1055728 A 1.236068,1.236068 31.717474 0 1 -2,3 v -6 a 1.236068,1.236068 148.28253 0 1 1.78885438,-1.1055728 z"
         style="fill:context-stroke;fill-rule:evenodd;stroke:none"
         id="path1367-3-7-2" />
    </marker>
    <inkscape:path-effect
       effect="bspline"
       id="path-effect2805-2-3-7"
       is_visible="true"
       lpeversion="1"
       weight="33.333333"
       steps="2"
       helper_size="0"
       apply_no_weight="true"
       apply_with_weight="true"
       only_selected="false"
       uniform="false" />
    <marker
       style="overflow:visible"
       id="Triangle-4"
       refX="0"
       refY="0"
       orient="auto-start-reverse"
       inkscape:stockid="Triangle arrow"
       markerWidth="1"
       markerHeight="1"
       viewBox="0 0 1 1"
       inkscape:isstock="true"
       inkscape:collect="always"
       preserveAspectRatio="xMidYMid">
      <path
         transform="scale(0.5)"
         style="fill:context-stroke;fill-rule:evenodd;stroke:context-stroke;stroke-width:1pt"
         d="M 5.77,0 -2.88,5 V -5 Z"
         id="path135-3" />
    </marker>
    <inkscape:path-effect
       effect="bspline"
       id="path-effect11"
       is_visible="true"
       lpeversion="1.3"
       weight="33.333333"
       steps="2"
       helper_size="0"
       apply_no_weight="true"
       apply_with_weight="true"
       only_selected="false"
       uniform="false" />
    <inkscape:path-effect
       effect="bspline"
       id="path-effect9"
       is_visible="true"
       lpeversion="1.3"
       weight="33.333333"
       steps="2"
       helper_size="0"
       apply_no_weight="true"
       apply_with_weight="true"
       only_selected="false"
       uniform="false" />
    <inkscape:path-effect
       effect="bspline"
       id="path-effect8"
       is_visible="true"
       lpeversion="1.3"
       weight="33.333333"
       steps="2"
       helper_size="0"
       apply_no_weight="true"
       apply_with_weight="true"
       only_selected="false"
       uniform="false" />
    <inkscape:path-effect
       effect="bspline"
       id="path-effect4-2"
       is_visible="true"
       lpeversion="1.3"
       weight="33.333333"
       steps="2"
       helper_size="0"
       apply_no_weight="true"
       apply_with_weight="true"
       only_selected="false"
       uniform="false" />
    <inkscape:path-effect
       effect="spiro"
       id="path-effect1213"
       is_visible="true"
       lpeversion="1" />
    <inkscape:path-effect
       effect="spiro"
       id="path-effect1217"
       is_visible="true"
       lpeversion="1" />
  </defs>
  <g
     inkscape:label="Layer 1"
     inkscape:groupmode="layer"
     id="layer1"
     transform="translate(13.698427,-55.752365)">
    <path
       style="fill:none;fill-opacity:1;stroke:#3d82f7;stroke-width:1;stroke-dasharray:none;stroke-opacity:1;marker-end:url(#Triangle)"
       d="M 13.382213,69.062321 V 59.596325 H 69.787625"
       id="path2" />
    <path
       style="fill:none;fill-opacity:1;stroke:#3d82f7;stroke-width:1;stroke-dasharray:none;stroke-opacity:1"
       d="m 50.49748,59.814598 v 10.59635"
       id="path4" />
    <path
       style="fill:none;fill-opacity:1;stroke:#3d82f7;stroke-width:1;stroke-dasharray:none;stroke-opacity:1;marker-end:url(#Triangle-4)"
       d="M 6.0477574,99.343052 V 108.8091 H 62.453167"
       id="path2-4" />
    <path
       style="fill:none;fill-opacity:1;stroke:#3d82f7;stroke-width:1;stroke-dasharray:none;stroke-opacity:1"
       d="M 45.808857,108.59082 V 97.994422"
       id="path4-0" />
    <g
       id="g2801-7"
       transform="matrix(0.92286397,0,0,-1.0918663,-47.130832,135.81994)"
       style="stroke-width:2.54304">
      <path
         style="fill:#000000;fill-rule:evenodd;stroke:#000000;stroke-width:1.27152;stroke-miterlimit:4.8;stroke-dasharray:none;stroke-opacity:1;marker-end:url(#RoundedArrow-8-2);paint-order:markers fill stroke"
         d="m 49.731595,55.64538 c 6.504994,0 13.009838,0 19.514535,0"
         id="path2795-9"
         inkscape:path-effect="#path-effect2805-2-3"
         inkscape:original-d="m 49.731595,55.64538 c 6.504994,1.49e-4 13.009838,1.49e-4 19.514535,0" />
      <path
         style="fill:none;stroke:#000000;stroke-width:1.01712;stroke-linejoin:bevel;stroke-dasharray:none;stroke-opacity:1;paint-order:stroke markers fill;stop-color:#000000"
         id="path2797-0"
         sodipodi:type="arc"
         sodipodi:cx="59.648838"
         sodipodi:cy="55.47578"
         sodipodi:rx="3.3849239"
         sodipodi:ry="3.9671168"
         sodipodi:start="0.4112759"
         sodipodi:end="5.9224432"
         sodipodi:arc-type="arc"
         d="m 62.751498,57.061751 a 3.3849239,3.9671168 0 0 1 -3.835639,2.287019 3.3849239,3.9671168 0 0 1 -2.650864,-3.973216 3.3849239,3.9671168 0 0 1 2.818723,-3.811212 3.3849239,3.9671168 0 0 1 3.732174,2.511171"
         sodipodi:open="true" />
      <path
         style="fill:#ffffff;stroke:none;stroke-width:0;stroke-linejoin:bevel;stroke-dasharray:none;paint-order:stroke markers fill;stop-color:#000000"
         id="path2799-2"
         sodipodi:type="arc"
         sodipodi:cx="59.727573"
         sodipodi:cy="55.47578"
         sodipodi:rx="3.3068709"
         sodipodi:ry="3.6042271"
         sodipodi:start="1.5580827"
         sodipodi:end="4.7105904"
         sodipodi:arc-type="arc"
         d="m 59.769615,59.079716 a 3.3068709,3.6042271 0 0 1 -2.890753,-1.773569 3.3068709,3.6042271 0 0 1 -0.02407,-3.615483 3.3068709,3.6042271 0 0 1 2.866834,-1.819105"
         sodipodi:open="true" />
    </g>
    <g
       id="g2801-7-7"
       transform="matrix(0.92286397,0,0,-1.0918663,-10.147472,135.9473)"
       style="stroke-width:2.54304">
      <path
         style="fill:#000000;fill-rule:evenodd;stroke:#000000;stroke-width:1.27152;stroke-miterlimit:4.8;stroke-dasharray:none;stroke-opacity:1;marker-end:url(#RoundedArrow-8-2-2);paint-order:markers fill stroke"
         d="m 49.731595,55.64538 c 6.504994,0 13.009838,0 19.514535,0"
         id="path2795-9-9"
         inkscape:path-effect="#path-effect2805-2-3-7"
         inkscape:original-d="m 49.731595,55.64538 c 6.504994,1.49e-4 13.009838,1.49e-4 19.514535,0" />
      <path
         style="fill:none;stroke:#000000;stroke-width:1.01712;stroke-linejoin:bevel;stroke-dasharray:none;stroke-opacity:1;paint-order:stroke markers fill;stop-color:#000000"
         id="path2797-0-0"
         sodipodi:type="arc"
         sodipodi:cx="59.648838"
         sodipodi:cy="55.47578"
         sodipodi:rx="3.3849239"
         sodipodi:ry="3.9671168"
         sodipodi:start="0.4112759"
         sodipodi:end="5.9224432"
         sodipodi:arc-type="arc"
         d="m 62.751498,57.061751 a 3.3849239,3.9671168 0 0 1 -3.835639,2.287019 3.3849239,3.9671168 0 0 1 -2.650864,-3.973216 3.3849239,3.9671168 0 0 1 2.818723,-3.811212 3.3849239,3.9671168 0 0 1 3.732174,2.511171"
         sodipodi:open="true" />
      <path
         style="fill:#ffffff;stroke:none;stroke-width:0;stroke-linejoin:bevel;stroke-dasharray:none;paint-order:stroke markers fill;stop-color:#000000"
         id="path2799-2-2"
         sodipodi:type="arc"
         sodipodi:cx="59.727573"
         sodipodi:cy="55.47578"
         sodipodi:rx="3.3068709"
         sodipodi:ry="3.6042271"
         sodipodi:start="1.5580827"
         sodipodi:end="4.7105904"
         sodipodi:arc-type="arc"
         d="m 59.769615,59.079716 a 3.3068709,3.6042271 0 0 1 -2.890753,-1.773569 3.3068709,3.6042271 0 0 1 -0.02407,-3.615483 3.3068709,3.6042271 0 0 1 2.866834,-1.819105"
         sodipodi:open="true" />
    </g>
    <rect
       style="fill:#ffe7ae;fill-opacity:1;stroke:#000000;stroke-width:0.765821;stroke-dasharray:none;stroke-opacity:1"
       id="rect4-2-2-6-5-6"
       width="9.2327166"
       height="9.3785114"
       x="60.154499"
       y="70.137085"
       ry="37.323792"
       rx="35.98267" />
    <rect
       style="fill:#ffe7ae;fill-opacity:1;stroke:#000000;stroke-width:0.765821;stroke-dasharray:none;stroke-opacity:1"
       id="rect4-2-2-6-5-6-2"
       width="9.2327166"
       height="9.3785114"
       x="-13.315516"
       y="70.146095"
       ry="37.323792"
       rx="35.98267" />
    <rect
       style="fill:#d0ac77;fill-opacity:0.65;stroke:#000000;stroke-width:0.765821;stroke-dasharray:none;stroke-opacity:1"
       id="rect4-2-2-6-5-6-69-8"
       width="13.282103"
       height="9.3785114"
       x="0.91751027"
       y="86.389931"
       ry="37.323792"
       rx="35.98267" />
    <rect
       style="fill:#ffe7ae;fill-opacity:1;stroke:#000000;stroke-width:0.765821;stroke-dasharray:none;stroke-opacity:1"
       id="rect4-2-2-6-5-6-5"
       width="9.2327166"
       height="9.3785114"
       x="23.712158"
       y="70.276314"
       ry="37.323792"
       rx="35.98267" />
    <path
       style="fill:#000000;fill-opacity:1;fill-rule:evenodd;stroke:#000000;stroke-width:1;stroke-miterlimit:4.8;stroke-dasharray:none;stroke-opacity:1;paint-order:markers fill stroke"
       d="m 7.4530164,80.144251 v 6.14473"
       id="path1235-4" />
    <rect
       style="fill:#d0ac77;fill-opacity:0.65;stroke:#000000;stroke-width:0.765821;stroke-dasharray:none;stroke-opacity:1"
       id="rect4-2-2-6-5-6-69-8-4"
       width="13.282103"
       height="9.3785114"
       x="38.218342"
       y="86.414429"
       ry="37.323792"
       rx="35.98267" />
    <path
       style="fill:#000000;fill-opacity:1;fill-rule:evenodd;stroke:#000000;stroke-width:1;stroke-miterlimit:4.8;stroke-dasharray:none;stroke-opacity:1;paint-order:markers fill stroke"
       d="m 44.753855,80.168748 v 6.14473"
       id="path1235-4-1" />
    <text
       xml:space="preserve"
       style="font-size:8.46667px;font-family:sans-serif;-inkscape-font-specification:sans-serif;text-align:start;writing-mode:lr-tb;direction:ltr;text-anchor:start;fill:#000000;fill-opacity:1;stroke:#000000;stroke-width:1;stroke-dasharray:none"
       x="76.518562"
       y="61.475834"
       id="text1"><tspan
         sodipodi:role="line"
         id="tspan1"
         style="font-style:normal;font-variant:normal;font-weight:normal;font-stretch:normal;font-family:'TeX Gyre Termes';-inkscape-font-specification:'TeX Gyre Termes';fill:#000000;fill-opacity:1;stroke:none;stroke-width:1"
         x="76.518562"
         y="61.475834">min(ν<tspan
   style="font-style:normal;font-variant:normal;font-weight:normal;font-stretch:normal;font-size:65%;font-family:'TeX Gyre Termes';-inkscape-font-specification:'TeX Gyre Termes';baseline-shift:sub;fill:#000000;fill-opacity:1;stroke:none"
   id="tspan2">l</tspan>)≥μ</tspan></text>
    <text
       xml:space="preserve"
       style="font-style:normal;font-variant:normal;font-weight:normal;font-stretch:normal;font-size:8.46667px;font-family:'TeX Gyre Termes';-inkscape-font-specification:'TeX Gyre Termes';text-align:start;writing-mode:lr-tb;direction:ltr;baseline-shift:baseline;text-anchor:start;fill:#000000;fill-opacity:1;stroke:none;stroke-width:1;stroke-dasharray:none"
       x="69.689697"
       y="110.87907"
       id="text3"><tspan
         sodipodi:role="line"
         id="tspan3"
         style="font-size:8.46667px;baseline-shift:baseline;stroke-width:1"
         x="69.689697"
         y="110.87907">∑e<tspan
   style="font-size:65%;baseline-shift:sub"
   id="tspan5">l</tspan>≤e<tspan
   style="font-size:65%;baseline-shift:sub"
   id="tspan6">tot</tspan></tspan></text>
    <path
       style="fill:#cfac76;fill-opacity:0.65098;stroke:none;stroke-width:0.499999;stroke-dasharray:none;stroke-opacity:1"
       d="m 24.086601,84.824989 c 0,3.577451 0,10.732353 0.06549,14.317991 0.06549,3.58564 0.196465,3.602 0.442061,3.59382 0.245596,-0.008 0.605796,-0.0409 1.056052,-0.09 0.450255,-0.0491 0.990545,-0.1146 1.678211,-0.22921 0.687665,-0.11461 1.52266,-0.27834 2.414985,-0.53212 0.892325,-0.25378 1.841926,-0.5976 2.726065,-0.97418 0.884139,-0.37658 1.702761,-0.78589 2.513221,-1.268894 0.81046,-0.483003 1.61271,-1.039667 2.324932,-1.604533 0.712222,-0.564866 1.334376,-1.137903 1.907429,-1.727328 0.573052,-0.589425 1.096971,-1.195206 1.563599,-1.801005 0.466627,-0.605798 0.875939,-1.211579 1.227956,-1.7437 0.352018,-0.53212 0.646721,-0.990548 0.933247,-1.530856 0.286526,-0.540309 0.564858,-1.16246 0.802265,-1.760072 0.237407,-0.597612 0.433878,-1.17065 0.540301,-1.514478 0.106423,-0.343829 0.122795,-0.458434 -3.102706,-1.489939 -3.225502,-1.031506 -9.69262,-2.979828 -12.999922,-3.97038 -3.307301,-0.990552 -3.454653,-1.023295 -3.57745,-1.064227 -0.122798,-0.04093 -0.221032,-0.09005 -0.302896,-0.122795 -0.08186,-0.03275 -0.147355,-0.04912 -0.1801,-0.05731 -0.03274,-0.0082 -0.03274,-0.0082 -0.03274,3.569242 z"
       id="path10"
       inkscape:path-effect="#path-effect11"
       inkscape:original-d="m 24.086601,81.247538 c 0,7.154902 0,14.309804 0,21.464712 0.130985,0.0164 0.261964,0.0327 0.392947,0.0491 0.360208,-0.0327 0.720402,-0.0655 1.080603,-0.0982 0.540312,-0.0655 1.080603,-0.13098 1.620905,-0.19647 0.835028,-0.16374 1.670024,-0.32746 2.505036,-0.49119 0.949639,-0.34383 1.89924,-0.68765 2.848861,-1.03148 0.818655,-0.40933 1.637279,-0.81864 2.455915,-1.227961 0.802283,-0.556686 1.604534,-1.113348 2.406798,-1.670024 0.622179,-0.573058 1.244333,-1.146095 1.866498,-1.71914 0.523939,-0.605806 1.047859,-1.211586 1.571787,-1.817378 0.409326,-0.605806 0.818639,-1.211586 1.227957,-1.817378 0.294717,-0.458449 0.58942,-0.916877 0.884129,-1.375315 0.278345,-0.622178 0.556676,-1.24433 0.835012,-1.866495 0.196477,-0.573059 0.392949,-1.146096 0.58942,-1.719141 0.01638,-0.114612 0.03274,-0.229219 0.04912,-0.343829 -6.467377,-1.948399 -12.934495,-3.896722 -19.40174,-5.845082 -0.147357,-0.03275 -0.294709,-0.06549 -0.442065,-0.09823 -0.09824,-0.04912 -0.196473,-0.09824 -0.29471,-0.147357 -0.06549,-0.01638 -0.130982,-0.03275 -0.196473,-0.04912 z"
       transform="translate(126.66809,1.6843494)" />
    <path
       style="fill:#cfac76;fill-opacity:0.65098;stroke:none;stroke-width:0.499999;stroke-dasharray:none;stroke-opacity:1"
       d="m 27.032433,79.079821 c 2.760759,-2.253441 8.282275,-6.760319 11.078429,-8.966565 2.796155,-2.206246 2.866941,-2.111864 2.973125,-1.970284 0.106184,0.141579 0.247759,0.330345 0.412935,0.56631 0.165175,0.235964 0.353941,0.519114 0.530914,0.790473 0.176974,0.27136 0.342144,0.530914 0.507318,0.814071 0.165175,0.283156 0.330346,0.589901 0.483723,0.884857 0.153377,0.294956 0.294952,0.578106 0.43653,0.908457 0.141578,0.33035 0.283153,0.707882 0.448329,1.144418 0.165176,0.436536 0.353941,0.932045 0.519116,1.415773 0.165176,0.483728 0.30675,0.955642 0.436531,1.498362 0.129781,0.54272 0.247759,1.156209 0.342144,1.875902 0.09439,0.719693 0.165173,1.545545 0.200568,2.277034 0.03539,0.73149 0.03539,1.368575 -0.0118,2.041075 -0.04719,0.672499 -0.141577,1.380371 -0.247761,2.041071 -0.106184,0.6607 -0.224164,1.274192 -0.330348,1.769716 -0.106184,0.495524 -0.200566,0.873057 -0.333589,1.020786 -0.133024,0.14773 -0.304677,0.06565 -0.542117,-0.01469 -0.237439,-0.08035 -0.540647,-0.158956 -3.685149,-1.085461 -3.144501,-0.926505 -9.130051,-2.700833 -12.167805,-3.60486 -3.037754,-0.904027 -3.127596,-0.937718 -3.211821,-0.960178 -0.08423,-0.02246 -0.162838,-0.03369 -0.218989,-0.05053 -0.05615,-0.01685 -0.08984,-0.0393 -0.149606,-0.06395 -0.05977,-0.02465 -0.1456,-0.05149 -0.188519,-0.06491 -0.04292,-0.01342 -0.04292,-0.01342 2.717841,-2.266864 z"
       id="path9"
       transform="translate(126.6656,1.5581784)"
       inkscape:original-d="m 24.271674,81.333261 c 5.521518,-4.506881 11.043034,-9.013759 16.564552,-13.52064 0.07079,0.09439 0.141576,0.188772 0.212365,0.283157 0.141581,0.188773 0.283154,0.37754 0.424733,0.566309 0.188772,0.28316 0.377539,0.566309 0.566309,0.849463 0.165176,0.259565 0.330348,0.519118 0.495519,0.778677 0.165177,0.306755 0.330348,0.6135 0.495523,0.920253 0.141578,0.283159 0.283154,0.566309 0.42473,0.849463 0.141581,0.377547 0.283157,0.755078 0.424733,1.13262 0.188775,0.495531 0.377539,0.99104 0.566309,1.486562 0.141581,0.471934 0.283154,0.943848 0.424733,1.415772 0.117983,0.613516 0.235963,1.227005 0.353943,1.840508 0.07079,0.825883 0.141576,1.651735 0.212366,2.477603 0,0.637111 0,1.274196 0,1.911294 -0.09439,0.707901 -0.18877,1.415773 -0.283155,2.12366 -0.117983,0.613513 -0.235961,1.227005 -0.353944,1.840505 -0.09439,0.377547 -0.188769,0.755081 -0.283154,1.132621 -0.171662,-0.08208 -0.343315,-0.164158 -0.514974,-0.246238 -0.303221,-0.07861 -0.606428,-0.157223 -0.909643,-0.235833 -5.985788,-1.774399 -11.971338,-3.548727 -17.957006,-5.323091 -0.08984,-0.03369 -0.179682,-0.06738 -0.269523,-0.101071 -0.07861,-0.01122 -0.157222,-0.02246 -0.235834,-0.03369 -0.03369,-0.02246 -0.06738,-0.04492 -0.101071,-0.06738 -0.08584,-0.02684 -0.171674,-0.05368 -0.257511,-0.08052 z"
       inkscape:path-effect="#path-effect9" />
    <path
       style="fill:#f5bf50;fill-opacity:1;stroke:none;stroke-width:0.499999;stroke-dasharray:none;stroke-opacity:1"
       d="m 24.10589,63.061672 c -10e-7,3.613262 -10e-7,10.901186 0.05672,14.516791 0.05672,3.615605 0.170144,3.558892 0.297755,3.459639 0.127611,-0.09925 0.269398,-0.241041 2.991788,-2.452983 2.722391,-2.211942 8.025174,-6.493868 10.662438,-8.663234 2.637265,-2.169365 2.60891,-2.226078 2.410403,-2.4813 -0.198506,-0.255223 -0.567149,-0.708937 -0.992519,-1.162664 -0.42537,-0.453728 -0.907441,-0.907441 -1.346989,-1.304452 -0.439549,-0.397011 -0.836548,-0.737297 -1.430652,-1.172668 -0.594104,-0.435371 -1.385273,-0.965799 -2.258022,-1.459859 -0.872748,-0.494059 -1.827021,-0.95172 -2.708289,-1.29741 -0.881268,-0.345689 -1.68948,-0.57939 -2.492846,-0.779014 -0.803366,-0.199623 -1.601839,-0.36516 -2.288351,-0.472275 -0.686512,-0.107115 -1.261024,-0.155802 -1.670008,-0.199623 -0.408985,-0.04382 -0.652422,-0.08277 -0.830069,-0.08553 -0.177647,-0.0028 -0.289501,0.03068 -0.345427,0.0167 -0.05593,-0.01398 -0.05593,-0.07539 -0.05593,3.537874 z"
       id="path7"
       sodipodi:nodetypes="sccccccccccccccss"
       transform="translate(126.51495,1.5581784)"
       inkscape:original-d="m 24.105889,59.387007 c 0,7.287927 0,14.575851 0,21.863778 0.113433,-0.05672 0.226861,-0.11343 0.340292,-0.170146 0.141791,-0.14179 0.283577,-0.283578 0.425365,-0.425365 5.302995,-4.282096 10.605777,-8.564023 15.908665,-12.846034 -0.02836,-0.05672 -0.05672,-0.11343 -0.08507,-0.170146 -0.368658,-0.453731 -0.737299,-0.907447 -1.105951,-1.36117 -0.482089,-0.453731 -0.96416,-0.907444 -1.446241,-1.361167 -0.397016,-0.340299 -0.794015,-0.680585 -1.191022,-1.020877 -0.791202,-0.530449 -1.58237,-1.060878 -2.373556,-1.591318 -0.954312,-0.457678 -1.908585,-0.915339 -2.862876,-1.37301 -0.808244,-0.233709 -1.616456,-0.46741 -2.424682,-0.701114 -0.798506,-0.165544 -1.596979,-0.331081 -2.395469,-0.49662 -0.574534,-0.04869 -1.149046,-0.09738 -1.723568,-0.146066 -0.243447,-0.03895 -0.486884,-0.0779 -0.730326,-0.116853 -0.111852,0.03344 -0.223706,0.06688 -0.335557,0.100319 -10e-7,-0.0614 -3e-6,-0.122807 -4e-6,-0.184211 z"
       inkscape:path-effect="#path-effect8" />
    <path
       style="fill:#d0ccd3;fill-opacity:1;stroke:none;stroke-width:0.499999;stroke-dasharray:none;stroke-opacity:1"
       d="m 24.087482,66.662241 c 0,7.215014 0,21.645045 -0.03842,28.860057 -0.03842,7.215012 -0.115255,7.215012 -0.20746,7.215012 -0.09221,0 -0.199776,0 -0.445658,-0.0154 -0.245881,-0.0154 -0.630066,-0.0461 -1.137194,-0.0999 -0.507127,-0.0538 -1.137186,-0.13062 -1.698102,-0.22283 -0.560917,-0.0922 -1.052665,-0.19978 -1.590531,-0.33809 -0.537867,-0.13831 -1.121815,-0.30735 -1.598209,-0.46102 -0.476394,-0.15368 -0.845207,-0.29198 -1.313919,-0.47639 -0.468712,-0.18441 -1.037299,-0.41492 -1.559797,-0.66848 -0.522497,-0.25357 -0.998878,-0.530179 -1.42917,-0.806796 -0.430293,-0.276617 -0.814471,-0.553225 -1.13719,-0.776055 -0.322719,-0.22283 -0.58396,-0.391868 -0.975835,-0.706905 C 10.564122,97.850457 10.041639,97.389442 9.5729276,96.943782 9.1042162,96.498121 8.6893045,96.067843 8.3358501,95.691337 7.9823957,95.314831 7.6904199,94.992121 7.3830678,94.600247 7.0757156,94.208373 6.7530068,93.74736 6.4379708,93.286332 6.1229348,92.825303 5.8155924,92.36429 5.5543435,91.933997 5.2930945,91.503704 5.0779549,91.104159 4.8781763,90.673866 4.6783977,90.243573 4.4939924,89.78256 4.309581,89.321532 4.1251696,88.860503 3.9407644,88.39949 3.7717209,87.923094 3.6026774,87.446697 3.4490066,86.95495 3.2953306,86.263406 3.1416546,85.571862 2.9879833,84.680568 2.8804105,83.927557 2.7728377,83.174546 2.7113691,82.559861 2.6806342,81.876001 c -0.030735,-0.683859 -0.030735,-1.436847 0.061472,-2.366589 0.092207,-0.929742 0.2766118,-2.036173 0.4917586,-3.004331 0.2151468,-0.968158 0.461021,-1.797984 0.7376377,-2.589414 0.2766167,-0.79143 0.58396,-1.544421 0.9450987,-2.282065 0.3611387,-0.737643 0.776052,-1.4599 1.1986606,-2.113022 0.4226087,-0.653121 0.8528884,-1.237072 1.3984394,-1.913248 0.5455509,-0.676175 1.2063382,-1.444533 1.8133574,-2.059235 0.6070191,-0.614702 1.1602366,-1.075716 1.7211536,-1.498324 0.560918,-0.422608 1.129502,-0.806786 1.774942,-1.19866 0.645439,-0.391874 1.367694,-0.79142 1.959345,-1.106456 0.591652,-0.315035 1.052666,-0.545541 1.598217,-0.760687 0.54555,-0.215147 1.175602,-0.41492 1.844093,-0.591647 0.66849,-0.176727 1.375379,-0.330399 2.051552,-0.453339 0.676174,-0.12294 1.321595,-0.215143 1.75957,-0.268929 0.437974,-0.05379 0.668481,-0.06915 0.868259,-0.08452 0.199778,-0.01537 0.368817,-0.03073 0.507125,-0.03842 0.138308,-0.0077 0.245878,-0.0077 0.346799,0.0102 0.10092,0.01788 0.195198,0.05365 0.248984,0.03828 0.05379,-0.01537 0.06709,-0.08187 0.07374,-0.115118 0.0067,-0.03325 0.0066,-0.03325 0.0066,7.181764 z"
       id="path4-8"
       inkscape:path-effect="#path-effect4-2"
       inkscape:original-d="m 24.087482,59.447227 c 0,14.430028 0,28.860059 0,43.290083 -0.07684,0 -0.153675,0 -0.230512,0 -0.107574,0 -0.215144,0 -0.322716,0 -0.384194,-0.0307 -0.768373,-0.0615 -1.152559,-0.0922 -0.630077,-0.0768 -1.26013,-0.15368 -1.890195,-0.23051 -0.491768,-0.10758 -0.983516,-0.21515 -1.475274,-0.32272 -0.583975,-0.16905 -1.167926,-0.33808 -1.751889,-0.50713 -0.368826,-0.1383 -0.737637,-0.27661 -1.106456,-0.41492 -0.568606,-0.23051 -1.137191,-0.46102 -1.705786,-0.69153 -0.4764,-0.27662 -0.952781,-0.553229 -1.429172,-0.829843 C 12.638729,99.371838 12.254551,99.095229 11.870365,98.818615 11.609113,98.64957 11.347872,98.480531 11.086625,98.311488 10.564122,97.850457 10.041639,97.389442 9.5191461,96.928419 9.1042167,96.498121 8.6893043,96.067843 8.2743831,95.637554 7.9823961,95.314831 7.6904204,94.992121 7.398439,94.669406 7.0757164,94.208372 6.7530065,93.74736 6.4302902,93.286336 6.1229351,92.825303 5.8155925,92.36429 5.5082435,91.903267 5.2930952,91.503704 5.0779551,91.104159 4.862811,90.704606 4.678398,90.243573 4.4939924,89.78256 4.3095831,89.321537 4.1251701,88.860503 3.9407645,88.39949 3.7563552,87.938467 3.6026776,87.446697 3.4490063,86.95495 3.2953319,86.46319 3.1416544,85.571862 2.987983,84.680568 2.8343086,83.789255 2.7728376,83.174546 2.7113691,82.559861 2.6498993,81.945163 c 0,-0.753021 0,-1.506009 0,-2.259013 0.184413,-1.10648 0.3688186,-2.212911 0.5532279,-3.319367 0.245884,-0.82986 0.4917582,-1.659686 0.7376373,-2.489528 0.3073549,-0.753018 0.6146977,-1.506009 0.9220465,-2.259013 0.4149294,-0.722283 0.8298418,-1.44454 1.244763,-2.16681 0.4302969,-0.583973 0.8605766,-1.167924 1.290865,-1.751888 0.6608133,-0.768387 1.3216001,-1.536745 1.9824001,-2.305117 0.553239,-0.461031 1.1064559,-0.922046 1.6596839,-1.383069 0.568606,-0.384194 1.137191,-0.768371 1.705786,-1.152557 0.722284,-0.399563 1.444539,-0.799108 2.166809,-1.198663 0.461033,-0.230516 0.922047,-0.461023 1.38307,-0.691533 0.630078,-0.199782 1.26013,-0.399553 1.890195,-0.599332 0.706917,-0.153675 1.413805,-0.307348 2.120708,-0.461023 0.645445,-0.0922 1.290865,-0.18441 1.936297,-0.276614 0.230517,-0.01537 0.461024,-0.03073 0.691535,-0.0461 0.169045,-0.01537 0.338084,-0.03073 0.507126,-0.0461 0.107574,0 0.215144,0 0.322716,0 0.09427,0.03576 0.188546,0.07153 0.282819,0.107291 0.0133,-0.0665 0.0266,-0.133 0.0399,-0.1995 z"
       sodipodi:nodetypes="ccsccccccccccccccccscccccccccccccccccccccsc"
       transform="translate(126.38878,1.5581784)" />
    <ellipse
       style="fill:none;fill-opacity:0.990521;stroke:#000000;stroke-width:0.504915;stroke-dasharray:none;stroke-opacity:1;paint-order:markers fill stroke"
       id="path1088"
       cx="150.49179"
       cy="82.74485"
       rx="21.80551"
       ry="21.560747" />
    <path
       style="fill:none;fill-opacity:0.990521;stroke:#000000;stroke-width:0.5;stroke-dasharray:none;stroke-opacity:1;paint-order:markers fill stroke"
       d="M 40.306605,67.84274 23.718182,81.42297"
       id="path1211"
       inkscape:path-effect="#path-effect1213"
       inkscape:original-d="M 40.306605,67.84274 C 34.654508,72.247395 29.247911,76.896483 23.718182,81.42297"
       transform="translate(127.04411,1.5581784)" />
    <path
       style="fill:none;fill-opacity:0.990521;stroke:#000000;stroke-width:0.5;stroke-dasharray:none;stroke-opacity:1;paint-order:markers fill stroke"
       d="M 44.123352,87.443702 24.242298,81.274773"
       id="path1215"
       inkscape:path-effect="#path-effect1217"
       inkscape:original-d="M 44.123352,87.443702 C 37.556287,85.458595 30.869566,83.331378 24.242298,81.274773"
       transform="matrix(1.0249176,0,0,0.99000936,125.94516,2.4318804)" />
    <text
       xml:space="preserve"
       style="font-style:normal;font-variant:normal;font-weight:normal;font-stretch:normal;font-size:5.78813px;font-family:sans-serif;-inkscape-font-specification:sans-serif;fill:#000000;fill-opacity:1;stroke:none;stroke-width:0.675281;stroke-dasharray:none;stroke-opacity:1;paint-order:markers fill stroke"
       x="136.99179"
       y="84.449043"
       id="text1273"
       transform="scale(1.002175,0.99782973)"><tspan
         sodipodi:role="line"
         id="tspan1271"
         style="font-style:normal;font-variant:normal;font-weight:normal;font-stretch:normal;font-family:sans-serif;-inkscape-font-specification:sans-serif;fill:#000000;fill-opacity:1;stroke:none;stroke-width:0.675281"
         x="136.99179"
         y="84.449043">Q</tspan></text>
    <text
       xml:space="preserve"
       style="font-style:normal;font-variant:normal;font-weight:normal;font-stretch:normal;font-size:5.78813px;font-family:sans-serif;-inkscape-font-specification:sans-serif;fill:#000000;fill-opacity:1;stroke:none;stroke-width:0.675281;stroke-dasharray:none;stroke-opacity:1;paint-order:markers fill stroke"
       x="154.35571"
       y="71.811714"
       id="text1273-5"
       transform="scale(1.002175,0.99782973)"><tspan
         sodipodi:role="line"
         id="tspan1271-8"
         style="font-style:normal;font-variant:normal;font-weight:normal;font-stretch:normal;font-family:sans-serif;-inkscape-font-specification:sans-serif;fill:#000000;fill-opacity:1;stroke:none;stroke-width:0.675281"
         x="154.35571"
         y="71.811714">X</tspan></text>
    <text
       xml:space="preserve"
       style="font-style:normal;font-variant:normal;font-weight:normal;font-stretch:normal;font-size:5.78813px;font-family:sans-serif;-inkscape-font-specification:sans-serif;fill:#000000;fill-opacity:1;stroke:none;stroke-width:0.675281;stroke-dasharray:none;stroke-opacity:1;paint-order:markers fill stroke"
       x="161.65875"
       y="81.294342"
       id="text1273-3"
       transform="scale(1.002175,0.99782973)"><tspan
         sodipodi:role="line"
         id="tspan1271-9"
         style="font-style:normal;font-variant:normal;font-weight:normal;font-stretch:normal;font-family:sans-serif;-inkscape-font-specification:sans-serif;fill:#000000;fill-opacity:1;stroke:none;stroke-width:0.675281"
         x="161.65875"
         y="81.294342">e<tspan
   style="font-size:65%;baseline-shift:sub;fill:#000000;fill-opacity:1"
   id="tspan7">1</tspan></tspan></text>
    <text
       xml:space="preserve"
       style="font-style:normal;font-variant:normal;font-weight:normal;font-stretch:normal;font-size:5.78813px;font-family:sans-serif;-inkscape-font-specification:sans-serif;fill:#000000;fill-opacity:1;stroke:none;stroke-width:0.675281;stroke-dasharray:none;stroke-opacity:1;paint-order:markers fill stroke"
       x="4.4915056"
       y="92.174133"
       id="text1273-3-1"
       transform="scale(1.002175,0.99782973)"><tspan
         sodipodi:role="line"
         id="tspan1271-9-3"
         style="font-style:normal;font-variant:normal;font-weight:normal;font-stretch:normal;font-family:sans-serif;-inkscape-font-specification:sans-serif;fill:#000000;fill-opacity:1;stroke:none;stroke-width:0.675281"
         x="4.4915056"
         y="92.174133">e<tspan
   style="font-size:65%;baseline-shift:sub;fill:#000000;fill-opacity:1"
   id="tspan7-4">1</tspan></tspan></text>
    <text
       xml:space="preserve"
       style="font-style:normal;font-variant:normal;font-weight:normal;font-stretch:normal;font-size:5.78813px;font-family:sans-serif;-inkscape-font-specification:sans-serif;fill:#000000;fill-opacity:1;stroke:none;stroke-width:0.675281;stroke-dasharray:none;stroke-opacity:1;paint-order:markers fill stroke"
       x="156.03104"
       y="94.204765"
       id="text1273-7"
       transform="scale(1.002175,0.99782973)"><tspan
         sodipodi:role="line"
         id="tspan1271-2"
         style="font-style:normal;font-variant:normal;font-weight:normal;font-stretch:normal;font-family:sans-serif;-inkscape-font-specification:sans-serif;fill:#000000;fill-opacity:1;stroke:none;stroke-width:0.675281"
         x="156.03104"
         y="94.204765">e<tspan
   style="font-size:65%;baseline-shift:sub;fill:#000000;fill-opacity:1"
   id="tspan8">2</tspan></tspan></text>
    <text
       xml:space="preserve"
       style="font-style:normal;font-variant:normal;font-weight:normal;font-stretch:normal;font-size:5.78813px;font-family:sans-serif;-inkscape-font-specification:sans-serif;fill:#000000;fill-opacity:1;stroke:none;stroke-width:0.675281;stroke-dasharray:none;stroke-opacity:1;paint-order:markers fill stroke"
       x="41.677868"
       y="92.337875"
       id="text1273-7-4"
       transform="scale(1.002175,0.99782973)"><tspan
         sodipodi:role="line"
         id="tspan1271-2-5"
         style="font-style:normal;font-variant:normal;font-weight:normal;font-stretch:normal;font-family:sans-serif;-inkscape-font-specification:sans-serif;fill:#000000;fill-opacity:1;stroke:none;stroke-width:0.675281"
         x="41.677868"
         y="92.337875">e<tspan
   style="font-size:65%;baseline-shift:sub;fill:#000000;fill-opacity:1"
   id="tspan8-8">2</tspan></tspan></text>
    <path
       style="fill:none;fill-opacity:1;stroke:#000000;stroke-width:0.5;stroke-dasharray:none;stroke-opacity:1"
       d="m 150.64309,61.05428 v 43.21029"
       id="path3" />
  </g>
</svg>
