<?xml version="1.0" encoding="UTF-8" standalone="no"?>
<svg
   width="588.58948"
   height="387.23245"
   viewBox="0 0 2354.3579 1548.9298"
   version="1.1"
   id="svg94"
   sodipodi:docname="ORG_Power.svg"
   inkscape:version="1.3.2 (091e20e, 2023-11-25)"
   inkscape:export-filename="ORG_Power.pdf"
   inkscape:export-xdpi="96"
   inkscape:export-ydpi="96"
   xmlns:inkscape="http://www.inkscape.org/namespaces/inkscape"
   xmlns:sodipodi="http://sodipodi.sourceforge.net/DTD/sodipodi-0.dtd"
   xmlns="http://www.w3.org/2000/svg"
   xmlns:svg="http://www.w3.org/2000/svg">
  <sodipodi:namedview
     id="namedview94"
     pagecolor="#ffffff"
     bordercolor="#000000"
     borderopacity="0.25"
     inkscape:showpageshadow="2"
     inkscape:pageopacity="0.0"
     inkscape:pagecheckerboard="0"
     inkscape:deskcolor="#d1d1d1"
     inkscape:zoom="0.82598748"
     inkscape:cx="296.00933"
     inkscape:cy="272.40122"
     inkscape:window-width="1472"
     inkscape:window-height="817"
     inkscape:window-x="0"
     inkscape:window-y="38"
     inkscape:window-maximized="0"
     inkscape:current-layer="svg94" />
  <defs
     id="defs1">
    <clipPath
       id="clip430">
      <rect
         x="0"
         y="0"
         width="2400"
         height="1600"
         id="rect1" />
    </clipPath>
  </defs>
  <defs
     id="defs2">
    <clipPath
       id="clip431">
      <rect
         x="480"
         y="0"
         width="1681"
         height="1600"
         id="rect2" />
    </clipPath>
  </defs>
  <defs
     id="defs3">
    <clipPath
       id="clip432">
      <rect
         x="175"
         y="47"
         width="2178"
         height="1377"
         id="rect3" />
    </clipPath>
  </defs>
  <polyline
     clip-path="url(#clip432)"
     style="fill:none;stroke:#000000;stroke-width:2;stroke-linecap:round;stroke-linejoin:round;stroke-opacity:0.1"
     points="484.316,1423.18 484.316,47.2441 "
     id="polyline3"
     transform="translate(-0.40220456,-45.2441)" />
  <polyline
     clip-path="url(#clip432)"
     style="fill:none;stroke:#000000;stroke-width:2;stroke-linecap:round;stroke-linejoin:round;stroke-opacity:0.1"
     points="959.794,1423.18 959.794,47.2441 "
     id="polyline4"
     transform="translate(-0.40220456,-45.2441)" />
  <polyline
     clip-path="url(#clip432)"
     style="fill:none;stroke:#000000;stroke-width:2;stroke-linecap:round;stroke-linejoin:round;stroke-opacity:0.1"
     points="1435.27,1423.18 1435.27,47.2441 "
     id="polyline5"
     transform="translate(-0.40220456,-45.2441)" />
  <polyline
     clip-path="url(#clip432)"
     style="fill:none;stroke:#000000;stroke-width:2;stroke-linecap:round;stroke-linejoin:round;stroke-opacity:0.1"
     points="1910.75,1423.18 1910.75,47.2441 "
     id="polyline6"
     transform="translate(-0.40220456,-45.2441)" />
  <polyline
     clip-path="url(#clip430)"
     style="fill:none;stroke:#000000;stroke-width:4;stroke-linecap:round;stroke-linejoin:round;stroke-opacity:1"
     points="175.445,1423.18 2352.76,1423.18 "
     id="polyline7"
     transform="translate(-0.40220456,-45.2441)" />
  <polyline
     clip-path="url(#clip430)"
     style="fill:none;stroke:#000000;stroke-width:4;stroke-linecap:round;stroke-linejoin:round;stroke-opacity:1"
     points="484.316,1423.18 484.316,1404.28 "
     id="polyline8"
     transform="translate(-0.40220456,-45.2441)" />
  <polyline
     clip-path="url(#clip430)"
     style="fill:none;stroke:#000000;stroke-width:4;stroke-linecap:round;stroke-linejoin:round;stroke-opacity:1"
     points="959.794,1423.18 959.794,1404.28 "
     id="polyline9"
     transform="translate(-0.40220456,-45.2441)" />
  <polyline
     clip-path="url(#clip430)"
     style="fill:none;stroke:#000000;stroke-width:4;stroke-linecap:round;stroke-linejoin:round;stroke-opacity:1"
     points="1435.27,1423.18 1435.27,1404.28 "
     id="polyline10"
     transform="translate(-0.40220456,-45.2441)" />
  <polyline
     clip-path="url(#clip430)"
     style="fill:none;stroke:#000000;stroke-width:4;stroke-linecap:round;stroke-linejoin:round;stroke-opacity:1"
     points="1910.75,1423.18 1910.75,1404.28 "
     id="polyline11"
     transform="translate(-0.40220456,-45.2441)" />
  <polyline
     clip-path="url(#clip432)"
     style="fill:none;stroke:#000000;stroke-width:2;stroke-linecap:round;stroke-linejoin:round;stroke-opacity:0.1"
     points="175.445,1167.84 2352.76,1167.84 "
     id="polyline35"
     transform="translate(-0.40220456,-45.2441)" />
  <polyline
     clip-path="url(#clip432)"
     style="fill:none;stroke:#000000;stroke-width:2;stroke-linecap:round;stroke-linejoin:round;stroke-opacity:0.1"
     points="175.445,823.327 2352.76,823.327 "
     id="polyline36"
     transform="translate(-0.40220456,-45.2441)" />
  <polyline
     clip-path="url(#clip432)"
     style="fill:none;stroke:#000000;stroke-width:2;stroke-linecap:round;stroke-linejoin:round;stroke-opacity:0.1"
     points="175.445,478.814 2352.76,478.814 "
     id="polyline37"
     transform="translate(-0.40220456,-45.2441)" />
  <polyline
     clip-path="url(#clip432)"
     style="fill:none;stroke:#000000;stroke-width:2;stroke-linecap:round;stroke-linejoin:round;stroke-opacity:0.1"
     points="175.445,134.302 2352.76,134.302 "
     id="polyline38"
     transform="translate(-0.40220456,-45.2441)" />
  <polyline
     clip-path="url(#clip430)"
     style="fill:none;stroke:#000000;stroke-width:4;stroke-linecap:round;stroke-linejoin:round;stroke-opacity:1"
     points="175.445,1423.18 175.445,47.2441 "
     id="polyline39"
     transform="translate(-0.40220456,-45.2441)" />
  <polyline
     clip-path="url(#clip430)"
     style="fill:none;stroke:#000000;stroke-width:4;stroke-linecap:round;stroke-linejoin:round;stroke-opacity:1"
     points="175.445,1167.84 194.343,1167.84 "
     id="polyline40"
     transform="translate(-0.40220456,-45.2441)" />
  <polyline
     clip-path="url(#clip430)"
     style="fill:none;stroke:#000000;stroke-width:4;stroke-linecap:round;stroke-linejoin:round;stroke-opacity:1"
     points="175.445,823.327 194.343,823.327 "
     id="polyline41"
     transform="translate(-0.40220456,-45.2441)" />
  <polyline
     clip-path="url(#clip430)"
     style="fill:none;stroke:#000000;stroke-width:4;stroke-linecap:round;stroke-linejoin:round;stroke-opacity:1"
     points="175.445,478.814 194.343,478.814 "
     id="polyline42"
     transform="translate(-0.40220456,-45.2441)" />
  <polyline
     clip-path="url(#clip430)"
     style="fill:none;stroke:#000000;stroke-width:4;stroke-linecap:round;stroke-linejoin:round;stroke-opacity:1"
     points="175.445,134.302 194.343,134.302 "
     id="polyline43"
     transform="translate(-0.40220456,-45.2441)" />
  <polyline
     clip-path="url(#clip432)"
     style="fill:none;stroke:#3d23c2;stroke-width:8;stroke-linecap:round;stroke-linejoin:round;stroke-opacity:1"
     points="2291.13,922.254 1910.75,955.45 1639.05,971.448 1435.27,976.608 1276.78,974.658 1149.99,967.906 1046.24,957.829 959.794,945.396 886.644,931.261 823.943,915.87 769.603,899.536 722.055,882.483 680.101,864.873 642.809,846.825 609.442,828.43 579.412,809.757 552.241,790.858 527.541,771.775 504.989,752.539 484.316,733.176 465.297,713.707 447.741,694.148 431.485,674.514 416.39,654.814 402.337,635.058 389.22,615.254 376.95,595.407 365.446,575.524 354.64,555.608 344.469,535.663 334.88,515.693 325.823,495.699 317.256,475.686 309.14,455.653 301.44,435.605 294.125,415.541 287.166,395.463 280.54,375.372 274.221,355.27 268.189,335.158 262.426,315.035 256.913,294.904 251.635,274.764 246.577,254.616 241.725,234.46 237.067,214.298 "
     id="polyline54"
     transform="translate(-0.40220456,-45.2441)" />
  <polyline
     clip-path="url(#clip432)"
     style="fill:none;stroke:#e83041;stroke-width:8;stroke-linecap:round;stroke-linejoin:round;stroke-opacity:1"
     points="2291.13,929.949 1910.75,1054.32 1639.05,1131.03 1435.27,1181.88 1276.78,1217.53 1149.99,1243.68 1046.24,1263.58 959.794,1279.2 886.644,1291.77 823.943,1302.1 769.603,1310.74 722.055,1318.08 680.101,1324.4 642.809,1329.89 609.442,1334.72 579.412,1338.99 552.241,1342.81 527.541,1346.23 504.989,1349.33 484.316,1352.14 465.297,1354.7 447.741,1357.06 431.485,1359.22 416.39,1361.22 402.337,1363.07 389.22,1364.78 376.95,1366.39 365.446,1367.88 354.64,1369.28 344.469,1370.59 334.88,1371.83 325.823,1372.99 317.256,1374.09 309.14,1375.12 301.44,1376.11 294.125,1377.04 287.166,1377.92 280.54,1378.76 274.221,1379.56 268.189,1380.32 262.426,1381.05 256.913,1381.75 251.635,1382.41 246.577,1383.05 241.725,1383.65 237.067,1384.24 "
     id="polyline55"
     transform="translate(-0.40220456,-45.2441)" />
  <polyline
     clip-path="url(#clip432)"
     style="fill:none;stroke:#13beff;stroke-width:8;stroke-linecap:round;stroke-linejoin:round;stroke-opacity:1"
     points="2291.13,339.853 1910.75,497.417 1639.05,590.126 1435.27,646.134 1276.78,679.835 1149.99,699.233 1046.24,709.06 959.794,712.246 886.644,710.679 823.943,705.619 769.603,697.928 722.055,688.216 680.101,676.921 642.809,664.367 609.442,650.798 579.412,636.399 552.241,621.314 527.541,605.657 504.989,589.516 484.316,572.964 465.297,556.061 447.741,538.853 431.485,521.382 416.39,503.679 402.337,485.773 389.22,467.687 376.95,449.442 365.446,431.053 354.64,412.537 344.469,393.905 334.88,375.169 325.823,356.339 317.256,337.422 309.14,318.427 301.44,299.36 294.125,280.227 287.166,261.033 280.54,241.783 274.221,222.48 268.189,203.13 262.426,183.735 256.913,164.298 251.635,144.822 246.577,125.31 241.725,105.764 237.067,86.1857 "
     id="polyline56"
     transform="translate(-0.40220456,-45.2441)" />
  <path
     clip-path="url(#clip430)"
     d="m 1645.32,300.469 h 634.86 V 93.1086 h -634.86 z"
     fill="#ffffff"
     fill-rule="evenodd"
     fill-opacity="1"
     id="path56"
     transform="translate(-0.40220456,-45.2441)" />
  <polyline
     clip-path="url(#clip430)"
     style="fill:none;stroke:#000000;stroke-width:4;stroke-linecap:round;stroke-linejoin:round;stroke-opacity:1"
     points="1645.32,300.469 2280.18,300.469 2280.18,93.1086 1645.32,93.1086 1645.32,300.469 "
     id="polyline57"
     transform="translate(-0.40220456,-45.2441)" />
  <polyline
     clip-path="url(#clip430)"
     style="fill:none;stroke:#3d23c2;stroke-width:8;stroke-linecap:round;stroke-linejoin:round;stroke-opacity:1"
     points="1669.51,144.949 1814.67,144.949 "
     id="polyline58"
     transform="translate(-0.40220456,-45.2441)" />
  <polyline
     clip-path="url(#clip430)"
     style="fill:none;stroke:#e83041;stroke-width:8;stroke-linecap:round;stroke-linejoin:round;stroke-opacity:1"
     points="1669.51,196.789 1814.67,196.789 "
     id="polyline69"
     transform="translate(-0.40220456,-45.2441)" />
  <polyline
     clip-path="url(#clip430)"
     style="fill:none;stroke:#13beff;stroke-width:8;stroke-linecap:round;stroke-linejoin:round;stroke-opacity:1"
     points="1669.51,248.629 1814.67,248.629 "
     id="polyline84"
     transform="translate(-0.40220456,-45.2441)" />
  <text
     xml:space="preserve"
     style="font-size:69.3333px;font-family:sans-serif;-inkscape-font-specification:sans-serif;fill:#000000;stroke-width:15.1181"
     x="931.66711"
     y="1534.9818"
     id="text1"><tspan
       sodipodi:role="line"
       id="tspan1"
       style="font-size:69.3333px;stroke-width:15.1181"
       x="931.66711"
       y="1534.9818">Frequency [1/min]</tspan></text>
  <text
     xml:space="preserve"
     style="font-size:69.3332px;font-family:sans-serif;-inkscape-font-specification:sans-serif;fill:#000000;stroke-width:15.1181"
     x="-872.54285"
     y="52.676979"
     id="text2"
     transform="rotate(-90)"><tspan
       sodipodi:role="line"
       id="tspan2"
       style="stroke-width:15.1181"
       x="-872.54285"
       y="52.676979">Power [W]</tspan></text>
  <text
     xml:space="preserve"
     style="font-size:48px;font-family:sans-serif;-inkscape-font-specification:sans-serif;fill:#000000;stroke-width:15.1181"
     x="1831.9325"
     y="117.69248"
     id="text3"><tspan
       sodipodi:role="line"
       id="tspan3"
       style="font-size:48px;stroke-width:15.1181"
       x="1831.9325"
       y="117.69248">Elastic power</tspan></text>
  <text
     xml:space="preserve"
     style="font-size:48px;font-family:sans-serif;-inkscape-font-specification:sans-serif;fill:#000000;stroke-width:15.1181"
     x="1835.9244"
     y="172.14575"
     id="text4"><tspan
       sodipodi:role="line"
       id="tspan4"
       style="font-size:48px;stroke-width:15.1181"
       x="1835.9244"
       y="172.14575">Air viscous power</tspan></text>
  <text
     xml:space="preserve"
     style="font-size:48px;font-family:sans-serif;-inkscape-font-specification:sans-serif;fill:#000000;stroke-width:15.1181"
     x="1835.6562"
     y="224.21407"
     id="text5"><tspan
       sodipodi:role="line"
       id="tspan5"
       style="font-size:48px;stroke-width:15.1181"
       x="1835.6562"
       y="224.21407">Total power</tspan></text>
  <text
     xml:space="preserve"
     style="font-size:58.6667px;font-family:sans-serif;-inkscape-font-specification:sans-serif;fill:#000000;stroke-width:15.1181"
     x="443.62366"
     y="1438.66"
     id="text6"><tspan
       sodipodi:role="line"
       id="tspan6"
       style="font-size:58.6667px;stroke-width:15.1181"
       x="443.62366"
       y="1438.66">25</tspan></text>
  <text
     xml:space="preserve"
     style="font-size:58.6668px;font-family:sans-serif;-inkscape-font-specification:sans-serif;fill:#000000;stroke-width:15.1181"
     x="920.8078"
     y="1438.4847"
     id="text7"><tspan
       sodipodi:role="line"
       id="tspan7"
       style="stroke-width:15.1181"
       x="920.8078"
       y="1438.4847">50</tspan></text>
  <text
     xml:space="preserve"
     style="font-size:58.6668px;font-family:sans-serif;-inkscape-font-specification:sans-serif;fill:#000000;stroke-width:15.1181"
     x="1396.6215"
     y="1438.0635"
     id="text8"><tspan
       sodipodi:role="line"
       id="tspan8"
       style="stroke-width:15.1181"
       x="1396.6215"
       y="1438.0635">75</tspan></text>
  <text
     xml:space="preserve"
     style="font-size:58.6668px;font-family:sans-serif;-inkscape-font-specification:sans-serif;fill:#000000;stroke-width:15.1181"
     x="1850.7085"
     y="1438.9281"
     id="text9"><tspan
       sodipodi:role="line"
       id="tspan9"
       style="stroke-width:15.1181"
       x="1850.7085"
       y="1438.9281">100</tspan></text>
  <text
     xml:space="preserve"
     style="font-size:58.6668px;font-family:sans-serif;-inkscape-font-specification:sans-serif;fill:#000000;stroke-width:15.1181"
     x="108.87928"
     y="1141.2544"
     id="text10"><tspan
       sodipodi:role="line"
       id="tspan10"
       style="stroke-width:15.1181"
       x="108.87928"
       y="1141.2544">1</tspan></text>
  <text
     xml:space="preserve"
     style="font-size:58.6668px;font-family:sans-serif;-inkscape-font-specification:sans-serif;fill:#000000;stroke-width:15.1181"
     x="111.19218"
     y="796.46027"
     id="text11"><tspan
       sodipodi:role="line"
       id="tspan11"
       style="stroke-width:15.1181"
       x="111.19218"
       y="796.46027">2</tspan></text>
  <text
     xml:space="preserve"
     style="font-size:58.6668px;font-family:sans-serif;-inkscape-font-specification:sans-serif;fill:#000000;stroke-width:15.1181"
     x="114.38889"
     y="453.30389"
     id="text12"><tspan
       sodipodi:role="line"
       id="tspan12"
       style="stroke-width:15.1181"
       x="114.38889"
       y="453.30389">3</tspan></text>
  <text
     xml:space="preserve"
     style="font-size:58.6668px;font-family:sans-serif;-inkscape-font-specification:sans-serif;fill:#000000;stroke-width:15.1181"
     x="115.50862"
     y="110.14747"
     id="text13"><tspan
       sodipodi:role="line"
       id="tspan13"
       style="stroke-width:15.1181"
       x="115.50862"
       y="110.14747">4</tspan></text>
</svg>
