<?xml version="1.0" encoding="UTF-8" standalone="no"?>
<!-- Created with Inkscape (http://www.inkscape.org/) -->

<svg
   width="121mm"
   height="134mm"
   viewBox="0 0 121 134"
   version="1.1"
   id="svg5"
   xml:space="preserve"
   inkscape:version="1.2.2 (b0a8486541, 2022-12-01)"
   sodipodi:docname="fig6b_enzymesAndRegulation.svg"
   xmlns:inkscape="http://www.inkscape.org/namespaces/inkscape"
   xmlns:sodipodi="http://sodipodi.sourceforge.net/DTD/sodipodi-0.dtd"
   xmlns="http://www.w3.org/2000/svg"
   xmlns:svg="http://www.w3.org/2000/svg"><sodipodi:namedview
     id="namedview7"
     pagecolor="#ffffff"
     bordercolor="#999999"
     borderopacity="1"
     inkscape:showpageshadow="0"
     inkscape:pageopacity="0"
     inkscape:pagecheckerboard="0"
     inkscape:deskcolor="#d1d1d1"
     inkscape:document-units="mm"
     showgrid="false"
     inkscape:zoom="1.6160073"
     inkscape:cx="396.34722"
     inkscape:cy="87.252081"
     inkscape:window-width="3840"
     inkscape:window-height="2008"
     inkscape:window-x="0"
     inkscape:window-y="40"
     inkscape:window-maximized="1"
     inkscape:current-layer="layer1" /><defs
     id="defs2"><marker
       style="overflow:visible"
       id="TriangleStart"
       refX="0"
       refY="0"
       orient="auto-start-reverse"
       inkscape:stockid="TriangleStart"
       markerWidth="5.3244081"
       markerHeight="6.155385"
       viewBox="0 0 5.3244081 6.1553851"
       inkscape:isstock="true"
       inkscape:collect="always"
       preserveAspectRatio="xMidYMid"><path
         transform="scale(0.5)"
         style="fill:context-stroke;fill-rule:evenodd;stroke:context-stroke;stroke-width:1pt"
         d="M 5.77,0 -2.88,5 V -5 Z"
         id="path135" /></marker></defs><g
     inkscape:label="Layer 1"
     inkscape:groupmode="layer"
     id="layer1"
     transform="translate(-0.21590007,-164.65935)"><rect
       style="fill:#4472c4;fill-opacity:1;stroke:#325493;stroke-width:0.5;stroke-dasharray:none;stroke-opacity:0.878431"
       id="rect354"
       width="44.379284"
       height="25.033003"
       x="36.775047"
       y="168.1553"
       rx="3.2512944"
       ry="3.2512944" /><text
       xml:space="preserve"
       style="font-size:5.64444px;line-height:1.25;font-family:sans-serif;fill:#ffffff;stroke-width:0.264583"
       x="55.587208"
       y="175.04631"
       id="text3584"><tspan
         sodipodi:role="line"
         id="tspan3582"
         style="font-weight:bold;font-size:5.64444px;fill:#ffffff;stroke-width:0.264583"
         x="55.587208"
         y="175.04631">enzyme</tspan></text><ellipse
       style="fill:#ffffff;fill-opacity:1;stroke:#325493;stroke-width:0.499999;stroke-dasharray:none;stroke-opacity:0.878431"
       id="path3742"
       cx="60.7159"
       cy="193.18832"
       rx="16.267742"
       ry="7.0494375" /><ellipse
       style="fill:#ffffff;fill-opacity:1;stroke:#325493;stroke-width:0.499999;stroke-dasharray:none;stroke-opacity:0.878431"
       id="ellipse4367"
       cx="36.775047"
       cy="179.51042"
       rx="9.4222145"
       ry="6.5751696" /><text
       xml:space="preserve"
       style="font-size:4.23333px;line-height:1.25;font-family:sans-serif;white-space:pre;inline-size:24.3947;stroke-width:0.264583"
       x="24.660746"
       y="159.98424"
       id="text4423"
       transform="translate(-19.659016,26.896421)"><tspan
         x="24.660746"
         y="159.98424"
         id="tspan13700">substrate </tspan><tspan
         x="24.660746"
         y="165.27589"
         id="tspan13702">binding site</tspan></text><text
       xml:space="preserve"
       style="font-size:4.23333px;line-height:1.25;font-family:sans-serif;white-space:pre;inline-size:30.0532;stroke-width:0.264583"
       x="24.660746"
       y="159.98424"
       id="text4427"
       transform="translate(35.213725,46.304115)"><tspan
         x="24.660746"
         y="159.98424"
         id="tspan13704">allosteric site</tspan></text><rect
       style="fill:#4472c4;fill-opacity:1;stroke:#325493;stroke-width:0.5;stroke-dasharray:none;stroke-opacity:0.878431"
       id="rect4429"
       width="44.379284"
       height="25.033003"
       x="36.775047"
       y="225.27425"
       rx="3.2512944"
       ry="3.2512944" /><text
       xml:space="preserve"
       style="font-size:5.64444px;line-height:1.25;font-family:sans-serif;fill:#ffffff;stroke-width:0.264583"
       x="55.587208"
       y="232.16524"
       id="text4433"><tspan
         sodipodi:role="line"
         id="tspan4431"
         style="font-weight:bold;font-size:5.64444px;fill:#ffffff;stroke-width:0.264583"
         x="55.587208"
         y="232.16524">enzyme</tspan></text><ellipse
       style="fill:#ffffff;fill-opacity:1;stroke:#325493;stroke-width:0.499999;stroke-dasharray:none;stroke-opacity:0.878431"
       id="ellipse4435"
       cx="60.7159"
       cy="250.30725"
       rx="16.267742"
       ry="7.0494375" /><ellipse
       style="fill:#bfbfbf;fill-opacity:1;stroke:#325493;stroke-width:0.499999;stroke-dasharray:none;stroke-opacity:0.878431"
       id="ellipse4437"
       cx="36.775047"
       cy="236.62935"
       rx="9.4222145"
       ry="6.5751696" /><path
       style="fill:none;fill-opacity:1;stroke:#808080;stroke-width:1;stroke-linecap:butt;stroke-linejoin:miter;stroke-dasharray:none;stroke-opacity:1;marker-end:url(#TriangleStart)"
       d="M 88.293041,237.79073 H 114.51052"
       id="path4502" /><text
       xml:space="preserve"
       style="font-size:5.64444px;line-height:1.25;font-family:sans-serif;fill:#ffffff;stroke-width:0.264583"
       x="35.203072"
       y="238.64441"
       id="text6040"><tspan
         sodipodi:role="line"
         id="tspan6038"
         style="font-weight:bold;font-size:5.64444px;fill:#ffffff;stroke-width:0.264583"
         x="35.203072"
         y="238.64441">S</tspan></text><rect
       style="fill:#4472c4;fill-opacity:1;stroke:#325493;stroke-width:0.5;stroke-dasharray:none;stroke-opacity:0.878431"
       id="rect6044"
       width="44.379284"
       height="25.033003"
       x="36.775047"
       y="263.75995"
       rx="3.2512944"
       ry="3.2512944" /><text
       xml:space="preserve"
       style="font-size:5.64444px;line-height:1.25;font-family:sans-serif;fill:#ffffff;stroke-width:0.264583"
       x="55.587208"
       y="270.65094"
       id="text6048"><tspan
         sodipodi:role="line"
         id="tspan6046"
         style="font-weight:bold;font-size:5.64444px;fill:#ffffff;stroke-width:0.264583"
         x="55.587208"
         y="270.65094">enzyme</tspan></text><ellipse
       style="fill:#333333;fill-opacity:1;stroke:#325493;stroke-width:0.499999;stroke-dasharray:none;stroke-opacity:0.878431"
       id="ellipse6050"
       cx="60.7159"
       cy="288.79297"
       rx="16.267742"
       ry="7.0494375" /><ellipse
       style="fill:#bfbfbf;fill-opacity:1;stroke:#325493;stroke-width:0.499999;stroke-dasharray:none;stroke-opacity:0.878431"
       id="ellipse6052"
       cx="36.775047"
       cy="275.11505"
       rx="9.4222145"
       ry="6.5751696" /><path
       style="fill:none;fill-opacity:1;stroke:#808080;stroke-width:1;stroke-linecap:butt;stroke-linejoin:miter;stroke-dasharray:none;stroke-opacity:1;marker-end:url(#TriangleStart)"
       d="M 88.293041,276.27645 H 114.51052"
       id="path6054" /><text
       xml:space="preserve"
       style="font-size:5.64444px;line-height:1.25;font-family:sans-serif;fill:#ffffff;stroke-width:0.264583"
       x="35.203072"
       y="277.13013"
       id="text6058"><tspan
         sodipodi:role="line"
         id="tspan6056"
         style="font-weight:bold;font-size:5.64444px;fill:#ffffff;stroke-width:0.264583"
         x="35.203072"
         y="277.13013">S</tspan></text><text
       xml:space="preserve"
       style="font-size:5.64444px;line-height:1.25;font-family:sans-serif;fill:#ffffff;stroke-width:0.264583"
       x="60.676388"
       y="290.69165"
       id="text6066"><tspan
         sodipodi:role="line"
         id="tspan6064"
         style="font-weight:bold;font-size:5.64444px;text-align:center;text-anchor:middle;fill:#ffffff;stroke-width:0.264583"
         x="60.676388"
         y="290.69165">S, P, I</tspan></text><text
       xml:space="preserve"
       style="font-size:4.23333px;line-height:1.25;font-family:sans-serif;white-space:pre;inline-size:30.0532;stroke-width:0.264583"
       x="24.660746"
       y="159.98424"
       id="text9140"
       transform="translate(79.9094,72.460752)"><tspan
         x="24.660746"
         y="159.98424"
         id="tspan13710"><tspan
           style="font-style:italic"
           id="tspan13706">k</tspan><tspan
           style="font-size:65%;baseline-shift:sub"
           id="tspan13708">cat</tspan></tspan></text><text
       xml:space="preserve"
       style="font-size:4.23333px;line-height:1.25;font-family:sans-serif;white-space:pre;inline-size:30.0532;stroke-width:0.264583"
       x="24.660746"
       y="159.98424"
       id="text9890"
       transform="translate(64.771019,110.94645)"><tspan
         x="24.660746"
         y="159.98424"
         id="tspan13716">altered<tspan
   style="font-style:italic"
   id="tspan13712"> k</tspan><tspan
   style="font-size:65%;baseline-shift:sub"
   id="tspan13714">cat</tspan></tspan></text></g></svg>
