<?xml version="1.0" encoding="UTF-8" standalone="no"?>
<svg
   version="1.1"
   viewBox="0 0 946.5141 363.12952"
   fill="none"
   stroke="none"
   stroke-linecap="square"
   stroke-miterlimit="10"
   id="svg48"
   sodipodi:docname="CEN_NonuniformMolecules.svg"
   xml:space="preserve"
   width="946.5141"
   height="363.12952"
   inkscape:version="1.3.2 (091e20e, 2023-11-25)"
   inkscape:export-filename="CEN_NonuniformMolecules.pdf"
   inkscape:export-xdpi="96"
   inkscape:export-ydpi="96"
   xmlns:inkscape="http://www.inkscape.org/namespaces/inkscape"
   xmlns:sodipodi="http://sodipodi.sourceforge.net/DTD/sodipodi-0.dtd"
   xmlns="http://www.w3.org/2000/svg"
   xmlns:svg="http://www.w3.org/2000/svg"><defs
     id="defs48" /><sodipodi:namedview
     id="namedview48"
     pagecolor="#ffffff"
     bordercolor="#000000"
     borderopacity="0.25"
     inkscape:showpageshadow="2"
     inkscape:pageopacity="0.0"
     inkscape:pagecheckerboard="0"
     inkscape:deskcolor="#d1d1d1"
     inkscape:zoom="0.61229271"
     inkscape:cx="466.28025"
     inkscape:cy="486.69533"
     inkscape:window-width="1472"
     inkscape:window-height="919"
     inkscape:window-x="0"
     inkscape:window-y="37"
     inkscape:window-maximized="0"
     inkscape:current-layer="svg48" /><clipPath
     id="p.0"><path
       d="M 0,0 H 960 V 540 H 0 Z"
       clip-rule="nonzero"
       id="path1" /></clipPath><ellipse
     style="fill:#faf4d7;fill-opacity:1;stroke:#b79a64;stroke-width:5;stroke-dasharray:none;stroke-opacity:1"
     id="path49"
     cx="225.42384"
     cy="179.46077"
     rx="224.92384"
     ry="178.96077" /><ellipse
     style="fill:#faf4d7;fill-opacity:1;stroke:#b79a64;stroke-width:5;stroke-dasharray:none;stroke-opacity:1"
     id="path49-5"
     cx="721.09027"
     cy="183.66875"
     rx="224.92384"
     ry="178.96077" /><ellipse
     style="fill:#faf4d7;fill-opacity:1;stroke:#b79a64;stroke-width:5;stroke-dasharray:none;stroke-opacity:1"
     id="path49-5-1"
     cx="632.74567"
     cy="192.64331"
     rx="81.002922"
     ry="85.106766" /><circle
     style="fill:#d64248;fill-opacity:1;stroke:none;stroke-width:2.29471;stroke-opacity:1"
     id="path50"
     cx="89.638496"
     cy="84.355408"
     r="13.953074" /><circle
     style="fill:#d64248;fill-opacity:1;stroke:none;stroke-width:2.29471;stroke-opacity:1"
     id="path50-7"
     cx="176.56158"
     cy="112.4662"
     r="13.953074" /><circle
     style="fill:#d64248;fill-opacity:1;stroke:none;stroke-width:2.29471;stroke-opacity:1"
     id="path50-3"
     cx="251.56157"
     cy="98.466202"
     r="13.953074" /><circle
     style="fill:#d64248;fill-opacity:1;stroke:none;stroke-width:2.29471;stroke-opacity:1"
     id="path50-72"
     cx="326.56158"
     cy="83.466202"
     r="13.953074" /><circle
     style="fill:#d64248;fill-opacity:1;stroke:none;stroke-width:2.29471;stroke-opacity:1"
     id="path50-5"
     cx="382.56158"
     cy="211.46619"
     r="13.953074" /><circle
     style="fill:#d64248;fill-opacity:1;stroke:none;stroke-width:2.29471;stroke-opacity:1"
     id="path50-0"
     cx="287.56158"
     cy="169.4662"
     r="13.953074" /><circle
     style="fill:#d64248;fill-opacity:1;stroke:none;stroke-width:2.29471;stroke-opacity:1"
     id="path50-03"
     cx="276.56158"
     cy="259.46619"
     r="13.953074" /><circle
     style="fill:#d64248;fill-opacity:1;stroke:none;stroke-width:2.29471;stroke-opacity:1"
     id="path50-78"
     cx="195.56157"
     cy="208.46619"
     r="13.953074" /><circle
     style="fill:#d64248;fill-opacity:1;stroke:none;stroke-width:2.29471;stroke-opacity:1"
     id="path50-8"
     cx="87.561577"
     cy="211.46619"
     r="13.953074" /><circle
     style="fill:#d64248;fill-opacity:1;stroke:none;stroke-width:2.29471;stroke-opacity:1"
     id="path50-35"
     cx="176.56158"
     cy="316.46619"
     r="13.953074" /><circle
     style="fill:#d64248;fill-opacity:1;stroke:none;stroke-width:2.29471;stroke-opacity:1"
     id="path50-6"
     cx="637.56158"
     cy="134.4662"
     r="13.953074" /><circle
     style="fill:#d64248;fill-opacity:1;stroke:none;stroke-width:2.29471;stroke-opacity:1"
     id="path50-59"
     cx="796.56158"
     cy="190.46619"
     r="13.953074" /><circle
     style="fill:#d64248;fill-opacity:1;stroke:none;stroke-width:2.29471;stroke-opacity:1"
     id="path50-9"
     cx="628.56158"
     cy="193.46619"
     r="13.953074" /><circle
     style="fill:#d64248;fill-opacity:1;stroke:none;stroke-width:2.29471;stroke-opacity:1"
     id="path50-83"
     cx="579.56158"
     cy="200.46619"
     r="13.953074" /><circle
     style="fill:#d64248;fill-opacity:1;stroke:none;stroke-width:2.29471;stroke-opacity:1"
     id="path50-2"
     cx="591.56158"
     cy="162.4662"
     r="13.953074" /><circle
     style="fill:#d64248;fill-opacity:1;stroke:none;stroke-width:2.29471;stroke-opacity:1"
     id="path50-4"
     cx="637.56158"
     cy="223.46619"
     r="13.953074" /><circle
     style="fill:#d64248;fill-opacity:1;stroke:none;stroke-width:2.29471;stroke-opacity:1"
     id="path50-44"
     cx="593.56158"
     cy="233.46619"
     r="13.953074" /><circle
     style="fill:#d64248;fill-opacity:1;stroke:none;stroke-width:2.29471;stroke-opacity:1"
     id="path50-07"
     cx="665.56158"
     cy="195.46619"
     r="13.953074" /><circle
     style="fill:#d64248;fill-opacity:1;stroke:none;stroke-width:2.29471;stroke-opacity:1"
     id="path50-30"
     cx="669.56158"
     cy="233.46619"
     r="13.953074" /><circle
     style="fill:#d64248;fill-opacity:1;stroke:none;stroke-width:2.29471;stroke-opacity:1"
     id="path50-1"
     cx="684.56158"
     cy="164.4662"
     r="13.953074" /></svg>
