<?xml version="1.0" encoding="UTF-8" standalone="no"?>
<svg
   width="726.23822"
   height="393.99609"
   viewBox="0 0 726.23822 393.99609"
   version="1.1"
   id="svg21"
   sodipodi:docname="CBM_Polytope.svg"
   inkscape:version="1.4 (e7c3feb1, 2024-10-09)"
   inkscape:export-filename="CBM_Polytope.pdf"
   inkscape:export-xdpi="96"
   inkscape:export-ydpi="96"
   xmlns:inkscape="http://www.inkscape.org/namespaces/inkscape"
   xmlns:sodipodi="http://sodipodi.sourceforge.net/DTD/sodipodi-0.dtd"
   xmlns="http://www.w3.org/2000/svg"
   xmlns:svg="http://www.w3.org/2000/svg">
  <sodipodi:namedview
     id="namedview21"
     pagecolor="#ffffff"
     bordercolor="#000000"
     borderopacity="0.25"
     inkscape:showpageshadow="2"
     inkscape:pageopacity="0.0"
     inkscape:pagecheckerboard="0"
     inkscape:deskcolor="#d1d1d1"
     inkscape:zoom="0.72588411"
     inkscape:cx="340.96352"
     inkscape:cy="197.00114"
     inkscape:window-width="1472"
     inkscape:window-height="815"
     inkscape:window-x="738"
     inkscape:window-y="38"
     inkscape:window-maximized="0"
     inkscape:current-layer="svg21" />
  <defs
     id="defs6">
    <g
       id="g5">
      <g
         id="glyph-0-0">
        <path
           d="m 0.390625,-0.765625 c 0.476563,-0.582031 0.957031,-1.1875 1.4375,-1.8125 0.476563,-0.632813 1.0625,-1.4375 1.75,-2.40625 l 7,-9.9375 c -0.01172,-1.0625 -0.05859,-1.953125 -0.140625,-2.671875 -0.08594,-0.71875 -0.199219,-1.285156 -0.34375,-1.703125 -0.148438,-0.425781 -0.339844,-0.738281 -0.578125,-0.9375 -0.242187,-0.195313 -0.570313,-0.296875 -0.984375,-0.296875 -0.34375,0 -0.695312,0.101562 -1.046875,0.296875 -0.355469,0.199219 -0.871094,0.605469 -1.546875,1.21875 l -0.8125,-0.90625 c 0.957031,-0.945313 1.75,-1.585937 2.375,-1.921875 0.632812,-0.34375 1.265625,-0.515625 1.890625,-0.515625 0.800781,0 1.414063,0.1875 1.84375,0.5625 0.425781,0.375 0.726563,0.96875 0.90625,1.78125 0.175781,0.804687 0.265625,1.980469 0.265625,3.53125 0,0.511719 -0.01172,1.25 -0.03125,2.21875 l -0.0625,2.46875 c -0.08594,2.34375 -0.125,4.1875 -0.125,5.53125 0,1.085937 0.01953,1.933594 0.0625,2.546875 0.05078,0.605469 0.128906,1.0625 0.234375,1.375 0.101563,0.3125 0.234375,0.527344 0.390625,0.640625 0.15625,0.105469 0.347656,0.15625 0.578125,0.15625 0.269531,0 0.554687,-0.085937 0.859375,-0.265625 0.3125,-0.1875 0.691406,-0.519531 1.140625,-1 l 0.875,0.875 C 15.648438,-1.25 14.976562,-0.710938 14.3125,-0.328125 13.65625,0.0546875 13.070312,0.25 12.5625,0.25 c -0.59375,0 -1.046875,-0.121094 -1.359375,-0.359375 -0.3125,-0.238281 -0.542969,-0.632813 -0.6875,-1.1875 -0.136719,-0.550781 -0.203125,-1.363281 -0.203125,-2.4375 0,-1.476563 0.109375,-3.898437 0.328125,-7.265625 h -0.15625 C 7.359375,-6.414062 5,-2.75 3.40625,0 H 0.234375 Z m 0,0"
           id="path1" />
      </g>
      <g
         id="glyph-1-0">
        <path
           d="m 8.203125,-2.96875 c 0,0.242188 0.00391,0.445312 0.015625,0.609375 0.019531,0.167969 0.046875,0.308594 0.078125,0.421875 0.039063,0.117188 0.085937,0.214844 0.140625,0.296875 0.0625,0.085937 0.128906,0.15625 0.203125,0.21875 0.082031,0.085937 0.195313,0.152344 0.34375,0.203125 0.15625,0.054688 0.347656,0.09375 0.578125,0.125 0.238281,0.03125 0.519531,0.058594 0.84375,0.078125 0.320312,0.023437 0.710938,0.03125 1.171875,0.03125 V 0 H 2.671875 V -0.984375 C 3.109375,-0.992188 3.476562,-1.007812 3.78125,-1.03125 4.09375,-1.050781 4.359375,-1.078125 4.578125,-1.109375 4.796875,-1.140625 4.96875,-1.175781 5.09375,-1.21875 5.226562,-1.257812 5.347656,-1.3125 5.453125,-1.375 5.554688,-1.4375 5.644531,-1.503906 5.71875,-1.578125 5.789062,-1.660156 5.847656,-1.757812 5.890625,-1.875 5.941406,-2 5.976562,-2.144531 6,-2.3125 6.03125,-2.488281 6.046875,-2.707031 6.046875,-2.96875 v -8.046875 c 0,-0.289063 -0.058594,-0.492187 -0.171875,-0.609375 -0.117188,-0.125 -0.277344,-0.1875 -0.484375,-0.1875 -0.230469,0 -0.574219,0.121094 -1.03125,0.359375 -0.460937,0.242187 -1.054687,0.59375 -1.78125,1.0625 -0.09375,-0.164063 -0.183594,-0.332031 -0.265625,-0.5 -0.085938,-0.175781 -0.167969,-0.359375 -0.25,-0.546875 0.925781,-0.507812 1.84375,-1.015625 2.75,-1.515625 0.90625,-0.507813 1.828125,-1.015625 2.765625,-1.515625 h 0.6875 c -0.011719,0.417969 -0.023437,0.789062 -0.03125,1.109375 -0.011719,0.324219 -0.023437,0.640625 -0.03125,0.953125 0,0.304688 0,0.605469 0,0.90625 z m 0,0"
           id="path2" />
      </g>
      <g
         id="glyph-1-1">
        <path
           d="m 8.15625,-1.828125 c 0.351562,0 0.632812,-0.00781 0.84375,-0.03125 0.207031,-0.03125 0.378906,-0.085937 0.515625,-0.171875 0.132813,-0.09375 0.25,-0.234375 0.34375,-0.421875 0.101563,-0.1875 0.21875,-0.441406 0.34375,-0.765625 H 11.25 C 11.21875,-2.6875 11.17969,-2.148438 11.140625,-1.609375 11.109375,-1.066406 11.078125,-0.53125 11.046875,0 H 1.53125 v -0.578125 c 0.175781,-0.40625 0.382812,-0.804687 0.625,-1.203125 0.238281,-0.394531 0.507812,-0.789062 0.8125,-1.1875 0.300781,-0.40625 0.640625,-0.820312 1.015625,-1.25 C 4.367188,-4.65625 4.789062,-5.109375 5.25,-5.578125 5.957031,-6.273438 6.53125,-6.875 6.96875,-7.375 c 0.445312,-0.5 0.796875,-0.941406 1.046875,-1.328125 0.257813,-0.382813 0.4375,-0.742187 0.53125,-1.078125 0.09375,-0.332031 0.140625,-0.6875 0.140625,-1.0625 0,-0.375 -0.058594,-0.722656 -0.171875,-1.046875 -0.105469,-0.320313 -0.261719,-0.59375 -0.46875,-0.8125 -0.199219,-0.226563 -0.453125,-0.40625 -0.765625,-0.53125 -0.3125,-0.132813 -0.671875,-0.203125 -1.078125,-0.203125 -0.6875,0 -1.273437,0.195312 -1.75,0.578125 -0.46875,0.375 -0.835937,0.921875 -1.09375,1.640625 h -1.46875 v -2.1875 c 0.957031,-0.394531 1.835937,-0.679688 2.640625,-0.859375 0.800781,-0.1875 1.523438,-0.28125 2.171875,-0.28125 0.78125,0 1.445313,0.08984 2,0.265625 0.550781,0.179688 1,0.417969 1.34375,0.71875 0.34375,0.292969 0.585937,0.652344 0.734375,1.078125 0.15625,0.417969 0.234375,0.871094 0.234375,1.359375 0,0.292969 -0.02344,0.5625 -0.0625,0.8125 -0.04297,0.25 -0.117187,0.5 -0.21875,0.75 -0.09375,0.242188 -0.226563,0.484375 -0.390625,0.734375 -0.167969,0.242187 -0.375,0.5 -0.625,0.78125 -0.1875,0.242187 -0.433594,0.515625 -0.734375,0.828125 -0.292969,0.3125 -0.617187,0.652344 -0.96875,1.015625 -0.355469,0.355469 -0.730469,0.730469 -1.125,1.125 -0.386719,0.386719 -0.761719,0.773437 -1.125,1.15625 C 5.398438,-3.546875 5.0625,-3.175781 4.75,-2.8125 4.445312,-2.457031 4.195312,-2.128906 4,-1.828125 Z m 0,0"
           id="path3" />
      </g>
      <g
         id="glyph-2-0">
        <path
           d="M 0.4375,-0.859375 C 0.976562,-1.515625 1.515625,-2.195312 2.046875,-2.90625 2.585938,-3.613281 3.25,-4.515625 4.03125,-5.609375 l 7.875,-11.171875 c -0.01172,-1.195312 -0.0625,-2.195312 -0.15625,-3 -0.09375,-0.8125 -0.226562,-1.457031 -0.390625,-1.9375 -0.167969,-0.476562 -0.386719,-0.828125 -0.65625,-1.046875 -0.273437,-0.21875 -0.640625,-0.328125 -1.109375,-0.328125 -0.386719,0 -0.777344,0.109375 -1.171875,0.328125 -0.398437,0.21875 -0.976563,0.679687 -1.734375,1.375 L 5.765625,-22.40625 c 1.082031,-1.070312 1.976563,-1.796875 2.6875,-2.171875 0.707031,-0.382813 1.410156,-0.578125 2.109375,-0.578125 0.90625,0 1.597656,0.214844 2.078125,0.640625 0.476563,0.417969 0.816406,1.078125 1.015625,1.984375 0.195312,0.90625 0.296875,2.234375 0.296875,3.984375 0,0.574219 -0.01172,1.40625 -0.03125,2.5 l -0.0625,2.78125 c -0.09375,2.636719 -0.140625,4.710937 -0.140625,6.21875 0,1.21875 0.02344,2.171875 0.07813,2.859375 0.05078,0.679688 0.132813,1.195312 0.25,1.546875 0.113281,0.355469 0.257813,0.59375 0.4375,0.71875 0.175781,0.125 0.394531,0.1875 0.65625,0.1875 0.300781,0 0.625,-0.101563 0.96875,-0.3125 0.34375,-0.207031 0.769531,-0.582031 1.28125,-1.125 L 18.375,-2.1875 c -0.761719,0.78125 -1.515625,1.390625 -2.265625,1.828125 -0.742187,0.4257812 -1.398437,0.640625 -1.96875,0.640625 -0.679687,0 -1.195313,-0.136719 -1.546875,-0.40625 C 12.25,-0.394531 12,-0.835938 11.84375,-1.453125 c -0.15625,-0.625 -0.234375,-1.539063 -0.234375,-2.75 0,-1.664063 0.117187,-4.390625 0.359375,-8.171875 H 11.796875 C 8.273438,-7.21875 5.617188,-3.09375 3.828125,0 h -3.5625 z m 0,0"
           id="path4" />
      </g>
      <g
         id="glyph-3-0">
        <path
           d="m 2.1875,-12.65625 v -2.5 c 1,-0.425781 1.9375,-0.742188 2.8125,-0.953125 0.882812,-0.21875 1.734375,-0.328125 2.546875,-0.328125 0.675781,0 1.304687,0.07422 1.890625,0.21875 0.59375,0.136719 1.101562,0.351562 1.53125,0.640625 0.4375,0.292969 0.773438,0.65625 1.015625,1.09375 0.25,0.4375 0.375,0.945313 0.375,1.515625 0,0.542969 -0.07813,1.023438 -0.234375,1.4375 -0.15625,0.417969 -0.398438,0.796875 -0.71875,1.140625 C 11.09375,-10.054688 10.707031,-9.75 10.25,-9.46875 9.789062,-9.195312 9.257812,-8.9375 8.65625,-8.6875 v 0.15625 c 0.570312,0.105469 1.101562,0.273438 1.59375,0.5 0.488281,0.21875 0.914062,0.5 1.28125,0.84375 0.375,0.34375 0.664062,0.742188 0.875,1.1875 0.207031,0.449219 0.3125,0.945312 0.3125,1.484375 0,0.679687 -0.132812,1.308594 -0.390625,1.890625 -0.25,0.574219 -0.632813,1.074219 -1.140625,1.5 -0.5,0.417969 -1.125,0.746094 -1.875,0.984375 C 8.570312,0.0976562 7.703125,0.21875 6.703125,0.21875 5.910156,0.21875 5.109375,0.140625 4.296875,-0.015625 3.484375,-0.171875 2.71875,-0.378906 2,-0.640625 V -3.375 h 1.625 c 0.132812,0.417969 0.296875,0.777344 0.484375,1.078125 0.1875,0.304687 0.40625,0.554687 0.65625,0.75 0.25,0.1875 0.535156,0.324219 0.859375,0.40625 0.332031,0.085937 0.703125,0.125 1.109375,0.125 1.09375,0 1.921875,-0.257813 2.484375,-0.78125 0.5625,-0.519531 0.84375,-1.3125 0.84375,-2.375 0,-1.125 -0.371094,-1.972656 -1.109375,-2.546875 -0.742187,-0.582031 -1.839844,-0.875 -3.296875,-0.875 H 4.546875 V -8.8125 c 0.882813,-0.039062 1.648437,-0.164062 2.296875,-0.375 0.65625,-0.207031 1.195312,-0.472656 1.625,-0.796875 0.425781,-0.332031 0.742188,-0.71875 0.953125,-1.15625 C 9.640625,-11.585938 9.75,-12.0625 9.75,-12.5625 9.75,-13.375 9.503906,-14.015625 9.015625,-14.484375 8.535156,-14.953125 7.84375,-15.1875 6.9375,-15.1875 6.164062,-15.1875 5.519531,-14.972656 5,-14.546875 4.476562,-14.128906 4.078125,-13.5 3.796875,-12.65625 Z m 0,0"
           id="path5" />
      </g>
    </g>
    <clipPath
       id="clip-0">
      <path
         clip-rule="nonzero"
         d="M 0,0 H 959.76172 V 540 H 0 Z m 0,0"
         id="path6" />
    </clipPath>
  </defs>
  <path
     fill-rule="nonzero"
     fill="#4472c4"
     fill-opacity="0.2314"
     d="M 44.823875,216.95906 H 578.92545 V 46.861405 H 44.823875 Z m 0,0"
     id="path11"
     style="fill:#ff9c00;fill-opacity:0.494118;stroke:#ff9d00;stroke-width:1;stroke-dasharray:none;stroke-opacity:0.976471" />
  <path
     fill-rule="nonzero"
     fill="#375c9e"
     fill-opacity="0.2314"
     d="m 578.92545,216.95906 56.69922,56.69923 H 101.5231 L 44.823875,216.95907 Z m 0,0"
     id="path12"
     style="fill:#ff9c00;fill-opacity:0.494118" />
  <path
     fill-rule="nonzero"
     fill="#698ed0"
     fill-opacity="0.2314"
     d="m 578.92545,46.861405 56.69922,56.699225 v 170.09766 l -56.69922,-56.69922 z m 0,0"
     id="path13" />
  <path
     fill="none"
     stroke-width="2"
     stroke-linecap="butt"
     stroke-linejoin="miter"
     stroke="#000000"
     stroke-opacity="1"
     stroke-miterlimit="8"
     d="m 578.92541,46.861406 56.69925,56.699244 V 273.6584 H 101.52283 L 44.823578,216.95915 V 46.861406 Z m 0,0 V 216.95915 l 56.69925,56.69925 M 578.92541,216.95915 H 44.823578"
     id="path14" />
  <path
     fill="none"
     stroke-width="2"
     stroke-linecap="butt"
     stroke-linejoin="miter"
     stroke="#000000"
     stroke-opacity="1"
     stroke-miterlimit="8"
     d="M 579.62466,44.994219 635.62469,274.59199"
     id="path15" />
  <path
     fill="none"
     stroke-width="2"
     stroke-linecap="butt"
     stroke-linejoin="miter"
     stroke="#000000"
     stroke-opacity="1"
     stroke-miterlimit="8"
     d="M 45.757474,46.861406 103.62469,276.45918"
     id="path16" />
  <path
     fill-rule="nonzero"
     fill="#ffffff"
     fill-opacity="1"
     d="M 701.16763,55.470785 639.35904,278.32625 575.89029,20.724685 Z m 0,0"
     id="path17" />
  <path
     fill-rule="nonzero"
     fill="#000000"
     fill-opacity="1"
     d="M 43.890285,215.09187 H 651.22623 v 4 H 43.890285 Z m 605.335945,-4 12,6 -12,6 z m 0,0"
     id="path19" />
  <path
     fill-rule="nonzero"
     fill="#000000"
     fill-opacity="1"
     d="m 45.296535,214.33406 104.886725,103.64062 -2.8125,2.84375 L 42.484035,217.18171 Z m 106.277345,99.39062 4.31641,12.69923 -12.75,-4.16406 z m 0,0"
     id="path20" />
  <path
     fill-rule="nonzero"
     fill="#000000"
     fill-opacity="1"
     d="M 46.558255,217.09187 V 12.423906 h -4 V 217.09187 Z m 4,-202.667965 -6,-11.9999991 -6,11.9999991 z m 0,0"
     id="path21" />
  <text
     xml:space="preserve"
     style="font-size:42.6667px;fill:#000000"
     x="52.30957"
     y="289.76456"
     id="text21"><tspan
       sodipodi:role="line"
       id="tspan21"
       x="52.30957"
       y="289.76456"
       style="font-style:normal;font-variant:normal;font-weight:normal;font-stretch:normal;font-size:42.6667px;font-family:'TeX Gyre Termes';-inkscape-font-specification:'TeX Gyre Termes'">λ<tspan
   style="font-size:65%;baseline-shift:sub"
   id="tspan4">1</tspan></tspan></text>
  <text
     xml:space="preserve"
     style="font-size:42.6667px;fill:#000000"
     x="-1.7066679"
     y="134.59586"
     id="text21-2"><tspan
       sodipodi:role="line"
       id="tspan21-3"
       x="-1.7066679"
       y="134.59586"
       style="font-style:normal;font-variant:normal;font-weight:normal;font-stretch:normal;font-size:42.6667px;font-family:'TeX Gyre Termes';-inkscape-font-specification:'TeX Gyre Termes'">λ<tspan
   style="font-size:65%;baseline-shift:sub"
   id="tspan2">2</tspan></tspan></text>
  <text
     xml:space="preserve"
     style="font-size:29.3333px;fill:#000000"
     x="622.68457"
     y="254.37831"
     id="text21-5"><tspan
       sodipodi:role="line"
       id="tspan21-7"
       x="622.68457"
       y="254.37831">λ<tspan
   style="font-size:65%;baseline-shift:sub"
   id="tspan24">2</tspan></tspan></text>
  <path
     style="fill:#ff9c00;fill-opacity:0.494118;stroke:#ff9d00;stroke-width:1;stroke-dasharray:none;stroke-opacity:0.976471"
     d="M 45.941825,47.177189 104.59229,273.78124 636.001,274.66989 580.01647,46.288546 Z"
     id="path7" />
  <path
     fill-rule="nonzero"
     fill="#ffffff"
     fill-opacity="1"
     d="m 580.37491,0 52.12109,112.88281 -31.02734,6.66015 72.88283,101.78125 -31.4766,9.1836 83.3633,163.48828 -165.32813,-143.44922 38.03907,-8.99608 -102.34375,-91.25 45.11328,-14.45704 -108.14063,-95.863285 z m 0,0"
     id="path18" />
  <text
     xml:space="preserve"
     style="font-size:42.6667px;fill:#000000"
     x="616.61603"
     y="262.76544"
     id="text21-2-3"><tspan
       sodipodi:role="line"
       id="tspan21-3-9"
       x="616.61603"
       y="262.76544"
       style="font-style:normal;font-variant:normal;font-weight:normal;font-stretch:normal;font-size:42.6667px;font-family:'TeX Gyre Termes';-inkscape-font-specification:'TeX Gyre Termes'">λ<tspan
   style="font-size:65%;baseline-shift:sub"
   id="tspan5">3</tspan></tspan></text>
</svg>
