<?xml version="1.0" encoding="UTF-8" standalone="no"?>
<!-- Created with Inkscape (http://www.inkscape.org/) -->

<svg
   xmlns:dc="http://purl.org/dc/elements/1.1/"
   xmlns:cc="http://creativecommons.org/ns#"
   xmlns:rdf="http://www.w3.org/1999/02/22-rdf-syntax-ns#"
   xmlns:svg="http://www.w3.org/2000/svg"
   xmlns="http://www.w3.org/2000/svg"
   xmlns:sodipodi="http://sodipodi.sourceforge.net/DTD/sodipodi-0.dtd"
   xmlns:inkscape="http://www.inkscape.org/namespaces/inkscape"
   width="210mm"
   height="297mm"
   viewBox="0 0 210 297"
   version="1.1"
   id="svg1"
   sodipodi:docname="CBM_BooleanRulesExample.svg"
   inkscape:version="0.92.3 (2405546, 2018-03-11)">
  <metadata
     id="metadata230">
    <rdf:RDF>
      <cc:Work
         rdf:about="">
        <dc:format>image/svg+xml</dc:format>
        <dc:type
           rdf:resource="http://purl.org/dc/dcmitype/StillImage" />
        <dc:title></dc:title>
      </cc:Work>
    </rdf:RDF>
  </metadata>
  <sodipodi:namedview
     id="namedview1"
     pagecolor="#ffffff"
     bordercolor="#000000"
     borderopacity="0.25"
     inkscape:showpageshadow="2"
     inkscape:pageopacity="0.0"
     inkscape:pagecheckerboard="0"
     inkscape:deskcolor="#d1d1d1"
     inkscape:document-units="mm"
     inkscape:zoom="0.89996974"
     inkscape:cx="335.56684"
     inkscape:cy="794.47116"
     inkscape:window-width="1920"
     inkscape:window-height="1022"
     inkscape:window-x="0"
     inkscape:window-y="34"
     inkscape:window-maximized="1"
     inkscape:current-layer="layer1"
     showgrid="false" />
  <defs
     id="defs1">
    <inkscape:path-effect
       effect="bspline"
       id="path-effect16"
       is_visible="true"
       lpeversion="1.3"
       weight="33.333333"
       steps="2"
       helper_size="0"
       apply_no_weight="true"
       apply_with_weight="true"
       only_selected="false"
       uniform="false" />
    <inkscape:path-effect
       effect="bspline"
       id="path-effect15"
       is_visible="true"
       lpeversion="1.3"
       weight="33.333333"
       steps="2"
       helper_size="0"
       apply_no_weight="true"
       apply_with_weight="true"
       only_selected="false"
       uniform="false" />
    <inkscape:path-effect
       effect="bspline"
       id="path-effect14"
       is_visible="true"
       lpeversion="1.3"
       weight="33.333333"
       steps="2"
       helper_size="0"
       apply_no_weight="true"
       apply_with_weight="true"
       only_selected="false"
       uniform="false" />
    <inkscape:path-effect
       effect="bspline"
       id="path-effect13"
       is_visible="true"
       lpeversion="1.3"
       weight="33.333333"
       steps="2"
       helper_size="0"
       apply_no_weight="true"
       apply_with_weight="true"
       only_selected="false"
       uniform="false" />
    <inkscape:path-effect
       effect="bspline"
       id="path-effect12"
       is_visible="true"
       lpeversion="1.3"
       weight="33.333333"
       steps="2"
       helper_size="0"
       apply_no_weight="true"
       apply_with_weight="true"
       only_selected="false"
       uniform="false" />
    <inkscape:path-effect
       effect="bspline"
       id="path-effect11"
       is_visible="true"
       lpeversion="1.3"
       weight="33.333333"
       steps="2"
       helper_size="0"
       apply_no_weight="true"
       apply_with_weight="true"
       only_selected="false"
       uniform="false" />
    <inkscape:path-effect
       effect="bspline"
       id="path-effect10"
       is_visible="true"
       lpeversion="1.3"
       weight="33.333333"
       steps="2"
       helper_size="0"
       apply_no_weight="true"
       apply_with_weight="true"
       only_selected="false"
       uniform="false" />
    <inkscape:path-effect
       effect="bspline"
       id="path-effect9"
       is_visible="true"
       lpeversion="1.3"
       weight="33.333333"
       steps="2"
       helper_size="0"
       apply_no_weight="true"
       apply_with_weight="true"
       only_selected="false"
       uniform="false" />
    <inkscape:path-effect
       effect="bspline"
       id="path-effect8"
       is_visible="true"
       lpeversion="1.3"
       weight="33.333333"
       steps="2"
       helper_size="0"
       apply_no_weight="true"
       apply_with_weight="true"
       only_selected="false"
       uniform="false" />
    <inkscape:path-effect
       effect="bspline"
       id="path-effect7"
       is_visible="true"
       lpeversion="1.3"
       weight="33.333333"
       steps="2"
       helper_size="0"
       apply_no_weight="true"
       apply_with_weight="true"
       only_selected="false"
       uniform="false" />
    <inkscape:path-effect
       effect="bspline"
       id="path-effect6"
       is_visible="true"
       lpeversion="1.3"
       weight="33.333333"
       steps="2"
       helper_size="0"
       apply_no_weight="true"
       apply_with_weight="true"
       only_selected="false"
       uniform="false" />
    <inkscape:path-effect
       effect="bspline"
       id="path-effect5"
       is_visible="true"
       lpeversion="1.3"
       weight="33.333333"
       steps="2"
       helper_size="0"
       apply_no_weight="true"
       apply_with_weight="true"
       only_selected="false"
       uniform="false" />
    <inkscape:path-effect
       effect="bspline"
       id="path-effect4"
       is_visible="true"
       lpeversion="1.3"
       weight="33.333333"
       steps="2"
       helper_size="0"
       apply_no_weight="true"
       apply_with_weight="true"
       only_selected="false"
       uniform="false" />
    <inkscape:path-effect
       effect="bspline"
       id="path-effect3"
       is_visible="true"
       lpeversion="1.3"
       weight="33.333333"
       steps="2"
       helper_size="0"
       apply_no_weight="true"
       apply_with_weight="true"
       only_selected="false"
       uniform="false" />
    <inkscape:path-effect
       effect="bspline"
       id="path-effect2"
       is_visible="true"
       lpeversion="1.3"
       weight="33.333333"
       steps="2"
       helper_size="0"
       apply_no_weight="true"
       apply_with_weight="true"
       only_selected="false"
       uniform="false" />
    <inkscape:path-effect
       effect="bspline"
       id="path-effect1"
       is_visible="true"
       lpeversion="1.3"
       weight="33.333333"
       steps="2"
       helper_size="0"
       apply_no_weight="true"
       apply_with_weight="true"
       only_selected="false"
       uniform="false" />
    <marker
       inkscape:stockid="Arrow1Mstart9E"
       orient="auto"
       refY="0"
       refX="0"
       id="Arrow1Mstart9E"
       style="overflow:visible">
      <path
         id="path5431"
         d="M 4.2666667,0 6.4,-2.1333333 -1.0666667,0 6.4,2.1333333 Z"
         style="fill:#000000;fill-rule:evenodd;stroke:#000000;stroke-width:0.426667pt;marker-start:none"
         inkscape:connector-curvature="0" />
    </marker>
    <marker
       inkscape:stockid="Arrow1Mstart9E"
       orient="auto"
       refY="0"
       refX="0"
       id="Arrow1Mstart9E-7"
       style="overflow:visible">
      <path
         id="path5431-0"
         d="M 4.2666667,0 6.4,-2.1333333 -1.0666667,0 6.4,2.1333333 Z"
         style="fill:#000000;fill-rule:evenodd;stroke:#000000;stroke-width:0.426667pt;marker-start:none"
         inkscape:connector-curvature="0" />
    </marker>
    <marker
       inkscape:stockid="Arrow1Mstart9E"
       orient="auto"
       refY="0"
       refX="0"
       id="Arrow1Mstart9E-1"
       style="overflow:visible">
      <path
         id="path5431-7"
         d="M 4.2666667,0 6.4,-2.1333333 -1.0666667,0 6.4,2.1333333 Z"
         style="fill:#000000;fill-rule:evenodd;stroke:#000000;stroke-width:0.426667pt;marker-start:none"
         inkscape:connector-curvature="0" />
    </marker>
    <marker
       inkscape:stockid="Arrow1Mstart9E"
       orient="auto"
       refY="0"
       refX="0"
       id="Arrow1Mstart9E-5"
       style="overflow:visible">
      <path
         id="path5431-8"
         d="M 4.2666667,0 6.4,-2.1333333 -1.0666667,0 6.4,2.1333333 Z"
         style="fill:#000000;fill-rule:evenodd;stroke:#000000;stroke-width:0.426667pt;marker-start:none"
         inkscape:connector-curvature="0" />
    </marker>
    <marker
       inkscape:stockid="Arrow1Mstart9E"
       orient="auto"
       refY="0"
       refX="0"
       id="Arrow1Mstart9E-3"
       style="overflow:visible">
      <path
         id="path5431-84"
         d="M 4.2666667,0 6.4,-2.1333333 -1.0666667,0 6.4,2.1333333 Z"
         style="fill:#000000;fill-rule:evenodd;stroke:#000000;stroke-width:0.426667pt;marker-start:none"
         inkscape:connector-curvature="0" />
    </marker>
    <marker
       inkscape:stockid="Arrow1Mstart9E"
       orient="auto"
       refY="0"
       refX="0"
       id="Arrow1Mstart9E-0"
       style="overflow:visible">
      <path
         id="path5431-3"
         d="M 4.2666667,0 6.4,-2.1333333 -1.0666667,0 6.4,2.1333333 Z"
         style="fill:#000000;fill-rule:evenodd;stroke:#000000;stroke-width:0.426667pt;marker-start:none"
         inkscape:connector-curvature="0" />
    </marker>
    <marker
       inkscape:stockid="Arrow1Mstart9E"
       orient="auto"
       refY="0"
       refX="0"
       id="Arrow1Mstart9E-6"
       style="overflow:visible">
      <path
         id="path5431-5"
         d="M 4.2666667,0 6.4,-2.1333333 -1.0666667,0 6.4,2.1333333 Z"
         style="fill:#000000;fill-rule:evenodd;stroke:#000000;stroke-width:0.426667pt;marker-start:none"
         inkscape:connector-curvature="0" />
    </marker>
    <marker
       inkscape:stockid="Arrow1Mstart9E"
       orient="auto"
       refY="0"
       refX="0"
       id="Arrow1Mstart9E-8"
       style="overflow:visible">
      <path
         id="path5431-83"
         d="M 4.2666667,0 6.4,-2.1333333 -1.0666667,0 6.4,2.1333333 Z"
         style="fill:#000000;fill-rule:evenodd;stroke:#000000;stroke-width:0.426667pt;marker-start:none"
         inkscape:connector-curvature="0" />
    </marker>
    <marker
       inkscape:stockid="Arrow1Mstart9E"
       orient="auto"
       refY="0"
       refX="0"
       id="Arrow1Mstart9E-71"
       style="overflow:visible">
      <path
         id="path5431-87"
         d="M 4.2666667,0 6.4,-2.1333333 -1.0666667,0 6.4,2.1333333 Z"
         style="fill:#000000;fill-rule:evenodd;stroke:#000000;stroke-width:0.426667pt;marker-start:none"
         inkscape:connector-curvature="0" />
    </marker>
    <marker
       inkscape:stockid="Arrow1Mstart9E"
       orient="auto"
       refY="0"
       refX="0"
       id="Arrow1Mstart9E-4"
       style="overflow:visible">
      <path
         id="path5431-9"
         d="M 4.2666667,0 6.4,-2.1333333 -1.0666667,0 6.4,2.1333333 Z"
         style="fill:#000000;fill-rule:evenodd;stroke:#000000;stroke-width:0.426667pt;marker-start:none"
         inkscape:connector-curvature="0" />
    </marker>
    <marker
       inkscape:stockid="Arrow1Mstart9E"
       orient="auto"
       refY="0"
       refX="0"
       id="Arrow1Mstart9E-4-2"
       style="overflow:visible">
      <path
         id="path5431-9-9"
         d="M 4.2666667,0 6.4,-2.1333333 -1.0666667,0 6.4,2.1333333 Z"
         style="fill:#000000;fill-rule:evenodd;stroke:#000000;stroke-width:0.426667pt;marker-start:none"
         inkscape:connector-curvature="0" />
    </marker>
    <marker
       inkscape:stockid="Arrow1Mstart9E"
       orient="auto"
       refY="0"
       refX="0"
       id="Arrow1Mstart9E-4-4"
       style="overflow:visible">
      <path
         id="path5431-9-8"
         d="M 4.2666667,0 6.4,-2.1333333 -1.0666667,0 6.4,2.1333333 Z"
         style="fill:#000000;fill-rule:evenodd;stroke:#000000;stroke-width:0.426667pt;marker-start:none"
         inkscape:connector-curvature="0" />
    </marker>
    <marker
       inkscape:stockid="Arrow1Mstart9E"
       orient="auto"
       refY="0"
       refX="0"
       id="Arrow1Mstart9E-4-4-6"
       style="overflow:visible">
      <path
         id="path5431-9-8-2"
         d="M 4.2666667,0 6.4,-2.1333333 -1.0666667,0 6.4,2.1333333 Z"
         style="fill:#000000;fill-rule:evenodd;stroke:#000000;stroke-width:0.426667pt;marker-start:none"
         inkscape:connector-curvature="0" />
    </marker>
    <marker
       inkscape:stockid="Arrow1MstartC7"
       orient="auto"
       refY="0"
       refX="0"
       id="Arrow1MstartC7"
       style="overflow:visible">
      <path
         id="path5248"
         d="M 4.2666667,0 6.4,-2.1333333 -1.0666667,0 6.4,2.1333333 Z"
         style="fill:#000000;fill-rule:evenodd;stroke:#000000;stroke-width:0.426667pt;marker-start:none"
         inkscape:connector-curvature="0" />
    </marker>
    <marker
       inkscape:stockid="marker6727F"
       orient="auto"
       refY="0"
       refX="0"
       id="marker6727F"
       style="overflow:visible">
      <path
         inkscape:connector-curvature="0"
         id="path5251"
         d="M -4.2666667,0 -6.4,2.1333333 1.0666667,0 -6.4,-2.1333333 Z"
         style="fill:#000000;fill-rule:evenodd;stroke:#000000;stroke-width:0.426667pt;marker-start:none" />
    </marker>
    <marker
       inkscape:stockid="Arrow1Mstart9E"
       orient="auto"
       refY="0"
       refX="0"
       id="Arrow1Mstart9E-6-1"
       style="overflow:visible">
      <path
         id="path5431-5-8"
         d="M 4.2666667,0 6.4,-2.1333333 -1.0666667,0 6.4,2.1333333 Z"
         style="fill:#000000;fill-rule:evenodd;stroke:#000000;stroke-width:0.426667pt;marker-start:none"
         inkscape:connector-curvature="0" />
    </marker>
    <marker
       inkscape:stockid="Arrow1Mstartg"
       orient="auto"
       refY="0"
       refX="0"
       id="Arrow1Mstartg"
       style="overflow:visible">
      <path
         id="path5203"
         d="M 4.2666667,0 6.4,-2.1333333 -1.0666667,0 6.4,2.1333333 Z"
         style="fill:#000000;fill-rule:evenodd;stroke:#000000;stroke-width:0.426667pt;marker-start:none"
         inkscape:connector-curvature="0" />
    </marker>
    <marker
       inkscape:stockid="Arrow1Mstart"
       orient="auto"
       refY="0"
       refX="0"
       id="Arrow1Mstart-38"
       style="overflow:visible">
      <path
         id="path3758-9"
         d="M 4.2666667,0 6.4,-2.1333333 -1.0666667,0 6.4,2.1333333 Z"
         style="fill-rule:evenodd;stroke:#000000;stroke-width:0.426667pt;marker-start:none"
         inkscape:connector-curvature="0" />
    </marker>
    <marker
       inkscape:stockid="Arrow1Mstart"
       orient="auto"
       refY="0"
       refX="0"
       id="Arrow1Mstart-38-6"
       style="overflow:visible">
      <path
         id="path3758-9-4"
         d="M 4.2666667,0 6.4,-2.1333333 -1.0666667,0 6.4,2.1333333 Z"
         style="fill-rule:evenodd;stroke:#000000;stroke-width:0.426667pt;marker-start:none"
         inkscape:connector-curvature="0" />
    </marker>
    <marker
       inkscape:stockid="Arrow1Mstart"
       orient="auto"
       refY="0"
       refX="0"
       id="Arrow1Mstart-38-0"
       style="overflow:visible">
      <path
         id="path3758-9-9"
         d="M 4.2666667,0 6.4,-2.1333333 -1.0666667,0 6.4,2.1333333 Z"
         style="fill-rule:evenodd;stroke:#000000;stroke-width:0.426667pt;marker-start:none"
         inkscape:connector-curvature="0" />
    </marker>
    <marker
       inkscape:stockid="Arrow1Mend"
       orient="auto"
       refY="0"
       refX="0"
       id="marker6727"
       style="overflow:visible"
       viewBox="0 0 9.4793888 5.4167935"
       markerWidth="9.47938824"
       markerHeight="5.41679318"
       preserveAspectRatio="xMidYMid">
      <path
         inkscape:connector-curvature="0"
         id="path6729"
         d="M -4.2666667,0 -6.4,2.1333333 1.0666667,0 -6.4,-2.1333333 Z"
         style="fill-rule:evenodd;stroke:#000000;stroke-width:0.426667pt;marker-start:none" />
    </marker>
  </defs>
  <g
     inkscape:label="Layer 1"
     inkscape:groupmode="layer"
     id="layer1">
    <rect
       style="fill:none;fill-opacity:1;stroke:#b79a64;stroke-width:0.5;stroke-dasharray:none;stroke-dashoffset:0;stroke-opacity:1"
       id="rect35"
       width="183.68266"
       height="110.06129"
       x="9.632617"
       y="20.429274"
       ry="39.976276"
       rx="43.667374" />
    <g
       id="g1-4-7"
       transform="translate(17.767599,63.947776)">
      <text
         xml:space="preserve"
         style="font-style:normal;font-variant:normal;font-weight:normal;font-stretch:normal;font-size:2.35885px;line-height:0%;font-family:Arial;-inkscape-font-specification:Arial;text-align:start;letter-spacing:0px;word-spacing:0px;writing-mode:lr-tb;text-anchor:start;display:inline;fill:#6b9ac4;fill-opacity:1;stroke:none;stroke-width:0.19657"
         x="75.304718"
         y="52.258682"
         id="text7933-1-4-2-9-1-5-9-6-8-3-4"><tspan
           sodipodi:role="line"
           id="tspan7935-7-0-7-3-9-0-5-3-2-0-8"
           x="75.304718"
           y="52.258682"
           style="font-style:normal;font-variant:normal;font-weight:normal;font-stretch:normal;font-size:4.14181px;line-height:125%;font-family:Arial;-inkscape-font-specification:Arial;text-align:start;writing-mode:lr-tb;text-anchor:start;fill:#6b9ac4;fill-opacity:1;stroke-width:0.19657">Rz</tspan></text>
    </g>
    <path
       style="display:inline;fill:none;stroke:#000000;stroke-width:0.5;stroke-linecap:butt;stroke-linejoin:miter;stroke-dasharray:none;stroke-opacity:1;marker-start:url(#Arrow1Mstart9E);marker-end:none"
       d="M 100.19703,32.819163 V 16.088334"
       id="path2956-4-4"
       sodipodi:nodetypes="cc"
       inkscape:connector-curvature="0" />
    <path
       style="display:inline;fill:none;stroke:#000000;stroke-width:0.5;stroke-linecap:butt;stroke-linejoin:miter;stroke-opacity:1;marker-start:url(#Arrow1Mstart9E-7);marker-end:none;stroke-dasharray:none"
       d="M 100.06519,53.098224 V 40.268477"
       id="path2956-4-4-9"
       sodipodi:nodetypes="cc"
       inkscape:connector-curvature="0" />
    <path
       style="display:inline;fill:none;stroke:#000000;stroke-width:0.5;stroke-linecap:butt;stroke-linejoin:miter;stroke-opacity:1;marker-start:url(#Arrow1Mstart9E-1);marker-end:none;stroke-dasharray:none"
       d="M 101.2623,83.457842 V 61.3047"
       id="path2956-4-4-3"
       sodipodi:nodetypes="cc"
       inkscape:connector-curvature="0" />
    <path
       style="display:inline;fill:none;stroke:#000000;stroke-width:0.5;stroke-linecap:butt;stroke-linejoin:miter;stroke-opacity:1;marker-start:url(#Arrow1Mstart9E-5);marker-end:none;stroke-dasharray:none"
       d="M 119.51855,53.144921 V 18.140613"
       id="path2956-4-4-4"
       sodipodi:nodetypes="cc"
       inkscape:connector-curvature="0" />
    <path
       style="display:inline;fill:none;stroke:#000000;stroke-width:0.5;stroke-linecap:butt;stroke-linejoin:miter;stroke-opacity:1;marker-start:url(#Arrow1Mstart9E-3);marker-end:none;stroke-dasharray:none"
       d="M 153.12063,44.646628 V 24.005388"
       id="path2956-4-4-0"
       sodipodi:nodetypes="cc"
       inkscape:connector-curvature="0" />
    <path
       style="display:inline;fill:none;stroke:#000000;stroke-width:0.5;stroke-linecap:butt;stroke-linejoin:miter;stroke-opacity:1;marker-start:url(#Arrow1Mstart9E-0);marker-end:none;stroke-dasharray:none"
       d="M 172.12068,57.745766 H 153.49531"
       id="path2956-4-4-6"
       sodipodi:nodetypes="cc"
       inkscape:connector-curvature="0" />
    <path
       style="display:inline;fill:none;stroke:#000000;stroke-width:0.5;stroke-linecap:butt;stroke-linejoin:miter;stroke-dasharray:none;stroke-opacity:1;marker-start:url(#Arrow1Mstart9E-6);marker-end:none"
       d="m 115.87207,58.570511 h -9.45206"
       id="path2956-4-4-5"
       sodipodi:nodetypes="cc"
       inkscape:connector-curvature="0" />
    <path
       style="display:inline;fill:none;stroke:#000000;stroke-width:0.5;stroke-linecap:butt;stroke-linejoin:miter;stroke-dasharray:none;stroke-opacity:1;marker-start:url(#Arrow1Mstart9E-6-1);marker-end:none"
       d="M 32.938081,113.42619 H 20.108331"
       id="path2956-4-4-5-6"
       sodipodi:nodetypes="cc"
       inkscape:connector-curvature="0" />
    <path
       style="display:inline;fill:none;stroke:#000000;stroke-width:0.5;stroke-linecap:butt;stroke-linejoin:miter;stroke-opacity:1;marker-start:url(#Arrow1Mstartg);marker-end:none;stroke-dasharray:none"
       d="M 99.143317,61.924742 V 84.840529"
       id="path6655"
       sodipodi:nodetypes="cc"
       inkscape:connector-curvature="0" />
    <path
       style="display:inline;fill:none;stroke:#000000;stroke-width:0.5;stroke-linecap:butt;stroke-linejoin:miter;stroke-opacity:1;marker-start:url(#Arrow1Mstart9E-8);marker-end:none;stroke-dasharray:none"
       d="M 95.821948,37.40754 H 70.393019"
       id="path2956-4-4-2"
       sodipodi:nodetypes="cc"
       inkscape:connector-curvature="0" />
    <path
       style="display:inline;fill:none;stroke:#000000;stroke-width:0.5;stroke-linecap:butt;stroke-linejoin:miter;stroke-opacity:1;marker-start:url(#Arrow1Mstart9E-71);marker-end:none;stroke-dasharray:1,0.5;stroke-dashoffset:0"
       d="M 100.28815,132.89703 V 97.136774"
       id="path2956-4-4-7"
       sodipodi:nodetypes="cc"
       inkscape:connector-curvature="0" />
    <path
       style="display:inline;fill:none;stroke:#000000;stroke-width:0.5;stroke-linecap:butt;stroke-linejoin:miter;stroke-opacity:1;marker-start:url(#Arrow1Mstart9E-4);marker-end:none;stroke-dasharray:none"
       d="M 190.20606,92.598173 156.89743,87.055425"
       id="path2956-4-4-55"
       sodipodi:nodetypes="cc"
       inkscape:connector-curvature="0" />
    <path
       style="display:inline;fill:none;stroke:#000000;stroke-width:0.5;stroke-linecap:butt;stroke-linejoin:miter;stroke-opacity:1;marker-start:url(#Arrow1Mstart9E-4-4);marker-end:none;stroke-dasharray:none"
       d="M 145.46156,102.30962 103.72728,94.454645"
       id="path2956-4-4-55-8"
       sodipodi:nodetypes="cc"
       inkscape:connector-curvature="0" />
    <path
       style="display:inline;fill:none;stroke:#000000;stroke-width:0.5;stroke-linecap:butt;stroke-linejoin:miter;stroke-opacity:1;marker-start:url(#Arrow1Mstart9E-4-4-6);marker-end:none;stroke-dasharray:none"
       d="m 145.85015,87.48293 -42.31587,3.580288"
       id="path2956-4-4-55-8-5"
       sodipodi:nodetypes="cc"
       inkscape:connector-curvature="0" />
    <path
       style="display:inline;fill:none;stroke:#000000;stroke-width:0.5;stroke-linecap:butt;stroke-linejoin:miter;stroke-dasharray:none;stroke-opacity:1;marker-start:url(#Arrow1MstartC7);marker-end:url(#marker6727F)"
       d="M 45.260944,113.33868 H 62.891588"
       id="path2946-0-7"
       sodipodi:nodetypes="cc"
       inkscape:connector-curvature="0" />
    <path
       style="display:inline;fill:none;stroke:#000000;stroke-width:0.5;stroke-linecap:butt;stroke-linejoin:miter;stroke-opacity:1;marker-start:url(#Arrow1Mstart9E-4-2);marker-end:none;stroke-dasharray:none"
       d="M 180.17969,109.21236 157.1158,104.32165"
       id="path2956-4-4-55-2"
       sodipodi:nodetypes="cc"
       inkscape:connector-curvature="0" />
    <path
       sodipodi:nodetypes="cc"
       inkscape:connector-curvature="0"
       id="path11029"
       d="m 48.067869,75.340683 c 3.893802,3.039337 7.353198,8.000817 8.39838,12.56183"
       style="display:inline;fill:none;stroke:#000000;stroke-width:0.5;stroke-linecap:butt;stroke-linejoin:miter;stroke-miterlimit:4;stroke-dasharray:none;stroke-opacity:1;marker-start:url(#Arrow1Mstart-38);marker-end:none" />
    <path
       sodipodi:nodetypes="cc"
       inkscape:connector-curvature="0"
       id="path11029-8"
       d="m 47.024943,77.127531 c 3.958083,3.348673 7.420078,8.727883 8.392229,13.608615"
       style="display:inline;fill:none;stroke:#000000;stroke-width:0.5;stroke-linecap:butt;stroke-linejoin:miter;stroke-miterlimit:4;stroke-dasharray:none;stroke-opacity:1;marker-start:url(#Arrow1Mstart-38-6);marker-end:none" />
    <path
       style="fill:none;stroke:#000000;stroke-width:0.5;stroke-dasharray:none;stroke-dashoffset:0;stroke-opacity:1;marker-end:url(#marker6727)"
       d="m 97.215946,96.539663 c 0,1.014425 0,2.028854 -0.366329,3.4378 -0.36633,1.408947 -1.098957,3.212337 -2.057037,4.903057 -0.958081,1.69073 -2.141556,3.2687 -3.494141,4.64946 -1.352584,1.38076 -2.874193,2.56423 -4.452209,3.46595 -1.578016,0.90172 -3.212338,1.52163 -4.790351,1.91614 -1.578012,0.3945 -3.099623,0.56357 -4.536743,0.61992 -1.437119,0.0564 -2.789659,1e-5 -3.888631,-0.0845 -1.098972,-0.0845 -1.944311,-0.19725 -2.789668,-0.30997"
       id="path1"
       inkscape:path-effect="#path-effect2"
       inkscape:original-d="m 97.215946,96.539663 c 0,1.014425 0,2.028854 0,3.043279 -0.732656,1.803468 -1.465284,3.606858 -2.197926,5.410278 -1.183521,1.57803 -2.366997,3.156 -3.550494,4.734 -1.521672,1.18352 -3.043282,2.36699 -4.564922,3.55049 -1.63439,0.61994 -3.26871,1.23986 -4.903065,1.85978 -1.521672,0.16908 -3.043283,0.33815 -4.564925,0.50722 -1.352595,-0.0564 -2.705137,-0.11272 -4.057709,-0.16907 -0.845372,-0.11272 -1.690711,-0.22543 -2.536068,-0.33815" />
    <path
       style="fill:none;stroke:#000000;stroke-width:0.5;stroke-dasharray:none;stroke-dashoffset:0;stroke-opacity:1;marker-end:url(#marker6727)"
       d="m 62.725418,109.22 c -1.408926,-1.91614 -2.817852,-3.83228 -3.804106,-5.97387 -0.986254,-2.14159 -1.549814,-4.508542 -1.690704,-6.847383 -0.14089,-2.338841 0.140889,-4.649437 0.760826,-6.819204 0.619938,-2.169767 1.577989,-4.198582 2.930576,-6.058382 1.352587,-1.8598 3.099623,-3.550479 4.818529,-4.762163 1.718907,-1.211683 3.409587,-1.944311 5.353928,-2.451528 1.944341,-0.507216 4.142221,-0.788996 6.283811,-0.732635 2.141591,0.05636 4.226759,0.450853 6.142918,1.155327 1.916159,0.704474 3.663192,1.71888 5.184846,3.015109 1.521654,1.296228 2.81784,2.874194 3.775917,4.198596 0.958076,1.324403 1.577991,2.395165 2.000671,3.240526 0.42268,0.845362 0.648104,1.465278 0.873533,2.085208"
       id="path2"
       inkscape:path-effect="#path-effect3"
       inkscape:original-d="m 62.725418,109.22 c -1.408924,-1.91614 -2.817852,-3.83228 -4.226779,-5.74842 -0.563581,-2.36704 -1.127141,-4.733992 -1.690712,-7.100989 0.281792,-2.310685 0.563571,-4.621281 0.845355,-6.931919 0.95809,-2.028896 1.916141,-4.057711 2.874211,-6.086565 1.747104,-1.690746 3.49414,-3.381425 5.241208,-5.072136 1.690745,-0.732655 3.381425,-1.465284 5.072136,-2.197926 2.197971,-0.281792 4.395851,-0.56357 6.593777,-0.845357 2.085255,0.394507 4.170423,0.789001 6.255636,1.1835 1.747105,1.014447 3.494138,2.028854 5.241208,3.043282 1.296239,1.578028 2.592424,3.155995 3.888637,4.733994 0.61994,1.070806 1.239856,2.141567 1.859782,3.212351 0.225433,0.61994 0.450858,1.239856 0.676286,1.859786" />
    <path
       style="fill:none;stroke:#000000;stroke-width:0.5;stroke-dasharray:none;stroke-dashoffset:0;stroke-opacity:1;marker-end:url(#marker6727)"
       d="m 61.710993,109.89629 c -1.408927,-1.91614 -2.817854,-3.83228 -3.832287,-5.88934 -1.014434,-2.05705 -1.63435,-4.254936 -1.916135,-6.650137 -0.281785,-2.395202 -0.225429,-4.987574 0.366331,-7.43913 0.591761,-2.451556 1.71888,-4.76215 3.099645,-6.791022 1.380765,-2.028872 3.015087,-3.775906 4.846711,-5.128485 1.831625,-1.352579 3.86044,-2.31063 6.058389,-3.015098 2.197949,-0.704467 4.564898,-1.155316 6.960098,-1.098953 2.395201,0.05636 4.818506,0.619921 6.847378,1.380751 2.028871,0.76083 3.663194,1.718882 5.12849,2.846036 1.465296,1.127154 2.761483,2.423341 3.747739,3.606851 0.986256,1.18351 1.662526,2.25427 2.25428,3.353245 0.591755,1.098975 1.098958,2.226095 1.606171,3.353236"
       id="path4"
       inkscape:path-effect="#path-effect5"
       inkscape:original-d="m 61.710993,109.89629 c -1.408928,-1.91614 -2.817855,-3.83228 -4.22678,-5.74842 -0.619943,-2.19797 -1.239856,-4.395856 -1.859785,-6.593782 0.05636,-2.592477 0.112715,-5.184849 0.169071,-7.777276 1.127165,-2.310685 2.254284,-4.621278 3.381425,-6.931919 1.634387,-1.747105 3.26871,-3.494138 4.903065,-5.241208 2.028894,-0.958088 4.057709,-1.916139 6.086563,-2.874208 2.367044,-0.450866 4.733993,-0.901714 7.10099,-1.352572 2.423404,0.563582 4.846709,1.127141 7.270065,1.690712 1.634387,0.95809 3.26871,1.916141 4.903065,2.874211 1.296236,1.296239 2.592425,2.592424 3.888637,3.888639 0.676299,1.070806 1.352568,2.141567 2.028854,3.212351 0.507225,1.127165 1.014428,2.254285 1.52164,3.381426" />
    <path
       style="fill:none;stroke:#000000;stroke-width:0.5;stroke-dasharray:1,0.5;stroke-dashoffset:0;stroke-opacity:1"
       d="m 43.789443,115.81378 c 3.606853,1.52164 7.213706,3.04328 10.876952,4.31132 3.663246,1.26805 7.38274,2.28246 10.341508,3.07147 2.958768,0.789 5.156649,1.35256 7.636388,1.63435 2.47974,0.28178 5.241181,0.28178 8.087241,-0.0282 2.846061,-0.30997 5.77657,-0.92989 8.087228,-1.12714 2.310659,-0.19725 4.001335,0.0282 5.410274,0.47904 1.408938,0.45087 2.536057,1.12714 3.437776,2.05704 0.901718,0.9299 1.577991,2.11338 2.254275,3.29688"
       id="path5"
       inkscape:path-effect="#path-effect6"
       inkscape:original-d="m 43.789443,115.81378 c 3.606853,1.52164 7.213706,3.04328 10.820559,4.56492 3.719639,1.01445 7.439133,2.02886 11.158699,3.04329 2.19797,0.56358 4.395851,1.12714 6.593776,1.69071 2.761554,0 5.522995,0 8.28449,0 2.930626,-0.61994 5.861135,-1.23986 8.791705,-1.85979 1.690746,0.22544 3.381423,0.45086 5.072134,0.67629 1.127165,0.6763 2.254284,1.35257 3.381425,2.02885 0.676299,1.18352 1.352571,2.367 2.028854,3.5505" />
    <path
       style="fill:none;stroke:#000000;stroke-width:0.5;stroke-dasharray:1,0.5;stroke-dashoffset:0;stroke-opacity:1"
       d="m 100.2998,122.23849 c 0.55005,-1.01443 1.10009,-2.02886 2.05142,-2.76151 0.95132,-0.73265 2.30386,-1.18349 3.65643,-1.63435"
       id="path6"
       inkscape:path-effect="#path-effect7"
       inkscape:original-d="m 100.2998,122.23849 c 0.55005,-1.01443 1.10009,-2.02886 1.65014,-3.04329 1.3526,-0.45086 2.70514,-0.90171 4.05771,-1.35257"
       sodipodi:nodetypes="ccc" />
    <path
       style="fill:none;stroke:#000000;stroke-width:0.5;stroke-dasharray:1,0.5;stroke-dashoffset:0;stroke-opacity:1"
       d="m 100.38094,115.41139 c 1.53742,-2.57101 3.07485,-5.14202 5.44977,-8.23099 2.37493,-3.08896 5.58722,-6.69574 9.02503,-10.499886 3.43782,-3.804141 7.10096,-7.805415 9.94701,-11.074149 2.84605,-3.268735 4.87487,-5.804756 6.81921,-8.284492 1.94433,-2.479736 3.80408,-4.903039 4.87486,-6.903731 1.07079,-2.000691 1.35257,-3.578656 0.98624,-5.128491 -0.36633,-1.549835 -1.38073,-3.071443 -3.21237,-4.170415 -1.83163,-1.098971 -4.48036,-1.775242 -6.48105,-2.169742 -2.00069,-0.394501 -3.35323,-0.507213 -4.7058,-0.619927"
       id="path7"
       inkscape:path-effect="#path-effect8"
       inkscape:original-d="m 100.38094,115.41139 c 1.53742,-2.57101 3.07485,-5.14202 4.61228,-7.71303 3.21242,-3.60692 6.42471,-7.2137 9.63706,-10.820557 3.66328,-4.001432 7.32642,-8.002704 10.98963,-12.004056 2.02889,-2.536118 4.05771,-5.072136 6.08656,-7.608205 1.85983,-2.4234 3.71957,-4.846706 5.57935,-7.270062 0.2818,-1.578028 0.56357,-3.155995 0.84536,-4.733993 -1.01445,-1.521669 -2.02885,-3.04328 -3.04328,-4.564923 -2.64884,-0.676299 -5.29757,-1.352568 -7.94635,-2.028854 -1.3526,-0.112715 -2.70514,-0.225428 -4.05771,-0.338143"
       sodipodi:nodetypes="cccccccccc" />
    <path
       style="fill:none;stroke:#000000;stroke-width:0.5;stroke-dasharray:none;stroke-dashoffset:0;stroke-opacity:1"
       d="M 70.602099,20.828472 V 37.491249"
       id="path8" />
    <path
       style="fill:none;stroke:#000000;stroke-width:0.5;stroke-dasharray:none;stroke-dashoffset:0;stroke-opacity:1"
       d="m 99.976666,46.268962 c 0.743874,-1.190198 1.487744,-2.380393 2.479594,-3.124271 0.99184,-0.743878 2.23161,-1.041422 3.4714,-1.338972"
       id="path9"
       inkscape:path-effect="#path-effect9"
       inkscape:original-d="m 99.976666,46.268962 c 0.743874,-1.190199 1.487744,-2.380395 2.231624,-3.570594 1.23981,-0.297556 2.47958,-0.595098 3.71937,-0.892649" />
    <path
       style="fill:none;stroke:#000000;stroke-width:0.5;stroke-dasharray:none;stroke-dashoffset:0;stroke-opacity:1;marker-end:url(#marker6727)"
       d="m 101.31564,68.585182 c 0.64469,1.735707 1.28938,3.471413 2.08285,4.661618 0.79348,1.190205 1.7357,1.834883 2.57876,2.256413 0.84307,0.421531 1.58693,0.619894 2.3308,0.818259"
       id="path10"
       inkscape:path-effect="#path-effect10"
       inkscape:original-d="m 101.31564,68.585182 c 0.64469,1.735707 1.28938,3.471413 1.93407,5.207119 0.94226,0.644703 1.88448,1.289381 2.82672,1.934073 0.74389,0.198368 1.48775,0.396732 2.23162,0.595098" />
    <path
       style="fill:none;stroke:#000000;stroke-width:0.5;stroke-dasharray:none;stroke-dashoffset:0;stroke-opacity:1"
       d="m 90.157529,72.602102 c 1.438156,-0.347141 2.876312,-0.694282 4.06652,-1.264593 1.190208,-0.570311 2.13243,-1.363761 2.87631,-2.281216 0.743879,-0.917455 1.289376,-1.958857 1.834883,-3.000281"
       id="path11"
       inkscape:path-effect="#path-effect11"
       inkscape:original-d="m 90.157529,72.602102 c 1.438156,-0.347141 2.876312,-0.694282 4.314468,-1.041423 0.94226,-0.793481 1.884481,-1.586932 2.826723,-2.380396 0.545518,-1.041445 1.091015,-2.082847 1.636522,-3.124271"
       transform="translate(0.30208535,0.15104267)" />
    <path
       style="fill:none;stroke:#000000;stroke-width:0.5;stroke-dasharray:none;stroke-dashoffset:0;stroke-opacity:1"
       d="m 118.72229,104.29113 c 0.99183,-1.04142 1.98367,-2.08284 3.09949,-2.77713 1.11582,-0.69428 2.35559,-1.04142 3.59539,-1.31417 1.2398,-0.27276 2.47957,-0.471123 3.71936,-0.669489"
       id="path12"
       inkscape:path-effect="#path-effect12"
       inkscape:original-d="m 118.72229,104.29113 c 0.99183,-1.04142 1.98367,-2.08284 2.9755,-3.12426 1.23981,-0.34715 2.47958,-0.69429 3.71937,-1.04143 1.23981,-0.19837 2.47958,-0.396733 3.71937,-0.595099"
       transform="translate(0.30208535,-0.15104267)" />
    <path
       style="fill:none;stroke:#000000;stroke-width:0.5;stroke-dasharray:none;stroke-dashoffset:0;stroke-opacity:1;marker-end:url(#marker6727)"
       d="m 133.89732,88.074681 c 2.23162,-2.628353 4.46324,-5.256706 6.69487,-7.885064"
       id="path13"
       inkscape:path-effect="#path-effect13"
       inkscape:original-d="m 133.89732,88.074681 c 2.23162,-2.628354 4.46324,-5.256709 6.69487,-7.885064"
       transform="translate(0,0.52916667)" />
    <path
       style="fill:none;stroke:#000000;stroke-width:0.5;stroke-dasharray:none;stroke-dashoffset:0;stroke-opacity:1"
       d="m 154.94061,51.43257 c 0.85721,1.285815 1.71442,2.571634 2.45503,3.492236 0.7406,0.920603 1.36456,1.475962 1.94268,1.806882 0.57811,0.33092 1.11031,0.43736 1.64254,0.543805"
       id="path14"
       inkscape:path-effect="#path-effect14"
       inkscape:original-d="m 154.94061,51.43257 c 0.85721,1.285815 1.71443,2.571629 2.57163,3.857443 0.624,0.555397 1.24796,1.110755 1.87196,1.66615 0.53223,0.106446 1.06443,0.212885 1.59666,0.31933"
       transform="translate(0,0.52916667)"
       sodipodi:nodetypes="cccc" />
    <path
       style="fill:none;stroke:#000000;stroke-width:0.5;stroke-dasharray:1,0.5;stroke-dashoffset:0;stroke-opacity:1"
       d="m 100.41801,118.13267 c 0.36687,0.48916 0.73375,0.97833 1.10062,1.46749"
       id="path15"
       inkscape:path-effect="#path-effect15"
       inkscape:original-d="m 100.41801,118.13267 c 0.36687,0.48916 0.73374,0.97833 1.10062,1.46749" />
    <path
       style="fill:none;stroke:#000000;stroke-width:0.5;stroke-dasharray:none;stroke-dashoffset:0;stroke-opacity:1"
       d="m 54.869167,109.73833 c -0.444541,0.76207 -0.889085,1.52415 -1.663423,2.11771 -0.774338,0.59356 -1.878437,1.0186 -2.982553,1.44365"
       id="path16"
       inkscape:path-effect="#path-effect16"
       inkscape:original-d="m 54.869167,109.73833 c -0.444543,0.76207 -0.889085,1.52415 -1.333625,2.28622 -1.104138,0.42505 -2.208236,0.85009 -3.312351,1.27514"
       sodipodi:nodetypes="ccc" />
    <rect
       style="display:inline;fill:#ffcf78;fill-opacity:1;stroke:#000000;stroke-width:0.3;stroke-linecap:square;stroke-linejoin:miter;stroke-miterlimit:4;stroke-dasharray:none"
       id="rect28668"
       width="23.111303"
       height="5.6004491"
       x="89.907509"
       y="9.4624004"
       rx="1.4653791"
       ry="1.4327165" />
    <text
       xml:space="preserve"
       style="font-style:normal;font-variant:normal;font-weight:normal;font-stretch:normal;font-size:4.93889px;font-family:sans-serif;-inkscape-font-specification:sans-serif;text-align:start;writing-mode:lr-tb;direction:ltr;text-anchor:start;fill:#000000;fill-opacity:1;stroke:none;stroke-width:0.3;stroke-dasharray:none;stroke-dashoffset:0;stroke-opacity:1"
       x="91.56707"
       y="13.844859"
       id="text16"><tspan
         sodipodi:role="line"
         id="tspan16"
         style="font-style:normal;font-variant:normal;font-weight:normal;font-stretch:normal;font-size:4.93889px;font-family:sans-serif;-inkscape-font-specification:sans-serif;fill:#000000;fill-opacity:1;stroke:none;stroke-width:0.3"
         x="91.56707"
         y="13.844859">carbon1</tspan></text>
    <rect
       style="display:inline;fill:#ffcf78;fill-opacity:1;stroke:#000000;stroke-width:0.3;stroke-linecap:square;stroke-linejoin:miter;stroke-miterlimit:4;stroke-dasharray:none"
       id="rect28668-0"
       width="23.111303"
       height="5.6004491"
       x="88.899727"
       y="136.75417"
       rx="1.4653791"
       ry="1.4327165" />
    <text
       xml:space="preserve"
       style="font-style:normal;font-variant:normal;font-weight:normal;font-stretch:normal;font-size:4.93889px;font-family:sans-serif;-inkscape-font-specification:sans-serif;text-align:start;writing-mode:lr-tb;direction:ltr;text-anchor:start;fill:#000000;fill-opacity:1;stroke:none;stroke-width:0.3;stroke-dasharray:none;stroke-dashoffset:0;stroke-opacity:1"
       x="90.559288"
       y="141.13663"
       id="text16-40"><tspan
         sodipodi:role="line"
         id="tspan16-5"
         style="font-style:normal;font-variant:normal;font-weight:normal;font-stretch:normal;font-size:4.93889px;font-family:sans-serif;-inkscape-font-specification:sans-serif;fill:#000000;fill-opacity:1;stroke:none;stroke-width:0.3"
         x="90.559288"
         y="141.13663">biomass</tspan></text>
    <rect
       style="display:inline;fill:#ffcf78;fill-opacity:1;stroke:#000000;stroke-width:0.3;stroke-linecap:square;stroke-linejoin:miter;stroke-miterlimit:4;stroke-dasharray:none"
       id="rect28668-5"
       width="23.111303"
       height="5.6004491"
       x="59.945831"
       y="13.908329"
       rx="1.4653791"
       ry="1.4327165" />
    <text
       xml:space="preserve"
       style="font-style:normal;font-variant:normal;font-weight:normal;font-stretch:normal;font-size:4.93889px;font-family:sans-serif;-inkscape-font-specification:sans-serif;text-align:start;writing-mode:lr-tb;direction:ltr;text-anchor:start;fill:#000000;fill-opacity:1;stroke:none;stroke-width:0.3;stroke-dasharray:none;stroke-dashoffset:0;stroke-opacity:1"
       x="61.60537"
       y="18.290791"
       id="text16-9"><tspan
         sodipodi:role="line"
         id="tspan16-0"
         style="font-style:normal;font-variant:normal;font-weight:normal;font-stretch:normal;font-size:4.93889px;font-family:sans-serif;-inkscape-font-specification:sans-serif;fill:#000000;fill-opacity:1;stroke:none;stroke-width:0.3"
         x="61.60537"
         y="18.290791">carbon1</tspan></text>
    <rect
       style="display:inline;fill:#ffcf78;fill-opacity:1;stroke:#000000;stroke-width:0.3;stroke-linecap:square;stroke-linejoin:miter;stroke-miterlimit:4;stroke-dasharray:none"
       id="rect28668-2"
       width="20.704319"
       height="5.6161041"
       x="142.69434"
       y="17.696148"
       rx="1.3127636"
       ry="1.4367214" />
    <text
       xml:space="preserve"
       style="font-style:normal;font-variant:normal;font-weight:normal;font-stretch:normal;font-size:4.93889px;font-family:sans-serif;-inkscape-font-specification:sans-serif;text-align:start;writing-mode:lr-tb;direction:ltr;text-anchor:start;fill:#000000;fill-opacity:1;stroke:none;stroke-width:0.3;stroke-dasharray:none;stroke-dashoffset:0;stroke-opacity:1"
       x="144.20872"
       y="21.557274"
       id="text16-4"><tspan
         sodipodi:role="line"
         id="tspan16-7"
         style="font-style:normal;font-variant:normal;font-weight:normal;font-stretch:normal;font-size:4.93889px;font-family:sans-serif;-inkscape-font-specification:sans-serif;fill:#000000;fill-opacity:1;stroke:none;stroke-width:0.3"
         x="144.20872"
         y="21.557274">oxygen</tspan></text>
    <rect
       style="display:inline;fill:#ffcf78;fill-opacity:1;stroke:#000000;stroke-width:0.3;stroke-linecap:square;stroke-linejoin:miter;stroke-miterlimit:4;stroke-dasharray:none"
       id="rect28668-2-6"
       width="17.523226"
       height="5.638341"
       x="135.65033"
       y="54.869667"
       rx="1.3345641"
       ry="1.4424101" />
    <text
       xml:space="preserve"
       style="font-style:normal;font-variant:normal;font-weight:normal;font-stretch:normal;font-size:4.93889px;font-family:sans-serif;-inkscape-font-specification:sans-serif;text-align:start;writing-mode:lr-tb;direction:ltr;text-anchor:start;fill:#000000;fill-opacity:1;stroke:none;stroke-width:0.3;stroke-dasharray:none;stroke-dashoffset:0;stroke-opacity:1"
       x="136.98067"
       y="59.304508"
       id="text16-4-70"><tspan
         sodipodi:role="line"
         id="tspan16-7-9"
         style="font-style:normal;font-variant:normal;font-weight:normal;font-stretch:normal;font-size:4.93889px;font-family:sans-serif;-inkscape-font-specification:sans-serif;fill:#000000;fill-opacity:1;stroke:none;stroke-width:0.3"
         x="136.98067"
         y="59.304508">NADH</tspan></text>
    <rect
       style="display:inline;fill:#ffcf78;fill-opacity:1;stroke:#000000;stroke-width:0.3;stroke-linecap:square;stroke-linejoin:miter;stroke-miterlimit:4;stroke-dasharray:none"
       id="rect28668-2-6-1"
       width="12.317181"
       height="5.6798906"
       x="173.67682"
       y="54.614449"
       rx="1.9875989"
       ry="1.4530394" />
    <text
       xml:space="preserve"
       style="font-style:normal;font-variant:normal;font-weight:normal;font-stretch:normal;font-size:4.93889px;font-family:sans-serif;-inkscape-font-specification:sans-serif;text-align:start;writing-mode:lr-tb;direction:ltr;text-anchor:start;fill:#000000;fill-opacity:1;stroke:none;stroke-width:0.3;stroke-dasharray:none;stroke-dashoffset:0;stroke-opacity:1"
       x="175.33475"
       y="59.218304"
       id="text16-4-70-3"><tspan
         sodipodi:role="line"
         id="tspan16-7-9-2"
         style="font-style:normal;font-variant:normal;font-weight:normal;font-stretch:normal;font-size:4.93889px;font-family:sans-serif;-inkscape-font-specification:sans-serif;fill:#000000;fill-opacity:1;stroke:none;stroke-width:0.3"
         x="175.33475"
         y="59.218304">ATP</tspan></text>
    <rect
       style="display:inline;fill:#ffcf78;fill-opacity:1;stroke:#000000;stroke-width:0.3;stroke-linecap:square;stroke-linejoin:miter;stroke-miterlimit:4;stroke-dasharray:none"
       id="rect28668-2-2"
       width="10.375258"
       height="5.6886697"
       x="115.10733"
       y="11.678577"
       rx="1.3651463"
       ry="1.4552852" />
    <rect
       style="display:inline;fill:#ffcf78;fill-opacity:1;stroke:#000000;stroke-width:0.3;stroke-linecap:square;stroke-linejoin:miter;stroke-miterlimit:4;stroke-dasharray:none"
       id="rect28668-2-2-8"
       width="7.2588034"
       height="4.9298873"
       x="97.182213"
       y="34.803394"
       rx="1.167545"
       ry="1.2611722" />
    <rect
       style="display:inline;fill:#ffcf78;fill-opacity:1;stroke:#000000;stroke-width:0.3;stroke-linecap:square;stroke-linejoin:miter;stroke-miterlimit:4;stroke-dasharray:none"
       id="rect28668-2-2-8-3"
       width="7.2588034"
       height="4.9298873"
       x="97.12896"
       y="55.623455"
       rx="1.167545"
       ry="1.2611722" />
    <text
       xml:space="preserve"
       style="font-style:normal;font-variant:normal;font-weight:normal;font-stretch:normal;font-size:4.93889px;font-family:sans-serif;-inkscape-font-specification:sans-serif;text-align:start;writing-mode:lr-tb;direction:ltr;text-anchor:start;fill:#000000;fill-opacity:1;stroke:none;stroke-width:0.3;stroke-dasharray:none;stroke-dashoffset:0;stroke-opacity:1"
       x="116.28616"
       y="15.807807"
       id="text16-4-7"><tspan
         sodipodi:role="line"
         id="tspan16-7-7"
         style="font-style:normal;font-variant:normal;font-weight:normal;font-stretch:normal;font-size:4.93889px;font-family:sans-serif;-inkscape-font-specification:sans-serif;fill:#000000;fill-opacity:1;stroke:none;stroke-width:0.3"
         x="116.28616"
         y="15.807807">F<tspan
   style="font-size:65%;baseline-shift:sub"
   id="tspan17">ext</tspan></tspan></text>
    <rect
       style="display:inline;fill:#ffcf78;fill-opacity:1;stroke:#000000;stroke-width:0.3;stroke-linecap:square;stroke-linejoin:miter;stroke-miterlimit:4;stroke-dasharray:none"
       id="rect28668-2-2-9"
       width="10.375258"
       height="5.6886697"
       x="191.97292"
       y="91.695831"
       rx="1.3651463"
       ry="1.4552852" />
    <text
       xml:space="preserve"
       style="font-style:normal;font-variant:normal;font-weight:normal;font-stretch:normal;font-size:4.93889px;font-family:sans-serif;-inkscape-font-specification:sans-serif;text-align:start;writing-mode:lr-tb;direction:ltr;text-anchor:start;fill:#000000;fill-opacity:1;stroke:none;stroke-width:0.3;stroke-dasharray:none;stroke-dashoffset:0;stroke-opacity:1"
       x="193.15175"
       y="95.825066"
       id="text16-4-7-0"><tspan
         sodipodi:role="line"
         id="tspan16-7-7-0"
         style="font-style:normal;font-variant:normal;font-weight:normal;font-stretch:normal;font-size:4.93889px;font-family:sans-serif;-inkscape-font-specification:sans-serif;fill:#000000;fill-opacity:1;stroke:none;stroke-width:0.3"
         x="193.15175"
         y="95.825066">D<tspan
   style="font-size:65%;baseline-shift:sub"
   id="tspan21">ext</tspan></tspan></text>
    <rect
       style="display:inline;fill:#ffcf78;fill-opacity:1;stroke:#000000;stroke-width:0.3;stroke-linecap:square;stroke-linejoin:miter;stroke-miterlimit:4;stroke-dasharray:none"
       id="rect28668-2-2-1"
       width="10.375258"
       height="5.6886697"
       x="182.1833"
       y="108.1"
       rx="1.3651463"
       ry="1.4552852" />
    <text
       xml:space="preserve"
       style="font-style:normal;font-variant:normal;font-weight:normal;font-stretch:normal;font-size:4.93889px;font-family:sans-serif;-inkscape-font-specification:sans-serif;text-align:start;writing-mode:lr-tb;direction:ltr;text-anchor:start;fill:#000000;fill-opacity:1;stroke:none;stroke-width:0.3;stroke-dasharray:none;stroke-dashoffset:0;stroke-opacity:1"
       x="183.36214"
       y="112.22923"
       id="text16-4-7-2"><tspan
         sodipodi:role="line"
         id="tspan16-7-7-6"
         style="font-style:normal;font-variant:normal;font-weight:normal;font-stretch:normal;font-size:4.93889px;font-family:sans-serif;-inkscape-font-specification:sans-serif;fill:#000000;fill-opacity:1;stroke:none;stroke-width:0.3"
         x="183.36214"
         y="112.22923">E<tspan
   style="font-size:65%;baseline-shift:sub"
   id="tspan22">ext</tspan></tspan></text>
    <rect
       style="display:inline;fill:#ffcf78;fill-opacity:1;stroke:#000000;stroke-width:0.3;stroke-linecap:square;stroke-linejoin:miter;stroke-miterlimit:4;stroke-dasharray:none"
       id="rect28668-2-2-0"
       width="10.375258"
       height="5.6886697"
       x="8.3901949"
       y="110.19762"
       rx="1.1293809"
       ry="1.4552852" />
    <text
       xml:space="preserve"
       style="font-style:normal;font-variant:normal;font-weight:normal;font-stretch:normal;font-size:4.93889px;font-family:sans-serif;-inkscape-font-specification:sans-serif;text-align:start;writing-mode:lr-tb;direction:ltr;text-anchor:start;fill:#000000;fill-opacity:1;stroke:none;stroke-width:0.3;stroke-dasharray:none;stroke-dashoffset:0;stroke-opacity:1"
       x="9.0397339"
       y="114.15365"
       id="text16-4-7-9"><tspan
         sodipodi:role="line"
         id="tspan16-7-7-3"
         style="font-style:normal;font-variant:normal;font-weight:normal;font-stretch:normal;font-size:4.93889px;font-family:sans-serif;-inkscape-font-specification:sans-serif;fill:#000000;fill-opacity:1;stroke:none;stroke-width:0.3"
         x="9.0397339"
         y="114.15365">H<tspan
   style="font-size:65%;baseline-shift:sub"
   id="tspan19">ext</tspan></tspan></text>
    <text
       xml:space="preserve"
       style="font-style:normal;font-variant:normal;font-weight:normal;font-stretch:normal;font-size:4.9389px;font-family:sans-serif;-inkscape-font-specification:sans-serif;text-align:start;writing-mode:lr-tb;direction:ltr;text-anchor:start;fill:#000000;fill-opacity:1;stroke:none;stroke-width:0.3;stroke-dasharray:none;stroke-dashoffset:0;stroke-opacity:1"
       x="99.022247"
       y="39.019482"
       id="text20"><tspan
         sodipodi:role="line"
         id="tspan20"
         style="stroke-width:0.3"
         x="99.022247"
         y="39.019482">A</tspan></text>
    <rect
       style="display:inline;fill:#ffcf78;fill-opacity:1;stroke:#000000;stroke-width:0.3;stroke-linecap:square;stroke-linejoin:miter;stroke-miterlimit:4;stroke-dasharray:none"
       id="rect28668-2-2-8-31"
       width="7.2588034"
       height="4.9298873"
       x="117.36045"
       y="55.712498"
       rx="1.167545"
       ry="1.2611722" />
    <text
       xml:space="preserve"
       style="font-style:normal;font-variant:normal;font-weight:normal;font-stretch:normal;font-size:4.9389px;font-family:sans-serif;-inkscape-font-specification:sans-serif;text-align:start;writing-mode:lr-tb;direction:ltr;text-anchor:start;fill:#000000;fill-opacity:1;stroke:none;stroke-width:0.3;stroke-dasharray:none;stroke-dashoffset:0;stroke-opacity:1"
       x="119.20045"
       y="59.928585"
       id="text20-01"><tspan
         sodipodi:role="line"
         id="tspan20-9"
         style="stroke-width:0.3"
         x="119.20045"
         y="59.928585">F</tspan></text>
    <rect
       style="display:inline;fill:#ffcf78;fill-opacity:1;stroke:#000000;stroke-width:0.3;stroke-linecap:square;stroke-linejoin:miter;stroke-miterlimit:4;stroke-dasharray:none"
       id="rect28668-2-2-8-31-0"
       width="7.6339054"
       height="5.437727"
       x="150.57761"
       y="45.668995"
       rx="1.2278783"
       ry="1.3910886" />
    <text
       xml:space="preserve"
       style="font-style:normal;font-variant:normal;font-weight:normal;font-stretch:normal;font-size:4.9389px;font-family:sans-serif;-inkscape-font-specification:sans-serif;text-align:start;writing-mode:lr-tb;direction:ltr;text-anchor:start;fill:#000000;fill-opacity:1;stroke:none;stroke-width:0.3;stroke-dasharray:none;stroke-dashoffset:0;stroke-opacity:1"
       x="151.21141"
       y="49.740791"
       id="text20-01-2"><tspan
         sodipodi:role="line"
         id="tspan20-9-4"
         style="stroke-width:0.3"
         x="151.21141"
         y="49.740791">O<tspan
   style="font-size:65%;baseline-shift:sub"
   id="tspan33">2</tspan></tspan></text>
    <rect
       style="display:inline;fill:#ffcf78;fill-opacity:1;stroke:#000000;stroke-width:0.3;stroke-linecap:square;stroke-linejoin:miter;stroke-miterlimit:4;stroke-dasharray:none"
       id="rect28668-2-2-8-31-8"
       width="7.2588034"
       height="4.9298873"
       x="151.69225"
       y="84.681824"
       rx="1.167545"
       ry="1.2611722" />
    <text
       xml:space="preserve"
       style="font-style:normal;font-variant:normal;font-weight:normal;font-stretch:normal;font-size:4.9389px;font-family:sans-serif;-inkscape-font-specification:sans-serif;text-align:start;writing-mode:lr-tb;direction:ltr;text-anchor:start;fill:#000000;fill-opacity:1;stroke:none;stroke-width:0.3;stroke-dasharray:none;stroke-dashoffset:0;stroke-opacity:1"
       x="153.53224"
       y="88.897911"
       id="text20-01-1"><tspan
         sodipodi:role="line"
         id="tspan20-9-0"
         style="stroke-width:0.3"
         x="153.53224"
         y="88.897911">D</tspan></text>
    <rect
       style="display:inline;fill:#ffcf78;fill-opacity:1;stroke:#000000;stroke-width:0.3;stroke-linecap:square;stroke-linejoin:miter;stroke-miterlimit:4;stroke-dasharray:none"
       id="rect28668-2-2-8-31-8-3"
       width="7.2588034"
       height="4.9298873"
       x="151.81168"
       y="101.30614"
       rx="1.167545"
       ry="1.2611722" />
    <text
       xml:space="preserve"
       style="font-style:normal;font-variant:normal;font-weight:normal;font-stretch:normal;font-size:4.9389px;font-family:sans-serif;-inkscape-font-specification:sans-serif;text-align:start;writing-mode:lr-tb;direction:ltr;text-anchor:start;fill:#000000;fill-opacity:1;stroke:none;stroke-width:0.3;stroke-dasharray:none;stroke-dashoffset:0;stroke-opacity:1"
       x="153.65167"
       y="105.52223"
       id="text20-01-1-9"><tspan
         sodipodi:role="line"
         id="tspan20-9-0-9"
         style="stroke-width:0.3"
         x="153.65167"
         y="105.52223">E</tspan></text>
    <g
       id="g1"
       transform="translate(-0.45929826,55.569522)">
      <rect
         style="display:inline;fill:#ffcf78;fill-opacity:1;stroke:#000000;stroke-width:0.3;stroke-linecap:square;stroke-linejoin:miter;stroke-miterlimit:4;stroke-dasharray:none"
         id="rect28668-2-2-8-8"
         width="7.2588034"
         height="4.9298873"
         x="97.182213"
         y="34.803394"
         rx="1.167545"
         ry="1.2611722" />
      <text
         xml:space="preserve"
         style="font-style:normal;font-variant:normal;font-weight:normal;font-stretch:normal;font-size:4.9389px;font-family:sans-serif;-inkscape-font-specification:sans-serif;text-align:start;writing-mode:lr-tb;direction:ltr;text-anchor:start;fill:#000000;fill-opacity:1;stroke:none;stroke-width:0.3;stroke-dasharray:none;stroke-dashoffset:0;stroke-opacity:1"
         x="99.022247"
         y="39.019482"
         id="text20-4"><tspan
           sodipodi:role="line"
           id="tspan20-5"
           style="stroke-width:0.3"
           x="99.022247"
           y="39.019482">C</tspan></text>
      <g
         id="g1-5"
         transform="translate(-32.808333,19.049999)">
        <rect
           style="display:inline;fill:#ffcf78;fill-opacity:1;stroke:#000000;stroke-width:0.3;stroke-linecap:square;stroke-linejoin:miter;stroke-miterlimit:4;stroke-dasharray:none"
           id="rect28668-2-2-8-5"
           width="7.2588034"
           height="4.9298873"
           x="97.182213"
           y="34.803394"
           rx="1.167545"
           ry="1.2611722" />
        <text
           xml:space="preserve"
           style="font-style:normal;font-variant:normal;font-weight:normal;font-stretch:normal;font-size:4.9389px;font-family:sans-serif;-inkscape-font-specification:sans-serif;text-align:start;writing-mode:lr-tb;direction:ltr;text-anchor:start;fill:#000000;fill-opacity:1;stroke:none;stroke-width:0.3;stroke-dasharray:none;stroke-dashoffset:0;stroke-opacity:1"
           x="99.022247"
           y="39.019482"
           id="text20-05"><tspan
             sodipodi:role="line"
             id="tspan20-2"
             style="stroke-width:0.3"
             x="99.022247"
             y="39.019482">G</tspan></text>
        <g
           id="g1-2"
           transform="translate(-28.310419,1.322913)"
           style="stroke-width:0.3;stroke-dasharray:none">
          <rect
             style="display:inline;fill:#ffcf78;fill-opacity:1;stroke:#000000;stroke-width:0.3;stroke-linecap:square;stroke-linejoin:miter;stroke-miterlimit:4;stroke-dasharray:none"
             id="rect28668-2-2-8-4"
             width="7.2588034"
             height="4.9298873"
             x="97.182213"
             y="34.803394"
             rx="1.167545"
             ry="1.2611722" />
          <text
             xml:space="preserve"
             style="font-style:normal;font-variant:normal;font-weight:normal;font-stretch:normal;font-size:4.9389px;font-family:sans-serif;-inkscape-font-specification:sans-serif;text-align:start;writing-mode:lr-tb;direction:ltr;text-anchor:start;fill:#000000;fill-opacity:1;stroke:none;stroke-width:0.3;stroke-dasharray:none;stroke-dashoffset:0;stroke-opacity:1"
             x="99.022247"
             y="39.019482"
             id="text20-9"><tspan
               sodipodi:role="line"
               id="tspan20-4"
               style="stroke-width:0.3;stroke-dasharray:none"
               x="99.022247"
               y="39.019482">H</tspan></text>
        </g>
      </g>
    </g>
    <text
       xml:space="preserve"
       style="font-style:normal;font-variant:normal;font-weight:normal;font-stretch:normal;font-size:4.9389px;font-family:sans-serif;-inkscape-font-specification:sans-serif;text-align:start;writing-mode:lr-tb;direction:ltr;text-anchor:start;fill:#000000;fill-opacity:1;stroke:none;stroke-width:0.3;stroke-dasharray:none;stroke-dashoffset:0;stroke-opacity:1"
       x="99.001015"
       y="59.947083"
       id="text20-0"><tspan
         sodipodi:role="line"
         id="tspan20-1"
         style="stroke-width:0.3"
         x="99.001015"
         y="59.947083">B</tspan></text>
    <text
       xml:space="preserve"
       style="font-style:normal;font-variant:normal;font-weight:normal;font-stretch:normal;font-size:4.23333333px;font-family:sans-serif;-inkscape-font-specification:sans-serif;text-align:start;writing-mode:lr-tb;direction:ltr;text-anchor:start;fill:#000000;fill-opacity:1;stroke:none;stroke-width:0.499999;stroke-dasharray:1, 0.49999900000000003;stroke-dashoffset:0;stroke-opacity:1;"
       x="142.42624"
       y="79.015282"
       id="text23"><tspan
         sodipodi:role="line"
         id="tspan23"
         style="stroke-width:0.5;font-size:4.23333333px;"
         x="142.42624"
         y="79.015282">2ATP</tspan></text>
    <text
       xml:space="preserve"
       style="font-style:normal;font-variant:normal;font-weight:normal;font-stretch:normal;font-size:4.23333333px;font-family:sans-serif;-inkscape-font-specification:sans-serif;text-align:start;writing-mode:lr-tb;direction:ltr;text-anchor:start;fill:#000000;fill-opacity:1;stroke:none;stroke-width:0.499999;stroke-dasharray:1, 0.49999900000000003;stroke-dashoffset:0;stroke-opacity:1;"
       x="113.38274"
       y="108.89493"
       id="text24"><tspan
         sodipodi:role="line"
         id="tspan24"
         style="stroke-width:0.5;font-size:4.23333333px;"
         x="113.38274"
         y="108.89493">4NADH</tspan></text>
    <text
       xml:space="preserve"
       style="font-style:normal;font-variant:normal;font-weight:normal;font-stretch:normal;font-size:4.23333333px;font-family:sans-serif;-inkscape-font-specification:sans-serif;text-align:start;writing-mode:lr-tb;direction:ltr;text-anchor:start;fill:#000000;fill-opacity:1;stroke:none;stroke-width:0.499999;stroke-dasharray:1, 0.49999900000000003;stroke-dashoffset:0;stroke-opacity:1;"
       x="106.52783"
       y="119.73674"
       id="text25"><tspan
         sodipodi:role="line"
         id="tspan25"
         style="stroke-width:0.5;font-size:4.23333333px;"
         x="106.52783"
         y="119.73674">10ATP</tspan></text>
    <text
       xml:space="preserve"
       style="font-style:normal;font-variant:normal;font-weight:normal;font-stretch:normal;font-size:4.23333333px;font-family:sans-serif;-inkscape-font-specification:sans-serif;text-align:start;writing-mode:lr-tb;direction:ltr;text-anchor:start;fill:#000000;fill-opacity:1;stroke:none;stroke-width:0.499999;stroke-dasharray:1, 0.49999900000000003;stroke-dashoffset:0;stroke-opacity:1;"
       x="106.86308"
       y="43.589489"
       id="text26"><tspan
         sodipodi:role="line"
         id="tspan26"
         style="stroke-width:0.5;font-size:4.23333333px;"
         x="106.86308"
         y="43.589489">ATP</tspan></text>
    <text
       xml:space="preserve"
       style="font-style:normal;font-variant:normal;font-weight:normal;font-stretch:normal;font-size:4.23333333px;font-family:sans-serif;-inkscape-font-specification:sans-serif;text-align:start;writing-mode:lr-tb;direction:ltr;text-anchor:start;fill:#000000;fill-opacity:1;stroke:none;stroke-width:0.499999;stroke-dasharray:1, 0.49999900000000003;stroke-dashoffset:0;stroke-opacity:1;"
       x="110.70863"
       y="74.947571"
       id="text27"><tspan
         sodipodi:role="line"
         id="tspan27"
         style="stroke-width:0.5;font-size:4.23333333px;"
         x="110.70863"
         y="74.947571">2ATP</tspan><tspan
         sodipodi:role="line"
         style="stroke-width:0.5;font-size:4.23333333px;"
         x="110.70863"
         y="81.121193"
         id="tspan28">3NADH</tspan></text>
    <text
       xml:space="preserve"
       style="font-style:normal;font-variant:normal;font-weight:normal;font-stretch:normal;font-size:4.23333333px;font-family:sans-serif;-inkscape-font-specification:sans-serif;text-align:start;writing-mode:lr-tb;direction:ltr;text-anchor:start;fill:#000000;fill-opacity:1;stroke:none;stroke-width:0.499999;stroke-dasharray:1, 0.49999900000000003;stroke-dashoffset:0;stroke-opacity:1;"
       x="77.399246"
       y="63.726009"
       id="text27-0"><tspan
         sodipodi:role="line"
         id="tspan27-5"
         style="stroke-width:0.5;font-size:4.23333333px;"
         x="77.399246"
         y="63.726009">2ATP</tspan><tspan
         sodipodi:role="line"
         style="stroke-width:0.5;font-size:4.23333333px;"
         x="77.399246"
         y="69.899635"
         id="tspan28-3">3NADH</tspan></text>
    <text
       xml:space="preserve"
       style="font-style:normal;font-variant:normal;font-weight:normal;font-stretch:normal;font-size:4.23333311px;font-family:sans-serif;-inkscape-font-specification:sans-serif;text-align:start;writing-mode:lr-tb;direction:ltr;text-anchor:start;fill:#000000;fill-opacity:1;stroke:none;stroke-width:0.49999899;stroke-dasharray:1, 0.499999;stroke-dashoffset:0;stroke-opacity:1"
       x="29.039473"
       y="76.005905"
       id="text29"><tspan
         sodipodi:role="line"
         id="tspan29"
         style="font-size:4.23333311px;stroke-width:0.5"
         x="29.039473"
         y="76.005905">2NADH</tspan></text>
    <text
       xml:space="preserve"
       style="font-style:normal;font-variant:normal;font-weight:normal;font-stretch:normal;font-size:4.23333333px;font-family:sans-serif;-inkscape-font-specification:sans-serif;text-align:start;writing-mode:lr-tb;direction:ltr;text-anchor:start;fill:#000000;fill-opacity:1;stroke:none;stroke-width:0.499999;stroke-dasharray:1, 0.49999900000000003;stroke-dashoffset:0;stroke-opacity:1;"
       x="39.857048"
       y="102.8479"
       id="text30"><tspan
         sodipodi:role="line"
         id="tspan30"
         style="stroke-width:0.5;font-size:4.23333333px;"
         x="39.857048"
         y="102.8479">1ATP</tspan><tspan
         sodipodi:role="line"
         style="stroke-width:0.5;font-size:4.23333333px;"
         x="39.857048"
         y="109.02152"
         id="tspan31">2NADH</tspan></text>
    <text
       xml:space="preserve"
       style="font-style:normal;font-variant:normal;font-weight:normal;font-stretch:normal;font-size:4.9389px;font-family:sans-serif;-inkscape-font-specification:sans-serif;text-align:start;writing-mode:lr-tb;direction:ltr;text-anchor:start;fill:#000000;fill-opacity:1;stroke:none;stroke-width:0.499999;stroke-dasharray:1, 0.499999;stroke-dashoffset:0;stroke-opacity:1"
       x="148.24426"
       y="88.890305"
       id="text32"><tspan
         sodipodi:role="line"
         id="tspan32"
         style="stroke-width:0.5"
         x="148.24426"
         y="88.890305">3</tspan></text>
    <text
       xml:space="preserve"
       style="font-style:normal;font-variant:normal;font-weight:normal;font-stretch:normal;font-size:4.9389px;font-family:sans-serif;-inkscape-font-specification:sans-serif;text-align:start;writing-mode:lr-tb;direction:ltr;text-anchor:start;fill:#000000;fill-opacity:1;stroke:none;stroke-width:0.499999;stroke-dasharray:1, 0.499999;stroke-dashoffset:0;stroke-opacity:1"
       x="148.02852"
       y="105.001"
       id="text32-3"><tspan
         sodipodi:role="line"
         id="tspan32-4"
         style="stroke-width:0.5"
         x="148.02852"
         y="105.001">3</tspan></text>
    <text
       xml:space="preserve"
       style="font-style:normal;font-variant:normal;font-weight:normal;font-stretch:normal;font-size:2.35885px;line-height:0%;font-family:Arial;-inkscape-font-specification:Arial;text-align:start;letter-spacing:0px;word-spacing:0px;writing-mode:lr-tb;text-anchor:start;display:inline;fill:#6b9ac4;fill-opacity:1;stroke:none;stroke-width:0.19657"
       x="61.510323"
       y="31.885767"
       id="text7933-1-4-2-9-1-5"><tspan
         sodipodi:role="line"
         id="tspan7935-7-0-7-3-9-0"
         x="61.510323"
         y="31.885767"
         style="font-style:normal;font-variant:normal;font-weight:normal;font-stretch:normal;font-size:4.14181px;line-height:125%;font-family:Arial;-inkscape-font-specification:Arial;text-align:start;writing-mode:lr-tb;text-anchor:start;fill:#6b9ac4;fill-opacity:1;stroke-width:0.19657">Tc2</tspan></text>
    <text
       xml:space="preserve"
       style="font-style:normal;font-variant:normal;font-weight:normal;font-stretch:normal;font-size:2.35885px;line-height:0%;font-family:Arial;-inkscape-font-specification:Arial;text-align:start;letter-spacing:0px;word-spacing:0px;writing-mode:lr-tb;text-anchor:start;display:inline;fill:#6b9ac4;fill-opacity:1;stroke:none;stroke-width:0.19656999"
       x="121.87585"
       y="36.314426"
       id="text7933-1-4-2-9-1-5-1"><tspan
         sodipodi:role="line"
         id="tspan7935-7-0-7-3-9-0-53"
         x="121.87585"
         y="36.314426"
         style="font-style:normal;font-variant:normal;font-weight:normal;font-stretch:normal;font-size:4.14180994px;line-height:125%;font-family:Arial;-inkscape-font-specification:Arial;text-align:start;writing-mode:lr-tb;text-anchor:start;fill:#6b9ac4;fill-opacity:1;stroke-width:0.19656999">Tf</tspan></text>
    <text
       xml:space="preserve"
       style="font-style:normal;font-variant:normal;font-weight:normal;font-stretch:normal;font-size:2.35885px;line-height:0%;font-family:Arial;-inkscape-font-specification:Arial;text-align:start;letter-spacing:0px;word-spacing:0px;writing-mode:lr-tb;text-anchor:start;display:inline;fill:#6b9ac4;fill-opacity:1;stroke:none;stroke-width:0.19656999"
       x="168.9716"
       y="94.825768"
       id="text7933-1-4-2-9-1-5-1-8"><tspan
         sodipodi:role="line"
         id="tspan7935-7-0-7-3-9-0-53-8"
         x="168.9716"
         y="94.825768"
         style="font-style:normal;font-variant:normal;font-weight:normal;font-stretch:normal;font-size:4.14180994px;line-height:125%;font-family:Arial;-inkscape-font-specification:Arial;text-align:start;writing-mode:lr-tb;text-anchor:start;fill:#6b9ac4;fill-opacity:1;stroke-width:0.19656999">Td</tspan></text>
    <text
       xml:space="preserve"
       style="font-style:normal;font-variant:normal;font-weight:normal;font-stretch:normal;font-size:2.35885px;line-height:0%;font-family:Arial;-inkscape-font-specification:Arial;text-align:start;letter-spacing:0px;word-spacing:0px;writing-mode:lr-tb;text-anchor:start;display:inline;fill:#6b9ac4;fill-opacity:1;stroke:none;stroke-width:0.19656999"
       x="163.67995"
       y="111.97311"
       id="text7933-1-4-2-9-1-5-1-8-1"><tspan
         sodipodi:role="line"
         id="tspan7935-7-0-7-3-9-0-53-8-1"
         x="163.67995"
         y="111.97311"
         style="font-style:normal;font-variant:normal;font-weight:normal;font-stretch:normal;font-size:4.14180994px;line-height:125%;font-family:Arial;-inkscape-font-specification:Arial;text-align:start;writing-mode:lr-tb;text-anchor:start;fill:#6b9ac4;fill-opacity:1;stroke-width:0.19656999">Te</tspan></text>
    <g
       id="g1-0"
       transform="translate(82.325938,3.3703257)">
      <text
         xml:space="preserve"
         style="font-style:normal;font-variant:normal;font-weight:normal;font-stretch:normal;font-size:2.35885px;line-height:0%;font-family:Arial;-inkscape-font-specification:Arial;text-align:start;letter-spacing:0px;word-spacing:0px;writing-mode:lr-tb;text-anchor:start;display:inline;fill:#6b9ac4;fill-opacity:1;stroke:none;stroke-width:0.19657"
         x="61.510323"
         y="31.885767"
         id="text7933-1-4-2-9-1-5-4"><tspan
           sodipodi:role="line"
           id="tspan7935-7-0-7-3-9-0-2"
           x="61.510323"
           y="31.885767"
           style="font-style:normal;font-variant:normal;font-weight:normal;font-stretch:normal;font-size:4.14181px;line-height:125%;font-family:Arial;-inkscape-font-specification:Arial;text-align:start;writing-mode:lr-tb;text-anchor:start;fill:#6b9ac4;fill-opacity:1;stroke-width:0.19657">TO<tspan
   style="font-size:65%;baseline-shift:sub"
   id="tspan34">2</tspan></tspan></text>
    </g>
    <text
       xml:space="preserve"
       style="font-style:normal;font-variant:normal;font-weight:normal;font-stretch:normal;font-size:2.35885px;line-height:0%;font-family:Arial;-inkscape-font-specification:Arial;text-align:start;letter-spacing:0px;word-spacing:0px;writing-mode:lr-tb;text-anchor:start;display:inline;fill:#6b9ac4;fill-opacity:1;stroke:none;stroke-width:0.19657"
       x="91.713341"
       y="26.26026"
       id="text7933-1-4-2-9-1-5-0"><tspan
         sodipodi:role="line"
         id="tspan7935-7-0-7-3-9-0-3"
         x="91.713341"
         y="26.26026"
         style="font-style:normal;font-variant:normal;font-weight:normal;font-stretch:normal;font-size:4.14181px;line-height:125%;font-family:Arial;-inkscape-font-specification:Arial;text-align:start;writing-mode:lr-tb;text-anchor:start;fill:#6b9ac4;fill-opacity:1;stroke-width:0.19657">Tc1</tspan></text>
    <g
       id="g1-8"
       transform="translate(28.350937,15.541159)">
      <g
         id="g1-4"
         transform="translate(-22.225009,38.89375)">
        <text
           xml:space="preserve"
           style="font-style:normal;font-variant:normal;font-weight:normal;font-stretch:normal;font-size:2.35885px;line-height:0%;font-family:Arial;-inkscape-font-specification:Arial;text-align:start;letter-spacing:0px;word-spacing:0px;writing-mode:lr-tb;text-anchor:start;display:inline;fill:#6b9ac4;fill-opacity:1;stroke:none;stroke-width:0.19656999"
           x="77.421387"
           y="53.317017"
           id="text7933-1-4-2-9-1-5-9-6-8-3"><tspan
             sodipodi:role="line"
             id="tspan7935-7-0-7-3-9-0-5-3-2-0"
             x="77.421387"
             y="53.317017"
             style="font-style:normal;font-variant:normal;font-weight:normal;font-stretch:normal;font-size:4.14180994px;line-height:125%;font-family:Arial;-inkscape-font-specification:Arial;text-align:start;writing-mode:lr-tb;text-anchor:start;fill:#6b9ac4;fill-opacity:1;stroke-width:0.19656999">R4</tspan></text>
        <text
           xml:space="preserve"
           style="font-style:normal;font-variant:normal;font-weight:normal;font-stretch:normal;font-size:2.35885px;line-height:0%;font-family:Arial;-inkscape-font-specification:Arial;text-align:start;letter-spacing:0px;word-spacing:0px;writing-mode:lr-tb;text-anchor:start;display:inline;fill:#6b9ac4;fill-opacity:1;stroke:none;stroke-width:0.19656999"
           x="17.804407"
           y="54.979431"
           id="text7933-1-4-2-9-1-5-9-6-8-3-36"><tspan
             sodipodi:role="line"
             id="tspan7935-7-0-7-3-9-0-5-3-2-0-7"
             x="17.804407"
             y="54.979431"
             style="font-style:normal;font-variant:normal;font-weight:normal;font-stretch:normal;font-size:4.14180994px;line-height:125%;font-family:Arial;-inkscape-font-specification:Arial;text-align:start;writing-mode:lr-tb;text-anchor:start;fill:#6b9ac4;fill-opacity:1;stroke-width:0.19656999">Th</tspan></text>
      </g>
      <text
         xml:space="preserve"
         style="font-style:normal;font-variant:normal;font-weight:normal;font-stretch:normal;font-size:2.35885px;line-height:0%;font-family:Arial;-inkscape-font-specification:Arial;text-align:start;letter-spacing:0px;word-spacing:0px;writing-mode:lr-tb;text-anchor:start;display:inline;fill:#6b9ac4;fill-opacity:1;stroke:none;stroke-width:0.19656999"
         x="63.707077"
         y="32.819855"
         id="text7933-1-4-2-9-1-5-9"><tspan
           sodipodi:role="line"
           id="tspan7935-7-0-7-3-9-0-5"
           x="63.707077"
           y="32.819855"
           style="font-style:normal;font-variant:normal;font-weight:normal;font-stretch:normal;font-size:4.14180994px;line-height:125%;font-family:Arial;-inkscape-font-specification:Arial;text-align:start;writing-mode:lr-tb;text-anchor:start;fill:#6b9ac4;fill-opacity:1;stroke-width:0.19656999">R1</tspan></text>
      <text
         xml:space="preserve"
         style="font-style:normal;font-variant:normal;font-weight:normal;font-stretch:normal;font-size:2.35885px;line-height:0%;font-family:Arial;-inkscape-font-specification:Arial;text-align:start;letter-spacing:0px;word-spacing:0px;writing-mode:lr-tb;text-anchor:start;display:inline;fill:#6b9ac4;fill-opacity:1;stroke:none;stroke-width:0.19657"
         x="130.31421"
         y="47.197754"
         id="text7933-1-4-2-9-1-5-9-8"><tspan
           sodipodi:role="line"
           id="tspan7935-7-0-7-3-9-0-5-35"
           x="130.31421"
           y="47.197754"
           style="font-style:normal;font-variant:normal;font-weight:normal;font-stretch:normal;font-size:4.14181px;line-height:125%;font-family:Arial;-inkscape-font-specification:Arial;text-align:start;writing-mode:lr-tb;text-anchor:start;fill:#6b9ac4;fill-opacity:1;stroke-width:0.19657">R<tspan
   style="font-size:65%;baseline-shift:sub"
   id="tspan35">res</tspan></tspan></text>
      <text
         xml:space="preserve"
         style="font-style:normal;font-variant:normal;font-weight:normal;font-stretch:normal;font-size:2.35885px;line-height:0%;font-family:Arial;-inkscape-font-specification:Arial;text-align:start;letter-spacing:0px;word-spacing:0px;writing-mode:lr-tb;text-anchor:start;display:inline;fill:#6b9ac4;fill-opacity:1;stroke:none;stroke-width:0.19656999"
         x="79.273468"
         y="39.823265"
         id="text7933-1-4-2-9-1-5-9-6"><tspan
           sodipodi:role="line"
           id="tspan7935-7-0-7-3-9-0-5-3"
           x="79.273468"
           y="39.823265"
           style="font-style:normal;font-variant:normal;font-weight:normal;font-stretch:normal;font-size:4.14180994px;line-height:125%;font-family:Arial;-inkscape-font-specification:Arial;text-align:start;writing-mode:lr-tb;text-anchor:start;fill:#6b9ac4;fill-opacity:1;stroke-width:0.19656999">R3</tspan></text>
      <text
         xml:space="preserve"
         style="font-style:normal;font-variant:normal;font-weight:normal;font-stretch:normal;font-size:2.35885px;line-height:0%;font-family:Arial;-inkscape-font-specification:Arial;text-align:start;letter-spacing:0px;word-spacing:0px;writing-mode:lr-tb;text-anchor:start;display:inline;fill:#6b9ac4;fill-opacity:1;stroke:none;stroke-width:0.19657"
         x="75.304718"
         y="52.258682"
         id="text7933-1-4-2-9-1-5-9-6-8"><tspan
           sodipodi:role="line"
           id="tspan7935-7-0-7-3-9-0-5-3-2"
           x="75.304718"
           y="52.258682"
           style="font-style:normal;font-variant:normal;font-weight:normal;font-stretch:normal;font-size:4.14181px;line-height:125%;font-family:Arial;-inkscape-font-specification:Arial;text-align:start;writing-mode:lr-tb;text-anchor:start;fill:#6b9ac4;fill-opacity:1;stroke-width:0.19657">R2a</tspan></text>
      <text
         xml:space="preserve"
         style="font-style:normal;font-variant:normal;font-weight:normal;font-stretch:normal;font-size:2.35885px;line-height:0%;font-family:Arial;-inkscape-font-specification:Arial;text-align:start;letter-spacing:0px;word-spacing:0px;writing-mode:lr-tb;text-anchor:start;display:inline;fill:#6b9ac4;fill-opacity:1;stroke:none;stroke-width:0.19657"
         x="62.340126"
         y="62.048267"
         id="text7933-1-4-2-9-1-5-9-6-8-9"><tspan
           sodipodi:role="line"
           id="tspan7935-7-0-7-3-9-0-5-3-2-6"
           x="62.340126"
           y="62.048267"
           style="font-style:normal;font-variant:normal;font-weight:normal;font-stretch:normal;font-size:4.14181px;line-height:125%;font-family:Arial;-inkscape-font-specification:Arial;text-align:start;writing-mode:lr-tb;text-anchor:start;fill:#6b9ac4;fill-opacity:1;stroke-width:0.19657">R2b</tspan></text>
      <g
         id="g1-4-9"
         transform="translate(-43.656255,25.123283)">
        <text
           xml:space="preserve"
           style="font-style:normal;font-variant:normal;font-weight:normal;font-stretch:normal;font-size:2.35885px;line-height:0%;font-family:Arial;-inkscape-font-specification:Arial;text-align:start;letter-spacing:0px;word-spacing:0px;writing-mode:lr-tb;text-anchor:start;display:inline;fill:#6b9ac4;fill-opacity:1;stroke:none;stroke-width:0.19656999"
           x="80.067223"
           y="45.379509"
           id="text7933-1-4-2-9-1-5-9-6-8-3-1"><tspan
             sodipodi:role="line"
             id="tspan7935-7-0-7-3-9-0-5-3-2-0-1"
             x="80.067223"
             y="45.379509"
             style="font-style:normal;font-variant:normal;font-weight:normal;font-stretch:normal;font-size:4.14180994px;line-height:125%;font-family:Arial;-inkscape-font-specification:Arial;text-align:start;writing-mode:lr-tb;text-anchor:start;fill:#6b9ac4;fill-opacity:1;stroke-width:0.19656999">R5a,b</tspan></text>
        <text
           xml:space="preserve"
           style="font-style:normal;font-variant:normal;font-weight:normal;font-stretch:normal;font-size:2.35885px;line-height:0%;font-family:Arial;-inkscape-font-specification:Arial;text-align:start;letter-spacing:0px;word-spacing:0px;writing-mode:lr-tb;text-anchor:start;display:inline;fill:#6b9ac4;fill-opacity:1;stroke:none;stroke-width:0.19657"
           x="68.425552"
           y="77.129517"
           id="text7933-1-4-2-9-1-5-9-6-8-3-1-0"><tspan
             sodipodi:role="line"
             id="tspan7935-7-0-7-3-9-0-5-3-2-0-1-8"
             x="68.425552"
             y="77.129517"
             style="font-style:normal;font-variant:normal;font-weight:normal;font-stretch:normal;font-size:4.14181px;line-height:125%;font-family:Arial;-inkscape-font-specification:Arial;text-align:start;writing-mode:lr-tb;text-anchor:start;fill:#6b9ac4;fill-opacity:1;stroke-width:0.19657">R8a,b</tspan></text>
      </g>
      <g
         id="g1-4-0"
         transform="translate(34.131245,24.858699)">
        <text
           xml:space="preserve"
           style="font-style:normal;font-variant:normal;font-weight:normal;font-stretch:normal;font-size:2.35885px;line-height:0%;font-family:Arial;-inkscape-font-specification:Arial;text-align:start;letter-spacing:0px;word-spacing:0px;writing-mode:lr-tb;text-anchor:start;display:inline;fill:#6b9ac4;fill-opacity:1;stroke:none;stroke-width:0.19656999"
           x="70.542213"
           y="53.317017"
           id="text7933-1-4-2-9-1-5-9-6-8-3-8"><tspan
             sodipodi:role="line"
             id="tspan7935-7-0-7-3-9-0-5-3-2-0-5"
             x="70.542213"
             y="53.317017"
             style="font-style:normal;font-variant:normal;font-weight:normal;font-stretch:normal;font-size:4.14180994px;line-height:125%;font-family:Arial;-inkscape-font-specification:Arial;text-align:start;writing-mode:lr-tb;text-anchor:start;fill:#6b9ac4;fill-opacity:1;stroke-width:0.19656999">R6</tspan></text>
        <g
           id="g1-4-4"
           transform="translate(-2.6458322,13.493749)">
          <text
             xml:space="preserve"
             style="font-style:normal;font-variant:normal;font-weight:normal;font-stretch:normal;font-size:2.35885px;line-height:0%;font-family:Arial;-inkscape-font-specification:Arial;text-align:start;letter-spacing:0px;word-spacing:0px;writing-mode:lr-tb;text-anchor:start;display:inline;fill:#6b9ac4;fill-opacity:1;stroke:none;stroke-width:0.19657"
             x="75.304718"
             y="52.258682"
             id="text7933-1-4-2-9-1-5-9-6-8-3-3"><tspan
               sodipodi:role="line"
               id="tspan7935-7-0-7-3-9-0-5-3-2-0-6"
               x="75.304718"
               y="52.258682"
               style="font-style:normal;font-variant:normal;font-weight:normal;font-stretch:normal;font-size:4.14181px;line-height:125%;font-family:Arial;-inkscape-font-specification:Arial;text-align:start;writing-mode:lr-tb;text-anchor:start;fill:#6b9ac4;fill-opacity:1;stroke-width:0.19657">R7</tspan></text>
        </g>
      </g>
    </g>
  </g>
</svg>
