<?xml version="1.0" encoding="UTF-8"?>
<svg id="Layer_1" xmlns="http://www.w3.org/2000/svg" viewBox="0 0 579.6 310.73">
  <defs>
    <style>
      .cls-1 {
        fill: #fff;
      }
    </style>
  </defs>
  <path d="M232.22,146.96c1.16-1.9,2.06-3.39,3.34-5.5-54.72-36.12-109.46-72.26-164.5-108.59,1.1-1.81,2.11-3.48,3.39-5.59,54.88,36.21,109.57,72.29,164.53,108.56,1.24-1.58,2.44-3.1,3.97-5.06,3.63,6.27,7.06,12.2,10.87,18.8-7.61-.92-14.4-1.74-21.6-2.61Z"/>
  <path d="M74.43,277.94c-1.21-1.93-2.22-3.53-3.47-5.53,53.67-32.23,107.16-64.36,160.92-96.64-.93-1.91-1.79-3.66-2.79-5.73,7.18-.58,14.04-1.13,21.54-1.73-3.97,6.26-7.64,12.03-11.61,18.29-1.33-1.93-2.36-3.43-3.63-5.27-53.55,32.15-107.05,64.26-160.95,96.61Z"/>
  <path d="M329.66,169.19v-6.55h184.82c.13-2.21.24-4.07.38-6.56,6.39,3.15,12.53,6.19,19.57,9.67-6.76,3.38-12.84,6.42-19.42,9.71-.2-2.32-.36-4.12-.55-6.26h-184.8Z"/>
  <path d="M310.02,189.72c-4.23,1.32-6.82.88-8.69-2.86-2.6-5.18-5.69-10.13-8.77-15.54-3.1,5.33-6.23,10.12-8.73,15.22-1.8,3.67-4.14,4.64-8.36,3.28.65-1.4,1.15-2.73,1.85-3.93,3.11-5.27,6.15-10.58,9.48-15.7,1.45-2.24,1.62-3.88.09-6.2-3.15-4.76-5.95-9.75-8.84-14.68-.72-1.24-1.24-2.59-1.98-4.15,3.93-1.18,6.53-.78,8.42,2.92,2.44,4.79,5.36,9.33,8.37,14.48,3.16-5.36,6-10.26,8.91-15.11,2.05-3.41,2.67-3.55,7.57-1.86-3.38,5.77-6.51,11.58-10.1,17.08-2.06,3.14-2.14,5.46.02,8.69,3.83,5.73,7.03,11.88,10.77,18.35Z"/>
  <path d="M557.48,173.61c0,4.53-.04,9,.02,13.47.03,2.08-.5,3.34-2.95,3.37-2.56.03-3.21-1.09-3.19-3.48.09-12.66.1-25.33,0-38-.02-3.08.99-4.6,4.25-4.4,4.48.27,9.05-.1,13.43.69,7.03,1.26,10.56,5.99,10.56,12.92,0,7.27-4.2,13.01-10.87,14.3-3.44.67-7,.73-11.24,1.14ZM557.75,168.11c5.66.09,11.07,1.05,14.24-4.52,1.95-3.42,2.03-7.1-.31-10.35-3.55-4.92-8.85-3.35-13.93-3.58v18.45Z"/>
  <path d="M130.55,30.71c4.32-1.42,6.43-.63,7.65,3.37,2.28,7.5,5.1,14.85,8.06,23.3,2.89-8.36,5.71-15.79,7.99-23.37,1.14-3.8,3.07-4.7,7.21-3.35-1.85,5.33-3.63,10.63-5.52,15.89-1.74,4.84-3.44,9.71-5.49,14.42-.5,1.16-2.31,2.48-3.48,2.44-1.77-.05-4.61-.79-5.09-1.99-3.98-10.03-7.53-20.23-11.33-30.72Z"/>
  <path d="M381.64,101.16c3.99-1.45,6.28-1.05,7.55,3.04,2.35,7.57,5.15,15,8.14,23.59,2.94-8.52,5.53-16.03,8.11-23.54,1.47-4.28,1.66-4.38,7.09-3.17-1.88,5.36-3.69,10.68-5.6,15.97-1.7,4.71-3.36,9.45-5.35,14.04-.52,1.2-2.16,2.66-3.31,2.68-1.79.03-4.75-.61-5.21-1.76-4.04-10.13-7.64-20.45-11.43-30.86Z"/>
  <path d="M146.26,287.4c2.97-8.63,5.55-16.15,8.14-23.67,1.45-4.24,1.75-4.38,7.08-3-1.13,3.17-2.23,6.31-3.37,9.44-2.5,6.87-4.89,13.79-7.63,20.56-.5,1.23-2.47,2.62-3.75,2.6-1.72-.03-4.46-.94-4.96-2.18-3.93-9.92-7.43-20.02-11.04-30.03,4.4-2.11,5.85-1.59,7.22,2.35,2.63,7.55,5.25,15.11,8.31,23.93Z"/>
  <path d="M416.65,146.54c2.75.75,5.06,1.69,7.44,1.94,3.93.43,6.8-1.87,7.02-5.16.21-3.11-2.09-5.48-5.93-6-1.07-.15-2.23.12-3.25-.15-.86-.23-1.59-.96-2.37-1.47.73-.58,1.38-1.42,2.2-1.67,1.14-.35,2.46-.09,3.62-.38,3.37-.84,5.26-4.34,4.25-7.64-.9-2.93-3.98-4.13-7.39-2.74-1.47.6-2.84,1.45-4.48,2.29-1.48-2.91.39-4.07,2.35-5.03,4.88-2.4,10.79-1.41,12.99,2.09,2.5,3.96,1.34,8.46-3.19,12.45,5.53,3.2,7.04,6.63,5.03,11.41-1.96,4.65-7.62,6.59-14.52,4.88-2.39-.59-5-1.16-3.78-4.82Z"/>
  <path d="M165.23,283.71c.7-1.09,1.16-2.52,2.14-3.2,3.77-2.61,9.98-2.25,12.96.52,2.85,2.64,3.71,8.01,1.09,12.01-3.16,4.82-7.01,9.18-10.96,14.25,3.95,0,7.56-.11,11.15.08.87.05,1.68,1.11,2.53,1.7-.87.54-1.73,1.51-2.62,1.54-4.49.16-8.98.13-13.48.03-.97-.02-2.71-.58-2.73-.97-.07-1.22.16-2.76.9-3.67,2.48-3.05,5.39-5.76,7.81-8.85,1.64-2.1,3.29-4.5,3.88-7.01.46-1.95-.05-4.97-1.36-6.24-1.28-1.25-4.13-1.18-6.28-1.14-1.35.02-2.68,1.05-4.02,1.63-.33-.23-.66-.45-.99-.68Z"/>
  <g>
    <path d="M25.15,252.62c-3.09-1.04-5.71-2.21-8.45-2.79-4.14-.88-7.83.9-8.95,3.9-1.29,3.44.22,6.74,4.31,9,3.08,1.7,6.34,3.11,9.39,4.86,4.92,2.82,7.46,6.99,6.72,12.85-.64,5.06-4.38,9.94-9.84,10.65-4.69.61-9.64-.07-14.38-.78-3.69-.55-4.7-3.27-3.29-7.13,2.4.9,4.69,2.08,7.11,2.58,2.59.53,5.35.75,7.97.49,3.03-.3,5.25-2.08,5.88-5.32.63-3.27-.21-6.02-3.18-7.71-3.07-1.75-6.32-3.18-9.4-4.89-3.93-2.18-7.19-5.04-7.8-9.83-.99-7.83,4.35-13.67,12.85-13.83,2.66-.05,5.36.71,8,1.28,3.7.8,4.25,3.22,3.08,6.66Z"/>
    <path d="M39.08,304.66c4.94.36,9.23.67,13.51,1.09.08,0,0,1.46,0,2.65-5.67,0-11.22.04-16.77-.05-.69-.01-1.96-.69-1.94-.98.11-1.26.25-2.76.99-3.68,2.38-2.95,5.21-5.55,7.53-8.55,1.71-2.21,3.46-4.69,4.14-7.32.49-1.91-.08-4.96-1.4-6.23-1.29-1.24-4.14-1.14-6.29-1.1-1.35.03-2.68,1.05-4.01,1.62-.32-.24-.65-.49-.97-.73.72-1.08,1.2-2.5,2.19-3.17,3.8-2.6,9.98-2.21,12.95.58,2.82,2.65,3.64,8.02,1.04,12.03-2.71,4.18-6.17,7.87-9.3,11.78-.48.6-.96,1.18-1.68,2.06Z"/>
  </g>
  <g>
    <path d="M.6,38.8c4.06,1.19,7.62,2.71,11.31,3.21,6.05.82,10.47-2.76,9.66-7.91-.36-2.29-2.42-4.73-4.37-6.24-2.42-1.88-5.58-2.78-8.34-4.25C2.65,20.3-.12,14.65,1.49,8.82,3.01,3.32,8.31-.25,15.07.01c2.41.09,4.85.66,7.16,1.39,3.68,1.17,4.08,2.37,2.65,6.48-2.65-.9-5.24-2.05-7.95-2.64-4.46-.97-8.1.77-9.22,4.01-1.2,3.48.34,6.66,4.5,8.92,3.1,1.68,6.38,3.03,9.41,4.82,4.87,2.89,7.45,7.14,6.51,12.96-.89,5.54-4.33,8.97-9.56,10.58-5,1.54-9.94.97-14.82-.8-3.55-1.29-4.53-3.54-3.15-6.95Z"/>
    <path d="M42.58,60.39v-22.82c-2.45,1.07-4.6,2.01-6.86,2.99-.12-3.83,6.39-8.12,11.16-7.4v27.01c1.68.08,3.04,0,4.31.27.74.16,1.35.93,2.01,1.43-.57.62-1.12,1.77-1.71,1.79-4.77.15-9.54.14-14.31,0-.59-.02-1.15-1.13-1.72-1.73.62-.52,1.2-1.38,1.88-1.48,1.59-.22,3.23-.07,5.22-.07Z"/>
  </g>
  <path d="M178.08,76.19c2.85,1.2,6.26,2.22,6.19,2.68-.57,3.54-3.6,1.61-5.58,1.82-2.97.31-6,.23-8.98,0-1.01-.08-1.94-1.16-2.91-1.78.91-.51,1.77-1.27,2.74-1.46,1.29-.25,2.68-.06,4.29-.06v-22.8c-2.4,1.07-4.53,2.02-6.81,3.03-.05-3.74,5.98-7.9,11.06-7.68v26.26Z"/>
  <path class="cls-1" d="M557.75,168.11v-18.45c5.08.23,10.38-1.34,13.93,3.58,2.34,3.24,2.25,6.93.31,10.35-3.17,5.57-8.57,4.61-14.24,4.52Z"/>
</svg>