<?xml version="1.0" encoding="utf-8" standalone="no"?>
<!DOCTYPE svg PUBLIC "-//W3C//DTD SVG 1.1//EN"
  "http://www.w3.org/Graphics/SVG/1.1/DTD/svg11.dtd">
<svg xmlns:xlink="http://www.w3.org/1999/xlink" width="360pt" height="360pt" viewBox="0 0 360 360" xmlns="http://www.w3.org/2000/svg" version="1.1">
 <metadata>
  <rdf:RDF xmlns:dc="http://purl.org/dc/elements/1.1/" xmlns:cc="http://creativecommons.org/ns#" xmlns:rdf="http://www.w3.org/1999/02/22-rdf-syntax-ns#">
   <cc:Work>
    <dc:type rdf:resource="http://purl.org/dc/dcmitype/StillImage"/>
    <dc:date>2024-12-29T17:20:03.606377</dc:date>
    <dc:format>image/svg+xml</dc:format>
    <dc:creator>
     <cc:Agent>
      <dc:title>Matplotlib v3.9.2, https://matplotlib.org/</dc:title>
     </cc:Agent>
    </dc:creator>
   </cc:Work>
  </rdf:RDF>
 </metadata>
 <defs>
  <style type="text/css">*{stroke-linejoin: round; stroke-linecap: butt}</style>
 </defs>
 <g id="figure_1">
  <g id="patch_1">
   <path d="M 0 360 
L 360 360 
L 360 0 
L 0 0 
z
" style="fill: #ffffff"/>
  </g>
  <g id="axes_1">
   <g id="patch_2">
    <path d="M 72 306 
L 324 306 
L 324 36 
L 72 36 
z
" style="fill: #ffffff"/>
   </g>
   <g id="matplotlib.axis_1">
    <g id="xtick_1">
     <g id="line2d_1">
      <defs>
       <path id="m695b5f7303" d="M 0 0 
L 0 3.5 
" style="stroke: #000000; stroke-width: 0.8"/>
      </defs>
      <g>
       <use xlink:href="#m695b5f7303" x="104.280992" y="306" style="stroke: #000000; stroke-width: 0.8"/>
      </g>
     </g>
     <g id="text_1">
      <!-- $\mathdefault{10^{-2}}$ -->
      <g transform="translate(94.200705 319.918498) scale(0.1 -0.1)">
       <defs>
        <path id="CMR17-31" d="M 1702 4058 
C 1702 4192 1696 4192 1606 4192 
C 1357 3916 979 3827 621 3827 
C 602 3827 570 3827 563 3808 
C 557 3795 557 3782 557 3648 
C 755 3648 1088 3686 1344 3839 
L 1344 461 
C 1344 236 1331 160 781 160 
L 589 160 
L 589 0 
C 896 0 1216 0 1523 0 
C 1830 0 2150 0 2458 0 
L 2458 160 
L 2266 160 
C 1715 160 1702 230 1702 458 
L 1702 4058 
z
" transform="scale(0.015625)"/>
        <path id="CMR17-30" d="M 2688 2025 
C 2688 2416 2682 3080 2413 3591 
C 2176 4039 1798 4198 1466 4198 
C 1158 4198 768 4058 525 3597 
C 269 3118 243 2524 243 2025 
C 243 1661 250 1106 448 619 
C 723 -39 1216 -128 1466 -128 
C 1760 -128 2208 -7 2470 600 
C 2662 1042 2688 1559 2688 2025 
z
M 1466 -26 
C 1056 -26 813 325 723 812 
C 653 1188 653 1738 653 2096 
C 653 2588 653 2997 736 3387 
C 858 3929 1216 4096 1466 4096 
C 1728 4096 2067 3923 2189 3400 
C 2272 3036 2278 2607 2278 2096 
C 2278 1680 2278 1169 2202 792 
C 2067 95 1690 -26 1466 -26 
z
" transform="scale(0.015625)"/>
        <path id="CMSY10-0" d="M 4218 1472 
C 4326 1472 4442 1472 4442 1600 
C 4442 1728 4326 1728 4218 1728 
L 755 1728 
C 646 1728 531 1728 531 1600 
C 531 1472 646 1472 755 1472 
L 4218 1472 
z
" transform="scale(0.015625)"/>
        <path id="CMR17-32" d="M 2669 989 
L 2554 989 
C 2490 536 2438 459 2413 420 
C 2381 369 1920 369 1830 369 
L 602 369 
C 832 619 1280 1072 1824 1597 
C 2214 1967 2669 2402 2669 3035 
C 2669 3790 2067 4224 1395 4224 
C 691 4224 262 3604 262 3030 
C 262 2780 448 2748 525 2748 
C 589 2748 781 2787 781 3010 
C 781 3207 614 3264 525 3264 
C 486 3264 448 3258 422 3245 
C 544 3790 915 4058 1306 4058 
C 1862 4058 2227 3617 2227 3035 
C 2227 2479 1901 2000 1536 1584 
L 262 146 
L 262 0 
L 2515 0 
L 2669 989 
z
" transform="scale(0.015625)"/>
       </defs>
       <use xlink:href="#CMR17-31" transform="scale(0.996264)"/>
       <use xlink:href="#CMR17-30" transform="translate(45.690477 0) scale(0.996264)"/>
       <use xlink:href="#CMSY10-0" transform="translate(91.380954 36.153639) scale(0.697382)"/>
       <use xlink:href="#CMR17-32" transform="translate(145.621947 36.153639) scale(0.697382)"/>
      </g>
     </g>
    </g>
    <g id="xtick_2">
     <g id="line2d_2">
      <g>
       <use xlink:href="#m695b5f7303" x="145.933884" y="306" style="stroke: #000000; stroke-width: 0.8"/>
      </g>
     </g>
     <g id="text_2">
      <!-- $\mathdefault{10^{-1}}$ -->
      <g transform="translate(135.853598 319.918498) scale(0.1 -0.1)">
       <use xlink:href="#CMR17-31" transform="scale(0.996264)"/>
       <use xlink:href="#CMR17-30" transform="translate(45.690477 0) scale(0.996264)"/>
       <use xlink:href="#CMSY10-0" transform="translate(91.380954 36.153639) scale(0.697382)"/>
       <use xlink:href="#CMR17-31" transform="translate(145.621947 36.153639) scale(0.697382)"/>
      </g>
     </g>
    </g>
    <g id="xtick_3">
     <g id="line2d_3">
      <g>
       <use xlink:href="#m695b5f7303" x="187.586777" y="306" style="stroke: #000000; stroke-width: 0.8"/>
      </g>
     </g>
     <g id="text_3">
      <!-- $\mathdefault{10^{0}}$ -->
      <g transform="translate(180.619823 319.918498) scale(0.1 -0.1)">
       <use xlink:href="#CMR17-31" transform="scale(0.996264)"/>
       <use xlink:href="#CMR17-30" transform="translate(45.690477 0) scale(0.996264)"/>
       <use xlink:href="#CMR17-30" transform="translate(91.380954 36.153639) scale(0.697382)"/>
      </g>
     </g>
    </g>
    <g id="xtick_4">
     <g id="line2d_4">
      <g>
       <use xlink:href="#m695b5f7303" x="229.239669" y="306" style="stroke: #000000; stroke-width: 0.8"/>
      </g>
     </g>
     <g id="text_4">
      <!-- $\mathdefault{10^{1}}$ -->
      <g transform="translate(222.272715 319.918498) scale(0.1 -0.1)">
       <use xlink:href="#CMR17-31" transform="scale(0.996264)"/>
       <use xlink:href="#CMR17-30" transform="translate(45.690477 0) scale(0.996264)"/>
       <use xlink:href="#CMR17-31" transform="translate(91.380954 36.153639) scale(0.697382)"/>
      </g>
     </g>
    </g>
    <g id="xtick_5">
     <g id="line2d_5">
      <g>
       <use xlink:href="#m695b5f7303" x="270.892562" y="306" style="stroke: #000000; stroke-width: 0.8"/>
      </g>
     </g>
     <g id="text_5">
      <!-- $\mathdefault{10^{2}}$ -->
      <g transform="translate(263.925608 319.918498) scale(0.1 -0.1)">
       <use xlink:href="#CMR17-31" transform="scale(0.996264)"/>
       <use xlink:href="#CMR17-30" transform="translate(45.690477 0) scale(0.996264)"/>
       <use xlink:href="#CMR17-32" transform="translate(91.380954 36.153639) scale(0.697382)"/>
      </g>
     </g>
    </g>
    <g id="xtick_6">
     <g id="line2d_6">
      <g>
       <use xlink:href="#m695b5f7303" x="312.545455" y="306" style="stroke: #000000; stroke-width: 0.8"/>
      </g>
     </g>
     <g id="text_6">
      <!-- $\mathdefault{10^{3}}$ -->
      <g transform="translate(305.5785 319.918498) scale(0.1 -0.1)">
       <defs>
        <path id="CMR17-33" d="M 1414 2157 
C 1984 2157 2234 1662 2234 1090 
C 2234 320 1824 25 1453 25 
C 1114 25 563 194 390 693 
C 422 680 454 680 486 680 
C 640 680 755 782 755 948 
C 755 1133 614 1216 486 1216 
C 378 1216 211 1165 211 926 
C 211 335 787 -128 1466 -128 
C 2176 -128 2720 430 2720 1085 
C 2720 1707 2208 2157 1600 2227 
C 2086 2328 2554 2756 2554 3329 
C 2554 3820 2048 4179 1472 4179 
C 890 4179 378 3829 378 3329 
C 378 3110 544 3072 627 3072 
C 762 3072 877 3155 877 3321 
C 877 3486 762 3569 627 3569 
C 602 3569 570 3569 544 3557 
C 730 3959 1235 4032 1459 4032 
C 1683 4032 2106 3925 2106 3320 
C 2106 3143 2080 2828 1862 2550 
C 1670 2304 1453 2304 1242 2284 
C 1210 2284 1062 2269 1037 2269 
C 992 2263 966 2257 966 2208 
C 966 2163 973 2157 1101 2157 
L 1414 2157 
z
" transform="scale(0.015625)"/>
       </defs>
       <use xlink:href="#CMR17-31" transform="scale(0.996264)"/>
       <use xlink:href="#CMR17-30" transform="translate(45.690477 0) scale(0.996264)"/>
       <use xlink:href="#CMR17-33" transform="translate(91.380954 36.153639) scale(0.697382)"/>
      </g>
     </g>
    </g>
    <g id="xtick_7">
     <g id="line2d_7">
      <defs>
       <path id="m2b0670e856" d="M 0 0 
L 0 2 
" style="stroke: #000000; stroke-width: 0.6"/>
      </defs>
      <g>
       <use xlink:href="#m2b0670e856" x="75.166869" y="306" style="stroke: #000000; stroke-width: 0.6"/>
      </g>
     </g>
    </g>
    <g id="xtick_8">
     <g id="line2d_8">
      <g>
       <use xlink:href="#m2b0670e856" x="82.50158" y="306" style="stroke: #000000; stroke-width: 0.6"/>
      </g>
     </g>
    </g>
    <g id="xtick_9">
     <g id="line2d_9">
      <g>
       <use xlink:href="#m2b0670e856" x="87.705639" y="306" style="stroke: #000000; stroke-width: 0.6"/>
      </g>
     </g>
    </g>
    <g id="xtick_10">
     <g id="line2d_10">
      <g>
       <use xlink:href="#m2b0670e856" x="91.742222" y="306" style="stroke: #000000; stroke-width: 0.6"/>
      </g>
     </g>
    </g>
    <g id="xtick_11">
     <g id="line2d_11">
      <g>
       <use xlink:href="#m2b0670e856" x="95.04035" y="306" style="stroke: #000000; stroke-width: 0.6"/>
      </g>
     </g>
    </g>
    <g id="xtick_12">
     <g id="line2d_12">
      <g>
       <use xlink:href="#m2b0670e856" x="97.828877" y="306" style="stroke: #000000; stroke-width: 0.6"/>
      </g>
     </g>
    </g>
    <g id="xtick_13">
     <g id="line2d_13">
      <g>
       <use xlink:href="#m2b0670e856" x="100.244409" y="306" style="stroke: #000000; stroke-width: 0.6"/>
      </g>
     </g>
    </g>
    <g id="xtick_14">
     <g id="line2d_14">
      <g>
       <use xlink:href="#m2b0670e856" x="102.37506" y="306" style="stroke: #000000; stroke-width: 0.6"/>
      </g>
     </g>
    </g>
    <g id="xtick_15">
     <g id="line2d_15">
      <g>
       <use xlink:href="#m2b0670e856" x="116.819762" y="306" style="stroke: #000000; stroke-width: 0.6"/>
      </g>
     </g>
    </g>
    <g id="xtick_16">
     <g id="line2d_16">
      <g>
       <use xlink:href="#m2b0670e856" x="124.154472" y="306" style="stroke: #000000; stroke-width: 0.6"/>
      </g>
     </g>
    </g>
    <g id="xtick_17">
     <g id="line2d_17">
      <g>
       <use xlink:href="#m2b0670e856" x="129.358532" y="306" style="stroke: #000000; stroke-width: 0.6"/>
      </g>
     </g>
    </g>
    <g id="xtick_18">
     <g id="line2d_18">
      <g>
       <use xlink:href="#m2b0670e856" x="133.395114" y="306" style="stroke: #000000; stroke-width: 0.6"/>
      </g>
     </g>
    </g>
    <g id="xtick_19">
     <g id="line2d_19">
      <g>
       <use xlink:href="#m2b0670e856" x="136.693242" y="306" style="stroke: #000000; stroke-width: 0.6"/>
      </g>
     </g>
    </g>
    <g id="xtick_20">
     <g id="line2d_20">
      <g>
       <use xlink:href="#m2b0670e856" x="139.48177" y="306" style="stroke: #000000; stroke-width: 0.6"/>
      </g>
     </g>
    </g>
    <g id="xtick_21">
     <g id="line2d_21">
      <g>
       <use xlink:href="#m2b0670e856" x="141.897302" y="306" style="stroke: #000000; stroke-width: 0.6"/>
      </g>
     </g>
    </g>
    <g id="xtick_22">
     <g id="line2d_22">
      <g>
       <use xlink:href="#m2b0670e856" x="144.027952" y="306" style="stroke: #000000; stroke-width: 0.6"/>
      </g>
     </g>
    </g>
    <g id="xtick_23">
     <g id="line2d_23">
      <g>
       <use xlink:href="#m2b0670e856" x="158.472654" y="306" style="stroke: #000000; stroke-width: 0.6"/>
      </g>
     </g>
    </g>
    <g id="xtick_24">
     <g id="line2d_24">
      <g>
       <use xlink:href="#m2b0670e856" x="165.807365" y="306" style="stroke: #000000; stroke-width: 0.6"/>
      </g>
     </g>
    </g>
    <g id="xtick_25">
     <g id="line2d_25">
      <g>
       <use xlink:href="#m2b0670e856" x="171.011424" y="306" style="stroke: #000000; stroke-width: 0.6"/>
      </g>
     </g>
    </g>
    <g id="xtick_26">
     <g id="line2d_26">
      <g>
       <use xlink:href="#m2b0670e856" x="175.048007" y="306" style="stroke: #000000; stroke-width: 0.6"/>
      </g>
     </g>
    </g>
    <g id="xtick_27">
     <g id="line2d_27">
      <g>
       <use xlink:href="#m2b0670e856" x="178.346135" y="306" style="stroke: #000000; stroke-width: 0.6"/>
      </g>
     </g>
    </g>
    <g id="xtick_28">
     <g id="line2d_28">
      <g>
       <use xlink:href="#m2b0670e856" x="181.134662" y="306" style="stroke: #000000; stroke-width: 0.6"/>
      </g>
     </g>
    </g>
    <g id="xtick_29">
     <g id="line2d_29">
      <g>
       <use xlink:href="#m2b0670e856" x="183.550194" y="306" style="stroke: #000000; stroke-width: 0.6"/>
      </g>
     </g>
    </g>
    <g id="xtick_30">
     <g id="line2d_30">
      <g>
       <use xlink:href="#m2b0670e856" x="185.680845" y="306" style="stroke: #000000; stroke-width: 0.6"/>
      </g>
     </g>
    </g>
    <g id="xtick_31">
     <g id="line2d_31">
      <g>
       <use xlink:href="#m2b0670e856" x="200.125547" y="306" style="stroke: #000000; stroke-width: 0.6"/>
      </g>
     </g>
    </g>
    <g id="xtick_32">
     <g id="line2d_32">
      <g>
       <use xlink:href="#m2b0670e856" x="207.460257" y="306" style="stroke: #000000; stroke-width: 0.6"/>
      </g>
     </g>
    </g>
    <g id="xtick_33">
     <g id="line2d_33">
      <g>
       <use xlink:href="#m2b0670e856" x="212.664317" y="306" style="stroke: #000000; stroke-width: 0.6"/>
      </g>
     </g>
    </g>
    <g id="xtick_34">
     <g id="line2d_34">
      <g>
       <use xlink:href="#m2b0670e856" x="216.700899" y="306" style="stroke: #000000; stroke-width: 0.6"/>
      </g>
     </g>
    </g>
    <g id="xtick_35">
     <g id="line2d_35">
      <g>
       <use xlink:href="#m2b0670e856" x="219.999027" y="306" style="stroke: #000000; stroke-width: 0.6"/>
      </g>
     </g>
    </g>
    <g id="xtick_36">
     <g id="line2d_36">
      <g>
       <use xlink:href="#m2b0670e856" x="222.787555" y="306" style="stroke: #000000; stroke-width: 0.6"/>
      </g>
     </g>
    </g>
    <g id="xtick_37">
     <g id="line2d_37">
      <g>
       <use xlink:href="#m2b0670e856" x="225.203087" y="306" style="stroke: #000000; stroke-width: 0.6"/>
      </g>
     </g>
    </g>
    <g id="xtick_38">
     <g id="line2d_38">
      <g>
       <use xlink:href="#m2b0670e856" x="227.333738" y="306" style="stroke: #000000; stroke-width: 0.6"/>
      </g>
     </g>
    </g>
    <g id="xtick_39">
     <g id="line2d_39">
      <g>
       <use xlink:href="#m2b0670e856" x="241.778439" y="306" style="stroke: #000000; stroke-width: 0.6"/>
      </g>
     </g>
    </g>
    <g id="xtick_40">
     <g id="line2d_40">
      <g>
       <use xlink:href="#m2b0670e856" x="249.11315" y="306" style="stroke: #000000; stroke-width: 0.6"/>
      </g>
     </g>
    </g>
    <g id="xtick_41">
     <g id="line2d_41">
      <g>
       <use xlink:href="#m2b0670e856" x="254.31721" y="306" style="stroke: #000000; stroke-width: 0.6"/>
      </g>
     </g>
    </g>
    <g id="xtick_42">
     <g id="line2d_42">
      <g>
       <use xlink:href="#m2b0670e856" x="258.353792" y="306" style="stroke: #000000; stroke-width: 0.6"/>
      </g>
     </g>
    </g>
    <g id="xtick_43">
     <g id="line2d_43">
      <g>
       <use xlink:href="#m2b0670e856" x="261.65192" y="306" style="stroke: #000000; stroke-width: 0.6"/>
      </g>
     </g>
    </g>
    <g id="xtick_44">
     <g id="line2d_44">
      <g>
       <use xlink:href="#m2b0670e856" x="264.440447" y="306" style="stroke: #000000; stroke-width: 0.6"/>
      </g>
     </g>
    </g>
    <g id="xtick_45">
     <g id="line2d_45">
      <g>
       <use xlink:href="#m2b0670e856" x="266.85598" y="306" style="stroke: #000000; stroke-width: 0.6"/>
      </g>
     </g>
    </g>
    <g id="xtick_46">
     <g id="line2d_46">
      <g>
       <use xlink:href="#m2b0670e856" x="268.98663" y="306" style="stroke: #000000; stroke-width: 0.6"/>
      </g>
     </g>
    </g>
    <g id="xtick_47">
     <g id="line2d_47">
      <g>
       <use xlink:href="#m2b0670e856" x="283.431332" y="306" style="stroke: #000000; stroke-width: 0.6"/>
      </g>
     </g>
    </g>
    <g id="xtick_48">
     <g id="line2d_48">
      <g>
       <use xlink:href="#m2b0670e856" x="290.766042" y="306" style="stroke: #000000; stroke-width: 0.6"/>
      </g>
     </g>
    </g>
    <g id="xtick_49">
     <g id="line2d_49">
      <g>
       <use xlink:href="#m2b0670e856" x="295.970102" y="306" style="stroke: #000000; stroke-width: 0.6"/>
      </g>
     </g>
    </g>
    <g id="xtick_50">
     <g id="line2d_50">
      <g>
       <use xlink:href="#m2b0670e856" x="300.006684" y="306" style="stroke: #000000; stroke-width: 0.6"/>
      </g>
     </g>
    </g>
    <g id="xtick_51">
     <g id="line2d_51">
      <g>
       <use xlink:href="#m2b0670e856" x="303.304812" y="306" style="stroke: #000000; stroke-width: 0.6"/>
      </g>
     </g>
    </g>
    <g id="xtick_52">
     <g id="line2d_52">
      <g>
       <use xlink:href="#m2b0670e856" x="306.09334" y="306" style="stroke: #000000; stroke-width: 0.6"/>
      </g>
     </g>
    </g>
    <g id="xtick_53">
     <g id="line2d_53">
      <g>
       <use xlink:href="#m2b0670e856" x="308.508872" y="306" style="stroke: #000000; stroke-width: 0.6"/>
      </g>
     </g>
    </g>
    <g id="xtick_54">
     <g id="line2d_54">
      <g>
       <use xlink:href="#m2b0670e856" x="310.639523" y="306" style="stroke: #000000; stroke-width: 0.6"/>
      </g>
     </g>
    </g>
    <g id="text_7">
     <!-- $G_{ex}$ -->
     <g transform="translate(189.93458 332.774175) scale(0.1 -0.1)">
      <defs>
       <path id="CMMI12-47" d="M 4774 4423 
C 4774 4480 4730 4480 4717 4480 
C 4704 4480 4678 4480 4627 4416 
L 4186 3889 
C 4154 3940 4026 4163 3776 4309 
C 3501 4480 3226 4480 3130 4480 
C 1760 4480 320 3095 320 1595 
C 320 546 1050 -128 2010 -128 
C 2470 -128 3053 25 3373 427 
C 3443 185 3584 12 3629 12 
C 3661 12 3667 32 3674 32 
C 3680 44 3731 270 3763 385 
L 3866 797 
C 3917 1009 3942 1099 3987 1291 
C 4051 1536 4064 1536 4416 1536 
C 4442 1536 4518 1536 4518 1666 
C 4518 1734 4454 1734 4435 1734 
C 4326 1734 4205 1734 4090 1734 
L 3744 1734 
C 3475 1734 3194 1734 2931 1734 
C 2874 1734 2797 1734 2797 1611 
C 2797 1542 2848 1542 2848 1536 
L 3008 1536 
C 3514 1536 3514 1489 3514 1402 
C 3514 1395 3392 751 3270 561 
C 3027 204 2522 57 2144 57 
C 1651 57 851 312 851 1410 
C 851 1836 1005 2808 1626 3526 
C 2029 3984 2624 4295 3187 4295 
C 3942 4295 4211 3655 4211 3071 
C 4211 2970 4186 2831 4186 2742 
C 4186 2685 4250 2685 4269 2685 
C 4339 2685 4346 2691 4371 2805 
L 4774 4423 
z
" transform="scale(0.015625)"/>
       <path id="CMMI12-65" d="M 1146 1479 
C 1318 1479 1754 1479 2061 1595 
C 2547 1783 2592 2158 2592 2274 
C 2592 2558 2349 2816 1926 2816 
C 1254 2816 288 2210 288 1073 
C 288 402 672 -64 1254 -64 
C 2125 -64 2675 609 2675 692 
C 2675 730 2637 762 2611 762 
C 2592 762 2586 756 2528 699 
C 2118 159 1510 64 1267 64 
C 902 64 710 350 710 822 
C 710 911 710 1071 806 1479 
L 1146 1479 
z
M 838 1600 
C 1114 2592 1722 2689 1926 2689 
C 2208 2689 2400 2522 2400 2277 
C 2400 1600 1376 1600 1107 1600 
L 838 1600 
z
" transform="scale(0.015625)"/>
       <path id="CMMI12-78" d="M 3034 2606 
C 2829 2567 2752 2414 2752 2293 
C 2752 2139 2874 2088 2963 2088 
C 3155 2088 3290 2254 3290 2427 
C 3290 2695 2982 2816 2714 2816 
C 2323 2816 2106 2433 2048 2312 
C 1901 2816 1504 2816 1389 2816 
C 736 2816 390 1980 390 1839 
C 390 1814 416 1782 461 1782 
C 512 1782 525 1820 538 1846 
C 755 2555 1184 2689 1370 2689 
C 1658 2689 1715 2420 1715 2267 
C 1715 2127 1677 1980 1600 1673 
L 1382 798 
C 1286 415 1101 64 762 64 
C 730 64 570 64 435 147 
C 666 192 717 383 717 460 
C 717 588 621 664 499 664 
C 346 664 179 530 179 326 
C 179 57 480 -64 755 -64 
C 1062 -64 1280 179 1414 441 
C 1517 64 1837 -64 2074 -64 
C 2726 -64 3072 773 3072 913 
C 3072 945 3046 971 3008 971 
C 2950 971 2944 939 2925 888 
C 2752 326 2381 64 2093 64 
C 1869 64 1747 230 1747 492 
C 1747 632 1773 734 1875 1156 
L 2099 2024 
C 2195 2408 2413 2689 2707 2689 
C 2720 2689 2899 2689 3034 2606 
z
" transform="scale(0.015625)"/>
      </defs>
      <use xlink:href="#CMMI12-47" transform="scale(0.996264)"/>
      <use xlink:href="#CMMI12-65" transform="translate(76.946862 -14.943915) scale(0.697382)"/>
      <use xlink:href="#CMMI12-78" transform="translate(108.595118 -14.943915) scale(0.697382)"/>
     </g>
    </g>
   </g>
   <g id="matplotlib.axis_2">
    <g id="ytick_1">
     <g id="line2d_55">
      <defs>
       <path id="md410fa2a88" d="M 0 0 
L -3.5 0 
" style="stroke: #000000; stroke-width: 0.8"/>
      </defs>
      <g>
       <use xlink:href="#md410fa2a88" x="72" y="285.117759" style="stroke: #000000; stroke-width: 0.8"/>
      </g>
     </g>
     <g id="text_8">
      <!-- $\mathdefault{10^{-2}}$ -->
      <g transform="translate(44.839427 288.577008) scale(0.1 -0.1)">
       <use xlink:href="#CMR17-31" transform="scale(0.996264)"/>
       <use xlink:href="#CMR17-30" transform="translate(45.690477 0) scale(0.996264)"/>
       <use xlink:href="#CMSY10-0" transform="translate(91.380954 36.153639) scale(0.697382)"/>
       <use xlink:href="#CMR17-32" transform="translate(145.621947 36.153639) scale(0.697382)"/>
      </g>
     </g>
    </g>
    <g id="ytick_2">
     <g id="line2d_56">
      <g>
       <use xlink:href="#md410fa2a88" x="72" y="195.486527" style="stroke: #000000; stroke-width: 0.8"/>
      </g>
     </g>
     <g id="text_9">
      <!-- $\mathdefault{10^{-1}}$ -->
      <g transform="translate(44.839427 198.945776) scale(0.1 -0.1)">
       <use xlink:href="#CMR17-31" transform="scale(0.996264)"/>
       <use xlink:href="#CMR17-30" transform="translate(45.690477 0) scale(0.996264)"/>
       <use xlink:href="#CMSY10-0" transform="translate(91.380954 36.153639) scale(0.697382)"/>
       <use xlink:href="#CMR17-31" transform="translate(145.621947 36.153639) scale(0.697382)"/>
      </g>
     </g>
    </g>
    <g id="ytick_3">
     <g id="line2d_57">
      <g>
       <use xlink:href="#md410fa2a88" x="72" y="105.855295" style="stroke: #000000; stroke-width: 0.8"/>
      </g>
     </g>
     <g id="text_10">
      <!-- $\mathdefault{10^{0}}$ -->
      <g transform="translate(51.066092 109.314544) scale(0.1 -0.1)">
       <use xlink:href="#CMR17-31" transform="scale(0.996264)"/>
       <use xlink:href="#CMR17-30" transform="translate(45.690477 0) scale(0.996264)"/>
       <use xlink:href="#CMR17-30" transform="translate(91.380954 36.153639) scale(0.697382)"/>
      </g>
     </g>
    </g>
    <g id="ytick_4">
     <g id="line2d_58">
      <defs>
       <path id="m22699da9bc" d="M 0 0 
L -2 0 
" style="stroke: #000000; stroke-width: 0.6"/>
      </defs>
      <g>
       <use xlink:href="#m22699da9bc" x="72" y="305.002336" style="stroke: #000000; stroke-width: 0.6"/>
      </g>
     </g>
    </g>
    <g id="ytick_5">
     <g id="line2d_59">
      <g>
       <use xlink:href="#m22699da9bc" x="72" y="299.001813" style="stroke: #000000; stroke-width: 0.6"/>
      </g>
     </g>
    </g>
    <g id="ytick_6">
     <g id="line2d_60">
      <g>
       <use xlink:href="#m22699da9bc" x="72" y="293.803923" style="stroke: #000000; stroke-width: 0.6"/>
      </g>
     </g>
    </g>
    <g id="ytick_7">
     <g id="line2d_61">
      <g>
       <use xlink:href="#m22699da9bc" x="72" y="289.219059" style="stroke: #000000; stroke-width: 0.6"/>
      </g>
     </g>
    </g>
    <g id="ytick_8">
     <g id="line2d_62">
      <g>
       <use xlink:href="#m22699da9bc" x="72" y="258.13607" style="stroke: #000000; stroke-width: 0.6"/>
      </g>
     </g>
    </g>
    <g id="ytick_9">
     <g id="line2d_63">
      <g>
       <use xlink:href="#m22699da9bc" x="72" y="242.352793" style="stroke: #000000; stroke-width: 0.6"/>
      </g>
     </g>
    </g>
    <g id="ytick_10">
     <g id="line2d_64">
      <g>
       <use xlink:href="#m22699da9bc" x="72" y="231.15438" style="stroke: #000000; stroke-width: 0.6"/>
      </g>
     </g>
    </g>
    <g id="ytick_11">
     <g id="line2d_65">
      <g>
       <use xlink:href="#m22699da9bc" x="72" y="222.468216" style="stroke: #000000; stroke-width: 0.6"/>
      </g>
     </g>
    </g>
    <g id="ytick_12">
     <g id="line2d_66">
      <g>
       <use xlink:href="#m22699da9bc" x="72" y="215.371104" style="stroke: #000000; stroke-width: 0.6"/>
      </g>
     </g>
    </g>
    <g id="ytick_13">
     <g id="line2d_67">
      <g>
       <use xlink:href="#m22699da9bc" x="72" y="209.370581" style="stroke: #000000; stroke-width: 0.6"/>
      </g>
     </g>
    </g>
    <g id="ytick_14">
     <g id="line2d_68">
      <g>
       <use xlink:href="#m22699da9bc" x="72" y="204.172691" style="stroke: #000000; stroke-width: 0.6"/>
      </g>
     </g>
    </g>
    <g id="ytick_15">
     <g id="line2d_69">
      <g>
       <use xlink:href="#m22699da9bc" x="72" y="199.587827" style="stroke: #000000; stroke-width: 0.6"/>
      </g>
     </g>
    </g>
    <g id="ytick_16">
     <g id="line2d_70">
      <g>
       <use xlink:href="#m22699da9bc" x="72" y="168.504838" style="stroke: #000000; stroke-width: 0.6"/>
      </g>
     </g>
    </g>
    <g id="ytick_17">
     <g id="line2d_71">
      <g>
       <use xlink:href="#m22699da9bc" x="72" y="152.721561" style="stroke: #000000; stroke-width: 0.6"/>
      </g>
     </g>
    </g>
    <g id="ytick_18">
     <g id="line2d_72">
      <g>
       <use xlink:href="#m22699da9bc" x="72" y="141.523148" style="stroke: #000000; stroke-width: 0.6"/>
      </g>
     </g>
    </g>
    <g id="ytick_19">
     <g id="line2d_73">
      <g>
       <use xlink:href="#m22699da9bc" x="72" y="132.836984" style="stroke: #000000; stroke-width: 0.6"/>
      </g>
     </g>
    </g>
    <g id="ytick_20">
     <g id="line2d_74">
      <g>
       <use xlink:href="#m22699da9bc" x="72" y="125.739872" style="stroke: #000000; stroke-width: 0.6"/>
      </g>
     </g>
    </g>
    <g id="ytick_21">
     <g id="line2d_75">
      <g>
       <use xlink:href="#m22699da9bc" x="72" y="119.739349" style="stroke: #000000; stroke-width: 0.6"/>
      </g>
     </g>
    </g>
    <g id="ytick_22">
     <g id="line2d_76">
      <g>
       <use xlink:href="#m22699da9bc" x="72" y="114.541459" style="stroke: #000000; stroke-width: 0.6"/>
      </g>
     </g>
    </g>
    <g id="ytick_23">
     <g id="line2d_77">
      <g>
       <use xlink:href="#m22699da9bc" x="72" y="109.956595" style="stroke: #000000; stroke-width: 0.6"/>
      </g>
     </g>
    </g>
    <g id="ytick_24">
     <g id="line2d_78">
      <g>
       <use xlink:href="#m22699da9bc" x="72" y="78.873606" style="stroke: #000000; stroke-width: 0.6"/>
      </g>
     </g>
    </g>
    <g id="ytick_25">
     <g id="line2d_79">
      <g>
       <use xlink:href="#m22699da9bc" x="72" y="63.090329" style="stroke: #000000; stroke-width: 0.6"/>
      </g>
     </g>
    </g>
    <g id="ytick_26">
     <g id="line2d_80">
      <g>
       <use xlink:href="#m22699da9bc" x="72" y="51.891916" style="stroke: #000000; stroke-width: 0.6"/>
      </g>
     </g>
    </g>
    <g id="ytick_27">
     <g id="line2d_81">
      <g>
       <use xlink:href="#m22699da9bc" x="72" y="43.205753" style="stroke: #000000; stroke-width: 0.6"/>
      </g>
     </g>
    </g>
    <g id="ytick_28">
     <g id="line2d_82">
      <g>
       <use xlink:href="#m22699da9bc" x="72" y="36.10864" style="stroke: #000000; stroke-width: 0.6"/>
      </g>
     </g>
    </g>
    <g id="text_11">
     <!-- Flux -->
     <g transform="translate(38.902248 179.897216) rotate(-90) scale(0.1 -0.1)">
      <defs>
       <path id="CMSS17-46" d="M 2918 1984 
L 2918 2373 
L 1101 2373 
L 1101 3968 
L 1882 3968 
C 1958 3968 2035 3968 2112 3968 
L 3168 3968 
L 3168 4375 
L 563 4375 
L 563 -32 
L 1101 -32 
L 1101 1984 
L 2918 1984 
z
" transform="scale(0.015625)"/>
       <path id="CMSS17-6c" d="M 947 4416 
L 474 4416 
L 474 0 
L 947 0 
L 947 4416 
z
" transform="scale(0.015625)"/>
       <path id="CMSS17-75" d="M 2618 2739 
L 2131 2739 
L 2131 972 
C 2131 498 1786 306 1421 306 
C 998 306 960 447 960 709 
L 960 2739 
L 474 2739 
L 474 678 
C 474 179 646 -64 1088 -64 
C 1306 -64 1798 -13 2144 306 
L 2144 0 
L 2618 0 
L 2618 2739 
z
" transform="scale(0.015625)"/>
       <path id="CMSS17-78" d="M 1587 1414 
L 2656 2739 
L 2099 2739 
L 1363 1777 
L 602 2739 
L 32 2739 
L 1139 1414 
L 0 0 
L 563 0 
L 1363 1121 
L 2195 0 
L 2758 0 
L 1587 1414 
z
" transform="scale(0.015625)"/>
      </defs>
      <use xlink:href="#CMSS17-46" transform="scale(0.996264)"/>
      <use xlink:href="#CMSS17-6c" transform="translate(53.289559 0) scale(0.996264)"/>
      <use xlink:href="#CMSS17-75" transform="translate(75.470282 0) scale(0.996264)"/>
      <use xlink:href="#CMSS17-78" transform="translate(123.675225 0) scale(0.996264)"/>
     </g>
    </g>
   </g>
   <g id="line2d_83">
    <path d="M 120.355095 230.733347 
L 121.892617 230.119599 
L 123.43014 229.542257 
L 124.967663 228.999397 
L 126.505186 228.489581 
L 128.042709 228.012061 
L 129.580232 227.565089 
L 131.117755 227.146923 
L 132.655278 226.755886 
L 134.1928 226.390368 
L 135.730323 226.048828 
L 137.267846 225.729793 
L 138.805369 225.431861 
L 140.342892 225.1537 
" clip-path="url(#pfdf195a7d6)" style="fill: none; stroke: #e83041; stroke-width: 1.5; stroke-linecap: square"/>
   </g>
   <g id="line2d_84">
    <path clip-path="url(#pfdf195a7d6)" style="fill: none; stroke: #3d23c2; stroke-width: 1.5; stroke-linecap: square"/>
   </g>
   <g id="line2d_85">
    <path d="M 120.355095 207.852958 
L 121.892617 207.23921 
L 123.43014 206.661868 
L 124.967663 206.119008 
L 126.505186 205.609192 
L 128.042709 205.131672 
L 129.580232 204.6847 
L 131.117755 204.266534 
L 132.655278 203.875497 
L 134.1928 203.509979 
L 135.730323 203.168439 
L 137.267846 202.849404 
L 138.805369 202.551472 
L 140.342892 202.273311 
" clip-path="url(#pfdf195a7d6)" style="fill: none; stroke: #13beff; stroke-width: 1.5; stroke-linecap: square"/>
   </g>
   <g id="line2d_86">
    <path clip-path="url(#pfdf195a7d6)" style="fill: none; stroke: #ff9c00; stroke-width: 1.5; stroke-linecap: square"/>
   </g>
   <g id="line2d_87">
    <path d="M 120.355095 293.38289 
L 121.892617 292.769141 
L 123.43014 292.191799 
L 124.967663 291.648939 
L 126.505186 291.139124 
L 128.042709 290.661604 
L 129.580232 290.214631 
L 131.117755 289.796465 
L 132.655278 289.405428 
L 134.1928 289.039911 
L 135.730323 288.698371 
L 137.267846 288.379335 
L 138.805369 288.081404 
L 140.342892 287.803243 
" clip-path="url(#pfdf195a7d6)" style="fill: none; stroke: #938e96; stroke-width: 1.5; stroke-linecap: square"/>
   </g>
   <g id="line2d_88">
    <path d="M 141.880415 134.871797 
L 143.417938 132.718571 
L 144.955461 130.617814 
L 146.492984 128.570406 
L 148.030506 126.577102 
L 149.568029 124.638529 
L 151.105552 122.755176 
L 152.643075 120.927392 
L 154.180598 119.155382 
L 155.718121 117.439203 
L 157.255644 115.778765 
L 158.793167 114.173834 
L 160.330689 112.624032 
L 161.868212 111.128841 
L 163.405735 109.687612 
L 164.943258 108.299571 
L 166.480781 106.963824 
L 168.018304 105.67937 
L 169.555827 104.445109 
L 171.09335 103.259852 
L 172.630872 102.122333 
L 174.168395 101.03122 
L 175.705918 99.985125 
L 177.243441 98.982616 
L 178.780964 98.022225 
L 180.318487 97.102463 
L 181.85601 96.221826 
L 183.393533 95.378804 
L 184.931056 94.571891 
L 186.468578 93.79959 
L 188.006101 93.060425 
L 189.543624 92.35294 
L 191.081147 91.675711 
L 192.61867 91.027345 
L 194.156193 90.406488 
L 195.693716 89.811826 
L 197.231239 89.242089 
L 198.768761 88.696049 
L 200.306284 88.172527 
L 201.843807 87.670392 
L 203.38133 87.188558 
L 204.918853 86.725988 
L 206.456376 86.281693 
L 207.993899 85.85473 
L 209.531422 85.444204 
L 211.068944 85.049262 
L 212.606467 84.669098 
L 214.14399 84.302946 
L 215.681513 83.950082 
L 217.219036 83.609824 
L 218.756559 83.281523 
L 220.294082 82.964572 
L 221.831605 82.658395 
L 223.369128 82.36245 
L 224.90665 82.076226 
L 226.444173 81.799245 
L 227.981696 81.531053 
L 229.519219 81.271226 
L 231.056742 81.019364 
L 232.594265 80.775091 
L 234.131788 80.538054 
L 235.669311 80.307921 
L 237.206833 80.08438 
L 238.744356 79.867137 
L 240.281879 79.655917 
L 241.819402 79.450461 
L 243.356925 79.250525 
L 244.894448 79.055879 
L 246.431971 78.866308 
L 247.969494 78.68161 
L 249.507016 78.501592 
L 251.044539 78.326076 
L 252.582062 78.15489 
L 254.119585 77.987876 
L 255.657108 77.824882 
L 257.194631 77.665767 
L 258.732154 77.522445 
L 260.269677 77.358709 
L 261.8072 77.211271 
L 263.344722 77.068108 
L 264.882245 76.92908 
L 266.419768 76.794051 
L 267.957291 76.672814 
L 269.494814 76.535476 
L 271.032337 76.411686 
L 272.56986 76.291408 
L 274.107383 76.174531 
L 275.644905 76.06095 
L 277.182428 75.951149 
L 278.719951 75.849174 
L 280.257474 75.755273 
L 281.794997 75.668823 
L 283.33252 75.589247 
L 284.870043 75.516012 
L 286.407566 75.448623 
L 287.945088 75.386622 
L 289.482611 75.329586 
L 291.020134 75.277123 
L 292.557657 75.228873 
L 294.09518 75.184502 
L 295.632703 75.143702 
L 297.170226 75.106188 
L 298.707749 75.071699 
L 300.245272 75.039994 
L 301.782794 75.010849 
L 303.320317 74.98406 
L 304.85784 74.959437 
L 306.395363 74.936807 
L 307.932886 74.91601 
L 309.470409 74.896897 
L 311.007932 74.879333 
L 312.545455 74.863194 
" clip-path="url(#pfdf195a7d6)" style="fill: none; stroke: #e83041; stroke-width: 1.5; stroke-linecap: square"/>
   </g>
   <g id="line2d_89">
    <path d="M 141.880415 108.281331 
L 143.417938 106.128104 
L 144.955461 104.027348 
L 146.492984 101.979939 
L 148.030506 99.986636 
L 149.568029 98.048062 
L 151.105552 96.164709 
L 152.643075 94.336926 
L 154.180598 92.564916 
L 155.718121 90.848737 
L 157.255644 89.188299 
L 158.793167 87.583368 
L 160.330689 86.033565 
L 161.868212 84.538374 
L 163.405735 83.097146 
L 164.943258 81.709105 
L 166.480781 80.373358 
L 168.018304 79.088904 
L 169.555827 77.854643 
L 171.09335 76.669386 
L 172.630872 75.531867 
L 174.168395 74.440754 
L 175.705918 73.394659 
L 177.243441 72.392149 
L 178.780964 71.431759 
L 180.318487 70.511997 
L 181.85601 69.63136 
L 183.393533 68.788338 
L 184.931056 67.981424 
L 186.468578 67.209124 
L 188.006101 66.469958 
L 189.543624 65.762474 
L 191.081147 65.085245 
L 192.61867 64.436879 
L 194.156193 63.816022 
L 195.693716 63.22136 
L 197.231239 62.651622 
L 198.768761 62.105582 
L 200.306284 61.582061 
L 201.843807 61.079925 
L 203.38133 60.598091 
L 204.918853 60.135521 
L 206.456376 59.691226 
L 207.993899 59.264264 
L 209.531422 58.853737 
L 211.068944 58.458796 
L 212.606467 58.078631 
L 214.14399 57.712479 
L 215.681513 57.359616 
L 217.219036 57.019357 
L 218.756559 56.691057 
L 220.294082 56.374106 
L 221.831605 56.067928 
L 223.369128 55.771983 
L 224.90665 55.48576 
L 226.444173 55.208778 
L 227.981696 54.940587 
L 229.519219 54.680759 
L 231.056742 54.428897 
L 232.594265 54.184624 
L 234.131788 53.947587 
L 235.669311 53.717454 
L 237.206833 53.493913 
L 238.744356 53.27667 
L 240.281879 53.065451 
L 241.819402 52.859994 
L 243.356925 52.660058 
L 244.894448 52.465412 
L 246.431971 52.275842 
L 247.969494 52.091143 
L 249.507016 51.911126 
L 251.044539 51.735609 
L 252.582062 51.564424 
L 254.119585 51.39741 
L 255.657108 51.234416 
L 257.194631 51.0753 
L 258.732154 50.931979 
L 260.269677 50.768243 
L 261.8072 50.620804 
L 263.344722 50.477642 
L 264.882245 50.338614 
L 266.419768 50.203585 
L 267.957291 50.082348 
L 269.494814 49.945009 
L 271.032337 49.82122 
L 272.56986 49.700941 
L 274.107383 49.584064 
L 275.644905 49.470483 
L 277.182428 49.360682 
L 278.719951 49.258708 
L 280.257474 49.164806 
L 281.794997 49.078356 
L 283.33252 48.998781 
L 284.870043 48.925546 
L 286.407566 48.858157 
L 287.945088 48.796155 
L 289.482611 48.739119 
L 291.020134 48.686657 
L 292.557657 48.638407 
L 294.09518 48.594035 
L 295.632703 48.553235 
L 297.170226 48.515722 
L 298.707749 48.481233 
L 300.245272 48.449527 
L 301.782794 48.420383 
L 303.320317 48.393593 
L 304.85784 48.368971 
L 306.395363 48.346341 
L 307.932886 48.325543 
L 309.470409 48.30643 
L 311.007932 48.288867 
L 312.545455 48.272727 
" clip-path="url(#pfdf195a7d6)" style="fill: none; stroke: #3d23c2; stroke-width: 1.5; stroke-linecap: square"/>
   </g>
   <g id="line2d_90">
    <path clip-path="url(#pfdf195a7d6)" style="fill: none; stroke: #13beff; stroke-width: 1.5; stroke-linecap: square"/>
   </g>
   <g id="line2d_91">
    <path clip-path="url(#pfdf195a7d6)" style="fill: none; stroke: #ff9c00; stroke-width: 1.5; stroke-linecap: square"/>
   </g>
   <g id="line2d_92">
    <path d="M 141.880415 287.152572 
L 143.417938 284.999345 
L 144.955461 282.898589 
L 146.492984 280.851181 
L 148.030506 278.857877 
L 149.568029 276.919303 
L 151.105552 275.03595 
L 152.643075 273.208167 
L 154.180598 271.436157 
L 155.718121 269.719978 
L 157.255644 268.05954 
L 158.793167 266.454609 
L 160.330689 264.904806 
L 161.868212 263.409615 
L 163.405735 261.968387 
L 164.943258 260.580346 
L 166.480781 259.244599 
L 168.018304 257.960145 
L 169.555827 256.725884 
L 171.09335 255.540627 
L 172.630872 254.403108 
L 174.168395 253.311995 
L 175.705918 252.2659 
L 177.243441 251.26339 
L 178.780964 250.303 
L 180.318487 249.383238 
L 181.85601 248.502601 
L 183.393533 247.659579 
L 184.931056 246.852665 
L 186.468578 246.080365 
L 188.006101 245.341199 
L 189.543624 244.633715 
L 191.081147 243.956486 
L 192.61867 243.30812 
L 194.156193 242.687263 
L 195.693716 242.092601 
L 197.231239 241.522863 
L 198.768761 240.976823 
L 200.306284 240.453302 
L 201.843807 239.951166 
L 203.38133 239.469332 
L 204.918853 239.006762 
L 206.456376 238.562468 
L 207.993899 238.135505 
L 209.531422 237.724979 
L 211.068944 237.330037 
L 212.606467 236.949872 
L 214.14399 236.58372 
L 215.681513 236.230857 
L 217.219036 235.890598 
L 218.756559 235.562298 
L 220.294082 235.245347 
L 221.831605 234.939169 
L 223.369128 234.643224 
L 224.90665 234.357001 
L 226.444173 234.080019 
L 227.981696 233.811828 
L 229.519219 233.552 
L 231.056742 233.300138 
L 232.594265 233.055865 
L 234.131788 232.818828 
L 235.669311 232.588695 
L 237.206833 232.365154 
L 238.744356 232.147911 
L 240.281879 231.936692 
L 241.819402 231.731235 
L 243.356925 231.531299 
L 244.894448 231.336654 
L 246.431971 231.147083 
L 247.969494 230.962384 
L 249.507016 230.782367 
L 251.044539 230.60685 
L 252.582062 230.435665 
L 254.119585 230.268651 
L 255.657108 230.105657 
L 257.194631 229.946541 
L 258.732154 229.80322 
L 260.269677 229.639484 
L 261.8072 229.492045 
L 263.344722 229.348883 
L 264.882245 229.209855 
L 266.419768 229.074826 
L 267.957291 228.953589 
L 269.494814 228.81625 
L 271.032337 228.692461 
L 272.56986 228.572182 
L 274.107383 228.455305 
L 275.644905 228.341724 
L 277.182428 228.231923 
L 278.719951 228.129949 
L 280.257474 228.036047 
L 281.794997 227.949597 
L 283.33252 227.870022 
L 284.870043 227.796787 
L 286.407566 227.729398 
L 287.945088 227.667397 
L 289.482611 227.61036 
L 291.020134 227.557898 
L 292.557657 227.509648 
L 294.09518 227.465277 
L 295.632703 227.424476 
L 297.170226 227.386963 
L 298.707749 227.352474 
L 300.245272 227.320768 
L 301.782794 227.291624 
L 303.320317 227.264835 
L 304.85784 227.240212 
L 306.395363 227.217582 
L 307.932886 227.196784 
L 309.470409 227.177672 
L 311.007932 227.160108 
L 312.545455 227.143968 
" clip-path="url(#pfdf195a7d6)" style="fill: none; stroke: #938e96; stroke-width: 1.5; stroke-linecap: square"/>
   </g>
   <g id="line2d_93">
    <path clip-path="url(#pfdf195a7d6)" style="fill: none; stroke: #e83041; stroke-width: 1.5; stroke-linecap: square"/>
   </g>
   <g id="line2d_94">
    <path clip-path="url(#pfdf195a7d6)" style="fill: none; stroke: #3d23c2; stroke-width: 1.5; stroke-linecap: square"/>
   </g>
   <g id="line2d_95">
    <path d="M 83.454545 204.096041 
L 84.992068 204.096041 
L 86.529591 204.096041 
L 88.067114 204.096041 
L 89.604637 204.096041 
L 91.14216 204.096041 
L 92.679683 204.096041 
L 94.217206 204.096041 
L 95.754728 204.096041 
L 97.292251 204.096041 
L 98.829774 204.096041 
L 100.367297 204.096041 
L 101.90482 204.096041 
L 103.442343 204.096041 
L 104.979866 204.096041 
L 106.517389 204.096041 
L 108.054912 204.096041 
L 109.592434 204.096041 
L 111.129957 204.096041 
L 112.66748 204.096041 
L 114.205003 204.096041 
L 115.742526 204.096041 
L 117.280049 204.096041 
L 118.817572 204.096041 
" clip-path="url(#pfdf195a7d6)" style="fill: none; stroke: #13beff; stroke-width: 1.5; stroke-linecap: square"/>
   </g>
   <g id="line2d_96">
    <path d="M 83.454545 200.385963 
L 84.992068 200.385963 
L 86.529591 200.385963 
L 88.067114 200.385963 
L 89.604637 200.385963 
L 91.14216 200.385963 
L 92.679683 200.385963 
L 94.217206 200.385963 
L 95.754728 200.385963 
L 97.292251 200.385963 
L 98.829774 200.385963 
L 100.367297 200.385963 
L 101.90482 200.385963 
L 103.442343 200.385963 
L 104.979866 200.385963 
L 106.517389 200.385963 
L 108.054912 200.385963 
L 109.592434 200.385963 
L 111.129957 200.385963 
L 112.66748 200.385963 
L 114.205003 200.385963 
L 115.742526 200.385963 
L 117.280049 200.385963 
L 118.817572 200.385963 
" clip-path="url(#pfdf195a7d6)" style="fill: none; stroke: #ff9c00; stroke-width: 1.5; stroke-linecap: square"/>
   </g>
   <g id="line2d_97">
    <path d="M 83.454545 293.727273 
L 84.992068 293.727273 
L 86.529591 293.727273 
L 88.067114 293.727273 
L 89.604637 293.727273 
L 91.14216 293.727273 
L 92.679683 293.727273 
L 94.217206 293.727273 
L 95.754728 293.727273 
L 97.292251 293.727273 
L 98.829774 293.727273 
L 100.367297 293.727273 
L 101.90482 293.727273 
L 103.442343 293.727273 
L 104.979866 293.727273 
L 106.517389 293.727273 
L 108.054912 293.727273 
L 109.592434 293.727273 
L 111.129957 293.727273 
L 112.66748 293.727273 
L 114.205003 293.727273 
L 115.742526 293.727273 
L 117.280049 293.727273 
L 118.817572 293.727273 
" clip-path="url(#pfdf195a7d6)" style="fill: none; stroke: #938e96; stroke-width: 1.5; stroke-linecap: square"/>
   </g>
   <g id="patch_3">
    <path d="M 72 306 
L 72 36 
" style="fill: none; stroke: #000000; stroke-width: 0.8; stroke-linejoin: miter; stroke-linecap: square"/>
   </g>
   <g id="patch_4">
    <path d="M 324 306 
L 324 36 
" style="fill: none; stroke: #000000; stroke-width: 0.8; stroke-linejoin: miter; stroke-linecap: square"/>
   </g>
   <g id="patch_5">
    <path d="M 72 306 
L 324 306 
" style="fill: none; stroke: #000000; stroke-width: 0.8; stroke-linejoin: miter; stroke-linecap: square"/>
   </g>
   <g id="patch_6">
    <path d="M 72 36 
L 324 36 
" style="fill: none; stroke: #000000; stroke-width: 0.8; stroke-linejoin: miter; stroke-linecap: square"/>
   </g>
   <g id="legend_1">
    <g id="patch_7">
     <path d="M 267.433854 214.270784 
L 317 214.270784 
Q 319 214.270784 319 212.270784 
L 319 129.729216 
Q 319 127.729216 317 127.729216 
L 267.433854 127.729216 
Q 265.433854 127.729216 265.433854 129.729216 
L 265.433854 212.270784 
Q 265.433854 214.270784 267.433854 214.270784 
z
" style="fill: #ffffff; opacity: 0.8; stroke: #cccccc; stroke-linejoin: miter"/>
    </g>
    <g id="text_12">
     <!-- rates -->
     <g transform="translate(282.198922 138.647714) scale(0.1 -0.1)">
      <defs>
       <path id="CMSS17-72" d="M 954 1363 
C 954 1965 1395 2368 1958 2368 
L 1958 2789 
C 1549 2789 1165 2585 934 2253 
L 934 2758 
L 480 2758 
L 480 0 
L 954 0 
L 954 1363 
z
" transform="scale(0.015625)"/>
       <path id="CMSS17-61" d="M 2406 1791 
C 2406 2392 1978 2808 1402 2808 
C 1120 2808 813 2757 461 2553 
L 499 2135 
C 659 2248 934 2432 1395 2432 
C 1722 2432 1920 2180 1920 1782 
L 1920 1536 
C 896 1536 256 1238 256 726 
C 256 461 416 -64 947 -64 
C 1043 -64 1562 -64 1933 217 
L 1933 -19 
L 2406 -19 
L 2406 1791 
z
M 1920 816 
C 1920 701 1920 548 1728 434 
C 1562 325 1350 325 1261 325 
C 941 325 723 511 723 744 
C 723 1211 1722 1211 1920 1211 
L 1920 816 
z
" transform="scale(0.015625)"/>
       <path id="CMSS17-74" d="M 1069 2368 
L 1901 2368 
L 1901 2737 
L 1069 2737 
L 1069 3520 
L 614 3520 
L 614 2737 
L 109 2737 
L 109 2368 
L 602 2368 
L 602 749 
C 602 384 685 -64 1107 -64 
C 1427 -64 1722 25 2003 172 
L 1901 548 
C 1747 414 1562 337 1363 337 
C 1082 337 1069 696 1069 856 
L 1069 2368 
z
" transform="scale(0.015625)"/>
       <path id="CMSS17-65" d="M 2502 1377 
C 2502 1590 2490 2003 2285 2345 
C 2061 2713 1696 2816 1421 2816 
C 755 2816 192 2188 192 1375 
C 192 582 774 -64 1510 -64 
C 1798 -64 2150 19 2470 248 
C 2470 274 2458 414 2451 420 
C 2451 433 2432 630 2432 656 
C 2125 407 1773 325 1517 325 
C 1107 325 666 667 646 1377 
L 2502 1377 
z
M 698 1728 
C 781 2084 1062 2421 1421 2421 
C 1517 2421 1965 2421 2080 1728 
L 698 1728 
z
" transform="scale(0.015625)"/>
       <path id="CMSS17-73" d="M 2061 2627 
C 1683 2807 1389 2807 1197 2807 
C 742 2807 198 2648 198 2003 
C 198 1359 902 1218 1094 1179 
C 1389 1122 1715 1058 1715 740 
C 1715 337 1254 337 1171 337 
C 915 337 563 407 243 638 
L 166 210 
C 531 0 883 -64 1178 -64 
C 1965 -64 2163 416 2163 781 
C 2163 1094 1984 1305 1862 1401 
C 1651 1568 1574 1587 1050 1696 
C 960 1709 646 1779 646 2066 
C 646 2432 1050 2432 1139 2432 
C 1555 2432 1811 2303 1984 2208 
L 2061 2627 
z
" transform="scale(0.015625)"/>
      </defs>
      <use xlink:href="#CMSS17-72" transform="scale(0.996264)"/>
      <use xlink:href="#CMSS17-61" transform="translate(31.909773 0) scale(0.996264)"/>
      <use xlink:href="#CMSS17-74" transform="translate(76.831693 0) scale(0.996264)"/>
      <use xlink:href="#CMSS17-65" transform="translate(110.66326 0) scale(0.996264)"/>
      <use xlink:href="#CMSS17-73" transform="translate(152.302082 0) scale(0.996264)"/>
     </g>
    </g>
    <g id="line2d_98">
     <path d="M 269.433854 149.084893 
L 279.433854 149.084893 
L 289.433854 149.084893 
" style="fill: none; stroke: #e83041; stroke-width: 1.5; stroke-linecap: square"/>
    </g>
    <g id="text_13">
     <!-- $v_0$ -->
     <g transform="translate(297.433854 152.584893) scale(0.1 -0.1)">
      <defs>
       <path id="CMMI12-76" d="M 2925 2389 
C 2925 2791 2720 2816 2669 2816 
C 2515 2816 2374 2663 2374 2535 
C 2374 2459 2419 2414 2445 2389 
C 2509 2331 2675 2159 2675 1827 
C 2675 1558 2291 64 1523 64 
C 1133 64 1056 390 1056 626 
C 1056 945 1203 1392 1376 1852 
C 1478 2114 1504 2178 1504 2305 
C 1504 2574 1312 2816 998 2816 
C 410 2816 173 1890 173 1839 
C 173 1814 198 1782 243 1782 
C 301 1782 307 1807 333 1897 
C 486 2446 736 2689 979 2689 
C 1037 2689 1146 2689 1146 2478 
C 1146 2312 1075 2127 979 1884 
C 672 1067 672 869 672 715 
C 672 575 691 313 890 134 
C 1120 -64 1440 -64 1498 -64 
C 2560 -64 2925 2024 2925 2389 
z
" transform="scale(0.015625)"/>
      </defs>
      <use xlink:href="#CMMI12-76" transform="scale(0.996264)"/>
      <use xlink:href="#CMR17-30" transform="translate(47.160581 -14.943915) scale(0.697382)"/>
     </g>
    </g>
    <g id="line2d_99">
     <path d="M 269.433854 163.022071 
L 279.433854 163.022071 
L 289.433854 163.022071 
" style="fill: none; stroke: #3d23c2; stroke-width: 1.5; stroke-linecap: square"/>
    </g>
    <g id="text_14">
     <!-- $v_2$ -->
     <g transform="translate(297.433854 166.522071) scale(0.1 -0.1)">
      <use xlink:href="#CMMI12-76" transform="scale(0.996264)"/>
      <use xlink:href="#CMR17-32" transform="translate(47.160581 -14.943915) scale(0.697382)"/>
     </g>
    </g>
    <g id="line2d_100">
     <path d="M 269.433854 176.959249 
L 279.433854 176.959249 
L 289.433854 176.959249 
" style="fill: none; stroke: #13beff; stroke-width: 1.5; stroke-linecap: square"/>
    </g>
    <g id="text_15">
     <!-- $v_3$ -->
     <g transform="translate(297.433854 180.459249) scale(0.1 -0.1)">
      <use xlink:href="#CMMI12-76" transform="scale(0.996264)"/>
      <use xlink:href="#CMR17-33" transform="translate(47.160581 -14.943915) scale(0.697382)"/>
     </g>
    </g>
    <g id="line2d_101">
     <path d="M 269.433854 190.896428 
L 279.433854 190.896428 
L 289.433854 190.896428 
" style="fill: none; stroke: #ff9c00; stroke-width: 1.5; stroke-linecap: square"/>
    </g>
    <g id="text_16">
     <!-- $v_4$ -->
     <g transform="translate(297.433854 194.396428) scale(0.1 -0.1)">
      <defs>
       <path id="CMR17-34" d="M 2150 4122 
C 2150 4256 2144 4256 2029 4256 
L 128 1254 
L 128 1088 
L 1779 1088 
L 1779 457 
C 1779 224 1766 160 1318 160 
L 1197 160 
L 1197 0 
C 1402 0 1747 0 1965 0 
C 2182 0 2528 0 2733 0 
L 2733 160 
L 2611 160 
C 2163 160 2150 224 2150 457 
L 2150 1088 
L 2803 1088 
L 2803 1254 
L 2150 1254 
L 2150 4122 
z
M 1798 3703 
L 1798 1254 
L 256 1254 
L 1798 3703 
z
" transform="scale(0.015625)"/>
      </defs>
      <use xlink:href="#CMMI12-76" transform="scale(0.996264)"/>
      <use xlink:href="#CMR17-34" transform="translate(47.160581 -14.943915) scale(0.697382)"/>
     </g>
    </g>
    <g id="line2d_102">
     <path d="M 269.433854 204.833606 
L 279.433854 204.833606 
L 289.433854 204.833606 
" style="fill: none; stroke: #938e96; stroke-width: 1.5; stroke-linecap: square"/>
    </g>
    <g id="text_17">
     <!-- $v_{\rm BM}$ -->
     <g transform="translate(297.433854 208.333606) scale(0.1 -0.1)">
      <defs>
       <path id="CMR17-42" d="M 333 4352 
L 333 4186 
C 774 4186 845 4186 845 3900 
L 845 452 
C 845 166 774 166 333 166 
L 333 0 
L 2534 0 
C 3354 0 3885 583 3885 1164 
C 3885 1741 3360 2233 2675 2233 
C 3290 2356 3718 2771 3718 3264 
C 3718 3802 3194 4352 2368 4352 
L 333 4352 
z
M 1248 2304 
L 1248 3937 
C 1248 4155 1261 4186 1517 4186 
L 2336 4186 
C 2970 4186 3251 3674 3251 3277 
C 3251 2791 2861 2304 2170 2304 
L 1248 2304 
z
M 1517 166 
C 1261 166 1248 197 1248 413 
L 1248 2202 
L 2432 2202 
C 3091 2202 3411 1625 3411 1162 
C 3411 699 3046 166 2349 166 
L 1517 166 
z
" transform="scale(0.015625)"/>
       <path id="CMR17-4d" d="M 1338 4224 
C 1299 4320 1293 4320 1158 4320 
L 339 4320 
L 339 4160 
C 781 4160 851 4160 851 3875 
L 851 610 
C 851 451 851 153 339 153 
L 339 -13 
C 486 0 755 0 915 0 
C 1075 0 1344 0 1491 -13 
L 1491 153 
C 979 153 979 451 979 610 
L 979 4135 
L 986 4135 
L 2490 89 
C 2515 25 2528 -13 2579 -13 
C 2630 -13 2643 25 2669 89 
L 4186 4166 
L 4192 4166 
L 4192 438 
C 4192 153 4122 153 3680 153 
L 3680 -13 
C 3853 0 4198 0 4384 0 
C 4570 0 4922 0 5094 -13 
L 5094 153 
C 4653 153 4582 153 4582 438 
L 4582 3875 
C 4582 4160 4653 4160 5094 4160 
L 5094 4320 
L 4282 4320 
C 4147 4320 4141 4314 4102 4218 
L 2720 502 
L 1338 4224 
z
" transform="scale(0.015625)"/>
      </defs>
      <use xlink:href="#CMMI12-76" transform="scale(0.996264)"/>
      <use xlink:href="#CMR17-42" transform="translate(47.160581 -14.943915) scale(0.697382)"/>
      <use xlink:href="#CMR17-4d" transform="translate(92.792501 -14.943915) scale(0.697382)"/>
     </g>
    </g>
   </g>
  </g>
 </g>
 <defs>
  <clipPath id="pfdf195a7d6">
   <rect x="72" y="36" width="252" height="270"/>
  </clipPath>
 </defs>
</svg>
