<?xml version="1.0" encoding="UTF-8" standalone="no"?>
<!-- Created with Inkscape (http://www.inkscape.org/) -->

<svg
   width="229.97165mm"
   height="138.48637mm"
   viewBox="0 0 229.97165 138.48637"
   version="1.1"
   id="svg5"
   inkscape:version="1.2.2 (b0a8486541, 2022-12-01)"
   sodipodi:docname="OME_MetabolicNetwork.svg"
   xmlns:inkscape="http://www.inkscape.org/namespaces/inkscape"
   xmlns:sodipodi="http://sodipodi.sourceforge.net/DTD/sodipodi-0.dtd"
   xmlns="http://www.w3.org/2000/svg"
   xmlns:svg="http://www.w3.org/2000/svg">
  <sodipodi:namedview
     id="namedview7"
     pagecolor="#ffffff"
     bordercolor="#666666"
     borderopacity="1.0"
     inkscape:pageshadow="2"
     inkscape:pageopacity="0.0"
     inkscape:pagecheckerboard="0"
     inkscape:document-units="mm"
     showgrid="false"
     height="200mm"
     inkscape:zoom="0.74782769"
     inkscape:cx="434.59209"
     inkscape:cy="262.09246"
     inkscape:window-width="1452"
     inkscape:window-height="749"
     inkscape:window-x="10"
     inkscape:window-y="121"
     inkscape:window-maximized="0"
     inkscape:current-layer="layer1"
     fit-margin-top="0"
     fit-margin-left="0"
     fit-margin-right="0"
     fit-margin-bottom="0"
     inkscape:showpageshadow="2"
     inkscape:deskcolor="#d1d1d1">
    <inkscape:grid
       type="xygrid"
       id="grid961"
       originx="-5.8018286"
       originy="-67.715801" />
  </sodipodi:namedview>
  <defs
     id="defs2">
    <marker
       style="overflow:visible"
       id="marker9468"
       refX="0"
       refY="0"
       orient="auto"
       inkscape:stockid="Arrow2Mend"
       inkscape:isstock="true">
      <path
         transform="scale(-0.6)"
         d="M 8.7185878,4.0337352 -2.2072895,0.01601326 8.7185884,-4.0017078 c -1.7454984,2.3720609 -1.7354408,5.6174519 -6e-7,8.035443 z"
         style="fill:context-stroke;fill-rule:evenodd;stroke:context-stroke;stroke-width:0.625;stroke-linejoin:round"
         id="path9466" />
    </marker>
    <marker
       style="overflow:visible"
       id="Arrow2Mend"
       refX="0"
       refY="0"
       orient="auto"
       inkscape:stockid="Arrow2Mend"
       inkscape:isstock="true">
      <path
         transform="scale(-0.6)"
         d="M 8.7185878,4.0337352 -2.2072895,0.01601326 8.7185884,-4.0017078 c -1.7454984,2.3720609 -1.7354408,5.6174519 -6e-7,8.035443 z"
         style="fill:context-stroke;fill-rule:evenodd;stroke:context-stroke;stroke-width:0.625;stroke-linejoin:round"
         id="path9225" />
    </marker>
  </defs>
  <g
     inkscape:label="Layer 1"
     inkscape:groupmode="layer"
     id="layer1"
     transform="translate(-5.8018287,-67.715805)">
    <text
       xml:space="preserve"
       style="font-style:normal;font-weight:normal;font-size:5.87264px;line-height:1.25;font-family:sans-serif;fill:#000000;fill-opacity:1;stroke:none;stroke-width:0.146816"
       x="118.04653"
       y="120.69289"
       id="text5231"><tspan
         sodipodi:role="line"
         id="tspan5229"
         style="stroke-width:0.146816"
         x="118.04653"
         y="120.69289">BM</tspan></text>
    <rect
       style="fill:none;fill-opacity:0.0676999;stroke:#cccccc;stroke-width:0.335158;stroke-linecap:round;stroke-miterlimit:4.8;stroke-dasharray:0.670319, 0.670319;stroke-dashoffset:0;stroke-opacity:1"
       id="rect858"
       width="80.56192"
       height="69.453789"
       x="26.313173"
       y="96.960655"
       ry="6.2261858" />
    <text
       xml:space="preserve"
       style="font-style:normal;font-weight:normal;font-size:5.87264px;line-height:1.25;font-family:sans-serif;fill:#000000;fill-opacity:1;stroke:none;stroke-width:0.146816"
       x="39.149605"
       y="120.5304"
       id="text2571"><tspan
         sodipodi:role="line"
         id="tspan2569"
         style="stroke-width:0.146816"
         x="39.149605"
         y="120.5304">G</tspan></text>
    <text
       xml:space="preserve"
       style="font-style:normal;font-weight:normal;font-size:5.87264px;line-height:1.25;font-family:sans-serif;fill:#000000;fill-opacity:1;stroke:none;stroke-width:0.146816"
       x="53.684357"
       y="139.95403"
       id="text3103"><tspan
         sodipodi:role="line"
         id="tspan3101"
         style="stroke-width:0.146816"
         x="53.684357"
         y="139.95403">O<tspan
   style="font-size:3.81721px;baseline-shift:sub;stroke-width:0.146816"
   id="tspan3357">2</tspan></tspan></text>
    <text
       xml:space="preserve"
       style="font-style:normal;font-weight:normal;font-size:5.87264px;line-height:1.25;font-family:sans-serif;fill:#000000;fill-opacity:1;stroke:none;stroke-width:0.146816"
       x="66.023895"
       y="120.80627"
       id="text5143"><tspan
         sodipodi:role="line"
         id="tspan5141"
         style="stroke-width:0.146816"
         x="66.023895"
         y="120.80627">P</tspan></text>
    <text
       xml:space="preserve"
       style="font-style:normal;font-weight:normal;font-size:5.87264px;line-height:1.25;font-family:sans-serif;fill:#000000;fill-opacity:1;stroke:none;stroke-width:0.146816"
       x="64.876122"
       y="88.772034"
       id="text5227"><tspan
         sodipodi:role="line"
         id="tspan5225"
         style="stroke-width:0.146816"
         x="64.876122"
         y="88.772034">P<tspan
   style="font-size:3.81721px;baseline-shift:sub;stroke-width:0.146816"
   id="tspan6773">1</tspan></tspan></text>
    <text
       xml:space="preserve"
       style="font-style:normal;font-weight:normal;font-size:5.87264px;line-height:1.25;font-family:sans-serif;fill:#000000;fill-opacity:1;stroke:none;stroke-width:0.146816"
       x="63.407951"
       y="158.69969"
       id="text7505"><tspan
         sodipodi:role="line"
         id="tspan7503"
         style="stroke-width:0.146816"
         x="63.407951"
         y="158.69969">CO<tspan
   style="font-size:3.81721px;baseline-shift:sub;stroke-width:0.146816"
   id="tspan7727">2</tspan></tspan></text>
    <text
       xml:space="preserve"
       style="font-style:normal;font-weight:normal;font-size:5.87264px;line-height:1.25;font-family:sans-serif;fill:#666666;fill-opacity:1;stroke:none;stroke-width:0.146816"
       x="24.933729"
       y="94.471741"
       id="text10224"><tspan
         sodipodi:role="line"
         id="tspan10222"
         style="font-style:normal;font-variant:normal;font-weight:normal;font-stretch:normal;font-size:3.13209px;font-family:sans-serif;-inkscape-font-specification:'sans-serif, Normal';font-variant-ligatures:normal;font-variant-caps:normal;font-variant-numeric:normal;font-variant-east-asian:normal;fill:#666666;fill-opacity:1;stroke-width:0.146816"
         x="24.933729"
         y="94.471741">Cell's boundary</tspan></text>
    <text
       xml:space="preserve"
       style="font-style:normal;font-weight:normal;font-size:5.87264px;line-height:1.25;font-family:sans-serif;fill:#4d4d4d;fill-opacity:1;stroke:none;stroke-width:0.146816"
       x="37.97694"
       y="109.72052"
       id="text15082"><tspan
         sodipodi:role="line"
         id="tspan15080"
         style="font-style:normal;font-variant:normal;font-weight:normal;font-stretch:normal;font-size:3.13209px;font-family:sans-serif;-inkscape-font-specification:'sans-serif, Normal';font-variant-ligatures:normal;font-variant-caps:normal;font-variant-numeric:normal;font-variant-east-asian:normal;fill:#4d4d4d;fill-opacity:1;stroke-width:0.146816"
         x="37.97694"
         y="109.72052">2 ADP</tspan></text>
    <text
       xml:space="preserve"
       style="font-style:normal;font-weight:normal;font-size:5.87264px;line-height:1.25;font-family:sans-serif;fill:#4d4d4d;fill-opacity:1;stroke:none;stroke-width:0.146816"
       x="51.49712"
       y="109.72052"
       id="text17808"><tspan
         sodipodi:role="line"
         id="tspan17806"
         style="font-style:normal;font-variant:normal;font-weight:normal;font-stretch:normal;font-size:3.13209px;font-family:sans-serif;-inkscape-font-specification:'sans-serif, Normal';font-variant-ligatures:normal;font-variant-caps:normal;font-variant-numeric:normal;font-variant-east-asian:normal;fill:#4d4d4d;fill-opacity:1;stroke-width:0.146816"
         x="51.49712"
         y="109.72052">2 ATP</tspan></text>
    <text
       xml:space="preserve"
       style="font-style:normal;font-weight:normal;font-size:5.87264px;line-height:1.25;font-family:sans-serif;fill:#4d4d4d;fill-opacity:1;stroke:none;stroke-width:0.146816"
       x="76.168968"
       y="109.72052"
       id="text18414"><tspan
         sodipodi:role="line"
         id="tspan18412"
         style="font-style:normal;font-variant:normal;font-weight:normal;font-stretch:normal;font-size:3.13209px;font-family:sans-serif;-inkscape-font-specification:'sans-serif, Normal';font-variant-ligatures:normal;font-variant-caps:normal;font-variant-numeric:normal;font-variant-east-asian:normal;fill:#4d4d4d;fill-opacity:1;stroke-width:0.146816"
         x="76.168968"
         y="109.72052">100 ATP</tspan></text>
    <text
       xml:space="preserve"
       style="font-style:normal;font-weight:normal;font-size:5.87264px;line-height:1.25;font-family:sans-serif;fill:#4d4d4d;fill-opacity:1;stroke:none;stroke-width:0.146816"
       x="92.625465"
       y="109.72052"
       id="text18418"><tspan
         sodipodi:role="line"
         id="tspan18416"
         style="font-style:normal;font-variant:normal;font-weight:normal;font-stretch:normal;font-size:3.13209px;font-family:sans-serif;-inkscape-font-specification:'sans-serif, Normal';font-variant-ligatures:normal;font-variant-caps:normal;font-variant-numeric:normal;font-variant-east-asian:normal;fill:#4d4d4d;fill-opacity:1;stroke-width:0.146816"
         x="92.625465"
         y="109.72052">100 ADP</tspan></text>
    <text
       xml:space="preserve"
       style="font-style:normal;font-weight:normal;font-size:5.87264px;line-height:1.25;font-family:sans-serif;fill:#4d4d4d;fill-opacity:1;stroke:none;stroke-width:0.146816"
       x="77.111015"
       y="147.84184"
       id="text23996"><tspan
         sodipodi:role="line"
         id="tspan23994"
         style="font-style:normal;font-variant:normal;font-weight:normal;font-stretch:normal;font-size:3.13209px;font-family:sans-serif;-inkscape-font-specification:'sans-serif, Normal';font-variant-ligatures:normal;font-variant-caps:normal;font-variant-numeric:normal;font-variant-east-asian:normal;fill:#4d4d4d;fill-opacity:1;stroke-width:0.146816"
         x="77.111015"
         y="147.84184">10 ATP</tspan></text>
    <text
       xml:space="preserve"
       style="font-style:normal;font-weight:normal;font-size:5.87264px;line-height:1.25;font-family:sans-serif;fill:#4d4d4d;fill-opacity:1;stroke:none;stroke-width:0.146816"
       x="76.996078"
       y="138.91519"
       id="text24002"><tspan
         sodipodi:role="line"
         id="tspan24000"
         style="font-style:normal;font-variant:normal;font-weight:normal;font-stretch:normal;font-size:3.13209px;font-family:sans-serif;-inkscape-font-specification:'sans-serif, Normal';font-variant-ligatures:normal;font-variant-caps:normal;font-variant-numeric:normal;font-variant-east-asian:normal;fill:#4d4d4d;fill-opacity:1;stroke-width:0.146816"
         x="76.996078"
         y="138.91519">10 ADP</tspan></text>
    <text
       xml:space="preserve"
       style="font-style:normal;font-weight:normal;font-size:5.87264px;line-height:1.25;font-family:sans-serif;fill:#000000;fill-opacity:1;stroke:none;stroke-width:0.146816"
       x="27.324034"
       y="123.10471"
       id="text31835"><tspan
         sodipodi:role="line"
         id="tspan31833"
         style="stroke-width:0.146816"
         x="27.324034"
         y="123.10471">v<tspan
   style="font-size:3.81721px;baseline-shift:sub;stroke-width:0.146816"
   id="tspan32629">0</tspan></tspan></text>
    <text
       xml:space="preserve"
       style="font-style:normal;font-weight:normal;font-size:5.87264px;line-height:1.25;font-family:sans-serif;fill:#000000;fill-opacity:1;stroke:none;stroke-width:0.146816"
       x="68.406738"
       y="132.09953"
       id="text39273"><tspan
         sodipodi:role="line"
         id="tspan39271"
         style="stroke-width:0.146816"
         x="68.406738"
         y="132.09953">v<tspan
   style="font-size:3.81721px;baseline-shift:sub;stroke-width:0.146816"
   id="tspan39269">3</tspan></tspan></text>
    <text
       xml:space="preserve"
       style="font-style:normal;font-weight:normal;font-size:5.87264px;line-height:1.25;font-family:sans-serif;fill:#000000;fill-opacity:1;stroke:none;stroke-width:0.146816"
       x="46.558617"
       y="123.48529"
       id="text40095"><tspan
         sodipodi:role="line"
         id="tspan40093"
         style="stroke-width:0.146816"
         x="46.558617"
         y="123.48529">v<tspan
   style="font-size:3.81721px;baseline-shift:sub;stroke-width:0.146816"
   id="tspan40091">1</tspan></tspan></text>
    <text
       xml:space="preserve"
       style="font-style:normal;font-weight:normal;font-size:5.87264px;line-height:1.25;font-family:sans-serif;fill:#000000;fill-opacity:1;stroke:none;stroke-width:0.146816"
       x="76.849915"
       y="123.24924"
       id="text41049"><tspan
         sodipodi:role="line"
         id="tspan41047"
         style="stroke-width:0.146816"
         x="76.849915"
         y="123.24924">v<tspan
   style="font-size:3.81721px;baseline-shift:sub;stroke-width:0.146816"
   id="tspan13945">BM</tspan></tspan></text>
    <text
       xml:space="preserve"
       style="font-style:normal;font-weight:normal;font-size:5.87264px;line-height:1.25;font-family:sans-serif;fill:#000000;fill-opacity:1;stroke:none;stroke-width:0.146816"
       x="70.342422"
       y="102.2875"
       id="text42423"><tspan
         sodipodi:role="line"
         id="tspan42421"
         style="stroke-width:0.146816"
         x="70.342422"
         y="102.2875">v<tspan
   style="font-size:3.81721px;baseline-shift:sub;stroke-width:0.146816"
   id="tspan42419">4</tspan></tspan></text>
    <text
       xml:space="preserve"
       style="font-style:normal;font-weight:normal;font-size:5.87264px;line-height:1.25;font-family:sans-serif;fill:#000000;fill-opacity:1;stroke:none;stroke-width:0.146816"
       x="59.718067"
       y="102.15583"
       id="text42795"><tspan
         sodipodi:role="line"
         id="tspan42793"
         style="stroke-width:0.146816"
         x="59.718067"
         y="102.15583">v<tspan
   style="font-size:3.81721px;baseline-shift:sub;stroke-width:0.146816"
   id="tspan42791">2</tspan></tspan></text>
    <rect
       style="fill:none;fill-opacity:0.0676999;stroke:#cccccc;stroke-width:0.335158;stroke-linecap:round;stroke-miterlimit:4.8;stroke-dasharray:0.670319, 0.670319;stroke-dashoffset:0;stroke-opacity:1"
       id="rect45671"
       width="82.052979"
       height="70.869194"
       x="25.540274"
       y="96.299683"
       ry="6.7561893"
       rx="6.7561893" />
    <text
       xml:space="preserve"
       style="font-style:normal;font-weight:normal;font-size:5.87264px;line-height:1.25;font-family:sans-serif;fill:#000000;fill-opacity:1;stroke:none;stroke-width:0.146816"
       x="12.152549"
       y="120.5304"
       id="text7037"><tspan
         sodipodi:role="line"
         id="tspan7035"
         style="stroke-width:0.146816"
         x="12.152549"
         y="120.5304">G</tspan></text>
    <text
       xml:space="preserve"
       style="font-style:normal;font-weight:normal;font-size:5.87264px;line-height:1.25;font-family:sans-serif;fill:#000000;fill-opacity:1;stroke:none;stroke-width:0.146816"
       x="11.029108"
       y="139.95403"
       id="text7043"><tspan
         sodipodi:role="line"
         id="tspan7041"
         style="stroke-width:0.146816"
         x="11.029108"
         y="139.95403">O<tspan
   style="font-size:3.81721px;baseline-shift:sub;stroke-width:0.146816"
   id="tspan7039">2</tspan></tspan></text>
    <text
       xml:space="preserve"
       style="font-style:normal;font-weight:normal;font-size:5.87264px;line-height:1.25;font-family:sans-serif;fill:#000000;fill-opacity:1;stroke:none;stroke-width:0.146816"
       x="63.805191"
       y="188.1348"
       id="text7869"><tspan
         sodipodi:role="line"
         id="tspan7867"
         style="stroke-width:0.146816"
         x="63.805191"
         y="188.1348">CO<tspan
   style="font-size:3.81721px;baseline-shift:sub;stroke-width:0.146816"
   id="tspan7865">2</tspan></tspan></text>
    <g
       id="g7991"
       transform="matrix(0.55489725,0,0,0.55489725,11.988458,81.521022)">
      <path
         style="fill:#000000;stroke:#000000;stroke-width:0.865;stroke-linecap:butt;stroke-linejoin:miter;stroke-miterlimit:4;stroke-dasharray:none;stroke-opacity:1;marker-end:url(#marker9468)"
         d="M 13.229167,67.20418 H 45.773308"
         id="path8502"
         sodipodi:nodetypes="cc" />
      <path
         style="fill:none;stroke:#000000;stroke-width:0.865;stroke-linecap:butt;stroke-linejoin:miter;stroke-miterlimit:4;stroke-dasharray:none;stroke-opacity:1;marker-end:url(#marker9468)"
         d="M 60.854161,67.20418 79.327136,67.043 c 3.391495,3.61971 4.667626,2.50214 12.931077,2.608413"
         id="path8504"
         sodipodi:nodetypes="ccc" />
      <path
         style="fill:#000000;stroke:#000000;stroke-width:0.865;stroke-linecap:butt;stroke-linejoin:miter;stroke-miterlimit:4;stroke-dasharray:none;stroke-opacity:1;marker-end:url(#marker9468)"
         d="M 103.18752,17.32485 V 56.620847"
         id="path8506"
         sodipodi:nodetypes="cc" />
      <path
         style="fill:#000000;stroke:#000000;stroke-width:0.865;stroke-linecap:butt;stroke-linejoin:miter;stroke-miterlimit:4;stroke-dasharray:none;stroke-opacity:1;marker-end:url(#marker9468)"
         d="M 98.954126,56.620847 V 18.744317"
         id="path8508"
         sodipodi:nodetypes="cc" />
      <path
         style="fill:#000000;stroke:#000000;stroke-width:0.865;stroke-linecap:butt;stroke-linejoin:miter;stroke-miterlimit:4;stroke-dasharray:none;stroke-opacity:1;marker-end:url(#marker9468)"
         d="m 108.47917,67.20418 h 79.37499"
         id="path8510" />
      <path
         style="fill:#000000;stroke:#000000;stroke-width:0.865;stroke-linecap:butt;stroke-linejoin:miter;stroke-miterlimit:4;stroke-dasharray:none;stroke-opacity:1;marker-end:url(#marker9468)"
         d="m 100.54167,75.14168 v 51.41044"
         id="path8512"
         sodipodi:nodetypes="cc" />
      <path
         style="fill:#000000;stroke:#000000;stroke-width:0.529167;stroke-linecap:butt;stroke-linejoin:miter;stroke-miterlimit:4;stroke-dasharray:1.5875, 1.5875;stroke-dashoffset:0;stroke-opacity:1;marker-end:url(#marker9468)"
         d="M 13.229167,102.1292 H 71.437499"
         id="path8514" />
      <path
         style="fill:none;stroke:#000000;stroke-width:0.865;stroke-linecap:butt;stroke-linejoin:miter;stroke-miterlimit:4;stroke-dasharray:none;stroke-opacity:1;marker-end:url(#marker9468)"
         d="m 60.243836,55.466389 c -0.131639,15.075225 15.62233,15.856985 15.454179,-0.505988"
         id="path8808"
         sodipodi:nodetypes="cc" />
      <path
         style="fill:none;stroke:#000000;stroke-width:0.865;stroke-linecap:butt;stroke-linejoin:miter;stroke-miterlimit:4;stroke-dasharray:none;stroke-opacity:1;marker-end:url(#marker9468)"
         d="m 134.36277,55.466389 c -0.13164,15.075225 15.62233,15.856985 15.45418,-0.505988"
         id="path18410"
         sodipodi:nodetypes="cc" />
      <path
         style="fill:none;stroke:#000000;stroke-width:0.865;stroke-linecap:butt;stroke-linejoin:miter;stroke-miterlimit:4;stroke-dasharray:none;stroke-opacity:1"
         d="m 89.054576,101.83321 c 7.553399,-0.066 11.518434,3.8562 11.536444,7.7654"
         id="path28894"
         sodipodi:nodetypes="cc" />
      <path
         style="fill:none;stroke:#000000;stroke-width:0.865;stroke-linecap:butt;stroke-linejoin:miter;stroke-miterlimit:4;stroke-dasharray:none;stroke-opacity:1;marker-end:url(#marker9468)"
         d="m 112.43924,101.83321 c -15.075223,-0.13163 -15.856983,15.62242 0.50599,15.45427"
         id="path23990"
         sodipodi:nodetypes="cc" />
      <path
         style="fill:none;stroke:#000000;stroke-width:0.865;stroke-linecap:butt;stroke-linejoin:miter;stroke-miterlimit:4;stroke-dasharray:none;stroke-opacity:1;marker-end:url(#marker9468)"
         d="m 60.854161,67.20418 18.489326,-0.445011 c 3.672252,-4.039298 3.287616,-2.966126 12.970533,-3.089163"
         id="path2375"
         sodipodi:nodetypes="ccc" />
      <path
         style="fill:#000000;stroke:#000000;stroke-width:0.529167;stroke-linecap:butt;stroke-linejoin:miter;stroke-miterlimit:4;stroke-dasharray:1.5875, 1.5875;stroke-dashoffset:0;stroke-opacity:1;marker-end:url(#marker9468)"
         d="m 103.71669,141.91021 v 39.296"
         id="path7861"
         sodipodi:nodetypes="cc" />
      <path
         style="fill:#000000;stroke:#000000;stroke-width:0.529167;stroke-linecap:butt;stroke-linejoin:miter;stroke-miterlimit:4;stroke-dasharray:1.5875, 1.5875;stroke-dashoffset:0;stroke-opacity:1;marker-end:url(#marker9468)"
         d="M 99.483293,181.20621 V 143.32968"
         id="path7863"
         sodipodi:nodetypes="cc" />
      <path
         style="fill:#000000;stroke:#000000;stroke-width:0.529167;stroke-linecap:butt;stroke-linejoin:miter;stroke-miterlimit:4;stroke-dasharray:1.5875, 1.5875;stroke-dashoffset:0;stroke-opacity:1;marker-end:url(#marker9468)"
         d="M 72.745239,107.40428 H 14.536907"
         id="path7871" />
    </g>
    <rect
       style="fill:#b81484;fill-opacity:0.40000001;stroke:none;stroke-width:0.276373;stroke-linecap:round;stroke-miterlimit:4;stroke-dasharray:0.829113, 0.829113;stroke-dashoffset:0"
       id="rect9441"
       width="62.229004"
       height="29.102112"
       x="167.98744"
       y="77.728951"
       rx="5.1181045"
       ry="5.1181045" />
    <g
       id="g8023"
       transform="matrix(0.31841748,0,0,0.31841748,166.92067,64.008135)">
      <path
         style="fill:#000000;stroke:#000000;stroke-width:0.865;stroke-linecap:butt;stroke-linejoin:miter;stroke-miterlimit:4;stroke-dasharray:none;stroke-opacity:1;marker-end:url(#marker9468)"
         d="M 13.229167,67.20418 H 45.773308"
         id="path7993"
         sodipodi:nodetypes="cc" />
      <path
         style="fill:none;stroke:#000000;stroke-width:0.865;stroke-linecap:butt;stroke-linejoin:miter;stroke-miterlimit:4;stroke-dasharray:none;stroke-opacity:1;marker-end:url(#marker9468)"
         d="M 60.854161,67.20418 79.327136,67.043 c 3.391495,3.61971 4.667626,2.50214 12.931077,2.608413"
         id="path7995"
         sodipodi:nodetypes="ccc" />
      <path
         style="fill:#000000;stroke:#000000;stroke-width:0.865;stroke-linecap:butt;stroke-linejoin:miter;stroke-miterlimit:4;stroke-dasharray:none;stroke-opacity:1;marker-end:url(#marker9468)"
         d="m 108.47917,67.20418 h 79.37499"
         id="path8001" />
      <path
         style="fill:#000000;stroke:#000000;stroke-width:0.865;stroke-linecap:butt;stroke-linejoin:miter;stroke-miterlimit:4;stroke-dasharray:none;stroke-opacity:1;marker-end:url(#marker9468)"
         d="m 100.54167,75.14168 v 51.41044"
         id="path8003"
         sodipodi:nodetypes="cc" />
      <path
         style="fill:none;stroke:#000000;stroke-width:0.865;stroke-linecap:butt;stroke-linejoin:miter;stroke-miterlimit:4;stroke-dasharray:none;stroke-opacity:1;marker-end:url(#marker9468)"
         d="m 60.243836,55.466389 c -0.131639,15.075225 15.62233,15.856985 15.454179,-0.505988"
         id="path8007"
         sodipodi:nodetypes="cc" />
      <path
         style="fill:none;stroke:#000000;stroke-width:0.865;stroke-linecap:butt;stroke-linejoin:miter;stroke-miterlimit:4;stroke-dasharray:none;stroke-opacity:1;marker-end:url(#marker9468)"
         d="m 134.36277,55.466389 c -0.13164,15.075225 15.62233,15.856985 15.45418,-0.505988"
         id="path8009"
         sodipodi:nodetypes="cc" />
      <path
         style="fill:none;stroke:#000000;stroke-width:0.865;stroke-linecap:butt;stroke-linejoin:miter;stroke-miterlimit:4;stroke-dasharray:none;stroke-opacity:1"
         d="m 89.054576,101.83321 c 7.669209,-0.067 11.639174,3.97741 11.534484,7.94518"
         id="path8011"
         sodipodi:nodetypes="cc" />
      <path
         style="fill:none;stroke:#000000;stroke-width:0.865;stroke-linecap:butt;stroke-linejoin:miter;stroke-miterlimit:4;stroke-dasharray:none;stroke-opacity:1;marker-end:url(#marker9468)"
         d="m 112.43924,101.83321 c -15.075223,-0.13163 -15.856983,15.62242 0.50599,15.45427"
         id="path8013"
         sodipodi:nodetypes="cc" />
      <path
         style="fill:none;stroke:#000000;stroke-width:0.865;stroke-linecap:butt;stroke-linejoin:miter;stroke-miterlimit:4;stroke-dasharray:none;stroke-opacity:1;marker-end:url(#marker9468)"
         d="m 60.854161,67.20418 18.489326,-0.445011 c 3.672252,-4.039298 3.287616,-2.966126 12.970533,-3.089163"
         id="path8015"
         sodipodi:nodetypes="ccc" />
    </g>
    <rect
       style="fill:#145ab8;fill-opacity:0.40000001;stroke:none;stroke-width:0.276373;stroke-linecap:round;stroke-miterlimit:4;stroke-dasharray:0.829113, 0.829113;stroke-dashoffset:0"
       id="rect9661"
       width="62.229004"
       height="24.483244"
       x="167.98744"
       y="120.49362"
       rx="5.1181045"
       ry="5.1181045" />
    <g
       id="g8055"
       transform="matrix(0.31841748,0,0,0.31841748,166.92067,117.22046)">
      <path
         style="fill:#000000;stroke:#000000;stroke-width:0.865;stroke-linecap:butt;stroke-linejoin:miter;stroke-miterlimit:4;stroke-dasharray:none;stroke-opacity:1;marker-end:url(#marker9468)"
         d="M 13.229167,67.20418 H 45.773308"
         id="path8025"
         sodipodi:nodetypes="cc" />
      <path
         style="fill:none;stroke:#000000;stroke-width:0.865;stroke-linecap:butt;stroke-linejoin:miter;stroke-miterlimit:4;stroke-dasharray:none;stroke-opacity:1;marker-end:url(#marker9468)"
         d="M 60.854161,67.20418 79.327136,67.043 c 3.391495,3.61971 4.667626,2.50214 12.931077,2.608413"
         id="path8027"
         sodipodi:nodetypes="ccc" />
      <path
         style="fill:#000000;stroke:#000000;stroke-width:0.865;stroke-linecap:butt;stroke-linejoin:miter;stroke-miterlimit:4;stroke-dasharray:none;stroke-opacity:1;marker-end:url(#marker9468)"
         d="M 98.954126,56.620847 V 18.744317"
         id="path8031"
         sodipodi:nodetypes="cc" />
      <path
         style="fill:#000000;stroke:#000000;stroke-width:0.865;stroke-linecap:butt;stroke-linejoin:miter;stroke-miterlimit:4;stroke-dasharray:none;stroke-opacity:1;marker-end:url(#marker9468)"
         d="m 108.47917,67.20418 h 79.37499"
         id="path8033" />
      <path
         style="fill:none;stroke:#000000;stroke-width:0.865;stroke-linecap:butt;stroke-linejoin:miter;stroke-miterlimit:4;stroke-dasharray:none;stroke-opacity:1;marker-end:url(#marker9468)"
         d="m 60.243836,55.466389 c -0.131639,15.075225 15.62233,15.856985 15.454179,-0.505988"
         id="path8039"
         sodipodi:nodetypes="cc" />
      <path
         style="fill:none;stroke:#000000;stroke-width:0.865;stroke-linecap:butt;stroke-linejoin:miter;stroke-miterlimit:4;stroke-dasharray:none;stroke-opacity:1;marker-end:url(#marker9468)"
         d="m 134.36277,55.466389 c -0.13164,15.075225 15.62233,15.856985 15.45418,-0.505988"
         id="path8041"
         sodipodi:nodetypes="cc" />
      <path
         style="fill:none;stroke:#000000;stroke-width:0.865;stroke-linecap:butt;stroke-linejoin:miter;stroke-miterlimit:4;stroke-dasharray:none;stroke-opacity:1;marker-end:url(#marker9468)"
         d="m 60.854161,67.20418 18.489326,-0.445011 c 3.672252,-4.039298 3.287616,-2.966126 12.970533,-3.089163"
         id="path8047"
         sodipodi:nodetypes="ccc" />
    </g>
    <rect
       style="fill:#7614b8;fill-opacity:0.40000001;stroke:none;stroke-width:0.276373;stroke-linecap:round;stroke-miterlimit:4;stroke-dasharray:0.829113, 0.829113;stroke-dashoffset:0"
       id="rect9842"
       width="41.880821"
       height="39.432938"
       x="188.16759"
       y="163.42285"
       rx="5.1181045"
       ry="5.1181045" />
    <g
       id="g8087"
       transform="matrix(0.31841748,0,0,0.31841748,165.55006,160.65752)">
      <path
         style="fill:#000000;stroke:#000000;stroke-width:0.865;stroke-linecap:butt;stroke-linejoin:miter;stroke-miterlimit:4;stroke-dasharray:none;stroke-opacity:1;marker-end:url(#marker9468)"
         d="M 103.18752,17.32485 V 56.620847"
         id="path8061"
         sodipodi:nodetypes="cc" />
      <path
         style="fill:#000000;stroke:#000000;stroke-width:0.865;stroke-linecap:butt;stroke-linejoin:miter;stroke-miterlimit:4;stroke-dasharray:none;stroke-opacity:1;marker-end:url(#marker9468)"
         d="m 108.47917,67.20418 h 79.37499"
         id="path8065" />
      <path
         style="fill:#000000;stroke:#000000;stroke-width:0.865;stroke-linecap:butt;stroke-linejoin:miter;stroke-miterlimit:4;stroke-dasharray:none;stroke-opacity:1;marker-end:url(#marker9468)"
         d="m 103.15617,75.14168 v 51.41044"
         id="path8067"
         sodipodi:nodetypes="cc" />
      <path
         style="fill:none;stroke:#000000;stroke-width:0.865;stroke-linecap:butt;stroke-linejoin:miter;stroke-miterlimit:4;stroke-dasharray:none;stroke-opacity:1;marker-end:url(#marker9468)"
         d="m 134.36277,55.466389 c -0.13164,15.075225 15.62233,15.856985 15.45418,-0.505988"
         id="path8073"
         sodipodi:nodetypes="cc" />
      <path
         style="fill:none;stroke:#000000;stroke-width:0.865;stroke-linecap:butt;stroke-linejoin:miter;stroke-miterlimit:4;stroke-dasharray:none;stroke-opacity:1"
         d="m 91.669078,101.83321 c 7.678138,-0.067 11.648412,3.98684 11.534102,7.95904"
         id="path8075"
         sodipodi:nodetypes="cc" />
      <path
         style="fill:none;stroke:#000000;stroke-width:0.865;stroke-linecap:butt;stroke-linejoin:miter;stroke-miterlimit:4;stroke-dasharray:none;stroke-opacity:1;marker-end:url(#marker9468)"
         d="m 115.05374,101.83321 c -15.07522,-0.13163 -15.856981,15.62242 0.50599,15.45427"
         id="path8077"
         sodipodi:nodetypes="cc" />
    </g>
    <text
       xml:space="preserve"
       style="font-style:normal;font-weight:normal;font-size:5.87264px;line-height:1.25;font-family:sans-serif;fill:#000000;fill-opacity:1;stroke:none;stroke-width:0.146816"
       x="189.97124"
       y="75.343376"
       id="text11997"><tspan
         sodipodi:role="line"
         id="tspan11995"
         style="fill:#000000;stroke-width:0.146816"
         x="189.97124"
         y="75.343376">EFM 1</tspan></text>
    <text
       xml:space="preserve"
       style="font-style:normal;font-weight:normal;font-size:5.87264px;line-height:1.25;font-family:sans-serif;fill:#000000;fill-opacity:1;stroke:none;stroke-width:0.146816"
       x="189.99417"
       y="119.06103"
       id="text12099"><tspan
         sodipodi:role="line"
         id="tspan12097"
         style="fill:#000000;stroke-width:0.146816"
         x="189.99417"
         y="119.06103">EFM 2</tspan></text>
    <text
       xml:space="preserve"
       style="font-style:normal;font-weight:normal;font-size:5.87264px;line-height:1.25;font-family:sans-serif;fill:#000000;fill-opacity:1;stroke:none;stroke-width:0.146816"
       x="189.93541"
       y="161.22769"
       id="text12367"><tspan
         sodipodi:role="line"
         id="tspan12365"
         style="fill:#000000;stroke-width:0.146816"
         x="189.93541"
         y="161.22769">EFM 3</tspan></text>
  </g>
</svg>
