<?xml version="1.0" encoding="UTF-8" standalone="no"?>
<!-- Created with Inkscape (http://www.inkscape.org/) -->

<svg
   width="138.79192mm"
   height="116.76565mm"
   viewBox="0 0 138.79191 116.76564"
   version="1.1"
   id="svg1"
   inkscape:version="1.3.2 (091e20e, 2023-11-25)"
   sodipodi:docname="FAC_BlackBox.svg"
   inkscape:export-filename="FAC_BlackBox.pdf"
   inkscape:export-xdpi="96"
   inkscape:export-ydpi="96"
   xmlns:inkscape="http://www.inkscape.org/namespaces/inkscape"
   xmlns:sodipodi="http://sodipodi.sourceforge.net/DTD/sodipodi-0.dtd"
   xmlns="http://www.w3.org/2000/svg"
   xmlns:svg="http://www.w3.org/2000/svg">
  <sodipodi:namedview
     id="namedview1"
     pagecolor="#ffffff"
     bordercolor="#000000"
     borderopacity="0.25"
     inkscape:showpageshadow="2"
     inkscape:pageopacity="0.0"
     inkscape:pagecheckerboard="0"
     inkscape:deskcolor="#d1d1d1"
     inkscape:document-units="mm"
     showgrid="true"
     inkscape:zoom="0.46042796"
     inkscape:cx="325.78386"
     inkscape:cy="356.19036"
     inkscape:window-width="1472"
     inkscape:window-height="815"
     inkscape:window-x="0"
     inkscape:window-y="38"
     inkscape:window-maximized="0"
     inkscape:current-layer="layer1">
    <inkscape:grid
       id="grid1"
       units="mm"
       originx="-35.282963"
       originy="-19.669646"
       spacingx="0.99999998"
       spacingy="1"
       empcolor="#0099e5"
       empopacity="0.30196078"
       color="#0099e5"
       opacity="0.14901961"
       empspacing="5"
       dotted="false"
       gridanglex="30"
       gridanglez="30"
       visible="true" />
  </sodipodi:namedview>
  <defs
     id="defs1">
    <marker
       style="overflow:visible"
       id="Triangle"
       refX="0"
       refY="0"
       orient="auto-start-reverse"
       inkscape:stockid="Triangle arrow"
       markerWidth="1"
       markerHeight="1"
       viewBox="0 0 1 1"
       inkscape:isstock="true"
       inkscape:collect="always"
       preserveAspectRatio="xMidYMid">
      <path
         transform="scale(0.5)"
         style="fill:context-stroke;fill-rule:evenodd;stroke:context-stroke;stroke-width:1pt"
         d="M 5.77,0 -2.88,5 V -5 Z"
         id="path135" />
    </marker>
    <rect
       x="177.74158"
       y="162.34158"
       width="87.908295"
       height="23.099989"
       id="rect3" />
    <rect
       x="201.48325"
       y="59.674973"
       width="505.63309"
       height="48.124977"
       id="rect2" />
    <rect
       x="201.48325"
       y="59.674973"
       width="505.63309"
       height="48.124977"
       id="rect2-3" />
    <rect
       x="177.74158"
       y="162.34158"
       width="87.908295"
       height="23.099989"
       id="rect3-2" />
    <rect
       x="177.74158"
       y="162.34158"
       width="87.908295"
       height="23.099989"
       id="rect3-2-3" />
    <marker
       style="overflow:visible"
       id="Triangle-5"
       refX="0"
       refY="0"
       orient="auto-start-reverse"
       inkscape:stockid="Triangle arrow"
       markerWidth="1"
       markerHeight="1"
       viewBox="0 0 1 1"
       inkscape:isstock="true"
       inkscape:collect="always"
       preserveAspectRatio="xMidYMid">
      <path
         transform="scale(0.5)"
         style="fill:context-stroke;fill-rule:evenodd;stroke:context-stroke;stroke-width:1pt"
         d="M 5.77,0 -2.88,5 V -5 Z"
         id="path135-0" />
    </marker>
    <marker
       style="overflow:visible"
       id="Triangle-5-6"
       refX="0"
       refY="0"
       orient="auto-start-reverse"
       inkscape:stockid="Triangle arrow"
       markerWidth="1"
       markerHeight="1"
       viewBox="0 0 1 1"
       inkscape:isstock="true"
       inkscape:collect="always"
       preserveAspectRatio="xMidYMid">
      <path
         transform="scale(0.5)"
         style="fill:context-stroke;fill-rule:evenodd;stroke:context-stroke;stroke-width:1pt"
         d="M 5.77,0 -2.88,5 V -5 Z"
         id="path135-0-1" />
    </marker>
    <marker
       style="overflow:visible"
       id="Triangle-5-6-7"
       refX="0"
       refY="0"
       orient="auto-start-reverse"
       inkscape:stockid="Triangle arrow"
       markerWidth="1"
       markerHeight="1"
       viewBox="0 0 1 1"
       inkscape:isstock="true"
       inkscape:collect="always"
       preserveAspectRatio="xMidYMid">
      <path
         transform="scale(0.5)"
         style="fill:context-stroke;fill-rule:evenodd;stroke:context-stroke;stroke-width:1pt"
         d="M 5.77,0 -2.88,5 V -5 Z"
         id="path135-0-1-6" />
    </marker>
    <marker
       style="overflow:visible"
       id="Triangle-5-6-0"
       refX="0"
       refY="0"
       orient="auto-start-reverse"
       inkscape:stockid="Triangle arrow"
       markerWidth="1"
       markerHeight="1"
       viewBox="0 0 1 1"
       inkscape:isstock="true"
       inkscape:collect="always"
       preserveAspectRatio="xMidYMid">
      <path
         transform="scale(0.5)"
         style="fill:context-stroke;fill-rule:evenodd;stroke:context-stroke;stroke-width:1pt"
         d="M 5.77,0 -2.88,5 V -5 Z"
         id="path135-0-1-3" />
    </marker>
    <marker
       style="overflow:visible"
       id="Triangle-5-6-02"
       refX="0"
       refY="0"
       orient="auto-start-reverse"
       inkscape:stockid="Triangle arrow"
       markerWidth="1"
       markerHeight="1"
       viewBox="0 0 1 1"
       inkscape:isstock="true"
       inkscape:collect="always"
       preserveAspectRatio="xMidYMid">
      <path
         transform="scale(0.5)"
         style="fill:context-stroke;fill-rule:evenodd;stroke:context-stroke;stroke-width:1pt"
         d="M 5.77,0 -2.88,5 V -5 Z"
         id="path135-0-1-4" />
    </marker>
    <rect
       x="177.74158"
       y="162.34158"
       width="87.908295"
       height="23.099989"
       id="rect3-7" />
    <rect
       x="177.74158"
       y="162.34158"
       width="87.908295"
       height="23.099989"
       id="rect3-2-7" />
    <rect
       x="177.74158"
       y="162.34158"
       width="87.908295"
       height="23.099989"
       id="rect3-2-3-7" />
    <rect
       x="177.74158"
       y="162.34158"
       width="87.908295"
       height="23.099989"
       id="rect3-9" />
    <rect
       x="177.74158"
       y="162.34158"
       width="87.908295"
       height="23.099989"
       id="rect3-2-9" />
    <rect
       x="177.74158"
       y="162.34158"
       width="87.908295"
       height="23.099989"
       id="rect3-2-3-1" />
    <marker
       style="overflow:visible"
       id="Triangle-8"
       refX="0"
       refY="0"
       orient="auto-start-reverse"
       inkscape:stockid="Triangle arrow"
       markerWidth="1"
       markerHeight="1"
       viewBox="0 0 1 1"
       inkscape:isstock="true"
       inkscape:collect="always"
       preserveAspectRatio="xMidYMid">
      <path
         transform="scale(0.5)"
         style="fill:context-stroke;fill-rule:evenodd;stroke:context-stroke;stroke-width:1pt"
         d="M 5.77,0 -2.88,5 V -5 Z"
         id="path135-05" />
    </marker>
    <marker
       style="overflow:visible"
       id="Triangle-5-7"
       refX="0"
       refY="0"
       orient="auto-start-reverse"
       inkscape:stockid="Triangle arrow"
       markerWidth="1"
       markerHeight="1"
       viewBox="0 0 1 1"
       inkscape:isstock="true"
       inkscape:collect="always"
       preserveAspectRatio="xMidYMid">
      <path
         transform="scale(0.5)"
         style="fill:context-stroke;fill-rule:evenodd;stroke:context-stroke;stroke-width:1pt"
         d="M 5.77,0 -2.88,5 V -5 Z"
         id="path135-0-6" />
    </marker>
    <marker
       style="overflow:visible"
       id="Triangle-5-6-6"
       refX="0"
       refY="0"
       orient="auto-start-reverse"
       inkscape:stockid="Triangle arrow"
       markerWidth="1"
       markerHeight="1"
       viewBox="0 0 1 1"
       inkscape:isstock="true"
       inkscape:collect="always"
       preserveAspectRatio="xMidYMid">
      <path
         transform="scale(0.5)"
         style="fill:context-stroke;fill-rule:evenodd;stroke:context-stroke;stroke-width:1pt"
         d="M 5.77,0 -2.88,5 V -5 Z"
         id="path135-0-1-60" />
    </marker>
    <rect
       x="177.74158"
       y="162.34158"
       width="87.908295"
       height="23.099989"
       id="rect3-7-1" />
    <rect
       x="177.74158"
       y="162.34158"
       width="87.908295"
       height="23.099989"
       id="rect3-2-7-3" />
    <rect
       x="177.74158"
       y="162.34158"
       width="87.908295"
       height="23.099989"
       id="rect3-2-3-7-9" />
    <marker
       style="overflow:visible"
       id="Triangle-5-6-7-8"
       refX="0"
       refY="0"
       orient="auto-start-reverse"
       inkscape:stockid="Triangle arrow"
       markerWidth="1"
       markerHeight="1"
       viewBox="0 0 1 1"
       inkscape:isstock="true"
       inkscape:collect="always"
       preserveAspectRatio="xMidYMid">
      <path
         transform="scale(0.5)"
         style="fill:context-stroke;fill-rule:evenodd;stroke:context-stroke;stroke-width:1pt"
         d="M 5.77,0 -2.88,5 V -5 Z"
         id="path135-0-1-6-8" />
    </marker>
    <marker
       style="overflow:visible"
       id="Triangle-5-6-0-5"
       refX="0"
       refY="0"
       orient="auto-start-reverse"
       inkscape:stockid="Triangle arrow"
       markerWidth="1"
       markerHeight="1"
       viewBox="0 0 1 1"
       inkscape:isstock="true"
       inkscape:collect="always"
       preserveAspectRatio="xMidYMid">
      <path
         transform="scale(0.5)"
         style="fill:context-stroke;fill-rule:evenodd;stroke:context-stroke;stroke-width:1pt"
         d="M 5.77,0 -2.88,5 V -5 Z"
         id="path135-0-1-3-2" />
    </marker>
    <marker
       style="overflow:visible"
       id="Triangle-5-6-02-9"
       refX="0"
       refY="0"
       orient="auto-start-reverse"
       inkscape:stockid="Triangle arrow"
       markerWidth="1"
       markerHeight="1"
       viewBox="0 0 1 1"
       inkscape:isstock="true"
       inkscape:collect="always"
       preserveAspectRatio="xMidYMid">
      <path
         transform="scale(0.5)"
         style="fill:context-stroke;fill-rule:evenodd;stroke:context-stroke;stroke-width:1pt"
         d="M 5.77,0 -2.88,5 V -5 Z"
         id="path135-0-1-4-8" />
    </marker>
  </defs>
  <g
     inkscape:label="Layer 1"
     inkscape:groupmode="layer"
     id="layer1"
     transform="translate(-35.282964,-19.669646)">
    <rect
       style="opacity:1;fill:#000000;fill-opacity:1;stroke:#000000;stroke-width:0.738922;stroke-miterlimit:5.1;stroke-opacity:1"
       id="rect1"
       width="35.538361"
       height="35.538361"
       x="87.593773"
       y="31.970516"
       rx="0"
       ry="0" />
    <rect
       style="fill:#000000;fill-opacity:1;stroke:#000000;stroke-width:0.738922;stroke-miterlimit:5.1;stroke-opacity:1"
       id="rect1-9"
       width="35.538361"
       height="35.538361"
       x="87.593773"
       y="100.52747"
       rx="0"
       ry="0" />
    <path
       style="opacity:1;fill:#000000;fill-opacity:1;stroke:#000000;stroke-width:0.906;stroke-miterlimit:5.1;stroke-dasharray:none;stroke-opacity:1;marker-end:url(#Triangle)"
       d="M 65.532877,38.730562 H 75.983475"
       id="path3" />
    <path
       style="fill:#000000;fill-opacity:1;stroke:#000000;stroke-width:0.906;stroke-miterlimit:5.1;stroke-dasharray:none;stroke-opacity:1;marker-end:url(#Triangle-5)"
       d="M 65.532877,50.031381 H 75.983475"
       id="path3-2"
       inkscape:transform-center-x="-8.9173649"
       inkscape:transform-center-y="-1.6977422" />
    <path
       style="fill:#000000;fill-opacity:1;stroke:#000000;stroke-width:0.906;stroke-miterlimit:5.1;stroke-dasharray:none;stroke-opacity:1;marker-end:url(#Triangle-5-6)"
       d="M 65.532877,61.332199 H 75.983475"
       id="path3-2-3"
       inkscape:transform-center-x="-8.9173649"
       inkscape:transform-center-y="-1.6977422" />
    <path
       style="fill:#000000;fill-opacity:1;stroke:#000000;stroke-width:0.906;stroke-miterlimit:5.1;stroke-dasharray:none;stroke-opacity:1;marker-end:url(#Triangle-8)"
       d="M 65.571968,106.05588 H 76.022569"
       id="path3-3" />
    <path
       style="fill:#000000;fill-opacity:1;stroke:#000000;stroke-width:0.906;stroke-miterlimit:5.1;stroke-dasharray:none;stroke-opacity:1;marker-end:url(#Triangle-5-7)"
       d="M 65.571968,117.35676 H 76.022569"
       id="path3-2-7"
       inkscape:transform-center-x="-8.9173649"
       inkscape:transform-center-y="-1.6977422" />
    <path
       style="fill:#000000;fill-opacity:1;stroke:#000000;stroke-width:0.906;stroke-miterlimit:5.1;stroke-dasharray:none;stroke-opacity:1;marker-end:url(#Triangle-5-6-6)"
       d="M 65.571968,128.65764 H 76.022569"
       id="path3-2-3-6"
       inkscape:transform-center-x="-8.9173649"
       inkscape:transform-center-y="-1.6977422" />
    <path
       style="fill:#000000;fill-opacity:1;stroke:#000000;stroke-width:0.906;stroke-miterlimit:5.1;stroke-dasharray:none;stroke-opacity:1;marker-end:url(#Triangle-5-6-7)"
       d="m 131.71182,38.730562 h 10.4506"
       id="path3-2-3-8"
       inkscape:transform-center-x="-8.9173649"
       inkscape:transform-center-y="-1.6977422" />
    <path
       style="fill:#000000;fill-opacity:1;stroke:#000000;stroke-width:0.906;stroke-miterlimit:5.1;stroke-dasharray:none;stroke-opacity:1;marker-end:url(#Triangle-5-6-0)"
       d="m 131.71182,49.986095 h 10.4506"
       id="path3-2-3-9"
       inkscape:transform-center-x="-8.9173649"
       inkscape:transform-center-y="-1.6977422" />
    <path
       style="fill:#000000;fill-opacity:1;stroke:#000000;stroke-width:0.906;stroke-miterlimit:5.1;stroke-dasharray:none;stroke-opacity:1;marker-end:url(#Triangle-5-6-02)"
       d="m 131.71182,61.332199 h 10.45059"
       id="path3-2-3-3"
       inkscape:transform-center-x="-8.9173649"
       inkscape:transform-center-y="-1.6977422" />
    <path
       style="fill:#000000;fill-opacity:1;stroke:#000000;stroke-width:0.906;stroke-miterlimit:5.1;stroke-dasharray:none;stroke-opacity:1;marker-end:url(#Triangle-5-6-7-8)"
       d="m 131.75304,106.26318 h 10.4506"
       id="path3-2-3-8-5"
       inkscape:transform-center-x="-8.9173649"
       inkscape:transform-center-y="-1.6977422" />
    <path
       style="fill:#000000;fill-opacity:1;stroke:#000000;stroke-width:0.906;stroke-miterlimit:5.1;stroke-dasharray:none;stroke-opacity:1;marker-end:url(#Triangle-5-6-0-5)"
       d="m 131.75304,117.56406 h 10.4506"
       id="path3-2-3-9-5"
       inkscape:transform-center-x="-8.9173649"
       inkscape:transform-center-y="-1.6977422" />
    <path
       style="fill:#000000;fill-opacity:1;stroke:#000000;stroke-width:0.906;stroke-miterlimit:5.1;stroke-dasharray:none;stroke-opacity:1;marker-end:url(#Triangle-5-6-02-9)"
       d="m 131.75304,128.86495 h 10.45059"
       id="path3-2-3-3-2"
       inkscape:transform-center-x="-8.9173649"
       inkscape:transform-center-y="-1.6977422" />
    <text
       xml:space="preserve"
       style="font-size:6.35px;font-family:sans-serif;-inkscape-font-specification:sans-serif;fill:#000000;stroke:none;stroke-width:2"
       x="39.576946"
       y="24.525164"
       id="text17"><tspan
         sodipodi:role="line"
         id="tspan17"
         style="stroke:none;stroke-width:2"
         x="39.576946"
         y="24.525164">black box description of microbial growth</tspan></text>
    <text
       xml:space="preserve"
       style="font-size:6.35px;font-family:sans-serif;-inkscape-font-specification:sans-serif;fill:#000000;stroke:none;stroke-width:2"
       x="37.636509"
       y="92.677032"
       id="text18"><tspan
         sodipodi:role="line"
         id="tspan18"
         style="stroke-width:2"
         x="37.636509"
         y="92.677032">economic analogy (construction company)</tspan></text>
    <text
       xml:space="preserve"
       style="font-size:5.64444px;font-family:sans-serif;-inkscape-font-specification:sans-serif;fill:#000000;stroke:none;stroke-width:2"
       x="35.443855"
       y="39.226158"
       id="text19"><tspan
         sodipodi:role="line"
         id="tspan19"
         style="font-size:5.64444px;stroke-width:2"
         x="35.443855"
         y="39.226158">sugar</tspan></text>
    <text
       xml:space="preserve"
       style="font-size:5.64444px;font-family:sans-serif;-inkscape-font-specification:sans-serif;fill:#000000;stroke:none;stroke-width:2"
       x="35.249916"
       y="50.536175"
       id="text20"><tspan
         sodipodi:role="line"
         id="tspan20"
         style="stroke-width:2"
         x="35.249916"
         y="50.536175">oxygen</tspan></text>
    <text
       xml:space="preserve"
       style="font-size:5.64444px;font-family:sans-serif;-inkscape-font-specification:sans-serif;fill:#000000;stroke:none;stroke-width:2"
       x="35.276241"
       y="62.502975"
       id="text21"><tspan
         sodipodi:role="line"
         id="tspan21"
         style="stroke-width:2"
         x="35.276241"
         y="62.502975">ammonia</tspan></text>
    <text
       xml:space="preserve"
       style="font-size:5.64444px;font-family:sans-serif;-inkscape-font-specification:sans-serif;fill:#000000;stroke:none;stroke-width:2"
       x="151.30379"
       y="39.69659"
       id="text22"><tspan
         sodipodi:role="line"
         id="tspan22"
         style="stroke-width:2"
         x="151.30379"
         y="39.69659">acetate</tspan></text>
    <text
       xml:space="preserve"
       style="font-size:5.64444px;font-family:sans-serif;-inkscape-font-specification:sans-serif;fill:#000000;stroke:none;stroke-width:2"
       x="151.20818"
       y="51.38488"
       id="text23"><tspan
         sodipodi:role="line"
         id="tspan23"
         style="stroke-width:2"
         x="151.20818"
         y="51.38488">carbon</tspan></text>
    <text
       xml:space="preserve"
       style="font-size:5.64444px;font-family:sans-serif;-inkscape-font-specification:sans-serif;fill:#000000;stroke:none;stroke-width:2"
       x="151.05339"
       y="62.405998"
       id="text24"><tspan
         sodipodi:role="line"
         id="tspan24"
         style="stroke-width:2"
         x="151.05339"
         y="62.405998">biomass</tspan></text>
    <text
       xml:space="preserve"
       style="font-size:5.64444px;font-family:sans-serif;-inkscape-font-specification:sans-serif;fill:#000000;stroke:none;stroke-width:2"
       x="35.043591"
       y="107.68555"
       id="text25"><tspan
         sodipodi:role="line"
         id="tspan25"
         style="stroke-width:2"
         x="35.043591"
         y="107.68555">cement</tspan></text>
    <text
       xml:space="preserve"
       style="font-size:5.64444px;font-family:sans-serif;-inkscape-font-specification:sans-serif;fill:#000000;stroke:none;stroke-width:2"
       x="35.112087"
       y="118.83385"
       id="text26"><tspan
         sodipodi:role="line"
         id="tspan26"
         style="stroke-width:2"
         x="35.112087"
         y="118.83385">timber</tspan></text>
    <text
       xml:space="preserve"
       style="font-size:5.64444px;font-family:sans-serif;-inkscape-font-specification:sans-serif;fill:#000000;stroke:none;stroke-width:2"
       x="34.902092"
       y="129.75288"
       id="text27"><tspan
         sodipodi:role="line"
         id="tspan27"
         style="stroke-width:2"
         x="34.902092"
         y="129.75288">iron</tspan></text>
    <text
       xml:space="preserve"
       style="font-size:5.64444px;font-family:sans-serif;-inkscape-font-specification:sans-serif;fill:#000000;stroke:none;stroke-width:2"
       x="150.76213"
       y="107.59889"
       id="text28"><tspan
         sodipodi:role="line"
         id="tspan28"
         style="stroke-width:2"
         x="150.76213"
         y="107.59889">houses</tspan></text>
    <text
       xml:space="preserve"
       style="font-size:5.64444px;font-family:sans-serif;-inkscape-font-specification:sans-serif;fill:#000000;stroke:none;stroke-width:2"
       x="151.10719"
       y="119.1349"
       id="text29"><tspan
         sodipodi:role="line"
         id="tspan29"
         style="stroke-width:2"
         x="151.10719"
         y="119.1349">waste</tspan></text>
    <text
       xml:space="preserve"
       style="font-size:5.64444px;font-family:sans-serif;-inkscape-font-specification:sans-serif;fill:#000000;stroke:none;stroke-width:2"
       x="151.19643"
       y="130.28163"
       id="text30"><tspan
         sodipodi:role="line"
         id="tspan30"
         style="stroke-width:2"
         x="151.19643"
         y="130.28163">value</tspan></text>
  </g>
</svg>
