<?xml version="1.0" encoding="UTF-8" standalone="no"?>
<!-- Created with Inkscape (http://www.inkscape.org/) -->

<svg
   width="160.20163mm"
   height="86.938675mm"
   viewBox="0 0 160.20163 86.938675"
   version="1.1"
   id="svg5"
   xml:space="preserve"
   inkscape:version="1.2.2 (b0a8486, 2022-12-01)"
   sodipodi:docname="figure-VAR-5.svg"
   xmlns:inkscape="http://www.inkscape.org/namespaces/inkscape"
   xmlns:sodipodi="http://sodipodi.sourceforge.net/DTD/sodipodi-0.dtd"
   xmlns="http://www.w3.org/2000/svg"
   xmlns:svg="http://www.w3.org/2000/svg"><sodipodi:namedview
     id="namedview7"
     pagecolor="#ffffff"
     bordercolor="#000000"
     borderopacity="0.25"
     inkscape:showpageshadow="2"
     inkscape:pageopacity="0.0"
     inkscape:pagecheckerboard="0"
     inkscape:deskcolor="#d1d1d1"
     inkscape:document-units="mm"
     showgrid="false"
     inkscape:zoom="0.31888198"
     inkscape:cx="885.9077"
     inkscape:cy="305.75575"
     inkscape:window-width="1440"
     inkscape:window-height="771"
     inkscape:window-x="0"
     inkscape:window-y="25"
     inkscape:window-maximized="0"
     inkscape:current-layer="layer1" /><defs
     id="defs2"><inkscape:path-effect
       effect="spiro"
       id="path-effect5863"
       is_visible="true"
       lpeversion="1" /><inkscape:path-effect
       effect="spiro"
       id="path-effect3189"
       is_visible="true"
       lpeversion="1" /><inkscape:path-effect
       effect="spiro"
       id="path-effect3099"
       is_visible="true"
       lpeversion="1" /><inkscape:path-effect
       effect="spiro"
       id="path-effect1515"
       is_visible="true"
       lpeversion="1" /><inkscape:path-effect
       effect="spiro"
       id="path-effect849"
       is_visible="true"
       lpeversion="1" /><inkscape:path-effect
       effect="spiro"
       id="path-effect432"
       is_visible="true"
       lpeversion="1" /><marker
       style="overflow:visible"
       id="RoundedArrow"
       refX="0"
       refY="0"
       orient="auto-start-reverse"
       inkscape:stockid="RoundedArrow"
       markerWidth="4.3101745"
       markerHeight="4.1666665"
       viewBox="0 0 6.1347524 5.9304951"
       inkscape:isstock="true"
       inkscape:collect="always"
       preserveAspectRatio="xMidYMid"><path
         transform="scale(0.7)"
         d="m -0.21114562,-4.1055728 6.42229122,3.21114561 a 1,1 90 0 1 0,1.78885438 L -0.21114562,4.1055728 A 1.236068,1.236068 31.717474 0 1 -2,3 v -6 a 1.236068,1.236068 148.28253 0 1 1.78885438,-1.1055728 z"
         style="fill:context-stroke;fill-rule:evenodd;stroke:none"
         id="path1367" /></marker><path
       id="g1-21"
       d="M 3.694147,-7.44807 C 3.395268,-8.296887 2.450809,-8.296887 2.295392,-8.296887 c -0.071731,0 -0.203238,0 -0.203238,0.119552 0,0.095641 0.071731,0.107597 0.131507,0.119552 0.179328,0.02391 0.32279,0.04782 0.514072,0.39452 0.119552,0.227148 1.350934,3.801744 1.350934,3.825654 0,0.011955 -0.011955,0.02391 -0.107596,0.119552 l -3.108344,3.144209 c -0.143462,0.143462 -0.239103,0.239103 -0.239103,0.39452 0,0.167373 0.143462,0.310835 0.334745,0.310835 0.04782,0 0.179327,-0.02391 0.251058,-0.095641 0.191283,-0.179328 1.900872,-2.271482 2.988792,-3.562641 0.310835,0.932504 0.6934,2.032379 1.06401,3.036613 0.059776,0.179328 0.119552,0.3467 0.286924,0.502117 0.119552,0.107597 0.143462,0.107597 0.478207,0.107597 h 0.227148 c 0.047821,0 0.131507,0 0.131507,-0.095642 0,-0.04782 -0.011955,-0.059776 -0.059776,-0.107596 -0.107596,-0.131507 -0.191283,-0.3467 -0.239103,-0.490162 z" /><path
       id="g0-104"
       d="m 3.921295,-8.51208 c 0.059776,-0.131507 0.059776,-0.155417 0.059776,-0.215193 0,-0.131507 -0.107597,-0.239103 -0.239103,-0.239103 -0.107597,0 -0.191283,0.059776 -0.274969,0.274969 l -2.092155,5.487422 c -0.02391,0.071731 -0.059776,0.143462 -0.059776,0.215193 0,0.035865 0,0.059776 0.059776,0.203238 l 2.092155,5.487422 c 0.04782,0.131507 0.107596,0.286924 0.274969,0.286924 0.131506,0 0.239103,-0.107596 0.239103,-0.239103 0,-0.035866 0,-0.059776 -0.059776,-0.191283 L 1.80523,-2.988792 Z" /><path
       id="g0-105"
       d="m 3.263761,-2.785554 c 0.059776,-0.143462 0.059776,-0.167373 0.059776,-0.203238 0,-0.035865 0,-0.059776 -0.059776,-0.203238 L 1.171606,-8.691407 C 1.099875,-8.894645 1.028144,-8.966376 0.896638,-8.966376 c -0.131506,0 -0.239104,0.107596 -0.239104,0.239103 0,0.035866 0,0.059776 0.059776,0.191283 L 2.833375,-2.988792 0.71731,2.534496 C 0.657534,2.666002 0.657534,2.689913 0.657534,2.749689 c 0,0.131507 0.107597,0.239103 0.239104,0.239103 0.155417,0 0.203237,-0.119552 0.251058,-0.239103 z" /><inkscape:path-effect
       effect="spiro"
       id="path-effect1515-7"
       is_visible="true"
       lpeversion="1" /></defs><g
     inkscape:label="Ebene 1"
     inkscape:groupmode="layer"
     id="layer1"
     transform="translate(-21.725353,-25.57222)"><path
       style="fill:#fadb5d;fill-opacity:1;stroke:none;stroke-width:1.813;stroke-dasharray:none;stroke-opacity:0.014218;paint-order:markers fill stroke"
       d="m 43.288737,88.630886 7.119821,-11.726762 10.05151,-10.889136 12.564387,-10.05151 15.91489,-9.213884 21.359455,-8.79507 17.59014,-5.025755 15.07727,-3.350504 19.26539,-2.512877 -119.780489,2.931689 v 56.539746"
       id="path1607"
       sodipodi:nodetypes="ccccccccccc" /><path
       id="rect3376"
       style="fill:#f9f9f9;fill-opacity:0;stroke:#07070a;stroke-width:0.818575;stroke-linecap:square;stroke-miterlimit:24.1;stroke-dasharray:none;marker-start:url(#RoundedArrow);marker-end:url(#RoundedArrow);paint-order:markers fill stroke"
       d="M 161.18441,101.84244 H 42.894847 V 32.754961"
       sodipodi:nodetypes="ccc" /><text
       xml:space="preserve"
       style="font-style:normal;font-variant:normal;font-weight:normal;font-stretch:normal;font-size:7px;font-family:sans-serif;-inkscape-font-specification:sans-serif;fill:#b99522;fill-opacity:0.582938;stroke:#000000;stroke-width:3.013;stroke-dasharray:none;stroke-opacity:0.014218;paint-order:markers fill stroke"
       x="49.838737"
       y="42.300106"
       id="text2153"><tspan
         sodipodi:role="line"
         id="tspan2151"
         style="font-style:normal;font-variant:normal;font-weight:normal;font-stretch:normal;font-size:7px;font-family:sans-serif;-inkscape-font-specification:sans-serif;fill:#000000;fill-opacity:1;stroke:none;stroke-width:3.013;stroke-dasharray:none;stroke-opacity:0.988152"
         x="49.838737"
         y="42.300106">forbidden</tspan></text><text
       xml:space="preserve"
       style="font-style:normal;font-variant:normal;font-weight:normal;font-stretch:normal;font-size:7px;font-family:sans-serif;-inkscape-font-specification:sans-serif;fill:#b99522;fill-opacity:0.582938;stroke:#000000;stroke-width:3.013;stroke-dasharray:none;stroke-opacity:0.014218;paint-order:markers fill stroke"
       x="115.81976"
       y="74.339668"
       id="text2153-9"><tspan
         sodipodi:role="line"
         id="tspan2151-5"
         style="font-style:normal;font-variant:normal;font-weight:normal;font-stretch:normal;font-size:7px;font-family:sans-serif;-inkscape-font-specification:sans-serif;fill:#000000;fill-opacity:1;stroke:none;stroke-width:3.013;stroke-dasharray:none;stroke-opacity:0.988152"
         x="115.81976"
         y="74.339668">feasible</tspan></text><text
       xml:space="preserve"
       style="font-style:normal;font-variant:normal;font-weight:normal;font-stretch:normal;font-size:7px;font-family:sans-serif;-inkscape-font-specification:sans-serif;fill:#b99522;fill-opacity:0.582938;stroke:#000000;stroke-width:3.013;stroke-dasharray:none;stroke-opacity:0.014218;paint-order:markers fill stroke"
       x="-75.469383"
       y="35.701424"
       id="text2153-9-0"
       transform="rotate(-90.003496)"><tspan
         sodipodi:role="line"
         id="tspan2151-5-5"
         style="font-style:normal;font-variant:normal;font-weight:normal;font-stretch:normal;font-size:7px;font-family:sans-serif;-inkscape-font-specification:sans-serif;fill:#000000;fill-opacity:1;stroke:none;stroke-width:3.013;stroke-dasharray:none;stroke-opacity:0.988152"
         x="-75.469383"
         y="35.701424">fitness</tspan></text><text
       xml:space="preserve"
       style="font-style:normal;font-variant:normal;font-weight:normal;font-stretch:normal;font-size:7px;font-family:sans-serif;-inkscape-font-specification:sans-serif;fill:#b99522;fill-opacity:0.582938;stroke:#000000;stroke-width:3.013;stroke-dasharray:none;stroke-opacity:0.014218;paint-order:markers fill stroke"
       x="53.491055"
       y="110.66603"
       id="text2153-9-0-2"><tspan
         sodipodi:role="line"
         id="tspan2151-5-5-9"
         style="font-style:normal;font-variant:normal;font-weight:normal;font-stretch:normal;font-size:7px;font-family:sans-serif;-inkscape-font-specification:sans-serif;fill:#000000;fill-opacity:1;stroke:none;stroke-width:3.013;stroke-dasharray:none;stroke-opacity:0.988152"
         x="53.491055"
         y="110.66603">information encoded in p(<tspan
   style="font-style:normal;font-variant:normal;font-weight:bold;font-stretch:normal;font-size:7px;font-family:sans-serif;-inkscape-font-specification:'sans-serif Bold'"
   id="tspan6193">v</tspan>)</tspan></text><text
       xml:space="preserve"
       style="font-style:normal;font-variant:normal;font-weight:normal;font-stretch:normal;font-size:7px;font-family:sans-serif;-inkscape-font-specification:sans-serif;fill:#000000;fill-opacity:1;stroke:#000000;stroke-width:3.013;stroke-dasharray:none;stroke-opacity:0.014218;paint-order:markers fill stroke"
       x="121.2869"
       y="43.347511"
       id="text2153-2"><tspan
         sodipodi:role="line"
         id="tspan2151-0"
         style="font-style:normal;font-variant:normal;font-weight:normal;font-stretch:normal;font-size:7px;font-family:sans-serif;-inkscape-font-specification:sans-serif;fill:#000000;fill-opacity:1;stroke:none;stroke-width:3.013;stroke-dasharray:none;stroke-opacity:0.988152"
         x="121.2869"
         y="43.347511">line of optimality</tspan></text><text
       xml:space="preserve"
       style="font-style:normal;font-variant:normal;font-weight:normal;font-stretch:normal;font-size:7px;font-family:sans-serif;-inkscape-font-specification:sans-serif;fill:#000000;fill-opacity:1;stroke:#000000;stroke-width:3.013;stroke-dasharray:none;stroke-opacity:0.014218;paint-order:markers fill stroke"
       x="72.826385"
       y="97.282753"
       id="text2153-5"><tspan
         sodipodi:role="line"
         id="tspan2151-4"
         style="font-style:normal;font-variant:normal;font-weight:normal;font-stretch:normal;font-size:7px;font-family:sans-serif;-inkscape-font-specification:sans-serif;fill:#000000;fill-opacity:1;stroke:none;stroke-width:3.013;stroke-dasharray:none;stroke-opacity:0.988152"
         x="72.826385"
         y="97.282753">increasing heterogeneity</tspan></text><path
       style="fill:none;fill-opacity:1;stroke:#2764b7;stroke-width:1.613;stroke-dasharray:none;stroke-opacity:1;marker-end:url(#RoundedArrow);paint-order:markers fill stroke"
       d="m 73.711074,67.010066 c 2.602079,-3.375837 5.720735,-6.352736 9.213885,-8.79507 4.643636,-3.246729 9.949925,-5.541341 15.496076,-6.701007"
       id="path3187"
       inkscape:path-effect="#path-effect3189"
       inkscape:original-d="m 73.711074,67.010066 c 3.211164,-3.210634 6.142853,-5.863117 9.213885,-8.79507 3.071029,-2.931957 10.330981,-4.467074 15.496076,-6.701007" /><text
       xml:space="preserve"
       style="font-size:7px;font-family:'Times New Roman';-inkscape-font-specification:'Times New Roman, ';fill:none;fill-opacity:1;stroke:#195191;stroke-width:0.713;stroke-dasharray:none;stroke-opacity:0.992891;paint-order:markers fill stroke"
       x="87.311195"
       y="63.636963"
       id="text4801"><tspan
         sodipodi:role="line"
         id="tspan4799"
         style="font-style:normal;font-variant:normal;font-weight:normal;font-stretch:normal;font-size:7px;font-family:sans-serif;-inkscape-font-specification:sans-serif;fill:#000000;fill-opacity:1;stroke:none;stroke-width:0.713;stroke-dasharray:none"
         x="87.311195"
         y="63.636963">β</tspan></text><text
       xml:space="preserve"
       style="font-style:normal;font-variant:normal;font-weight:normal;font-stretch:normal;font-size:7px;font-family:sans-serif;-inkscape-font-specification:sans-serif;fill:#000000;fill-opacity:1;stroke:none;stroke-width:0.713;stroke-dasharray:none;stroke-opacity:0.992891;paint-order:markers fill stroke"
       x="21.093029"
       y="92.381561"
       id="text4801-5"><tspan
         sodipodi:role="line"
         id="tspan4799-8"
         style="font-style:normal;font-variant:normal;font-weight:normal;font-stretch:normal;font-size:7px;font-family:sans-serif;-inkscape-font-specification:sans-serif;fill:#000000;fill-opacity:1;stroke:none;stroke-width:0.713;stroke-dasharray:none"
         x="21.093029"
         y="92.381561">β = 0</tspan></text><text
       xml:space="preserve"
       style="font-size:7.99999px;font-family:'Times New Roman';-inkscape-font-specification:'Times New Roman, ';fill:none;fill-opacity:1;stroke:#91196f;stroke-width:0.513001;stroke-dasharray:none;stroke-opacity:0.836493;paint-order:markers fill stroke"
       x="101.77154"
       y="87.113083"
       id="text5726"><tspan
         sodipodi:role="line"
         id="tspan5724"
         style="stroke-width:0.513"
         x="101.77154"
         y="87.113083" /></text><path
       style="fill:#000000;fill-opacity:1;stroke:#000000;stroke-width:0.513;stroke-dasharray:none;stroke-opacity:1;marker-end:url(#RoundedArrow);paint-order:markers fill stroke"
       d="M 72.166117,95.489346 H 53.738349"
       id="path5861"
       inkscape:path-effect="#path-effect5863"
       inkscape:original-d="m 72.166117,95.489346 c -5.863116,2.65e-4 -12.284913,2.65e-4 -18.427768,0" /><text
       xml:space="preserve"
       style="font-style:normal;font-variant:normal;font-weight:normal;font-stretch:normal;font-size:8px;font-family:sans-serif;-inkscape-font-specification:sans-serif;fill:#000000;fill-opacity:1;stroke:#000000;stroke-width:0;stroke-dasharray:none;stroke-opacity:0.836493;paint-order:markers fill stroke"
       x="157.50121"
       y="110.90152"
       id="text7896"><tspan
         sodipodi:role="line"
         id="tspan7894"
         style="font-style:normal;font-variant:normal;font-weight:normal;font-stretch:normal;font-size:8px;font-family:sans-serif;-inkscape-font-specification:sans-serif;stroke-width:0;stroke-dasharray:none"
         x="157.50121"
         y="110.90152">I(bits)</tspan></text><path
       style="fill:none;fill-opacity:0.990521;stroke:#000000;stroke-width:0.8;stroke-dasharray:none;stroke-opacity:1;paint-order:markers fill stroke"
       d="m 43.054852,88.357119 c 2.362282,-4.58568 5.171992,-8.940732 8.376255,-12.983199 12.902351,-16.27748 31.703959,-26.899043 51.095183,-34.34266 19.44733,-7.465153 39.9653,-12.134762 60.72787,-13.820828"
       id="path1513"
       inkscape:original-d="m 43.054852,88.357119 c 2.792355,-4.327469 5.584435,-8.655201 8.376255,-12.983199 2.79183,-4.327999 34.06372,-22.894843 51.095183,-34.34266 17.03146,-11.447817 40.48551,-9.21362 60.72787,-13.820828"
       inkscape:path-effect="#path-effect1515-7" /><text
       xml:space="preserve"
       style="font-style:normal;font-variant:normal;font-weight:normal;font-stretch:normal;font-size:8px;font-family:sans-serif;-inkscape-font-specification:sans-serif;fill:#000000;fill-opacity:0.99;stroke:none;stroke-width:0.484333;stroke-dasharray:none;stroke-dashoffset:21.6567;stroke-opacity:1;paint-order:markers fill stroke"
       x="31.558727"
       y="32.739239"
       id="text11567-99"
       transform="scale(0.99300419,1.0070451)"><tspan
         sodipodi:role="line"
         id="tspan11565-1"
         style="font-style:normal;font-variant:normal;font-weight:normal;font-stretch:normal;font-size:8px;font-family:sans-serif;-inkscape-font-specification:sans-serif;fill:#000000;fill-opacity:0.99;stroke:none;stroke-width:0.484335;stroke-opacity:1"
         x="31.558727"
         y="32.739239">λ</tspan></text><path
       style="fill:none;fill-opacity:1;fill-rule:evenodd;stroke:#000000;stroke-width:0.5;stroke-dasharray:none;stroke-dashoffset:18.8976;stroke-opacity:1;paint-order:markers fill stroke"
       d="m 30.675779,25.642762 -1.36776,4.650383 1.36776,4.923933"
       id="path1805-5" /><path
       style="fill:none;fill-opacity:1;fill-rule:evenodd;stroke:#000000;stroke-width:0.5;stroke-dasharray:none;stroke-dashoffset:18.8976;stroke-opacity:1;paint-order:markers fill stroke"
       d="m 36.087076,25.657602 1.59721,4.638078 -1.59721,4.910905"
       id="path1805-3-5" /></g></svg>
