<?xml version="1.0" encoding="UTF-8" standalone="no"?>
<!-- Created with Inkscape (http://www.inkscape.org/) -->

<svg
   version="1.1"
   id="svg2"
   width="126.66667"
   height="370.66666"
   viewBox="0 0 126.66667 370.66666"
   sodipodi:docname="four_chain.svg"
   inkscape:version="1.2.2 (b0a8486541, 2022-12-01)"
   xmlns:inkscape="http://www.inkscape.org/namespaces/inkscape"
   xmlns:sodipodi="http://sodipodi.sourceforge.net/DTD/sodipodi-0.dtd"
   xmlns="http://www.w3.org/2000/svg"
   xmlns:svg="http://www.w3.org/2000/svg">
  <defs
     id="defs6">
    <marker
       style="overflow:visible"
       id="TriangleStart"
       refX="0"
       refY="0"
       orient="auto-start-reverse"
       inkscape:stockid="TriangleStart"
       markerWidth="3.3239999"
       markerHeight="3.8427744"
       viewBox="0 0 5.3244081 6.1553851"
       inkscape:isstock="true"
       inkscape:collect="always"
       preserveAspectRatio="xMidYMid">
      <path
         transform="scale(0.5)"
         style="fill:context-stroke;fill-rule:evenodd;stroke:context-stroke;stroke-width:1pt"
         d="M 5.77,0 -2.88,5 V -5 Z"
         id="path135" />
    </marker>
    <clipPath
       clipPathUnits="userSpaceOnUse"
       id="clipPath20">
      <path
         d="M 0,24 V 2780 H 950 V 24 Z"
         id="path18" />
    </clipPath>
    <clipPath
       clipPathUnits="userSpaceOnUse"
       id="clipPath34">
      <path
         d="M 0,17 V 2780 H 950 V 17 Z"
         id="path32" />
    </clipPath>
    <clipPath
       clipPathUnits="userSpaceOnUse"
       id="clipPath48">
      <path
         d="M 0,11 V 2780 H 950 V 11 Z"
         id="path46" />
    </clipPath>
  </defs>
  <sodipodi:namedview
     id="namedview4"
     pagecolor="#ffffff"
     bordercolor="#666666"
     borderopacity="1.0"
     inkscape:showpageshadow="2"
     inkscape:pageopacity="0.0"
     inkscape:pagecheckerboard="0"
     inkscape:deskcolor="#d1d1d1"
     showgrid="false"
     inkscape:zoom="1.5755396"
     inkscape:cx="150.42465"
     inkscape:cy="330.04565"
     inkscape:window-width="2560"
     inkscape:window-height="1371"
     inkscape:window-x="0"
     inkscape:window-y="0"
     inkscape:window-maximized="1"
     inkscape:current-layer="g12">
    <inkscape:page
       x="0"
       y="0"
       id="page8"
       width="126.66667"
       height="370.66666" />
  </sodipodi:namedview>
  <g
     id="g10"
     inkscape:groupmode="layer"
     inkscape:label="Page 1"
     transform="matrix(1.3333333,0,0,-1.3333333,0,370.66667)">
    <g
       id="g12"
       transform="scale(0.1)">
      <g
         id="g2631">
        <path
           d="m 411.25,2635.9 c 0,-78.24 -63.441,-141.72 -141.719,-141.72 -78.281,0 -141.722,63.48 -141.722,141.72 0,78.28 63.441,141.76 141.722,141.76 78.278,0 141.719,-63.48 141.719,-141.76 z"
           style="fill:none;stroke:#000000;stroke-width:4.72425;stroke-linecap:butt;stroke-linejoin:miter;stroke-miterlimit:10;stroke-dasharray:none;stroke-opacity:1"
           id="path56" />
        <text
           xml:space="preserve"
           transform="scale(1,-1)"
           style="font-style:italic;font-variant:normal;font-weight:normal;font-stretch:normal;font-size:109.996px;font-family:'Latin Modern Roman';-inkscape-font-specification:'Latin Modern Roman, Italic';font-variant-ligatures:normal;font-variant-caps:normal;font-variant-numeric:normal;font-variant-east-asian:normal;writing-mode:lr-tb;fill:#000000;fill-opacity:1;fill-rule:nonzero;stroke:none;stroke-width:10"
           id="text62"
           x="216.965"
           y="-2594.9299"><tspan
             x="216.965"
             y="-2594.9299"
             id="tspan60"
             style="font-style:italic;font-variant:normal;font-weight:normal;font-stretch:normal;font-size:109.996px;font-family:'Latin Modern Roman';-inkscape-font-specification:'Latin Modern Roman, Italic';font-variant-ligatures:normal;font-variant-caps:normal;font-variant-numeric:normal;font-variant-east-asian:normal;stroke-width:10">X</tspan></text>
      </g>
      <text
         xml:space="preserve"
         transform="scale(1,-1)"
         style="font-style:normal;font-variant:normal;font-weight:normal;font-stretch:normal;font-size:109.996px;font-family:'Latin Modern Sans';-inkscape-font-specification:'Latin Modern Sans, Normal';font-variant-ligatures:normal;font-variant-caps:normal;font-variant-numeric:normal;font-variant-east-asian:normal;writing-mode:lr-tb;fill:#000000;fill-opacity:1;fill-rule:nonzero;stroke:none;stroke-width:10"
         id="text68"
         x="461.61783"
         y="-2686.4573"><tspan
           sodipodi:role="line"
           id="tspan64"
           style="font-style:normal;font-variant:normal;font-weight:normal;font-stretch:normal;font-size:109.996px;font-family:'Latin Modern Sans';-inkscape-font-specification:'Latin Modern Sans, Normal';font-variant-ligatures:normal;font-variant-caps:normal;font-variant-numeric:normal;font-variant-east-asian:normal;stroke-width:10"
           x="461.61783"
           y="-2686.4573">external</tspan><tspan
           sodipodi:role="line"
           id="tspan66"
           style="font-style:normal;font-variant:normal;font-weight:normal;font-stretch:normal;font-size:109.996px;font-family:'Latin Modern Sans';-inkscape-font-specification:'Latin Modern Sans, Normal';font-variant-ligatures:normal;font-variant-caps:normal;font-variant-numeric:normal;font-variant-east-asian:normal;stroke-width:10"
           x="461.61783"
           y="-2548.9622">metabolite</tspan></text>
      <text
         xml:space="preserve"
         transform="matrix(0,1,1,0,0,0)"
         style="font-style:normal;font-variant:normal;font-weight:normal;font-stretch:normal;font-size:109.996px;font-family:'Latin Modern Sans';-inkscape-font-specification:'Latin Modern Sans, Normal';font-variant-ligatures:normal;font-variant-caps:normal;font-variant-numeric:normal;font-variant-east-asian:normal;writing-mode:lr-tb;fill:#000000;fill-opacity:1;fill-rule:nonzero;stroke:none;stroke-width:10"
         id="text72"
         x="358.82401"
         y="84.398399"><tspan
           sodipodi:role="line"
           id="tspan70"
           style="font-style:normal;font-variant:normal;font-weight:normal;font-stretch:normal;font-size:109.996px;font-family:'Latin Modern Sans';-inkscape-font-specification:'Latin Modern Sans, Normal';font-variant-ligatures:normal;font-variant-caps:normal;font-variant-numeric:normal;font-variant-east-asian:normal;stroke-width:10"
           x="358.82401"
           y="84.398399">reaction 3</tspan></text>
      <g
         id="g2621"
         transform="translate(0,0.01333333)">
        <path
           d="m 411.25,979.262 c 0,-78.242 -63.441,-141.723 -141.719,-141.723 -78.281,0 -141.722,63.481 -141.722,141.723 0,78.278 63.441,141.758 141.722,141.758 78.278,0 141.719,-63.48 141.719,-141.758 z"
           style="fill:none;stroke:#000000;stroke-width:4.72425;stroke-linecap:butt;stroke-linejoin:miter;stroke-miterlimit:10;stroke-dasharray:none;stroke-opacity:1"
           id="path84" />
        <path
           d="m 411.25,979.262 c 0,-78.242 -63.441,-141.723 -141.719,-141.723 -78.281,0 -141.722,63.481 -141.722,141.723 0,78.278 63.441,141.758 141.722,141.758 78.278,0 141.719,-63.48 141.719,-141.758"
           style="fill:#dd8822;fill-opacity:1;fill-rule:evenodd;stroke:none"
           id="path86" />
        <text
           xml:space="preserve"
           transform="scale(1,-1)"
           style="font-style:italic;font-variant:normal;font-weight:normal;font-stretch:normal;font-size:109.996px;font-family:'Latin Modern Roman';-inkscape-font-specification:'Latin Modern Roman, Italic';font-variant-ligatures:normal;font-variant-caps:normal;font-variant-numeric:normal;font-variant-east-asian:normal;writing-mode:lr-tb;fill:#000000;fill-opacity:1;fill-rule:nonzero;stroke:none;stroke-width:10"
           id="text92"
           x="216.965"
           y="-928.85199"><tspan
             x="216.965"
             y="-928.85199"
             id="tspan90"
             style="font-style:italic;font-variant:normal;font-weight:normal;font-stretch:normal;font-size:109.996px;font-family:'Latin Modern Roman';-inkscape-font-specification:'Latin Modern Roman, Italic';font-variant-ligatures:normal;font-variant-caps:normal;font-variant-numeric:normal;font-variant-east-asian:normal;stroke-width:10">B</tspan></text>
      </g>
      <g
         id="g2626">
        <path
           d="M 411.25,150.941 C 411.25,72.6992 347.809,9.21875 269.531,9.21875 c -78.281,0 -141.722,63.48045 -141.722,141.72225 0,78.278 63.441,141.758 141.722,141.758 78.278,0 141.719,-63.48 141.719,-141.758 z"
           style="fill:none;stroke:#000000;stroke-width:4.72425;stroke-linecap:butt;stroke-linejoin:miter;stroke-miterlimit:10;stroke-dasharray:none;stroke-opacity:1"
           id="path94" />
        <text
           xml:space="preserve"
           transform="scale(1,-1)"
           style="font-style:italic;font-variant:normal;font-weight:normal;font-stretch:normal;font-size:109.996px;font-family:'Latin Modern Roman';-inkscape-font-specification:'Latin Modern Roman, Italic';font-variant-ligatures:normal;font-variant-caps:normal;font-variant-numeric:normal;font-variant-east-asian:normal;writing-mode:lr-tb;fill:#000000;fill-opacity:1;fill-rule:nonzero;stroke:none;stroke-width:10"
           id="text100"
           x="216.965"
           y="-100.527"><tspan
             x="216.965"
             y="-100.527"
             id="tspan98"
             style="font-style:italic;font-variant:normal;font-weight:normal;font-stretch:normal;font-size:109.996px;font-family:'Latin Modern Roman';-inkscape-font-specification:'Latin Modern Roman, Italic';font-variant-ligatures:normal;font-variant-caps:normal;font-variant-numeric:normal;font-variant-east-asian:normal;stroke-width:10">Y</tspan></text>
      </g>
      <text
         xml:space="preserve"
         transform="matrix(0,1,1,0,0,0)"
         style="font-style:normal;font-variant:normal;font-weight:normal;font-stretch:normal;font-size:109.996px;font-family:'Latin Modern Sans';-inkscape-font-specification:'Latin Modern Sans, Normal';font-variant-ligatures:normal;font-variant-caps:normal;font-variant-numeric:normal;font-variant-east-asian:normal;writing-mode:lr-tb;fill:#000000;fill-opacity:1;fill-rule:nonzero;stroke:none;stroke-width:10"
         id="text118"
         x="1182.8199"
         y="84.398399"><tspan
           sodipodi:role="line"
           id="tspan116"
           style="font-style:normal;font-variant:normal;font-weight:normal;font-stretch:normal;font-size:109.996px;font-family:'Latin Modern Sans';-inkscape-font-specification:'Latin Modern Sans, Normal';font-variant-ligatures:normal;font-variant-caps:normal;font-variant-numeric:normal;font-variant-east-asian:normal;stroke-width:10"
           x="1182.8199"
           y="84.398399">reaction 2</tspan></text>
      <text
         xml:space="preserve"
         transform="matrix(0,1,1,0,0,0)"
         style="font-style:normal;font-variant:normal;font-weight:normal;font-stretch:normal;font-size:109.996px;font-family:'Latin Modern Sans';-inkscape-font-specification:'Latin Modern Sans, Normal';font-variant-ligatures:normal;font-variant-caps:normal;font-variant-numeric:normal;font-variant-east-asian:normal;writing-mode:lr-tb;fill:#000000;fill-opacity:1;fill-rule:nonzero;stroke:none;stroke-width:10"
         id="text533"
         x="2005.9359"
         y="84.398399"><tspan
           sodipodi:role="line"
           id="tspan531"
           style="font-style:normal;font-variant:normal;font-weight:normal;font-stretch:normal;font-size:109.996px;font-family:'Latin Modern Sans';-inkscape-font-specification:'Latin Modern Sans, Normal';font-variant-ligatures:normal;font-variant-caps:normal;font-variant-numeric:normal;font-variant-east-asian:normal;stroke-width:10"
           x="2005.9359"
           y="84.398399">reaction 1</tspan></text>
      <text
         xml:space="preserve"
         transform="scale(1,-1)"
         style="font-style:normal;font-variant:normal;font-weight:normal;font-stretch:normal;font-size:109.996px;font-family:'Latin Modern Sans';-inkscape-font-specification:'Latin Modern Sans, Normal';font-variant-ligatures:normal;font-variant-caps:normal;font-variant-numeric:normal;font-variant-east-asian:normal;writing-mode:lr-tb;fill:#000000;fill-opacity:1;fill-rule:nonzero;stroke:none;stroke-width:10"
         id="text552"
         x="461.61783"
         y="-182.14275"><tspan
           sodipodi:role="line"
           id="tspan548"
           style="font-style:normal;font-variant:normal;font-weight:normal;font-stretch:normal;font-size:109.996px;font-family:'Latin Modern Sans';-inkscape-font-specification:'Latin Modern Sans, Normal';font-variant-ligatures:normal;font-variant-caps:normal;font-variant-numeric:normal;font-variant-east-asian:normal;stroke-width:10"
           x="461.61783"
           y="-182.14275">external</tspan><tspan
           sodipodi:role="line"
           id="tspan550"
           style="font-style:normal;font-variant:normal;font-weight:normal;font-stretch:normal;font-size:109.996px;font-family:'Latin Modern Sans';-inkscape-font-specification:'Latin Modern Sans, Normal';font-variant-ligatures:normal;font-variant-caps:normal;font-variant-numeric:normal;font-variant-east-asian:normal;stroke-width:10"
           x="461.61783"
           y="-44.647743">metabolite</tspan></text>
      <text
         xml:space="preserve"
         transform="scale(1,-1)"
         style="font-style:normal;font-variant:normal;font-weight:normal;font-stretch:normal;font-size:109.996px;font-family:'Latin Modern Sans';-inkscape-font-specification:'Latin Modern Sans, Normal';font-variant-ligatures:normal;font-variant-caps:normal;font-variant-numeric:normal;font-variant-east-asian:normal;writing-mode:lr-tb;fill:#000000;fill-opacity:1;fill-rule:nonzero;stroke:none;stroke-width:10"
         id="text558"
         x="461.61783"
         y="-1010.4634"><tspan
           sodipodi:role="line"
           id="tspan554"
           style="font-style:normal;font-variant:normal;font-weight:normal;font-stretch:normal;font-size:109.996px;font-family:'Latin Modern Sans';-inkscape-font-specification:'Latin Modern Sans, Normal';font-variant-ligatures:normal;font-variant-caps:normal;font-variant-numeric:normal;font-variant-east-asian:normal;stroke-width:10"
           x="461.61783"
           y="-1010.4634">internal</tspan><tspan
           sodipodi:role="line"
           id="tspan556"
           style="font-style:normal;font-variant:normal;font-weight:normal;font-stretch:normal;font-size:109.996px;font-family:'Latin Modern Sans';-inkscape-font-specification:'Latin Modern Sans, Normal';font-variant-ligatures:normal;font-variant-caps:normal;font-variant-numeric:normal;font-variant-east-asian:normal;stroke-width:10"
           x="461.61783"
           y="-872.96838">metabolite</tspan></text>
      <g
         id="g2615"
         transform="translate(0,0.02666667)">
        <path
           d="m 411.25,1807.58 c 0,-78.28 -63.441,-141.72 -141.719,-141.72 -78.281,0 -141.722,63.44 -141.722,141.72 0,78.28 63.441,141.72 141.722,141.72 78.278,0 141.719,-63.44 141.719,-141.72 z"
           style="fill:none;stroke:#000000;stroke-width:4.72425;stroke-linecap:butt;stroke-linejoin:miter;stroke-miterlimit:10;stroke-dasharray:none;stroke-opacity:1"
           id="path74" />
        <path
           d="m 411.25,1807.58 c 0,-78.28 -63.441,-141.72 -141.719,-141.72 -78.281,0 -141.722,63.44 -141.722,141.72 0,78.28 63.441,141.72 141.722,141.72 78.278,0 141.719,-63.44 141.719,-141.72"
           style="fill:#dd8822;fill-opacity:1;fill-rule:evenodd;stroke:none"
           id="path76" />
        <text
           xml:space="preserve"
           transform="scale(1,-1)"
           style="font-style:italic;font-variant:normal;font-weight:normal;font-stretch:normal;font-size:109.996px;font-family:'Latin Modern Roman';-inkscape-font-specification:'Latin Modern Roman, Italic';font-variant-ligatures:normal;font-variant-caps:normal;font-variant-numeric:normal;font-variant-east-asian:normal;writing-mode:lr-tb;fill:#000000;fill-opacity:1;fill-rule:nonzero;stroke:none;stroke-width:10"
           id="text82"
           x="216.965"
           y="-1766.61"><tspan
             x="216.965"
             y="-1766.61"
             id="tspan80"
             style="font-style:italic;font-variant:normal;font-weight:normal;font-stretch:normal;font-size:109.996px;font-family:'Latin Modern Roman';-inkscape-font-specification:'Latin Modern Roman, Italic';font-variant-ligatures:normal;font-variant-caps:normal;font-variant-numeric:normal;font-variant-east-asian:normal;stroke-width:10">A</tspan></text>
      </g>
      <text
         xml:space="preserve"
         transform="scale(1,-1)"
         style="font-style:normal;font-variant:normal;font-weight:normal;font-stretch:normal;font-size:109.996px;font-family:'Latin Modern Sans';-inkscape-font-specification:'Latin Modern Sans, Normal';font-variant-ligatures:normal;font-variant-caps:normal;font-variant-numeric:normal;font-variant-east-asian:normal;writing-mode:lr-tb;fill:#000000;fill-opacity:1;fill-rule:nonzero;stroke:none;stroke-width:10"
         id="text564"
         x="461.61783"
         y="-1838.7841"><tspan
           sodipodi:role="line"
           id="tspan560"
           style="font-style:normal;font-variant:normal;font-weight:normal;font-stretch:normal;font-size:109.996px;font-family:'Latin Modern Sans';-inkscape-font-specification:'Latin Modern Sans, Normal';font-variant-ligatures:normal;font-variant-caps:normal;font-variant-numeric:normal;font-variant-east-asian:normal;stroke-width:10"
           x="461.61783"
           y="-1838.7841">internal</tspan><tspan
           sodipodi:role="line"
           id="tspan562"
           style="font-style:normal;font-variant:normal;font-weight:normal;font-stretch:normal;font-size:109.996px;font-family:'Latin Modern Sans';-inkscape-font-specification:'Latin Modern Sans, Normal';font-variant-ligatures:normal;font-variant-caps:normal;font-variant-numeric:normal;font-variant-east-asian:normal;stroke-width:10"
           x="461.61783"
           y="-1701.2891">metabolite</tspan></text>
      <path
         style="fill:#8888ff;fill-opacity:1;stroke:#8888ff;stroke-width:39.75;stroke-linecap:butt;stroke-linejoin:miter;stroke-dasharray:none;stroke-opacity:1;marker-end:url(#TriangleStart)"
         d="m 269.531,1630.5857 -0.021,-386.13"
         id="path1485" />
      <path
         style="fill:#8888ff;fill-opacity:1;stroke:#8888ff;stroke-width:39.75;stroke-linecap:butt;stroke-linejoin:miter;stroke-dasharray:none;stroke-opacity:1;marker-end:url(#TriangleStart)"
         d="m 265.16185,2458.879 -0.021,-386.13"
         id="path2593" />
      <path
         style="fill:#8888ff;fill-opacity:1;stroke:#8888ff;stroke-width:39.75;stroke-linecap:butt;stroke-linejoin:miter;stroke-dasharray:none;stroke-opacity:1;marker-end:url(#TriangleStart)"
         d="m 265.16185,802.25136 -0.021,-386.13"
         id="path2597" />
    </g>
  </g>
</svg>
