%!PS-Adobe-3.0 EPSF-3.0
%%Title: roleexample_legend.fig
%%Creator: fig2dev Version 3.2 Patchlevel 5e
%%CreationDate: Sun Apr  1 12:08:18 2018
%%BoundingBox: 0 0 59 104
%Magnification: 1.0000
%%EndComments
%%BeginProlog
/$F2psDict 200 dict def
$F2psDict begin
$F2psDict /mtrx matrix put
/col-1 {0 setgray} bind def
/col0 {0.000 0.000 0.000 srgb} bind def
/col1 {0.000 0.000 1.000 srgb} bind def
/col2 {0.000 1.000 0.000 srgb} bind def
/col3 {0.000 1.000 1.000 srgb} bind def
/col4 {1.000 0.000 0.000 srgb} bind def
/col5 {1.000 0.000 1.000 srgb} bind def
/col6 {1.000 1.000 0.000 srgb} bind def
/col7 {1.000 1.000 1.000 srgb} bind def
/col8 {0.000 0.000 0.560 srgb} bind def
/col9 {0.000 0.000 0.690 srgb} bind def
/col10 {0.000 0.000 0.820 srgb} bind def
/col11 {0.530 0.810 1.000 srgb} bind def
/col12 {0.000 0.560 0.000 srgb} bind def
/col13 {0.000 0.690 0.000 srgb} bind def
/col14 {0.000 0.820 0.000 srgb} bind def
/col15 {0.000 0.560 0.560 srgb} bind def
/col16 {0.000 0.690 0.690 srgb} bind def
/col17 {0.000 0.820 0.820 srgb} bind def
/col18 {0.560 0.000 0.000 srgb} bind def
/col19 {0.690 0.000 0.000 srgb} bind def
/col20 {0.820 0.000 0.000 srgb} bind def
/col21 {0.560 0.000 0.560 srgb} bind def
/col22 {0.690 0.000 0.690 srgb} bind def
/col23 {0.820 0.000 0.820 srgb} bind def
/col24 {0.500 0.190 0.000 srgb} bind def
/col25 {0.630 0.250 0.000 srgb} bind def
/col26 {0.750 0.380 0.000 srgb} bind def
/col27 {1.000 0.500 0.500 srgb} bind def
/col28 {1.000 0.630 0.630 srgb} bind def
/col29 {1.000 0.750 0.750 srgb} bind def
/col30 {1.000 0.880 0.880 srgb} bind def
/col31 {1.000 0.840 0.000 srgb} bind def
/col32 {0.867 0.867 0.867 srgb} bind def
/col33 {0.933 0.933 0.933 srgb} bind def
/col34 {0.867 0.894 1.000 srgb} bind def
/col35 {0.980 0.867 0.467 srgb} bind def

end

/cp {closepath} bind def
/ef {eofill} bind def
/gr {grestore} bind def
/gs {gsave} bind def
/sa {save} bind def
/rs {restore} bind def
/l {lineto} bind def
/m {moveto} bind def
/rm {rmoveto} bind def
/n {newpath} bind def
/s {stroke} bind def
/sh {show} bind def
/slc {setlinecap} bind def
/slj {setlinejoin} bind def
/slw {setlinewidth} bind def
/srgb {setrgbcolor} bind def
/rot {rotate} bind def
/sc {scale} bind def
/sd {setdash} bind def
/ff {findfont} bind def
/sf {setfont} bind def
/scf {scalefont} bind def
/sw {stringwidth} bind def
/tr {translate} bind def
/tnt {dup dup currentrgbcolor
  4 -2 roll dup 1 exch sub 3 -1 roll mul add
  4 -2 roll dup 1 exch sub 3 -1 roll mul add
  4 -2 roll dup 1 exch sub 3 -1 roll mul add srgb}
  bind def
/shd {dup dup currentrgbcolor 4 -2 roll mul 4 -2 roll mul
  4 -2 roll mul srgb} bind def
/$F2psBegin {$F2psDict begin /$F2psEnteredState save def} def
/$F2psEnd {$F2psEnteredState restore end} def

/pageheader {
save
newpath 0 104 moveto 0 0 lineto 59 0 lineto 59 104 lineto closepath clip newpath
-15.1 116.7 translate
1 -1 scale
$F2psBegin
10 setmiterlimit
0 slj 0 slc
 0.06000 0.06000 sc
} bind def
/pagefooter {
$F2psEnd
restore
} bind def
%%EndProlog
pageheader
%
% Fig objects follow
%
% 
% here starts figure with depth 50
% Polyline
0 slj
0 slc
15.000 slw
 [45] 0 sd
gs  clippath
1110 361 m 1173 361 l 1173 234 l 1110 234 l 1110 234 l cp
eoclip
n 274 298 m
 1174 298 l gs col1 s gr gr
 [] 0 sd
% arrowhead
7.500 slw
n 1110 358 m 1120 357 l 1129 355 l 1138 351 l 1146 346 l 
1153 340 l 1159 332 l 1164 324 l 1168 315 l 1170 305 l 
1170 296 l 1169 286 l 1166 277 l 1162 268 l 1156 260 l 
1150 253 l 1142 247 l 1134 243 l 1124 240 l 1115 238 l 
1105 238 l 1096 240 l 1086 243 l 1078 247 l 1070 253 l 
1064 260 l 1058 268 l 1054 277 l 1051 286 l 1050 296 l 
1050 305 l 1052 315 l 1056 324 l 1061 332 l 1067 340 l 
1074 346 l 1082 351 l 1091 355 l 1100 357 l 1110 358 l 
 cp gs col7 1.00 shd ef gr  col1 s
% Polyline
15.000 slw
 [45] 0 sd
gs  clippath
1190 853 m 1224 853 l 1224 733 l 1190 733 l 1190 733 l 1205 793 l 1190 853 l cp
eoclip
n 309 793 m
 1209 793 l gs col4 s gr gr
 [] 0 sd
% arrowhead
7.500 slw
n 1190 853 m 1205 793 l 1190 733 l  col4 s
% Polyline
15.000 slw
gs  clippath
1136 1340 m 1204 1340 l 1204 1205 l 1136 1205 l 1136 1205 l cp
eoclip
n 304 1273 m
 1204 1273 l gs col1 s gr gr

% arrowhead
n 1136 1333 m 1146 1332 l 1155 1330 l 1164 1326 l 1172 1321 l 
1179 1315 l 1185 1307 l 1190 1299 l 1194 1290 l 1196 1280 l 
1196 1271 l 1195 1261 l 1192 1252 l 1188 1243 l 1182 1235 l 
1176 1228 l 1168 1222 l 1160 1218 l 1150 1215 l 1141 1213 l 
1131 1213 l 1122 1215 l 1112 1218 l 1104 1222 l 1096 1228 l 
1090 1235 l 1084 1243 l 1080 1252 l 1077 1261 l 1076 1271 l 
1076 1280 l 1078 1290 l 1082 1299 l 1087 1307 l 1093 1315 l 
1100 1321 l 1108 1326 l 1117 1330 l 1126 1332 l 1136 1333 l 
 cp gs col7 1.00 shd ef gr  col1 s
% Polyline
gs  clippath
1184 1923 m 1209 1923 l 1209 1773 l 1184 1773 l 1184 1773 l 1186 1848 l 1184 1923 l cp
eoclip
n 294 1848 m
 1194 1848 l gs col4 s gr gr

% arrowhead
n 1184 1923 m 1186 1848 l 1184 1773 l  col4 s
% here ends figure;
pagefooter
showpage
%%Trailer
%EOF
