%!PS-Adobe-3.0 EPSF-3.0
%%Title: roleexample.fig
%%Creator: fig2dev Version 3.2.6a
%%CreationDate: 2022-02-25 13:46:39
%%BoundingBox: 0 0 286 549
%Magnification: 1.0000
%%EndComments
%%BeginProlog
/$F2psDict 200 dict def
$F2psDict begin
$F2psDict /mtrx matrix put
/col-1 {0 setgray} bind def
/col0 {0.000 0.000 0.000 srgb} bind def
/col1 {0.000 0.000 1.000 srgb} bind def
/col4 {1.000 0.000 0.000 srgb} bind def
/col7 {1.000 1.000 1.000 srgb} bind def
/col32 {0.867 0.867 0.867 srgb} bind def
/col33 {0.933 0.933 0.933 srgb} bind def
/col34 {0.933 0.894 1.000 srgb} bind def
/col35 {0.910 0.784 0.533 srgb} bind def
/col36 {0.800 0.627 0.400 srgb} bind def
/col37 {0.976 0.937 0.800 srgb} bind def

end

/cp {closepath} bind def
/ef {eofill} bind def
/gr {grestore} bind def
/gs {gsave} bind def
/sa {save} bind def
/rs {restore} bind def
/l {lineto} bind def
/m {moveto} bind def
/rm {rmoveto} bind def
/n {newpath} bind def
/s {stroke} bind def
/sh {show} bind def
/slc {setlinecap} bind def
/slj {setlinejoin} bind def
/slw {setlinewidth} bind def
/srgb {setrgbcolor} bind def
/rot {rotate} bind def
/sc {scale} bind def
/sd {setdash} bind def
/ff {findfont} bind def
/sf {setfont} bind def
/scf {scalefont} bind def
/sw {stringwidth} bind def
/tr {translate} bind def
/tnt {dup dup currentrgbcolor
  4 -2 roll dup 1 exch sub 3 -1 roll mul add
  4 -2 roll dup 1 exch sub 3 -1 roll mul add
  4 -2 roll dup 1 exch sub 3 -1 roll mul add srgb}
  bind def
/shd {dup dup currentrgbcolor 4 -2 roll mul 4 -2 roll mul
  4 -2 roll mul srgb} bind def
 /DrawEllipse {
	/endangle exch def
	/startangle exch def
	/yrad exch def
	/xrad exch def
	/y exch def
	/x exch def
	/savematrix mtrx currentmatrix def
	x y tr xrad yrad sc 0 0 1 startangle endangle arc
	closepath
	savematrix setmatrix
	} def

/$F2psBegin {$F2psDict begin /$F2psEnteredState save def} def
/$F2psEnd {$F2psEnteredState restore end} def

/pageheader {
save
newpath 0 549 moveto 0 0 lineto 286 0 lineto 286 549 lineto closepath clip newpath
-15.5 572.5 translate
1 -1 scale
$F2psBegin
10 setmiterlimit
0 slj 0 slc
 0.06000 0.06000 sc
} bind def
/pagefooter {
$F2psEnd
restore
} bind def
%%EndProlog
pageheader
%
% Fig objects follow
%
% 
% here starts figure with depth 700
% Polyline
0 slj
0 slc
7.500 slw
n 1485 3689 m 2045 3689 l 2045 3989 l 1485 3989 l
 cp gs col32 1.00 shd ef gr gs col32 s gr 
% Polyline
n 3025 3659 m 3585 3659 l 3585 3959 l 3025 3959 l
 cp gs col32 1.00 shd ef gr gs col32 s gr 
% here ends figure;
% 
% here starts figure with depth 150
% Polyline
0 slj
0 slc
15.000 slw
gs  clippath
3583 6530 m 3604 6530 l 3653 6601 l 3652 6610 l 3650 6620 l 3646 6628 l 3641 6637 l 3635 6644 l 3627 6650 l 3619 6655 l 3610 6658 l 3600 6660 l 3591 6660 l 3581 6659 l 3572 6657 l 3563 6652 l 3555 6647 l 3548 6640 l 3542 6633 l 3538 6624 l 3535 6615 l 3533 6605 l cp
eoclip
n 2568 6520 m 2568 7038 l 3593 7028 l
 3593 6533 l gs col1 s gr gr

% arrowhead
n 3653 6601 m 3652 6591 l 3650 6581 l 3646 6573 l 3641 6564 l 
3635 6557 l 3627 6551 l 3619 6546 l 3610 6543 l 3600 6541 l 
3591 6541 l 3581 6542 l 3572 6544 l 3563 6549 l 3555 6554 l 
3548 6561 l 3542 6568 l 3538 6577 l 3535 6586 l 3533 6596 l 
3533 6605 l 3535 6615 l 3538 6624 l 3542 6633 l 3548 6640 l 
3555 6647 l 3563 6652 l 3572 6657 l 3581 6659 l 3591 6660 l 
3600 6660 l 3610 6658 l 3619 6655 l 3627 6650 l 3635 6644 l 
3641 6637 l 3646 6628 l 3650 6620 l 3652 6610 l 3653 6601 l 
 cp gs col7 1.00 shd ef gr  col1 s
% Polyline
gs  clippath
1589 6572 m 1610 6572 l 1712 6593 l 1599 6590 l 1487 6593 l cp
eoclip
n 4719 6602 m 4719 7288 l 1599 7288 l
 1599 6582 l gs col4 s gr gr

% arrowhead
n 1487 6593 m 1599 6590 l 1712 6593 l  col4 s
% here ends figure;
% 
% here starts figure with depth 50
% Arc
15.000 slw
0 slc
gs  clippath
1602 3638 m 1585 3650 l 1504 3620 l 1499 3611 l 1496 3602 l 1494 3593 l 1494 3583 l 1495 3574 l 1497 3564 l 1502 3556 l 1507 3548 l 1514 3541 l 1522 3535 l 1530 3531 l 1539 3528 l 1549 3526 l 1559 3526 l 1568 3528 l 1577 3531 l 1586 3535 l 1593 3541 l 1600 3548 l cp
eoclip
 [45] 0 sd
n 1338.2 3734.6 269.3 -170.0360 -20.7924 arc
gs col1 s gr
 gr
 [] 0 sd
% arrowhead
0 slj
7.500 slw
n 1504 3620 m 1510 3627 l 1517 3634 l 1525 3639 l 1534 3643 l 
1544 3645 l 1553 3646 l 1563 3645 l 1572 3643 l 1581 3639 l 
1589 3634 l 1597 3628 l 1603 3620 l 1608 3612 l 1611 3603 l 
1613 3593 l 1613 3584 l 1612 3574 l 1610 3565 l 1606 3556 l 
1600 3548 l 1593 3541 l 1586 3535 l 1577 3531 l 1568 3528 l 
1559 3526 l 1549 3526 l 1539 3528 l 1530 3531 l 1522 3535 l 
1514 3541 l 1507 3548 l 1502 3556 l 1497 3564 l 1495 3574 l 
1494 3583 l 1494 3593 l 1496 3602 l 1499 3611 l 1504 3620 l 
 cp gs col7 1.00 shd ef gr  col1 s
% Arc
15.000 slw
gs  clippath
1784 3629 m 1766 3619 l 1737 3569 l 1782 3612 l 1841 3628 l cp
eoclip
 [45] 0 sd
n 2068.5 3769.8 327.4 -27.8214 -151.7821 arcn
gs col4 s gr
 gr
 [] 0 sd
% arrowhead
7.500 slw
n 1841 3628 m 1782 3612 l 1737 3569 l  col4 s
% Arc
15.000 slw
gs  clippath
3110 3606 m 3096 3621 l 3010 3611 l 3004 3604 l 2998 3596 l 2994 3587 l 2991 3578 l 2990 3569 l 2991 3559 l 2993 3550 l 2996 3540 l 3001 3532 l 3007 3525 l 3014 3518 l 3023 3513 l 3032 3509 l 3041 3507 l 3051 3506 l 3060 3507 l 3070 3510 l 3078 3513 l 3087 3519 l cp
eoclip
 [45] 0 sd
n 2803.4 3843.5 376.5 -147.4676 -38.5186 arc
gs col1 s gr
 gr
 [] 0 sd
% arrowhead
7.500 slw
n 3010 3611 m 3018 3617 l 3026 3622 l 3036 3625 l 3045 3626 l 
3055 3626 l 3064 3625 l 3074 3622 l 3082 3617 l 3090 3612 l 
3097 3605 l 3102 3597 l 3106 3588 l 3109 3579 l 3110 3569 l 
3110 3560 l 3108 3550 l 3105 3541 l 3100 3533 l 3094 3525 l 
3087 3519 l 3078 3513 l 3070 3510 l 3060 3507 l 3051 3506 l 
3041 3507 l 3032 3509 l 3023 3513 l 3014 3518 l 3007 3525 l 
3001 3532 l 2996 3540 l 2993 3550 l 2991 3559 l 2990 3569 l 
2991 3578 l 2994 3587 l 2998 3596 l 3004 3604 l 3010 3611 l 
 cp gs col7 1.00 shd ef gr  col1 s
% Arc
15.000 slw
gs  clippath
3395 3589 m 3381 3574 l 3400 3490 l 3407 3484 l 3416 3479 l 3425 3476 l 3435 3474 l 3444 3474 l 3454 3475 l 3463 3478 l 3472 3483 l 3479 3488 l 3486 3495 l 3492 3503 l 3496 3512 l 3499 3521 l 3500 3531 l 3500 3540 l 3498 3550 l 3495 3559 l 3490 3567 l 3484 3575 l cp
eoclip
 [45] 0 sd
n 3650.5 3765.2 319.0 -27.6802 -143.8470 arcn
gs col1 s gr
 gr
 [] 0 sd
% arrowhead
7.500 slw
n 3400 3490 m 3393 3497 l 3388 3505 l 3384 3514 l 3381 3523 l 
3380 3533 l 3381 3542 l 3383 3552 l 3387 3561 l 3391 3569 l 
3398 3576 l 3405 3583 l 3413 3588 l 3422 3591 l 3432 3593 l 
3441 3594 l 3451 3593 l 3460 3591 l 3469 3587 l 3477 3581 l 
3484 3575 l 3490 3567 l 3495 3559 l 3498 3550 l 3500 3540 l 
3500 3531 l 3499 3521 l 3496 3512 l 3492 3503 l 3486 3495 l 
3479 3488 l 3472 3483 l 3463 3478 l 3454 3475 l 3444 3474 l 
3435 3474 l 3425 3476 l 3416 3479 l 3407 3484 l 3400 3490 l 
 cp gs col7 1.00 shd ef gr  col1 s
% Ellipse
n 4063 3874 216 216 0 360 DrawEllipse gs col0 s gr

% Ellipse
n 2383 3874 216 216 0 360 DrawEllipse gs col0 s gr

% Ellipse
n 883 3904 216 216 0 360 DrawEllipse gs col0 s gr

% Polyline
15.000 slw
gs  clippath
3101 3991 m 3122 3990 l 3172 4061 l 3171 4070 l 3169 4080 l 3165 4089 l 3160 4097 l 3154 4104 l 3146 4110 l 3138 4115 l 3129 4119 l 3119 4121 l 3110 4121 l 3100 4120 l 3091 4117 l 3082 4113 l 3074 4108 l 3067 4101 l 3061 4093 l 3057 4085 l 3054 4076 l 3052 4066 l cp
eoclip
n 2383 4134 m 2383 4294 l 3113 4294 l
 3111 3993 l gs col1 s gr gr

% arrowhead
n 3172 4061 m 3171 4051 l 3169 4042 l 3165 4033 l 3160 4025 l 
3153 4017 l 3146 4011 l 3137 4007 l 3128 4003 l 3119 4001 l 
3109 4001 l 3099 4002 l 3090 4005 l 3082 4009 l 3074 4015 l 
3067 4022 l 3061 4029 l 3056 4038 l 3053 4047 l 3052 4057 l 
3052 4066 l 3054 4076 l 3057 4085 l 3061 4093 l 3067 4101 l 
3074 4108 l 3082 4113 l 3091 4117 l 3100 4120 l 3110 4121 l 
3119 4121 l 3129 4119 l 3138 4115 l 3146 4110 l 3154 4104 l 
3160 4097 l 3165 4089 l 3169 4080 l 3171 4070 l 3172 4061 l 
 cp gs col7 1.00 shd ef gr  col1 s
% Polyline
gs  clippath
1688 4089 m 1709 4089 l 1773 4108 l 1698 4107 l 1623 4108 l cp
eoclip
n 4098 4174 m 4098 4474 l 1698 4474 l
 1698 4099 l gs col4 s gr gr

% arrowhead
n 1623 4108 m 1698 4107 l 1773 4108 l  col4 s
% Arc
gs  clippath
1674 6172 m 1654 6164 l 1591 6107 l 1669 6154 l 1759 6174 l cp
eoclip
 [45] 0 sd
n 2098.3 6316.0 458.4 -29.8232 -159.8415 arcn
gs col4 s gr
 gr
 [] 0 sd
% arrowhead
7.500 slw
n 1759 6174 m 1669 6154 l 1591 6107 l  col4 s
% Arc
15.000 slw
gs  clippath
3689 6203 m 3670 6211 l 3596 6167 l 3593 6158 l 3591 6149 l 3591 6139 l 3592 6129 l 3595 6120 l 3600 6111 l 3605 6104 l 3612 6097 l 3620 6091 l 3629 6087 l 3638 6084 l 3647 6083 l 3657 6083 l 3666 6085 l 3676 6088 l 3684 6093 l 3692 6099 l 3698 6106 l 3703 6114 l cp
eoclip
 [45] 0 sd
n 3216.8 6337.2 480.0 -156.3877 -16.4914 arc
gs col1 s gr
 gr
 [] 0 sd
% arrowhead
7.500 slw
n 3596 6167 m 3601 6176 l 3607 6183 l 3614 6190 l 3622 6195 l 
3631 6199 l 3640 6202 l 3650 6203 l 3659 6202 l 3669 6200 l 
3678 6196 l 3686 6191 l 3693 6185 l 3700 6178 l 3705 6169 l 
3708 6161 l 3710 6151 l 3711 6141 l 3710 6132 l 3707 6123 l 
3703 6114 l 3698 6106 l 3692 6099 l 3684 6093 l 3676 6088 l 
3666 6085 l 3657 6083 l 3647 6083 l 3638 6084 l 3629 6087 l 
3620 6091 l 3612 6097 l 3605 6104 l 3600 6111 l 3595 6120 l 
3592 6129 l 3591 6139 l 3591 6149 l 3593 6158 l 3596 6167 l 
 cp gs col7 1.00 shd ef gr  col1 s
% Arc
15.000 slw
gs  clippath
3849 6172 m 3829 6164 l 3768 6105 l 3845 6154 l 3933 6176 l cp
eoclip
 [45] 0 sd
n 4279.5 6325.2 467.4 -22.2812 -159.0374 arcn
gs col4 s gr
 gr
 [] 0 sd
% arrowhead
7.500 slw
n 3933 6176 m 3845 6154 l 3768 6105 l  col4 s
% Arc
15.000 slw
gs  clippath
1495 6203 m 1475 6211 l 1404 6162 l 1401 6153 l 1400 6144 l 1401 6134 l 1403 6125 l 1406 6115 l 1411 6107 l 1417 6100 l 1424 6093 l 1432 6088 l 1441 6084 l 1451 6082 l 1460 6081 l 1470 6082 l 1479 6084 l 1488 6088 l 1496 6093 l 1504 6100 l 1510 6107 l 1514 6116 l cp
eoclip
 [45] 0 sd
n 1053.0 6293.8 439.9 -160.2288 -12.1790 arc
gs col1 s gr
 gr
 [] 0 sd
% arrowhead
7.500 slw
n 1404 6162 m 1408 6171 l 1414 6179 l 1420 6186 l 1428 6192 l 
1437 6196 l 1446 6199 l 1455 6201 l 1465 6201 l 1475 6200 l 
1484 6196 l 1492 6192 l 1500 6186 l 1507 6179 l 1512 6171 l 
1516 6163 l 1519 6153 l 1520 6144 l 1520 6134 l 1518 6125 l 
1514 6116 l 1510 6107 l 1504 6100 l 1496 6093 l 1488 6088 l 
1479 6084 l 1470 6082 l 1460 6081 l 1451 6082 l 1441 6084 l 
1432 6088 l 1424 6093 l 1417 6100 l 1411 6107 l 1406 6115 l 
1403 6125 l 1401 6134 l 1400 6144 l 1401 6153 l 1404 6162 l 
 cp gs col7 1.00 shd ef gr  col1 s
% Ellipse
n 850 1355 216 216 0 360 DrawEllipse gs col0 s gr

% Ellipse
n 2334 1323 216 216 0 360 DrawEllipse gs col0 s gr

% Ellipse
n 4065 1315 216 216 0 360 DrawEllipse gs col0 s gr

% Ellipse
n 2542 8951 189 200 0 360 DrawEllipse gs col0 s gr

% Ellipse
n 4685 8968 189 200 0 360 DrawEllipse gs col0 s gr

% Ellipse
n 511 8990 189 200 0 360 DrawEllipse gs col0 s gr

% Ellipse
n 574 6367 189 200 0 360 DrawEllipse gs col0 s gr

% Ellipse
n 2613 6337 189 200 0 360 DrawEllipse gs col0 s gr

% Ellipse
n 4753 6331 189 200 0 360 DrawEllipse gs col0 s gr

% Polyline
15.000 slw
gs  clippath
2096 1308 m 2096 1329 l 1893 1378 l 1893 1258 l cp
eoclip
n 1185 1318 m
 2085 1318 l gs col0 s gr gr

% arrowhead
7.500 slw
n 1893 1378 m 2073 1318 l 1893 1258 l 1893 1378 l  cp gs 0.00 setgray ef gr  col0 s
% Polyline
15.000 slw
gs  clippath
3596 1308 m 3596 1329 l 3393 1378 l 3393 1258 l cp
eoclip
n 2685 1318 m
 3585 1318 l gs col0 s gr gr

% arrowhead
7.500 slw
n 3393 1378 m 3573 1318 l 3393 1258 l 3393 1378 l  cp gs 0.00 setgray ef gr  col0 s
% Polyline
n 1515 1215 m 1695 1215 l 1695 1410 l 1515 1410 l
 cp gs col7 1.00 shd ef gr gs col0 s gr 
% Polyline
n 2985 1200 m 3165 1200 l 3165 1395 l 2985 1395 l
 cp gs col7 1.00 shd ef gr gs col0 s gr 
% Polyline
15.000 slw
gs  clippath
3048 1452 m 3069 1451 l 3119 1522 l 3118 1531 l 3116 1541 l 3112 1550 l 3107 1558 l 3101 1565 l 3093 1571 l 3085 1576 l 3076 1580 l 3066 1582 l 3057 1582 l 3047 1581 l 3038 1578 l 3029 1574 l 3021 1569 l 3014 1562 l 3008 1554 l 3004 1546 l 3001 1537 l 2999 1527 l cp
eoclip
n 2330 1595 m 2330 1755 l 3060 1755 l
 3058 1454 l gs col1 s gr gr

% arrowhead
n 3119 1522 m 3118 1512 l 3116 1503 l 3112 1494 l 3107 1486 l 
3100 1478 l 3093 1472 l 3084 1468 l 3075 1464 l 3066 1462 l 
3056 1462 l 3046 1463 l 3037 1466 l 3029 1470 l 3021 1476 l 
3014 1483 l 3008 1490 l 3003 1499 l 3000 1508 l 2999 1518 l 
2999 1527 l 3001 1537 l 3004 1546 l 3008 1554 l 3014 1562 l 
3021 1569 l 3029 1574 l 3038 1578 l 3047 1581 l 3057 1582 l 
3066 1582 l 3076 1580 l 3085 1576 l 3093 1571 l 3101 1565 l 
3107 1558 l 3112 1550 l 3116 1541 l 3118 1531 l 3119 1522 l 
 cp gs col7 1.00 shd ef gr  col1 s
% Polyline
gs  clippath
1575 1580 m 1596 1580 l 1660 1599 l 1585 1598 l 1510 1599 l cp
eoclip
n 3985 1665 m 3985 1890 l 1585 1890 l
 1585 1590 l gs col4 s gr gr

% arrowhead
n 1510 1599 m 1585 1598 l 1660 1599 l  col4 s
% Polyline
gs  clippath
2352 8964 m 2352 8985 l 2119 9049 l 2119 8899 l cp
eoclip
n 822 8974 m
 2341 8974 l gs col0 s gr gr

% arrowhead
7.500 slw
n 2119 9049 m 2329 8974 l 2119 8899 l 2119 9049 l  cp gs 0.00 setgray ef gr  col0 s
% Polyline
15.000 slw
gs  clippath
4489 8964 m 4489 8985 l 4256 9049 l 4256 8899 l cp
eoclip
n 2847 8974 m
 4478 8974 l gs col0 s gr gr

% arrowhead
7.500 slw
n 4256 9049 m 4466 8974 l 4256 8899 l 4256 9049 l  cp gs 0.00 setgray ef gr  col0 s
% Polyline
15.000 slw
gs  clippath
2394 6343 m 2394 6364 l 2161 6428 l 2161 6278 l cp
eoclip
n 864 6353 m
 2383 6353 l gs col0 s gr gr

% arrowhead
7.500 slw
n 2161 6428 m 2371 6353 l 2161 6278 l 2161 6428 l  cp gs 0.00 setgray ef gr  col0 s
% Polyline
15.000 slw
gs  clippath
4531 6360 m 4531 6381 l 4298 6445 l 4298 6295 l cp
eoclip
n 2889 6370 m
 4520 6370 l gs col0 s gr gr

% arrowhead
7.500 slw
n 4298 6445 m 4508 6370 l 4298 6295 l 4298 6445 l  cp gs 0.00 setgray ef gr  col0 s
% Polyline
n 1309 8521 m 1234 8521 1234 8671 75 arcto 4 {pop} repeat
  1234 8746 1553 8746 75 arcto 4 {pop} repeat
  1628 8746 1628 8596 75 arcto 4 {pop} repeat
  1628 8521 1309 8521 75 arcto 4 {pop} repeat
 cp gs col34 1.00 shd ef gr gs col34 s gr 
% Polyline
n 3495 8534 m 3420 8534 3420 8684 75 arcto 4 {pop} repeat
  3420 8759 3738 8759 75 arcto 4 {pop} repeat
  3813 8759 3813 8609 75 arcto 4 {pop} repeat
  3813 8534 3495 8534 75 arcto 4 {pop} repeat
 cp gs col34 1.00 shd ef gr gs col34 s gr 
% Polyline
n 1770 6441 m 1695 6441 1695 6633 75 arcto 4 {pop} repeat
  1695 6708 2091 6708 75 arcto 4 {pop} repeat
  2166 6708 2166 6516 75 arcto 4 {pop} repeat
  2166 6441 1770 6441 75 arcto 4 {pop} repeat
 cp gs col34 1.00 shd ef gr gs col34 s gr 
% Polyline
n 3770 6447 m 3695 6447 3695 6647 75 arcto 4 {pop} repeat
  3695 6722 4058 6722 75 arcto 4 {pop} repeat
  4133 6722 4133 6522 75 arcto 4 {pop} repeat
  4133 6447 3770 6447 75 arcto 4 {pop} repeat
 cp gs col34 1.00 shd ef gr gs col34 s gr 
/Helvetica ff 266.67 scf sf
2931 1037 m
gs 1 -1 sc (R) col0 sh gr
/Helvetica ff 200.00 scf sf
3100 1108 m
gs 1 -1 sc (2) col0 sh gr
/Helvetica ff 266.67 scf sf
1458 1046 m
gs 1 -1 sc (R) col0 sh gr
/Helvetica ff 200.00 scf sf
1616 1119 m
gs 1 -1 sc (1) col0 sh gr
/Helvetica ff 266.67 scf sf
1619 3928 m
gs 1 -1 sc (R) col0 sh gr
/Helvetica ff 200.00 scf sf
1797 3951 m
gs 1 -1 sc (1) col0 sh gr
/Helvetica ff 266.67 scf sf
3123 3886 m
gs 1 -1 sc (R) col0 sh gr
/Helvetica ff 200.00 scf sf
3332 3917 m
gs 1 -1 sc (2) col0 sh gr
/Helvetica ff 200.00 scf sf
1392 3387 m
gs 1 -1 sc (1) col0 sh gr
/Helvetica ff 200.00 scf sf
2132 3377 m
gs 1 -1 sc (1) col0 sh gr
/Helvetica ff 200.00 scf sf
2872 3387 m
gs 1 -1 sc (1) col0 sh gr
/Helvetica ff 200.00 scf sf
3682 3387 m
gs 1 -1 sc (2) col0 sh gr
/Helvetica ff 333.33 scf sf
3933 3992 m
gs 1 -1 sc (C) col0 sh gr
/Helvetica ff 333.33 scf sf
2283 3992 m
gs 1 -1 sc (B) col0 sh gr
/Helvetica ff 200.00 scf sf
3213 4292 m
gs 1 -1 sc (1) col0 sh gr
/Helvetica ff 200.00 scf sf
1762 4317 m
gs 1 -1 sc (1) col0 sh gr
/Helvetica ff 233.33 scf sf
273 2974 m
gs 1 -1 sc (\(b\)  Direct causal effects) col0 sh gr
/Helvetica ff 333.33 scf sf
783 3992 m
gs 1 -1 sc (A) col0 sh gr
/Helvetica ff 333.33 scf sf
735 1468 m
gs 1 -1 sc (A) col0 sh gr
/Helvetica ff 333.33 scf sf
2222 1455 m
gs 1 -1 sc (B) col0 sh gr
/Helvetica ff 333.33 scf sf
3655 1441 m
gs 1 -1 sc (2 C) col0 sh gr
/Helvetica ff 233.33 scf sf
300 600 m
gs 1 -1 sc (\(a\)  Network structure and regulation) col0 sh gr
/Helvetica ff 333.33 scf sf
402 9099 m
gs 1 -1 sc (A) col0 sh gr
/Helvetica ff 333.33 scf sf
2441 9073 m
gs 1 -1 sc (B) col0 sh gr
/Helvetica ff 333.33 scf sf
4578 9096 m
gs 1 -1 sc (C) col0 sh gr
/Helvetica ff 333.33 scf sf
471 6482 m
gs 1 -1 sc (A) col0 sh gr
/Helvetica ff 333.33 scf sf
4633 6472 m
gs 1 -1 sc (C) col0 sh gr
/Helvetica ff 333.33 scf sf
2503 6469 m
gs 1 -1 sc (B) col0 sh gr
% here ends figure;
% 
% here starts figure with depth 30
% Polyline
0 slj
0 slc
7.500 slw
n 1334 9274 m 1259 9274 1259 9424 75 arcto 4 {pop} repeat
  1259 9499 1578 9499 75 arcto 4 {pop} repeat
  1653 9499 1653 9349 75 arcto 4 {pop} repeat
  1653 9274 1334 9274 75 arcto 4 {pop} repeat
 cp gs col35 1.00 shd ef gr gs col35 s gr 
% Polyline
n 378 9304 m 303 9304 303 9454 75 arcto 4 {pop} repeat
  303 9529 678 9529 75 arcto 4 {pop} repeat
  753 9529 753 9379 75 arcto 4 {pop} repeat
  753 9304 378 9304 75 arcto 4 {pop} repeat
 cp gs col36 1.00 shd ef gr gs col36 s gr 
% Polyline
n 2409 9289 m 2334 9289 2334 9450 75 arcto 4 {pop} repeat
  2334 9525 2720 9525 75 arcto 4 {pop} repeat
  2795 9525 2795 9364 75 arcto 4 {pop} repeat
  2795 9289 2409 9289 75 arcto 4 {pop} repeat
 cp gs col36 1.00 shd ef gr gs col36 s gr 
% Polyline
n 4522 9295 m 4447 9295 4447 9454 75 arcto 4 {pop} repeat
  4447 9529 4818 9529 75 arcto 4 {pop} repeat
  4893 9529 4893 9370 75 arcto 4 {pop} repeat
  4893 9295 4522 9295 75 arcto 4 {pop} repeat
 cp gs col36 1.00 shd ef gr gs col36 s gr 
% Polyline
n 3555 9274 m 3480 9274 3480 9424 75 arcto 4 {pop} repeat
  3480 9499 3798 9499 75 arcto 4 {pop} repeat
  3873 9499 3873 9349 75 arcto 4 {pop} repeat
  3873 9274 3555 9274 75 arcto 4 {pop} repeat
 cp gs col35 1.00 shd ef gr gs col35 s gr 
% Polyline
n 923 5721 m 848 5721 848 5927 75 arcto 4 {pop} repeat
  848 6002 1167 6002 75 arcto 4 {pop} repeat
  1242 6002 1242 5796 75 arcto 4 {pop} repeat
  1242 5721 923 5721 75 arcto 4 {pop} repeat
 cp gs col35 1.00 shd ef gr gs col35 s gr 
% Polyline
n 3074 5741 m 2999 5741 2999 5947 75 arcto 4 {pop} repeat
  2999 6022 3318 6022 75 arcto 4 {pop} repeat
  3393 6022 3393 5816 75 arcto 4 {pop} repeat
  3393 5741 3074 5741 75 arcto 4 {pop} repeat
 cp gs col35 1.00 shd ef gr gs col35 s gr 
% Polyline
n 4140 5754 m 4065 5754 4065 5960 75 arcto 4 {pop} repeat
  4065 6035 4383 6035 75 arcto 4 {pop} repeat
  4458 6035 4458 5829 75 arcto 4 {pop} repeat
  4458 5754 4140 5754 75 arcto 4 {pop} repeat
 cp gs col35 1.00 shd ef gr gs col35 s gr 
% Polyline
n 3027 6895 m 2952 6895 2952 7101 75 arcto 4 {pop} repeat
  2952 7176 3271 7176 75 arcto 4 {pop} repeat
  3346 7176 3346 6970 75 arcto 4 {pop} repeat
  3346 6895 3027 6895 75 arcto 4 {pop} repeat
 cp gs col35 1.00 shd ef gr gs col35 s gr 
% Polyline
n 1945 5727 m 1870 5727 1870 5933 75 arcto 4 {pop} repeat
  1870 6008 2189 6008 75 arcto 4 {pop} repeat
  2264 6008 2264 5802 75 arcto 4 {pop} repeat
  2264 5727 1945 5727 75 arcto 4 {pop} repeat
 cp gs col35 1.00 shd ef gr gs col35 s gr 
% Polyline
n 1874 7148 m 1799 7148 1799 7354 75 arcto 4 {pop} repeat
  1799 7429 2118 7429 75 arcto 4 {pop} repeat
  2193 7429 2193 7223 75 arcto 4 {pop} repeat
  2193 7148 1874 7148 75 arcto 4 {pop} repeat
 cp gs col35 1.00 shd ef gr gs col35 s gr 
% Polyline
n 441 6554 m 366 6554 366 6753 75 arcto 4 {pop} repeat
  366 6828 751 6828 75 arcto 4 {pop} repeat
  826 6828 826 6629 75 arcto 4 {pop} repeat
  826 6554 441 6554 75 arcto 4 {pop} repeat
 cp gs col36 1.00 shd ef gr gs col36 s gr 
% Polyline
n 2474 6515 m 2399 6515 2399 6707 75 arcto 4 {pop} repeat
  2399 6782 2799 6782 75 arcto 4 {pop} repeat
  2874 6782 2874 6590 75 arcto 4 {pop} repeat
  2874 6515 2474 6515 75 arcto 4 {pop} repeat
 cp gs col36 1.00 shd ef gr gs col36 s gr 
% Polyline
n 4636 6531 m 4561 6531 4561 6733 75 arcto 4 {pop} repeat
  4561 6808 4931 6808 75 arcto 4 {pop} repeat
  5006 6808 5006 6606 75 arcto 4 {pop} repeat
  5006 6531 4636 6531 75 arcto 4 {pop} repeat
 cp gs col36 1.00 shd ef gr gs col36 s gr 
% here ends figure;
% 
% here starts figure with depth 10
% Polyline
0 slj
0 slc
7.500 slw
n 1353 8839 m 1578 8839 l 1578 9064 l 1353 9064 l
 cp gs col7 1.00 shd ef gr gs col0 s gr 
% Polyline
n 3498 8854 m 3723 8854 l 3723 9079 l 3498 9079 l
 cp gs col7 1.00 shd ef gr gs col0 s gr 
% Polyline
n 1518 6263 m 1743 6263 l 1743 6488 l 1518 6488 l
 cp gs col7 1.00 shd ef gr gs col0 s gr 
% Polyline
n 3498 6263 m 3723 6263 l 3723 6488 l 3498 6488 l
 cp gs col7 1.00 shd ef gr gs col0 s gr 
/Helvetica ff 233.33 scf sf
668 8375 m
gs 1 -1 sc (State variables) col0 sh gr
/Helvetica ff 233.33 scf sf
306 8356 m
gs 1 -1 sc (\(d\)) col0 sh gr
/Helvetica ff 233.33 scf sf
1386 8715 m
gs 1 -1 sc (v) col0 sh gr
/Helvetica ff 233.33 scf sf
3559 8716 m
gs 1 -1 sc (v) col0 sh gr
/Helvetica ff 233.33 scf sf
4503 9467 m
gs 1 -1 sc (c) col0 sh gr
/Helvetica ff 233.33 scf sf
396 9476 m
gs 1 -1 sc (c,) col0 sh gr
/Helvetica ff 233.33 scf sf
2411 9466 m
gs 1 -1 sc (c,) col0 sh gr
/Helvetica ff 233.33 scf sf
4612 9469 m
gs 1 -1 sc (,) col0 sh gr
/Symbol ff 216.67 scf sf
596 9466 m
gs 1 -1 sc (m) col0 sh gr
/Symbol ff 216.67 scf sf
2605 9453 m
gs 1 -1 sc (m) col0 sh gr
/Symbol ff 216.67 scf sf
4697 9457 m
gs 1 -1 sc (m) col0 sh gr
/Helvetica ff 233.33 scf sf
1388 9461 m
gs 1 -1 sc (e) col0 sh gr
/Helvetica ff 233.33 scf sf
3628 9471 m
gs 1 -1 sc (e) col0 sh gr
/Helvetica ff 233.33 scf sf
318 5408 m
gs 1 -1 sc (\(c\)) col0 sh gr
/Helvetica ff 233.33 scf sf
693 5408 m
gs 1 -1 sc (Kinetic rate constants) col0 sh gr
/Helvetica ff 233.33 scf sf
884 5946 m
gs 1 -1 sc (K) col0 sh gr
/Helvetica ff 166.67 scf sf
1045 5982 m
gs 1 -1 sc (M) col0 sh gr
/Helvetica ff 233.33 scf sf
1925 5962 m
gs 1 -1 sc (K) col0 sh gr
/Helvetica ff 166.67 scf sf
2086 5982 m
gs 1 -1 sc (M) col0 sh gr
/Helvetica ff 233.33 scf sf
3042 5970 m
gs 1 -1 sc (K) col0 sh gr
/Helvetica ff 166.67 scf sf
3209 5987 m
gs 1 -1 sc (M) col0 sh gr
/Helvetica ff 233.33 scf sf
4116 5989 m
gs 1 -1 sc (K) col0 sh gr
/Helvetica ff 166.67 scf sf
4287 6023 m
gs 1 -1 sc (M) col0 sh gr
/Symbol ff 216.67 scf sf
450 6755 m
gs 1 -1 sc (m) col0 sh gr
/Helvetica ff 150.00 scf sf
560 6709 m
gs 1 -1 sc (0) col0 sh gr
/Helvetica ff 166.67 scf sf
2641 6671 m
gs 1 -1 sc (0) col0 sh gr
/Symbol ff 216.67 scf sf
2513 6708 m
gs 1 -1 sc (m) col0 sh gr
/Symbol ff 216.67 scf sf
4633 6733 m
gs 1 -1 sc (m) col0 sh gr
/Helvetica ff 166.67 scf sf
4757 6686 m
gs 1 -1 sc (0) col0 sh gr
/Helvetica ff 233.33 scf sf
1742 6646 m
gs 1 -1 sc (k) col0 sh gr
/Helvetica ff 166.67 scf sf
1863 6664 m
gs 1 -1 sc (cat) col0 sh gr
/Helvetica ff 233.33 scf sf
3741 6641 m
gs 1 -1 sc (k) col0 sh gr
/Helvetica ff 166.67 scf sf
3867 6671 m
gs 1 -1 sc (cat) col0 sh gr
/Helvetica ff 166.67 scf sf
3165 7024 m
gs 1 -1 sc (A) col0 sh gr
/Helvetica ff 233.33 scf sf
2993 7135 m
gs 1 -1 sc (k) col0 sh gr
/Helvetica ff 166.67 scf sf
2047 7381 m
gs 1 -1 sc (I) col0 sh gr
/Helvetica ff 233.33 scf sf
1919 7347 m
gs 1 -1 sc (k) col0 sh gr
% here ends figure;
pagefooter
showpage
%%Trailer
%EOF
