chapter,overleaf_hash,appendix,solutions,comment
OVE,6537c76e702848ba5afaed29,,,
PER,62e00c307e3b253685e6096c,,,
TIM,6241a204f4b22e1088bb0dcb,,,
UNC,622775caa3dfd206e39e2689,,,
VAR,6178e811f930606696c8513e,,,
INSTRUCTIONS_LATEX,65ed615888a8955d4bbcba28,,,
TEMPLATE,621f7ab65dc8bb069630b8ec,,,
AUT,633f435d0601f52634d91ec6,,,
BAL,624aea1b9d9f8270cc6042e2,,,
CBM,61bbae869718f129554760bc,,solutions.tex,
CDC,6256ec3fe5cec9efafe578c4,appendix.tex,,
CEN,61ae4fc1e25deacd73cf9c96,,solutions.tex,
CMO,61fbc6c8595e6e632909a04d,,,
FAC,6203ebf394e5273ef87564a1,,,
FIT,624aeac39d9f82070b6054d3,,,
FLX,628bc9ededfacbb288842bbf,,,
GAM,,,,not created yet
LAR,61e7d8928fd96b36e771c0e5,,,
MET,620556f6db372bce5632d9b3,appendix.tex,solutions.tex,
OME,62fbb4015034e37d4a7bf2a6,appendix.tex,,
OPT,61fbb0af595e6e2cdc076c63,,,
PAT,65ed5b9e8ed2f103a2d6f9cb,,solutions.tex,
POP,,,,not created yet
PRE,65ed60c1d31112e817913bb7,,,
PRF,624afe2d9d9f82f04062c0ed,,,
ORG,63ed01da4d8d9285ed8f3d00,,,
REG,6256ea86e5cec99b07e54fa1,,,
ROI,61e83109fdbd77b972132039,,,
SMA,61e7f28e8fd96b57cc7473f5,,,
OEP,63fdd2d1707f318a1e675c3a,appendix.tex,,
MCA,678679f42f3059359b9d665d,,,
RAT,646cbf0a7e5350bd01f6f58d,,,
