%!PS-Adobe-3.0 EPSF-3.0
%%Title: rate_and_yield_efficiency.fig
%%Creator: fig2dev Version 3.2 Patchlevel 5e
%%CreationDate: Sun Apr  8 20:40:32 2018
%%BoundingBox: 0 0 1320 378
%Magnification: 1.0000
%%EndComments
%%BeginProlog
/$F2psDict 200 dict def
$F2psDict begin
$F2psDict /mtrx matrix put
/col-1 {0 setgray} bind def
/col0 {0.000 0.000 0.000 srgb} bind def
/col1 {0.000 0.000 1.000 srgb} bind def
/col2 {0.000 1.000 0.000 srgb} bind def
/col3 {0.000 1.000 1.000 srgb} bind def
/col4 {1.000 0.000 0.000 srgb} bind def
/col5 {1.000 0.000 1.000 srgb} bind def
/col6 {1.000 1.000 0.000 srgb} bind def
/col7 {1.000 1.000 1.000 srgb} bind def
/col8 {0.000 0.000 0.560 srgb} bind def
/col9 {0.000 0.000 0.690 srgb} bind def
/col10 {0.000 0.000 0.820 srgb} bind def
/col11 {0.530 0.810 1.000 srgb} bind def
/col12 {0.000 0.560 0.000 srgb} bind def
/col13 {0.000 0.690 0.000 srgb} bind def
/col14 {0.000 0.820 0.000 srgb} bind def
/col15 {0.000 0.560 0.560 srgb} bind def
/col16 {0.000 0.690 0.690 srgb} bind def
/col17 {0.000 0.820 0.820 srgb} bind def
/col18 {0.560 0.000 0.000 srgb} bind def
/col19 {0.690 0.000 0.000 srgb} bind def
/col20 {0.820 0.000 0.000 srgb} bind def
/col21 {0.560 0.000 0.560 srgb} bind def
/col22 {0.690 0.000 0.690 srgb} bind def
/col23 {0.820 0.000 0.820 srgb} bind def
/col24 {0.500 0.190 0.000 srgb} bind def
/col25 {0.630 0.250 0.000 srgb} bind def
/col26 {0.750 0.380 0.000 srgb} bind def
/col27 {1.000 0.500 0.500 srgb} bind def
/col28 {1.000 0.630 0.630 srgb} bind def
/col29 {1.000 0.750 0.750 srgb} bind def
/col30 {1.000 0.880 0.880 srgb} bind def
/col31 {1.000 0.840 0.000 srgb} bind def
/col32 {0.867 0.800 0.627 srgb} bind def
/col33 {0.533 0.667 1.000 srgb} bind def
/col34 {0.784 0.659 0.455 srgb} bind def

end

/cp {closepath} bind def
/ef {eofill} bind def
/gr {grestore} bind def
/gs {gsave} bind def
/sa {save} bind def
/rs {restore} bind def
/l {lineto} bind def
/m {moveto} bind def
/rm {rmoveto} bind def
/n {newpath} bind def
/s {stroke} bind def
/sh {show} bind def
/slc {setlinecap} bind def
/slj {setlinejoin} bind def
/slw {setlinewidth} bind def
/srgb {setrgbcolor} bind def
/rot {rotate} bind def
/sc {scale} bind def
/sd {setdash} bind def
/ff {findfont} bind def
/sf {setfont} bind def
/scf {scalefont} bind def
/sw {stringwidth} bind def
/tr {translate} bind def
/tnt {dup dup currentrgbcolor
  4 -2 roll dup 1 exch sub 3 -1 roll mul add
  4 -2 roll dup 1 exch sub 3 -1 roll mul add
  4 -2 roll dup 1 exch sub 3 -1 roll mul add srgb}
  bind def
/shd {dup dup currentrgbcolor 4 -2 roll mul 4 -2 roll mul
  4 -2 roll mul srgb} bind def
/reencdict 12 dict def /ReEncode { reencdict begin
/newcodesandnames exch def /newfontname exch def /basefontname exch def
/basefontdict basefontname findfont def /newfont basefontdict maxlength dict def
basefontdict { exch dup /FID ne { dup /Encoding eq
{ exch dup length array copy newfont 3 1 roll put }
{ exch newfont 3 1 roll put } ifelse } { pop pop } ifelse } forall
newfont /FontName newfontname put newcodesandnames aload pop
128 1 255 { newfont /Encoding get exch /.notdef put } for
newcodesandnames length 2 idiv { newfont /Encoding get 3 1 roll put } repeat
newfontname newfont definefont pop end } def
/isovec [
8#055 /minus 8#200 /grave 8#201 /acute 8#202 /circumflex 8#203 /tilde
8#204 /macron 8#205 /breve 8#206 /dotaccent 8#207 /dieresis
8#210 /ring 8#211 /cedilla 8#212 /hungarumlaut 8#213 /ogonek 8#214 /caron
8#220 /dotlessi 8#230 /oe 8#231 /OE
8#240 /space 8#241 /exclamdown 8#242 /cent 8#243 /sterling
8#244 /currency 8#245 /yen 8#246 /brokenbar 8#247 /section 8#250 /dieresis
8#251 /copyright 8#252 /ordfeminine 8#253 /guillemotleft 8#254 /logicalnot
8#255 /hyphen 8#256 /registered 8#257 /macron 8#260 /degree 8#261 /plusminus
8#262 /twosuperior 8#263 /threesuperior 8#264 /acute 8#265 /mu 8#266 /paragraph
8#267 /periodcentered 8#270 /cedilla 8#271 /onesuperior 8#272 /ordmasculine
8#273 /guillemotright 8#274 /onequarter 8#275 /onehalf
8#276 /threequarters 8#277 /questiondown 8#300 /Agrave 8#301 /Aacute
8#302 /Acircumflex 8#303 /Atilde 8#304 /Adieresis 8#305 /Aring
8#306 /AE 8#307 /Ccedilla 8#310 /Egrave 8#311 /Eacute
8#312 /Ecircumflex 8#313 /Edieresis 8#314 /Igrave 8#315 /Iacute
8#316 /Icircumflex 8#317 /Idieresis 8#320 /Eth 8#321 /Ntilde 8#322 /Ograve
8#323 /Oacute 8#324 /Ocircumflex 8#325 /Otilde 8#326 /Odieresis 8#327 /multiply
8#330 /Oslash 8#331 /Ugrave 8#332 /Uacute 8#333 /Ucircumflex
8#334 /Udieresis 8#335 /Yacute 8#336 /Thorn 8#337 /germandbls 8#340 /agrave
8#341 /aacute 8#342 /acircumflex 8#343 /atilde 8#344 /adieresis 8#345 /aring
8#346 /ae 8#347 /ccedilla 8#350 /egrave 8#351 /eacute
8#352 /ecircumflex 8#353 /edieresis 8#354 /igrave 8#355 /iacute
8#356 /icircumflex 8#357 /idieresis 8#360 /eth 8#361 /ntilde 8#362 /ograve
8#363 /oacute 8#364 /ocircumflex 8#365 /otilde 8#366 /odieresis 8#367 /divide
8#370 /oslash 8#371 /ugrave 8#372 /uacute 8#373 /ucircumflex
8#374 /udieresis 8#375 /yacute 8#376 /thorn 8#377 /ydieresis] def
/Helvetica /Helvetica-iso isovec ReEncode
/$F2psBegin {$F2psDict begin /$F2psEnteredState save def} def
/$F2psEnd {$F2psEnteredState restore end} def

/pageheader {
save
newpath 0 378 moveto 0 0 lineto 1320 0 lineto 1320 378 lineto closepath clip newpath
-10.4 393.8 translate
1 -1 scale
$F2psBegin
10 setmiterlimit
0 slj 0 slc
 0.06299 0.06299 sc
} bind def
/pagefooter {
$F2psEnd
restore
} bind def
%%EndProlog
pageheader
%
% Fig objects follow
%
% 
% here starts figure with depth 50
% Polyline
0 slj
0 slc
7.500 slw
n 8680 -2147483648 m 8630 -2147483648 l 8530 -2147483648 l 8510 -2147483648 l 8580 -2147483648 l 8680 -2147483648 l

 cp gs col32 1.00 shd ef gr gs col0 s gr 
% Polyline
n 8607 3208 m 8519 3155 l 8344 3208 l 8310 3311 l 8432 3347 l 8607 3294 l

 cp gs col32 1.00 shd ef gr gs col0 s gr 
% Polyline
n 2426 3142 m 2313 3067 l 2088 3142 l 2044 3290 l 2201 3341 l 2426 3266 l

 cp gs col32 1.00 shd ef gr gs col0 s gr 
% Polyline
n 18278 5244 m 18183 5184 l 17994 5244 l 17956 5364 l 18088 5404 l 18278 5343 l

 cp gs col32 1.00 shd ef gr gs col0 s gr 
% Polyline
135.000 slw
gs  clippath
16098 4850 m 16393 4850 l 16393 4623 l 16098 4623 l 16098 4623 l 16326 4737 l 16098 4850 l cp
eoclip
n 14467 4737 m
 16378 4737 l gs col33 s gr gr

% arrowhead
45.000 slw
n 16098 4850 m 16326 4737 l 16098 4623 l 16098 4850 l  cp gs col33 1.00 shd ef gr  col33 s
% Polyline
7.500 slw
n 15184 5400 m 14819 5119 l 14087 5400 l 13942 5966 l 14452 6154 l 15184 5873 l

 cp gs col32 1.00 shd ef gr gs col0 s gr 
% Polyline
135.000 slw
gs  clippath
19487 4850 m 19781 4850 l 19782 4623 l 19487 4622 l 19487 4622 l 19715 4737 l 19487 4850 l cp
eoclip
n 17868 4731 m
 19767 4737 l gs col33 s gr gr

% arrowhead
45.000 slw
n 19487 4850 m 19715 4737 l 19487 4622 l 19487 4850 l  cp gs col33 1.00 shd ef gr  col33 s
% Polyline
7.500 slw
n 18520 5445 m 18664 5199 l 19021 5169 l 19347 5411 l 19256 5654 l 18657 5654 l

 cp gs col34 1.00 shd ef gr gs col0 s gr 
% Polyline
135.000 slw
gs  clippath
15962 2393 m 16257 2393 l 16257 2166 l 15962 2166 l 15962 2166 l 16190 2280 l 15962 2393 l cp
eoclip
n 14332 2280 m
 16242 2280 l gs col33 s gr gr

% arrowhead
45.000 slw
n 15962 2393 m 16190 2280 l 15962 2166 l 15962 2393 l  cp gs col33 1.00 shd ef gr  col33 s
% Polyline
135.000 slw
gs  clippath
19499 2295 m 19793 2295 l 19794 2068 l 19499 2067 l 19499 2067 l 19727 2182 l 19499 2295 l cp
eoclip
n 17879 2177 m
 19779 2182 l gs col33 s gr gr

% arrowhead
45.000 slw
n 19499 2295 m 19727 2182 l 19499 2067 l 19499 2295 l  cp gs col33 1.00 shd ef gr  col33 s
% Polyline
7.500 slw
n 18460 2864 m 18604 2617 l 18960 2587 l 19286 2829 l 19195 3072 l 18596 3072 l

 cp gs col34 1.00 shd ef gr gs col0 s gr 
% Polyline
n 18276 2653 m 18240 2621 l 18167 2653 l 18153 2715 l 18204 2735 l 18276 2704 l

 cp gs col32 1.00 shd ef gr gs col0 s gr 
% Polyline
n 14820 2746 m 14685 2655 l 14414 2746 l 14362 2924 l 14549 2985 l 14820 2895 l

 cp gs col32 1.00 shd ef gr gs col0 s gr 
% Polyline
n 13140 960 m 20745 960 l 20745 3277 l 13140 3277 l
 cp gs col0 s gr 
% Polyline
n 13125 3527 m 20734 3527 l 20734 6240 l 13125 6240 l
 cp gs col0 s gr 
% Polyline
2 slj
285.000 slw
gs  clippath
15688 4572 m 15991 4182 l 15668 3931 l 15365 4321 l 15365 4321 l 15778 4124 l 15688 4572 l cp
eoclip
n 14479 4600 m 14481 4600 l 14484 4600 l 14490 4600 l 14500 4601 l 14514 4601 l
 14531 4602 l 14552 4603 l 14577 4604 l 14604 4605 l 14634 4606 l
 14666 4607 l 14700 4608 l 14735 4609 l 14770 4609 l 14806 4610 l
 14842 4610 l 14879 4611 l 14916 4611 l 14954 4610 l 14992 4610 l
 15030 4609 l 15069 4607 l 15108 4605 l 15147 4603 l 15184 4600 l
 15232 4595 l 15272 4591 l 15301 4587 l 15321 4585 l 15332 4585 l
 15336 4587 l 15335 4589 l 15330 4592 l 15323 4596 l 15315 4599 l
 15310 4601 l 15307 4601 l 15308 4598 l 15315 4592 l 15329 4581 l
 15350 4566 l 15378 4544 l 15412 4517 l 15439 4494 l 15466 4469 l
 15493 4444 l 15519 4418 l 15544 4392 l 15569 4367 l 15592 4341 l
 15615 4315 l 15638 4290 l 15660 4265 l 15681 4240 l 15702 4215 l
 15722 4191 l 15740 4169 l 15758 4148 l 15773 4128 l 15787 4112 l
 15798 4098 l 15807 4087 l
 15821 4069 l gs col33 s gr gr

% arrowhead
0 slj
60.000 slw
n 15688 4572 m 15778 4124 l 15365 4321 l 15688 4572 l  cp gs col33 1.00 shd ef gr  col33 s
% Polyline
2 slj
135.000 slw
gs  clippath
19366 4455 m 19473 4180 l 19261 4097 l 19154 4372 l 19154 4372 l 19343 4202 l 19366 4455 l cp
eoclip
n 17868 4640 m 17869 4640 l 17872 4640 l 17878 4640 l 17886 4641 l 17898 4641 l
 17914 4642 l 17933 4643 l 17957 4644 l 17984 4645 l 18014 4646 l
 18047 4648 l 18083 4649 l 18122 4650 l 18161 4652 l 18203 4653 l
 18245 4654 l 18288 4656 l 18331 4657 l 18375 4658 l 18419 4658 l
 18463 4659 l 18508 4659 l 18552 4659 l 18597 4659 l 18643 4658 l
 18688 4657 l 18734 4656 l 18779 4654 l 18824 4652 l 18867 4649 l
 18909 4646 l 18964 4641 l 19011 4635 l 19048 4630 l 19076 4625 l
 19096 4622 l 19109 4620 l 19115 4618 l 19117 4618 l 19114 4618 l
 19109 4618 l 19103 4619 l 19096 4619 l 19089 4619 l 19084 4618 l
 19081 4615 l 19080 4611 l 19084 4604 l 19091 4595 l 19103 4583 l
 19118 4568 l 19137 4549 l 19157 4528 l 19179 4502 l 19200 4476 l
 19219 4449 l 19237 4422 l 19253 4396 l 19267 4370 l 19280 4345 l
 19293 4320 l 19304 4295 l 19315 4271 l 19325 4248 l 19334 4226 l
 19341 4207 l 19348 4190 l 19353 4176 l
 19362 4153 l gs col33 s gr gr

% arrowhead
0 slj
45.000 slw
n 19366 4455 m 19343 4202 l 19154 4372 l 19366 4455 l  cp gs col33 1.00 shd ef gr  col33 s
% Polyline
2 slj
285.000 slw
gs  clippath
15551 2116 m 15854 1726 l 15531 1475 l 15228 1865 l 15228 1865 l 15641 1668 l 15551 2116 l cp
eoclip
n 14342 2144 m 14344 2144 l 14347 2144 l 14353 2144 l 14363 2145 l 14377 2145 l
 14394 2146 l 14415 2147 l 14440 2148 l 14468 2149 l 14498 2150 l
 14530 2151 l 14563 2152 l 14598 2153 l 14633 2154 l 14669 2154 l
 14706 2155 l 14743 2155 l 14780 2155 l 14818 2155 l 14856 2154 l
 14894 2153 l 14933 2151 l 14972 2149 l 15011 2147 l 15048 2144 l
 15096 2139 l 15136 2134 l 15165 2131 l 15185 2129 l 15196 2129 l
 15200 2130 l 15198 2133 l 15193 2136 l 15186 2139 l 15179 2142 l
 15173 2144 l 15170 2144 l 15171 2141 l 15178 2135 l 15192 2125 l
 15213 2109 l 15241 2087 l 15275 2060 l 15302 2037 l 15329 2012 l
 15356 1987 l 15382 1961 l 15407 1935 l 15432 1910 l 15455 1884 l
 15478 1859 l 15501 1833 l 15523 1808 l 15544 1783 l 15565 1759 l
 15585 1735 l 15603 1712 l 15621 1691 l 15636 1672 l 15650 1655 l
 15661 1642 l 15670 1631 l
 15684 1613 l gs col33 s gr gr

% arrowhead
0 slj
60.000 slw
n 15551 2116 m 15641 1668 l 15228 1865 l 15551 2116 l  cp gs col33 1.00 shd ef gr  col33 s
% Polyline
2 slj
135.000 slw
gs  clippath
19377 1900 m 19484 1625 l 19272 1542 l 19165 1817 l 19165 1817 l 19354 1647 l 19377 1900 l cp
eoclip
n 17879 2086 m 17880 2086 l 17883 2086 l 17889 2086 l 17897 2087 l 17909 2087 l
 17925 2088 l 17944 2089 l 17968 2090 l 17995 2091 l 18025 2092 l
 18058 2093 l 18094 2095 l 18133 2096 l 18172 2097 l 18214 2099 l
 18256 2100 l 18299 2101 l 18342 2102 l 18386 2103 l 18430 2104 l
 18474 2104 l 18519 2104 l 18563 2104 l 18608 2104 l 18654 2104 l
 18699 2103 l 18745 2101 l 18790 2099 l 18835 2097 l 18878 2094 l
 18920 2091 l 18975 2086 l 19022 2080 l 19059 2075 l 19087 2070 l
 19107 2067 l 19120 2064 l 19126 2063 l 19128 2063 l 19125 2063 l
 19120 2063 l 19114 2064 l 19107 2064 l 19100 2064 l 19095 2063 l
 19092 2060 l 19091 2056 l 19095 2049 l 19102 2040 l 19114 2028 l
 19129 2013 l 19148 1994 l 19168 1973 l 19190 1947 l 19211 1921 l
 19230 1894 l 19248 1867 l 19264 1841 l 19278 1815 l 19291 1790 l
 19304 1765 l 19315 1740 l 19326 1716 l 19336 1693 l 19345 1671 l
 19352 1652 l 19359 1635 l 19364 1621 l
 19373 1598 l gs col33 s gr gr

% arrowhead
0 slj
45.000 slw
n 19377 1900 m 19354 1647 l 19165 1817 l 19377 1900 l  cp gs col33 1.00 shd ef gr  col33 s
% Polyline
135.000 slw
gs  clippath
10281 2704 m 10648 2705 l 10649 2405 l 10282 2404 l 10282 2404 l 10582 2555 l 10281 2704 l cp
eoclip
n 8129 2549 m
 10634 2555 l gs col33 s gr gr

% arrowhead
45.000 slw
n 10281 2704 m 10582 2555 l 10282 2404 l 10281 2704 l  cp gs col33 1.00 shd ef gr  col33 s
% Polyline
135.000 slw
gs  clippath
4060 2745 m 4427 2745 l 4427 2445 l 4060 2445 l 4060 2445 l 4360 2595 l 4060 2745 l cp
eoclip
n 1892 2595 m
 4412 2595 l gs col33 s gr gr

% arrowhead
45.000 slw
n 4060 2745 m 4360 2595 l 4060 2445 l 4060 2745 l  cp gs col33 1.00 shd ef gr  col33 s
% Polyline
7.500 slw
n 8970 3490 m 9160 3165 l 9630 3125 l 10060 3445 l 9940 3765 l 9150 3765 l

 cp gs col34 1.00 shd ef gr gs col0 s gr 
% Polyline
2 slj
135.000 slw
gs  clippath
10110 2168 m 10244 1825 l 9964 1716 l 9830 2058 l 9830 2058 l 10080 1834 l 10110 2168 l cp
eoclip
n 8129 2429 m 8130 2429 l 8133 2429 l 8138 2429 l 8146 2430 l 8158 2430 l
 8173 2431 l 8192 2432 l 8215 2433 l 8242 2434 l 8273 2435 l
 8308 2436 l 8346 2438 l 8386 2439 l 8430 2441 l 8475 2443 l
 8522 2444 l 8570 2446 l 8620 2447 l 8670 2448 l 8721 2450 l
 8772 2451 l 8823 2452 l 8875 2452 l 8927 2453 l 8979 2453 l
 9032 2453 l 9084 2453 l 9137 2452 l 9191 2451 l 9244 2449 l
 9297 2447 l 9350 2445 l 9402 2442 l 9453 2439 l 9502 2435 l
 9569 2428 l 9626 2422 l 9674 2415 l 9712 2409 l 9739 2405 l
 9758 2401 l 9770 2399 l 9775 2398 l 9772 2398 l 9765 2399 l
 9757 2399 l 9749 2400 l 9741 2400 l 9734 2398 l 9729 2396 l
 9728 2392 l 9730 2385 l 9736 2376 l 9746 2363 l 9762 2348 l
 9781 2328 l 9804 2306 l 9829 2280 l 9856 2249 l 9881 2217 l
 9905 2185 l 9926 2153 l 9946 2121 l 9964 2090 l 9980 2059 l
 9996 2029 l 10011 1999 l 10024 1969 l 10037 1941 l 10049 1913 l
 10060 1887 l 10069 1863 l 10078 1841 l 10085 1823 l 10090 1808 l

 10099 1785 l gs col33 s gr gr

% arrowhead
0 slj
45.000 slw
n 10110 2168 m 10080 1834 l 9830 2058 l 10110 2168 l  cp gs col33 1.00 shd ef gr  col33 s
% Polyline
2 slj
285.000 slw
gs  clippath
3506 2359 m 3897 1871 l 3475 1534 l 3084 2022 l 3084 2022 l 3633 1769 l 3506 2359 l cp
eoclip
n 1907 2415 m 1908 2415 l 1911 2415 l 1917 2415 l 1926 2416 l 1938 2416 l
 1954 2417 l 1974 2418 l 1998 2419 l 2025 2420 l 2055 2421 l
 2088 2422 l 2123 2423 l 2160 2424 l 2199 2425 l 2238 2426 l
 2278 2427 l 2319 2428 l 2361 2429 l 2402 2429 l 2444 2429 l
 2487 2429 l 2530 2429 l 2573 2428 l 2617 2427 l 2662 2426 l
 2706 2424 l 2751 2421 l 2795 2418 l 2837 2415 l 2895 2409 l
 2943 2404 l 2981 2399 l 3009 2396 l 3026 2395 l 3035 2396 l
 3037 2398 l 3034 2401 l 3028 2405 l 3019 2409 l 3011 2413 l
 3003 2415 l 2999 2416 l 2998 2414 l 3003 2409 l 3015 2399 l
 3035 2384 l 3062 2364 l 3097 2337 l 3137 2305 l 3167 2279 l
 3198 2251 l 3229 2223 l 3259 2194 l 3288 2165 l 3316 2136 l
 3344 2107 l 3371 2078 l 3397 2049 l 3422 2020 l 3448 1992 l
 3472 1963 l 3496 1935 l 3520 1907 l 3542 1881 l 3564 1855 l
 3584 1830 l 3602 1807 l 3619 1787 l 3634 1768 l 3647 1753 l
 3657 1740 l 3665 1730 l
 3677 1715 l gs col33 s gr gr

% arrowhead
0 slj
60.000 slw
n 3506 2359 m 3633 1769 l 3084 2022 l 3506 2359 l  cp gs col33 1.00 shd ef gr  col33 s
/Helvetica-iso ff 190.50 scf sf
17072 4778 m
gs 1 -1 sc (glucose) col4 sh gr
/Helvetica-iso ff 190.50 scf sf
13637 4812 m
gs 1 -1 sc (glucose) col4 sh gr
/Helvetica-iso ff 190.50 scf sf
13979 4596 m
gs 1 -1 sc (Low) col4 sh gr
/Helvetica-iso ff 190.50 scf sf
17401 4585 m
gs 1 -1 sc (Low) col4 sh gr
/Helvetica-iso ff 190.50 scf sf
13831 2132 m
gs 1 -1 sc (High) col4 sh gr
/Helvetica-iso ff 190.50 scf sf
13513 2337 m
gs 1 -1 sc (glucose) col4 sh gr
/Helvetica-iso ff 190.50 scf sf
17357 2121 m
gs 1 -1 sc (High) col4 sh gr
/Helvetica-iso ff 190.50 scf sf
17061 2326 m
gs 1 -1 sc (glucose) col4 sh gr
/Helvetica-iso ff 190.50 scf sf
13569 3822 m
gs 1 -1 sc (Low glucose: fermentation has bigger enzyme demand) col0 sh gr
/Helvetica-iso ff 190.50 scf sf
13486 1294 m
gs 1 -1 sc (High glucose: Respiration has bigger enzyme demand) col0 sh gr
/Helvetica-iso ff 285.75 scf sf
180 5400 m
gs 1 -1 sc (Enzyme demand low -> High growth rate) col34 sh gr
%  8 
/Helvetica-iso ff 285.75 scf sf
210 4725 m
gs 1 -1 sc (Substrate demand high -> Low biomass yield) col33 sh gr
/Helvetica-iso ff 285.75 scf sf
6825 5400 m
gs 1 -1 sc (Enzyme demand high -> Low growth rate) col34 sh gr
/Helvetica-iso ff 285.75 scf sf
6780 4695 m
gs 1 -1 sc (Substrate demand low -> High biomass yield) col33 sh gr
/Helvetica-iso ff 381.00 scf sf
240 2370 m
gs 1 -1 sc (Glucose) col33 sh gr
/Helvetica-iso ff 381.00 scf sf
240 2820 m
gs 1 -1 sc (demand) col33 sh gr
/Helvetica-iso ff 254.00 scf sf
6810 2415 m
gs 1 -1 sc (Glucose) col33 sh gr
/Helvetica-iso ff 254.00 scf sf
6810 2730 m
gs 1 -1 sc (demand) col33 sh gr
% here ends figure;
% 
% here starts figure with depth 20
% Polyline
0 slj
0 slc
15.000 slw
n 18199 5176 m
 18293 4934 l gs col0 s gr 
% Arc
n 14820.9 4643.4 206.2 51.6045 -56.7473 arc
gs col0 s gr

% Arc
n 18313.4 4721.9 203.4 29.7851 -47.0707 arc
gs col0 s gr

% Arc
n 18816.7 4729.2 201.1 20.6145 -44.5828 arc
gs col0 s gr

% Arc
n 14684.5 2187.3 205.8 51.3602 -56.8619 arc
gs col0 s gr

% Arc
n 18324.4 2166.9 203.4 29.7851 -47.0707 arc
gs col0 s gr

% Arc
n 18827.9 2174.5 201.2 20.8206 -44.6790 arc
gs col0 s gr

% Polyline
n 14820 5126 m
 14820 4888 l gs col0 s gr 
% Polyline
n 18813 5176 m
 18813 4972 l gs col0 s gr 
% Polyline
n 14684 2670 m
 14684 2432 l gs col0 s gr 
% Polyline
n 18209 2621 m
 18304 2379 l gs col0 s gr 
% Polyline
n 18823 2621 m
 18823 2417 l gs col0 s gr 
% Arc
n 8716.1 2536.5 268.4 29.8244 -47.0558 arc
gs col0 s gr

% Arc
n 9380.8 2546.8 265.2 20.5858 -44.7754 arc
gs col0 s gr

% Arc
n 2358.3 2472.2 271.6 51.5863 -56.7914 arc
gs col0 s gr

% Polyline
n 8565 3135 m
 8689 2815 l gs col0 s gr 
% Polyline
n 9375 3135 m
 9375 2865 l gs col0 s gr 
% Polyline
n 2357 3110 m
 2357 2795 l gs col0 s gr 
/Helvetica-iso ff 190.50 scf sf
15785 1780 m
gs 1 -1 sc (Fermentation) col0 sh gr
/Helvetica-iso ff 190.50 scf sf
19529 1768 m
gs 1 -1 sc (Respiration) col0 sh gr
/Helvetica-iso ff 190.50 scf sf
15899 4236 m
gs 1 -1 sc (Fermentation) col0 sh gr
/Helvetica-iso ff 190.50 scf sf
19495 4300 m
gs 1 -1 sc (Respiration) col0 sh gr
/Helvetica-iso ff 317.50 scf sf
180 540 m
gs 1 -1 sc (\(a\) Low-yield \(fermentation\) strategy) col0 sh gr
/Helvetica-iso ff 317.50 scf sf
6705 540 m
gs 1 -1 sc (\(b\) High-yield \(respiration\) strategy) col0 sh gr
/Helvetica-iso ff 317.50 scf sf
12690 525 m
gs 1 -1 sc (\(c\) Enzyme costs at high and low glucose concentrations) col0 sh gr
/Helvetica-iso ff 254.00 scf sf
10714 2615 m
gs 1 -1 sc (Biomass) col0 sh gr
/Helvetica-iso ff 254.00 scf sf
4532 2690 m
gs 1 -1 sc (Biomass) col0 sh gr
/Helvetica-iso ff 254.00 scf sf
2760 3315 m
gs 1 -1 sc (Enzyme) col34 sh gr
/Helvetica-iso ff 254.00 scf sf
2760 3630 m
gs 1 -1 sc (demand) col34 sh gr
/Helvetica-iso ff 349.25 scf sf
10185 3450 m
gs 1 -1 sc (Enzyme) col34 sh gr
/Helvetica-iso ff 349.25 scf sf
10185 3855 m
gs 1 -1 sc (demand) col34 sh gr
/Helvetica-iso ff 254.00 scf sf
3810 1770 m
gs 1 -1 sc (Ethanol) col0 sh gr
/Helvetica-iso ff 254.00 scf sf
10215 1875 m
gs 1 -1 sc (CO2) col0 sh gr
% here ends figure;
pagefooter
showpage
%%Trailer
%EOF
