<?xml version="1.0" encoding="UTF-8" standalone="no"?>
<!-- Created with Inkscape (http://www.inkscape.org/) -->

<svg
   width="195.28867mm"
   height="90.104431mm"
   viewBox="0 0 195.28867 90.104432"
   version="1.1"
   id="svg1"
   xml:space="preserve"
   inkscape:version="1.3.2 (091e20e, 2023-11-25)"
   sodipodi:docname="RAT_2.svg"
   inkscape:export-filename="RAT_2.pdf"
   inkscape:export-xdpi="96"
   inkscape:export-ydpi="96"
   xmlns:inkscape="http://www.inkscape.org/namespaces/inkscape"
   xmlns:sodipodi="http://sodipodi.sourceforge.net/DTD/sodipodi-0.dtd"
   xmlns="http://www.w3.org/2000/svg"
   xmlns:svg="http://www.w3.org/2000/svg"><sodipodi:namedview
     id="namedview1"
     pagecolor="#ffffff"
     bordercolor="#000000"
     borderopacity="0.25"
     inkscape:showpageshadow="2"
     inkscape:pageopacity="0.0"
     inkscape:pagecheckerboard="0"
     inkscape:deskcolor="#d1d1d1"
     inkscape:document-units="mm"
     inkscape:zoom="0.56793267"
     inkscape:cx="236.82385"
     inkscape:cy="508.86314"
     inkscape:window-width="1472"
     inkscape:window-height="817"
     inkscape:window-x="0"
     inkscape:window-y="38"
     inkscape:window-maximized="0"
     inkscape:current-layer="layer1" /><defs
     id="defs1"><marker
       style="overflow:visible"
       id="RoundedArrow"
       refX="0"
       refY="0"
       orient="auto-start-reverse"
       inkscape:stockid="Rounded arrow"
       markerWidth="1"
       markerHeight="1"
       viewBox="0 0 1 1"
       inkscape:isstock="true"
       inkscape:collect="always"
       preserveAspectRatio="xMidYMid"><path
         transform="scale(0.7)"
         d="m -0.21114562,-4.1055728 6.42229122,3.21114561 a 1,1 90 0 1 0,1.78885438 L -0.21114562,4.1055728 A 1.236068,1.236068 31.717474 0 1 -2,3 v -6 a 1.236068,1.236068 148.28253 0 1 1.78885438,-1.1055728 z"
         style="fill:context-stroke;fill-rule:evenodd;stroke:none"
         id="path168" /></marker><marker
       style="overflow:visible"
       id="RoundedArrow-8"
       refX="0"
       refY="0"
       orient="auto-start-reverse"
       inkscape:stockid="Rounded arrow"
       markerWidth="1"
       markerHeight="1"
       viewBox="0 0 1 1"
       inkscape:isstock="true"
       inkscape:collect="always"
       preserveAspectRatio="xMidYMid"><path
         transform="scale(0.7)"
         d="m -0.21114562,-4.1055728 6.42229122,3.21114561 a 1,1 90 0 1 0,1.78885438 L -0.21114562,4.1055728 A 1.236068,1.236068 31.717474 0 1 -2,3 v -6 a 1.236068,1.236068 148.28253 0 1 1.78885438,-1.1055728 z"
         style="fill:context-stroke;fill-rule:evenodd;stroke:none"
         id="path168-5" /></marker></defs><g
     inkscape:label="Layer 1"
     inkscape:groupmode="layer"
     id="layer1"
     transform="translate(-2.9921856,-0.72185181)"><ellipse
       style="fill:none;stroke:#4f70c0;stroke-width:1;stroke-dasharray:none;stroke-opacity:1"
       id="path167"
       cx="33.804249"
       cy="18.430428"
       rx="30.312063"
       ry="13.898534" /><ellipse
       style="fill:none;stroke:#ec6165;stroke-width:1;stroke-dasharray:none"
       id="path167-4"
       cx="33.135662"
       cy="74.67263"
       rx="23.034515"
       ry="8.1997471" /><text
       xml:space="preserve"
       style="font-size:7.05556px;font-family:sans-serif;-inkscape-font-specification:sans-serif;fill:#000000;fill-opacity:1;stroke:none;stroke-width:0.600001"
       x="16.766832"
       y="20.568222"
       id="text1"><tspan
         sodipodi:role="line"
         id="tspan1"
         style="font-size:7.05556px;fill:#000000;fill-opacity:1;stroke:none;stroke-width:0.6"
         x="16.766832"
         y="20.568222">substrate</tspan></text><text
       xml:space="preserve"
       style="font-size:7.05556px;font-family:sans-serif;-inkscape-font-specification:sans-serif;fill:#000000;fill-opacity:1;stroke:none;stroke-width:0.600001"
       x="16.554373"
       y="77.062706"
       id="text1-8"><tspan
         sodipodi:role="line"
         id="tspan1-5"
         style="font-size:7.05556px;fill:#000000;fill-opacity:1;stroke:none;stroke-width:0.6"
         x="16.554373"
         y="77.062706">substrate</tspan></text><text
       xml:space="preserve"
       style="font-size:7.05556px;font-family:sans-serif;-inkscape-font-specification:sans-serif;fill:#000000;fill-opacity:1;stroke:none;stroke-width:0.600001"
       x="11.835829"
       y="39.808819"
       id="text1-7"><tspan
         sodipodi:role="line"
         id="tspan1-0"
         style="font-size:7.05556px;fill:#000000;fill-opacity:1;stroke:none;stroke-width:0.6"
         x="11.835829"
         y="39.808819">high demand</tspan></text><text
       xml:space="preserve"
       style="font-size:7.05556px;font-family:sans-serif;-inkscape-font-specification:sans-serif;fill:#000000;fill-opacity:1;stroke:none;stroke-width:0.600001"
       x="11.962502"
       y="90.719482"
       id="text1-7-4"><tspan
         sodipodi:role="line"
         id="tspan1-0-0"
         style="font-size:7.05556px;fill:#000000;fill-opacity:1;stroke:none;stroke-width:0.6"
         x="11.962502"
         y="90.719482">low demand</tspan></text><text
       xml:space="preserve"
       style="font-size:7.05556px;font-family:sans-serif;-inkscape-font-specification:sans-serif;fill:#000000;fill-opacity:1;stroke:none;stroke-width:0.600001"
       x="84.806778"
       y="13.146258"
       id="text1-7-8"><tspan
         sodipodi:role="line"
         id="tspan1-0-7"
         style="font-size:7.05556px;fill:#000000;fill-opacity:1;stroke:none;stroke-width:0.6"
         x="84.806778"
         y="13.146258">low</tspan></text><text
       xml:space="preserve"
       style="font-size:7.05556px;font-family:sans-serif;-inkscape-font-specification:sans-serif;fill:#000000;fill-opacity:1;stroke:none;stroke-width:0.600001"
       x="84.365303"
       y="27.979027"
       id="text1-7-8-8"><tspan
         sodipodi:role="line"
         id="tspan1-0-7-2"
         style="font-size:7.05556px;fill:#000000;fill-opacity:1;stroke:none;stroke-width:0.6"
         x="84.365303"
         y="27.979027">enzyme demand</tspan></text><text
       xml:space="preserve"
       style="font-size:7.05556px;font-family:sans-serif;-inkscape-font-specification:sans-serif;fill:#000000;fill-opacity:1;stroke:none;stroke-width:0.600001"
       x="161.20126"
       y="11.562499"
       id="text1-7-8-8-2"><tspan
         sodipodi:role="line"
         id="tspan1-0-7-2-1"
         style="font-size:7.05556px;fill:#000000;fill-opacity:1;stroke:none;stroke-width:0.6"
         x="161.20126"
         y="11.562499">biomass</tspan><tspan
         sodipodi:role="line"
         style="font-size:7.05556px;fill:#000000;fill-opacity:1;stroke:none;stroke-width:0.6"
         x="161.20126"
         y="20.381948"
         id="tspan2">production</tspan><tspan
         sodipodi:role="line"
         style="font-size:7.05556px;fill:#000000;fill-opacity:1;stroke:none;stroke-width:0.6"
         x="161.20126"
         y="29.201399"
         id="tspan4">(unit flux)</tspan><tspan
         sodipodi:role="line"
         style="font-size:7.05556px;fill:#000000;fill-opacity:1;stroke:none;stroke-width:0.6"
         x="161.20126"
         y="38.020851"
         id="tspan3" /></text><text
       xml:space="preserve"
       style="font-size:7.05556px;font-family:sans-serif;-inkscape-font-specification:sans-serif;fill:#000000;fill-opacity:1;stroke:none;stroke-width:0.600001"
       x="160.99944"
       y="66.381645"
       id="text1-7-8-8-2-7"><tspan
         sodipodi:role="line"
         id="tspan1-0-7-2-1-3"
         style="font-size:7.05556px;fill:#000000;fill-opacity:1;stroke:none;stroke-width:0.6"
         x="160.99944"
         y="66.381645">biomass</tspan><tspan
         sodipodi:role="line"
         style="font-size:7.05556px;fill:#000000;fill-opacity:1;stroke:none;stroke-width:0.6"
         x="160.99944"
         y="75.201096"
         id="tspan2-2">production</tspan><tspan
         sodipodi:role="line"
         style="font-size:7.05556px;fill:#000000;fill-opacity:1;stroke:none;stroke-width:0.6"
         x="160.99944"
         y="84.020546"
         id="tspan4-5">(unit flux)</tspan><tspan
         sodipodi:role="line"
         style="font-size:7.05556px;fill:#000000;fill-opacity:1;stroke:none;stroke-width:0.6"
         x="160.99944"
         y="92.839996"
         id="tspan3-6" /></text><path
       style="fill:none;stroke:#4f70c0;stroke-width:1.5;stroke-dasharray:none;stroke-opacity:1"
       d="m 101.35458,12.36797 13.72733,3.597777 10.49737,-8.4653545 -7.87302,-5.925748 -10.09362,4.021044 z"
       id="path167-8" /><path
       style="fill:#4f70c0;fill-opacity:1;stroke:#4f70c0;stroke-width:1;stroke-dasharray:none;stroke-opacity:1;marker-end:url(#RoundedArrow)"
       d="M 64.301321,18.729369 H 150.87917"
       id="path167-6" /><text
       xml:space="preserve"
       style="font-size:7.05556px;font-family:sans-serif;-inkscape-font-specification:sans-serif;fill:#000000;fill-opacity:1;stroke:none;stroke-width:0.600001"
       x="84.74321"
       y="68.609398"
       id="text1-7-8-7"><tspan
         sodipodi:role="line"
         id="tspan1-0-7-9"
         style="font-size:7.05556px;fill:#000000;fill-opacity:1;stroke:none;stroke-width:0.6"
         x="84.74321"
         y="68.609398">high</tspan></text><text
       xml:space="preserve"
       style="font-size:7.05556px;font-family:sans-serif;-inkscape-font-specification:sans-serif;fill:#000000;fill-opacity:1;stroke:none;stroke-width:0.600001"
       x="84.301743"
       y="83.442169"
       id="text1-7-8-8-4"><tspan
         sodipodi:role="line"
         id="tspan1-0-7-2-16"
         style="font-size:7.05556px;fill:#000000;fill-opacity:1;stroke:none;stroke-width:0.6"
         x="84.301743"
         y="83.442169">enzyme demand</tspan></text><path
       style="fill:none;stroke:#ec6165;stroke-width:1.5;stroke-dasharray:none"
       d="m 102.01242,66.152013 21.4293,4.852864 16.38711,-11.418503 -12.29032,-7.992954 -15.75683,5.423793 z"
       id="path167-8-1" /><path
       style="fill:none;stroke:#ec6165;stroke-width:1;stroke-dasharray:none;marker-end:url(#RoundedArrow-8)"
       d="M 64.237755,74.1925 H 150.81561"
       id="path167-6-2" /></g></svg>
