%!PS-Adobe-3.0 EPSF-3.0
%%Title: branchPointNetwork.fig
%%Creator: fig2dev Version 3.2.6a
%%CreationDate: 2019-03-10 19:45:18
%%BoundingBox: 0 0 663 408
%Magnification: 1.0000
%%EndComments
%%BeginProlog
/$F2psDict 200 dict def
$F2psDict begin
$F2psDict /mtrx matrix put
/col-1 {0 setgray} bind def
/col0 {0.000 0.000 0.000 srgb} bind def
/col1 {0.000 0.000 1.000 srgb} bind def
/col4 {1.000 0.000 0.000 srgb} bind def
/col7 {1.000 1.000 1.000 srgb} bind def
/col10 {0.000 0.000 0.820 srgb} bind def

end

/cp {closepath} bind def
/ef {eofill} bind def
/gr {grestore} bind def
/gs {gsave} bind def
/sa {save} bind def
/rs {restore} bind def
/l {lineto} bind def
/m {moveto} bind def
/rm {rmoveto} bind def
/n {newpath} bind def
/s {stroke} bind def
/sh {show} bind def
/slc {setlinecap} bind def
/slj {setlinejoin} bind def
/slw {setlinewidth} bind def
/srgb {setrgbcolor} bind def
/rot {rotate} bind def
/sc {scale} bind def
/sd {setdash} bind def
/ff {findfont} bind def
/sf {setfont} bind def
/scf {scalefont} bind def
/sw {stringwidth} bind def
/tr {translate} bind def
/tnt {dup dup currentrgbcolor
  4 -2 roll dup 1 exch sub 3 -1 roll mul add
  4 -2 roll dup 1 exch sub 3 -1 roll mul add
  4 -2 roll dup 1 exch sub 3 -1 roll mul add srgb}
  bind def
/shd {dup dup currentrgbcolor 4 -2 roll mul 4 -2 roll mul
  4 -2 roll mul srgb} bind def
 /DrawEllipse {
	/endangle exch def
	/startangle exch def
	/yrad exch def
	/xrad exch def
	/y exch def
	/x exch def
	/savematrix mtrx currentmatrix def
	x y tr xrad yrad sc 0 0 1 startangle endangle arc
	closepath
	savematrix setmatrix
	} def

/$F2psBegin {$F2psDict begin /$F2psEnteredState save def} def
/$F2psEnd {$F2psEnteredState restore end} def

/pageheader {
save
newpath 0 408 moveto 0 0 lineto 663 0 lineto 663 408 lineto closepath clip newpath
54.8 398.2 translate
1 -1 scale
$F2psBegin
10 setmiterlimit
0 slj 0 slc
 0.06299 0.06299 sc
} bind def
/pagefooter {
$F2psEnd
restore
} bind def
%%EndProlog
pageheader
%
% Fig objects follow
%
% 
% here starts figure with depth 50
% Arc
30.000 slw
0 slc
gs  clippath
792 2223 m 792 2187 l 1062 2117 l 1060 2297 l cp
eoclip
n 939.8 1433.0 783.1 10.4467 99.5467 arc
gs col0 s gr
 gr

% arrowhead
0 slj
7.500 slw
n 1062 2117 m 821 2205 l 1060 2297 l 1062 2117 l  cp gs 0.00 setgray ef gr  col0 s
% Arc
30.000 slw
gs  clippath
747 4743 m 747 4707 l 1017 4637 l 1015 4817 l cp
eoclip
n 894.8 3953.0 783.1 10.4467 99.5467 arc
gs col0 s gr
 gr

% arrowhead
7.500 slw
n 1017 4637 m 776 4725 l 1015 4817 l 1017 4637 l  cp gs 0.00 setgray ef gr  col0 s
% Ellipse
gs
9315 3420 tr
-270.001 rot
n 0 0 328 328 0 360 DrawEllipse 270.001 rot
gs col0 s gr
gr

% Ellipse
gs
7202 5976 tr
-270.001 rot
n 0 0 328 328 0 360 DrawEllipse 270.001 rot
gs col0 s gr
gr

% Ellipse
gs
7191 182 tr
-270.001 rot
n 0 0 328 328 0 360 DrawEllipse 270.001 rot
gs col0 s gr
gr

% Ellipse
gs
1712 216 tr
-270.001 rot
n 0 0 328 328 0 360 DrawEllipse 270.001 rot
gs col0 s gr
gr

% Ellipse
gs
3872 3456 tr
-270.001 rot
n 0 0 328 328 0 360 DrawEllipse 270.001 rot
gs col0 s gr
gr

% Ellipse
gs
1656 5987 tr
-270.001 rot
n 0 0 328 328 0 360 DrawEllipse 270.001 rot
gs col0 s gr
gr

% Ellipse
gs
1675 3432 tr
-270.001 rot
n 0 0 328 328 0 360 DrawEllipse 270.001 rot
gs col0 s gr
gr

% Ellipse
gs
7185 3392 tr
-270.001 rot
n 0 0 328 328 0 360 DrawEllipse 270.001 rot
gs col0 s gr
gr

% Polyline
30.000 slw
gs  clippath
6768 5643 m 6732 5643 l 6638 5333 l 6750 5390 l 6863 5333 l cp
eoclip
n 6750 675 m 6750 3375 l
 6750 5625 l gs col1 s gr gr

% arrowhead
7.500 slw
n 6638 5333 m 6750 5615 l 6863 5333 l 6750 5390 l 6638 5333 l 
 cp gs col1 1.00 shd ef gr  col1 s
% Polyline
30.000 slw
gs  clippath
1728 3168 m 1692 3168 l 1620 2899 l 1800 2899 l cp
eoclip
n 1710 630 m
 1710 3150 l gs col0 s gr gr

% arrowhead
7.500 slw
n 1620 2899 m 1710 3139 l 1800 2899 l 1620 2899 l  cp gs 0.00 setgray ef gr  col0 s
% Polyline
30.000 slw
gs  clippath
3438 3402 m 3438 3438 l 3169 3510 l 3169 3330 l cp
eoclip
n 2160 3420 m
 3420 3420 l gs col0 s gr gr

% arrowhead
7.500 slw
n 3169 3510 m 3409 3420 l 3169 3330 l 3169 3510 l  cp gs 0.00 setgray ef gr  col0 s
% Polyline
30.000 slw
gs  clippath
1683 5643 m 1647 5643 l 1575 5374 l 1755 5374 l cp
eoclip
n 1665 3780 m
 1665 5625 l gs col0 s gr gr

% arrowhead
7.500 slw
n 1575 5374 m 1665 5614 l 1755 5374 l 1575 5374 l  cp gs 0.00 setgray ef gr  col0 s
% Polyline
30.000 slw
gs  clippath
7218 5598 m 7182 5598 l 7110 5329 l 7290 5329 l cp
eoclip
n 7200 3780 m
 7200 5580 l gs col0 s gr gr

% arrowhead
7.500 slw
n 7110 5329 m 7200 5569 l 7290 5329 l 7110 5329 l  cp gs 0.00 setgray ef gr  col0 s
% Polyline
30.000 slw
gs  clippath
7173 3123 m 7137 3123 l 7065 2854 l 7245 2854 l cp
eoclip
n 7155 585 m
 7155 3105 l gs col0 s gr gr

% arrowhead
7.500 slw
n 7065 2854 m 7155 3094 l 7245 2854 l 7065 2854 l  cp gs 0.00 setgray ef gr  col0 s
% Polyline
30.000 slw
gs  clippath
8883 3537 m 8883 3573 l 8614 3645 l 8614 3465 l cp
eoclip
n 7650 3555 m
 8865 3555 l gs col0 s gr gr

% arrowhead
7.500 slw
n 8614 3645 m 8854 3555 l 8614 3465 l 8614 3645 l  cp gs 0.00 setgray ef gr  col0 s
% Polyline
30.000 slw
gs  clippath
8928 3132 m 8928 3168 l 8618 3263 l 8675 3150 l 8618 3038 l cp
eoclip
n 7650 945 m 7650 3150 l
 8910 3150 l gs col4 s gr gr

% arrowhead
7.500 slw
n 8618 3263 m 8900 3150 l 8618 3038 l 8675 3150 l 8618 3263 l 
 cp gs col4 1.00 shd ef gr  col4 s
/Helvetica ff 571.50 scf sf
1530 3555 m
gs 1 -1 sc (c) col0 sh gr
/Helvetica ff 571.50 scf sf
7020 3555 m
gs 1 -1 sc (c) col0 sh gr
/Helvetica ff 571.50 scf sf
-540 2880 m
gs 1 -1 sc (2 ATP) col0 sh gr
/Helvetica ff 571.50 scf sf
-855 5400 m
gs 1 -1 sc (18 ATP) col0 sh gr
/Helvetica ff 571.50 scf sf
2430 2880 m
gs 1 -1 sc (Overflow v  ) col0 sh gr
/Helvetica ff 412.75 scf sf
5130 3060 m
gs 1 -1 sc (2) col0 sh gr
/Helvetica ff 571.50 scf sf
1980 4995 m
gs 1 -1 sc (Respiration v  ) col0 sh gr
/Helvetica ff 412.75 scf sf
5355 5175 m
gs 1 -1 sc (3) col0 sh gr
/Helvetica ff 571.50 scf sf
2070 1260 m
gs 1 -1 sc (Glycolysis v  ) col0 sh gr
/Helvetica ff 412.75 scf sf
5085 1440 m
gs 1 -1 sc (1) col0 sh gr
/Helvetica ff 571.50 scf sf
6030 3645 m
gs 1 -1 sc (v) col10 sh gr
/Helvetica ff 381.00 scf sf
6255 3870 m
gs 1 -1 sc (B) col10 sh gr
/Helvetica ff 571.50 scf sf
7830 2160 m
gs 1 -1 sc (v) col4 sh gr
/Helvetica ff 381.00 scf sf
8010 2340 m
gs 1 -1 sc (A) col4 sh gr
% here ends figure;
pagefooter
showpage
%%Trailer
%EOF
