<?xml version="1.0" encoding="UTF-8" standalone="no"?>
<!-- Created with Inkscape (http://www.inkscape.org/) -->

<svg
   width="157.3582mm"
   height="118.28749mm"
   viewBox="0 0 157.3582 118.28749"
   version="1.1"
   id="svg1"
   xml:space="preserve"
   inkscape:version="1.4 (e7c3feb1, 2024-10-09)"
   sodipodi:docname="RAT_branchPointNetwork.svg"
   inkscape:export-filename="RAT_1.pdf"
   inkscape:export-xdpi="96"
   inkscape:export-ydpi="96"
   xmlns:inkscape="http://www.inkscape.org/namespaces/inkscape"
   xmlns:sodipodi="http://sodipodi.sourceforge.net/DTD/sodipodi-0.dtd"
   xmlns="http://www.w3.org/2000/svg"
   xmlns:svg="http://www.w3.org/2000/svg"><sodipodi:namedview
     id="namedview1"
     pagecolor="#ffffff"
     bordercolor="#000000"
     borderopacity="0.25"
     inkscape:showpageshadow="2"
     inkscape:pageopacity="0.0"
     inkscape:pagecheckerboard="0"
     inkscape:deskcolor="#d1d1d1"
     inkscape:document-units="mm"
     inkscape:zoom="0.53797004"
     inkscape:cx="627.35836"
     inkscape:cy="267.6729"
     inkscape:window-width="1472"
     inkscape:window-height="817"
     inkscape:window-x="0"
     inkscape:window-y="38"
     inkscape:window-maximized="0"
     inkscape:current-layer="layer1" /><defs
     id="defs1"><rect
       x="86.979759"
       y="-8.3405247"
       width="61.958183"
       height="476.60141"
       id="rect15" /><inkscape:path-effect
       effect="bspline"
       id="path-effect9"
       is_visible="true"
       lpeversion="1.3"
       weight="33.333333"
       steps="2"
       helper_size="0"
       apply_no_weight="true"
       apply_with_weight="true"
       only_selected="false"
       uniform="false" /><marker
       style="overflow:visible"
       id="marker6"
       refX="0"
       refY="0"
       orient="auto-start-reverse"
       inkscape:stockid="Rounded arrow"
       markerWidth="1"
       markerHeight="1"
       viewBox="0 0 1 1"
       inkscape:isstock="true"
       inkscape:collect="always"
       preserveAspectRatio="xMidYMid"><path
         transform="scale(0.7)"
         d="m -0.21114562,-4.1055728 6.42229122,3.21114561 a 1,1 90 0 1 0,1.78885438 L -0.21114562,4.1055728 A 1.236068,1.236068 31.717474 0 1 -2,3 v -6 a 1.236068,1.236068 148.28253 0 1 1.78885438,-1.1055728 z"
         style="fill:context-stroke;fill-rule:evenodd;stroke:none"
         id="path6" /></marker><marker
       style="overflow:visible"
       id="marker5"
       refX="0"
       refY="0"
       orient="auto-start-reverse"
       inkscape:stockid="Rounded arrow"
       markerWidth="1"
       markerHeight="1"
       viewBox="0 0 1 1"
       inkscape:isstock="true"
       inkscape:collect="always"
       preserveAspectRatio="xMidYMid"><path
         transform="scale(0.7)"
         d="m -0.21114562,-4.1055728 6.42229122,3.21114561 a 1,1 90 0 1 0,1.78885438 L -0.21114562,4.1055728 A 1.236068,1.236068 31.717474 0 1 -2,3 v -6 a 1.236068,1.236068 148.28253 0 1 1.78885438,-1.1055728 z"
         style="fill:context-stroke;fill-rule:evenodd;stroke:none"
         id="path5" /></marker><clipPath
       id="clip-0"><path
         clip-rule="nonzero"
         d="m 79,82 h 111 v 95 H 79 Z m 0,0"
         id="path30" /></clipPath><clipPath
       id="clip-1"><path
         clip-rule="evenodd"
         d="M 0,408 H 663 V 0 H 0 Z M 104.6875,149.82812 v -2.26953 l 17.00781,-4.41015 -0.125,11.33984 z m 0,0"
         id="path31" /></clipPath><clipPath
       id="clip-2"><path
         clip-rule="nonzero"
         d="m 76,241 h 111 v 94 H 76 Z m 0,0"
         id="path32" /></clipPath><clipPath
       id="clip-3"><path
         clip-rule="evenodd"
         d="M 0,408 H 663 V 0 H 0 Z m 101.85547,-99.4375 v -2.26953 l 17.00391,-4.40625 -0.125,11.33594 z m 0,0"
         id="path33" /></clipPath><clipPath
       id="clip-7"><path
         clip-rule="evenodd"
         d="M 0,408 H 663 V 0 H 0 Z M 163.64844,209.35156 h -2.26953 l -4.53516,-16.94531 h 11.33984 z m 0,0"
         id="path37" /></clipPath><clipPath
       id="clip-10"><path
         clip-rule="nonzero"
         d="m 158,246 h 3 v 120 h -3 z m 0,0"
         id="path40" /></clipPath><clipPath
       id="clip-11"><path
         clip-rule="evenodd"
         d="M 0,408 H 663 V 0 H 0 Z m 160.8125,-42.74609 h -2.26563 l -4.53906,-16.94532 h 11.33985 z m 0,0"
         id="path41" /></clipPath><marker
       style="overflow:visible"
       id="marker6-1"
       refX="0"
       refY="0"
       orient="auto-start-reverse"
       inkscape:stockid="Rounded arrow"
       markerWidth="1"
       markerHeight="1"
       viewBox="0 0 1 1"
       inkscape:isstock="true"
       inkscape:collect="always"
       preserveAspectRatio="xMidYMid"><path
         transform="scale(0.7)"
         d="m -0.21114562,-4.1055728 6.42229122,3.21114561 a 1,1 90 0 1 0,1.78885438 L -0.21114562,4.1055728 A 1.236068,1.236068 31.717474 0 1 -2,3 v -6 a 1.236068,1.236068 148.28253 0 1 1.78885438,-1.1055728 z"
         style="fill:context-stroke;fill-rule:evenodd;stroke:none"
         id="path6-7" /></marker><inkscape:path-effect
       effect="bspline"
       id="path-effect9-2"
       is_visible="true"
       lpeversion="1.3"
       weight="33.333333"
       steps="2"
       helper_size="0"
       apply_no_weight="true"
       apply_with_weight="true"
       only_selected="false"
       uniform="false" /><marker
       style="overflow:visible"
       id="marker5-3"
       refX="0"
       refY="0"
       orient="auto-start-reverse"
       inkscape:stockid="Rounded arrow"
       markerWidth="1"
       markerHeight="1"
       viewBox="0 0 1 1"
       inkscape:isstock="true"
       inkscape:collect="always"
       preserveAspectRatio="xMidYMid"><path
         transform="scale(0.7)"
         d="m -0.21114562,-4.1055728 6.42229122,3.21114561 a 1,1 90 0 1 0,1.78885438 L -0.21114562,4.1055728 A 1.236068,1.236068 31.717474 0 1 -2,3 v -6 a 1.236068,1.236068 148.28253 0 1 1.78885438,-1.1055728 z"
         style="fill:context-stroke;fill-rule:evenodd;stroke:none"
         id="path5-6" /></marker><marker
       style="overflow:visible"
       id="marker5-0"
       refX="0"
       refY="0"
       orient="auto-start-reverse"
       inkscape:stockid="Rounded arrow"
       markerWidth="1"
       markerHeight="1"
       viewBox="0 0 1 1"
       inkscape:isstock="true"
       inkscape:collect="always"
       preserveAspectRatio="xMidYMid"><path
         transform="scale(0.7)"
         d="m -0.21114562,-4.1055728 6.42229122,3.21114561 a 1,1 90 0 1 0,1.78885438 L -0.21114562,4.1055728 A 1.236068,1.236068 31.717474 0 1 -2,3 v -6 a 1.236068,1.236068 148.28253 0 1 1.78885438,-1.1055728 z"
         style="fill:context-stroke;fill-rule:evenodd;stroke:none"
         id="path5-5" /></marker><marker
       style="overflow:visible"
       id="marker5-3-5"
       refX="0"
       refY="0"
       orient="auto-start-reverse"
       inkscape:stockid="Rounded arrow"
       markerWidth="1"
       markerHeight="1"
       viewBox="0 0 1 1"
       inkscape:isstock="true"
       inkscape:collect="always"
       preserveAspectRatio="xMidYMid"><path
         transform="scale(0.7)"
         d="m -0.21114562,-4.1055728 6.42229122,3.21114561 a 1,1 90 0 1 0,1.78885438 L -0.21114562,4.1055728 A 1.236068,1.236068 31.717474 0 1 -2,3 v -6 a 1.236068,1.236068 148.28253 0 1 1.78885438,-1.1055728 z"
         style="fill:context-stroke;fill-rule:evenodd;stroke:none"
         id="path5-6-6" /></marker></defs><g
     inkscape:label="Layer 1"
     inkscape:groupmode="layer"
     id="layer1"
     transform="translate(-3.1258303,-2.1220151)"><path
       style="fill:#000000;stroke:#000000;stroke-width:0.8;stroke-dasharray:none;stroke-opacity:1;marker-end:url(#marker5)"
       d="M 32.15184,15.219133 V 51.031156"
       id="path7" /><path
       style="fill:none;stroke:#000000;stroke-width:0.8;stroke-dasharray:none;stroke-opacity:1;marker-end:url(#marker6)"
       d="m 28.481477,39.356223 c -0.431538,0.776766 -0.863076,1.553535 -1.855628,2.80501 -0.992551,1.251475 -2.546055,2.977591 -4.14276,4.142749 -1.596705,1.165158 -3.236515,1.769298 -4.876358,2.373451"
       id="path9"
       inkscape:path-effect="#path-effect9"
       inkscape:original-d="m 28.481477,39.356223 c -0.431538,0.776766 -0.863076,1.553535 -1.294614,2.330301 -1.553565,1.726184 -3.107069,3.4523 -4.660604,5.178452 -1.639876,0.604163 -3.279685,1.208304 -4.919528,1.812457"
       transform="translate(3.6816865,-7.0368807)" /><path
       style="fill:#000000;stroke:#000000;stroke-width:0.8;stroke-dasharray:none;stroke-opacity:1;marker-end:url(#marker5-3)"
       d="M 32.25244,68.431134 V 104.24322"
       id="path7-5" /><path
       style="fill:none;stroke:#000000;stroke-width:0.8;stroke-dasharray:none;stroke-opacity:1;marker-end:url(#marker6-1)"
       d="m 28.481477,39.356223 c -0.431538,0.776766 -0.863076,1.553535 -1.855628,2.80501 -0.992551,1.251475 -2.546055,2.977591 -4.14276,4.142749 -1.596705,1.165158 -3.236515,1.769298 -4.876358,2.373451"
       id="path9-8"
       inkscape:path-effect="#path-effect9-2"
       inkscape:original-d="m 28.481477,39.356223 c -0.431538,0.776766 -0.863076,1.553535 -1.294614,2.330301 -1.553565,1.726184 -3.107069,3.4523 -4.660604,5.178452 -1.639876,0.604163 -3.279685,1.208304 -4.919528,1.812457"
       transform="translate(3.7822865,46.175115)" /><ellipse
       style="fill:none;stroke:#000000;stroke-width:0.799999;stroke-dasharray:none;stroke-opacity:1"
       id="path10"
       cx="32.470951"
       cy="8.0389242"
       rx="5.3592834"
       ry="5.5169096" /><ellipse
       style="fill:none;stroke:#000000;stroke-width:0.799999;stroke-dasharray:none;stroke-opacity:1"
       id="path10-62"
       cx="68.36422"
       cy="62.650852"
       rx="5.3592834"
       ry="5.5169096" /><ellipse
       style="fill:none;stroke:#000000;stroke-width:0.799999;stroke-dasharray:none;stroke-opacity:1"
       id="path10-6"
       cx="32.572124"
       cy="62.58205"
       rx="5.3592834"
       ry="5.5169096" /><ellipse
       style="fill:none;stroke:#000000;stroke-width:0.799999;stroke-dasharray:none;stroke-opacity:1"
       id="path10-6-4"
       cx="32.735538"
       cy="114.28975"
       rx="5.3592834"
       ry="5.5169096" /><text
       xml:space="preserve"
       style="font-size:6.35px;font-family:sans-serif;-inkscape-font-specification:sans-serif;fill:#000000;fill-opacity:1;stroke:none;stroke-width:0.799999;stroke-dasharray:none;stroke-opacity:1"
       x="29.948933"
       y="64.626656"
       id="text10"><tspan
         sodipodi:role="line"
         id="tspan10"
         style="font-size:6.35px;fill:#000000;fill-opacity:1;stroke:none;stroke-width:0.8"
         x="29.948933"
         y="64.626656">C</tspan></text><text
       xml:space="preserve"
       style="font-size:6.35px;font-family:sans-serif;-inkscape-font-specification:sans-serif;fill:#000000;fill-opacity:1;stroke:none;stroke-width:0.799999;stroke-dasharray:none;stroke-opacity:1"
       x="6.3050394"
       y="50.125065"
       id="text11"><tspan
         sodipodi:role="line"
         id="tspan11"
         style="stroke-width:0.8"
         x="6.3050394"
         y="50.125065">2ATP</tspan></text><text
       xml:space="preserve"
       style="font-size:6.35px;font-family:sans-serif;-inkscape-font-specification:sans-serif;fill:#000000;fill-opacity:1;stroke:none;stroke-width:0.799999;stroke-dasharray:none;stroke-opacity:1"
       x="2.2638674"
       y="104.52761"
       id="text11-7"><tspan
         sodipodi:role="line"
         id="tspan11-4"
         style="stroke-width:0.8"
         x="2.2638674"
         y="104.52761">18ATP</tspan></text><path
       style="fill:#000000;fill-opacity:1;stroke:#000000;stroke-width:0.8;stroke-dasharray:none;stroke-opacity:1;marker-end:url(#marker5)"
       d="M 39.091243,62.318554 H 57.060609"
       id="path11" /><path
       style="fill:#000000;stroke:#000000;stroke-width:0.8;stroke-dasharray:none;stroke-opacity:1;marker-end:url(#marker5-0)"
       d="M 118.51286,15.421992 V 51.234015"
       id="path7-6" /><path
       style="fill:#000000;stroke:#000000;stroke-width:0.8;stroke-dasharray:none;stroke-opacity:1;marker-end:url(#marker5-3-5)"
       d="M 118.61347,68.633993 V 104.44608"
       id="path7-5-8" /><ellipse
       style="fill:none;stroke:#000000;stroke-width:0.799999;stroke-dasharray:none;stroke-opacity:1"
       id="path10-9"
       cx="118.83185"
       cy="8.2417831"
       rx="5.3592834"
       ry="5.5169096" /><ellipse
       style="fill:none;stroke:#000000;stroke-width:0.799999;stroke-dasharray:none;stroke-opacity:1"
       id="path10-62-1"
       cx="154.72475"
       cy="62.85371"
       rx="5.3592834"
       ry="5.5169096" /><ellipse
       style="fill:none;stroke:#000000;stroke-width:0.799999;stroke-dasharray:none;stroke-opacity:1"
       id="path10-6-48"
       cx="118.93304"
       cy="62.784908"
       rx="5.3592834"
       ry="5.5169096" /><ellipse
       style="fill:none;stroke:#000000;stroke-width:0.799999;stroke-dasharray:none;stroke-opacity:1"
       id="path10-6-4-8"
       cx="119.09643"
       cy="114.4926"
       rx="5.3592834"
       ry="5.5169096" /><text
       xml:space="preserve"
       style="font-size:6.35px;font-family:sans-serif;-inkscape-font-specification:sans-serif;fill:#000000;fill-opacity:1;stroke:none;stroke-width:0.799999;stroke-dasharray:none;stroke-opacity:1"
       x="116.30981"
       y="64.829514"
       id="text10-7"><tspan
         sodipodi:role="line"
         id="tspan10-1"
         style="font-size:6.35px;fill:#000000;fill-opacity:1;stroke:none;stroke-width:0.8"
         x="116.30981"
         y="64.829514">C</tspan></text><path
       style="fill:#000000;fill-opacity:1;stroke:#000000;stroke-width:0.8;stroke-dasharray:none;stroke-opacity:1;marker-end:url(#marker5-0)"
       d="m 125.45231,62.521413 h 17.96947"
       id="path11-9" /><text
       xml:space="preserve"
       style="font-size:6.35px;font-family:sans-serif;-inkscape-font-specification:sans-serif;fill:#000000;fill-opacity:1;stroke:none;stroke-width:0.799999;stroke-dasharray:none;stroke-opacity:1"
       x="37.199734"
       y="29.00318"
       id="text12"><tspan
         sodipodi:role="line"
         id="tspan12"
         style="fill:#000000;fill-opacity:1;stroke:none;stroke-width:0.8"
         x="37.199734"
         y="29.00318">glycolysis v<tspan
   style="font-size:65%;baseline-shift:sub"
   id="tspan13">1</tspan></tspan></text><text
       xml:space="preserve"
       style="font-size:6.35px;font-family:sans-serif;-inkscape-font-specification:sans-serif;fill:#000000;fill-opacity:1;stroke:none;stroke-width:0.799999;stroke-dasharray:none;stroke-opacity:1"
       x="37.23597"
       y="53.772449"
       id="text12-6"><tspan
         sodipodi:role="line"
         id="tspan12-3"
         style="fill:#000000;fill-opacity:1;stroke:none;stroke-width:0.8"
         x="37.23597"
         y="53.772449">overflow v<tspan
   style="font-size:65%;baseline-shift:sub"
   id="tspan14">2</tspan></tspan></text><g
       id="g1"
       transform="translate(-0.07669577,65.137076)"><text
         xml:space="preserve"
         style="font-size:6.35px;font-family:sans-serif;-inkscape-font-specification:sans-serif;fill:#000000;fill-opacity:1;stroke:none;stroke-width:0.799999;stroke-dasharray:none;stroke-opacity:1"
         x="37.199734"
         y="29.00318"
         id="text12-8"><tspan
           sodipodi:role="line"
           id="tspan12-5"
           style="fill:#000000;fill-opacity:1;stroke:none;stroke-width:0.8"
           x="37.199734"
           y="29.00318">respiration v<tspan
   style="font-size:65%;baseline-shift:sub"
   id="tspan15">3</tspan></tspan></text></g><text
       xml:space="preserve"
       transform="scale(0.26458333)"
       id="text15"
       style="font-size:24px;font-family:sans-serif;-inkscape-font-specification:sans-serif;white-space:pre;shape-inside:url(#rect15);display:inline;fill:#000000;fill-opacity:1;stroke:none;stroke-width:3.02362;stroke-dasharray:none;stroke-opacity:1" /><path
       style="fill:none;fill-opacity:1;stroke:#ec6165;stroke-width:0.6;stroke-dasharray:none;stroke-opacity:1;marker-end:url(#marker5)"
       d="M 108.52541,8.8270553 V 108.5683"
       id="path16" /><path
       style="fill:none;fill-opacity:1;stroke:#3c84f7;stroke-width:0.600001;stroke-dasharray:none;stroke-opacity:1;marker-end:url(#marker5)"
       d="m 130.90832,11.349071 v 40.037002 h 21.43713"
       id="path17" /><text
       xml:space="preserve"
       style="font-size:6.35px;font-family:sans-serif;-inkscape-font-specification:sans-serif;fill:#000000;fill-opacity:1;stroke:none;stroke-width:0.600001;stroke-dasharray:none;stroke-opacity:1"
       x="99.698318"
       y="46.657288"
       id="text17"><tspan
         sodipodi:role="line"
         id="tspan17"
         style="fill:#000000;fill-opacity:1;stroke:none;stroke-width:0.6"
         x="99.698318"
         y="46.657288">v<tspan
   style="font-size:65%;baseline-shift:sub"
   id="tspan18">B</tspan></tspan></text><text
       xml:space="preserve"
       style="font-size:6.35px;font-family:sans-serif;-inkscape-font-specification:sans-serif;fill:#000000;fill-opacity:1;stroke:none;stroke-width:0.600001;stroke-dasharray:none;stroke-opacity:1"
       x="133.97719"
       y="36.214958"
       id="text17-0"><tspan
         sodipodi:role="line"
         id="tspan17-0"
         style="fill:#000000;fill-opacity:1;stroke:none;stroke-width:0.6"
         x="133.97719"
         y="36.214958">v<tspan
   style="font-size:65%;baseline-shift:sub"
   id="tspan19">A</tspan></tspan></text></g></svg>
