%!PS-Adobe-3.0 EPSF-3.0
%%Title: modelling_paradigms_hierarchy.fig
%%Creator: fig2dev Version 3.2.6a
%%CreationDate: 2019-03-27 15:43:55
%%BoundingBox: 0 0 627 354
%Magnification: 1.0000
%%EndComments
%%BeginProlog
/$F2psDict 200 dict def
$F2psDict begin
$F2psDict /mtrx matrix put
/col-1 {0 setgray} bind def
/col0 {0.000 0.000 0.000 srgb} bind def
/col7 {1.000 1.000 1.000 srgb} bind def
/col9 {0.000 0.000 0.690 srgb} bind def
/col10 {0.000 0.000 0.820 srgb} bind def
/col32 {0.867 0.867 1.000 srgb} bind def

end

/cp {closepath} bind def
/ef {eofill} bind def
/gr {grestore} bind def
/gs {gsave} bind def
/sa {save} bind def
/rs {restore} bind def
/l {lineto} bind def
/m {moveto} bind def
/rm {rmoveto} bind def
/n {newpath} bind def
/s {stroke} bind def
/sh {show} bind def
/slc {setlinecap} bind def
/slj {setlinejoin} bind def
/slw {setlinewidth} bind def
/srgb {setrgbcolor} bind def
/rot {rotate} bind def
/sc {scale} bind def
/sd {setdash} bind def
/ff {findfont} bind def
/sf {setfont} bind def
/scf {scalefont} bind def
/sw {stringwidth} bind def
/tr {translate} bind def
/tnt {dup dup currentrgbcolor
  4 -2 roll dup 1 exch sub 3 -1 roll mul add
  4 -2 roll dup 1 exch sub 3 -1 roll mul add
  4 -2 roll dup 1 exch sub 3 -1 roll mul add srgb}
  bind def
/shd {dup dup currentrgbcolor 4 -2 roll mul 4 -2 roll mul
  4 -2 roll mul srgb} bind def
/reencdict 12 dict def /ReEncode { reencdict begin
/newcodesandnames exch def /newfontname exch def /basefontname exch def
/basefontdict basefontname findfont def /newfont basefontdict maxlength dict def
basefontdict { exch dup /FID ne { dup /Encoding eq
{ exch dup length array copy newfont 3 1 roll put }
{ exch newfont 3 1 roll put } ifelse } { pop pop } ifelse } forall
newfont /FontName newfontname put newcodesandnames aload pop
128 1 255 { newfont /Encoding get exch /.notdef put } for
newcodesandnames length 2 idiv { newfont /Encoding get 3 1 roll put } repeat
newfontname newfont definefont pop end } def
/isovec [
8#055 /minus 8#200 /grave 8#201 /acute 8#202 /circumflex 8#203 /tilde
8#204 /macron 8#205 /breve 8#206 /dotaccent 8#207 /dieresis
8#210 /ring 8#211 /cedilla 8#212 /hungarumlaut 8#213 /ogonek 8#214 /caron
8#220 /dotlessi 8#230 /oe 8#231 /OE
8#240 /space 8#241 /exclamdown 8#242 /cent 8#243 /sterling
8#244 /currency 8#245 /yen 8#246 /brokenbar 8#247 /section 8#250 /dieresis
8#251 /copyright 8#252 /ordfeminine 8#253 /guillemotleft 8#254 /logicalnot
8#255 /hyphen 8#256 /registered 8#257 /macron 8#260 /degree 8#261 /plusminus
8#262 /twosuperior 8#263 /threesuperior 8#264 /acute 8#265 /mu 8#266 /paragraph
8#267 /periodcentered 8#270 /cedilla 8#271 /onesuperior 8#272 /ordmasculine
8#273 /guillemotright 8#274 /onequarter 8#275 /onehalf
8#276 /threequarters 8#277 /questiondown 8#300 /Agrave 8#301 /Aacute
8#302 /Acircumflex 8#303 /Atilde 8#304 /Adieresis 8#305 /Aring
8#306 /AE 8#307 /Ccedilla 8#310 /Egrave 8#311 /Eacute
8#312 /Ecircumflex 8#313 /Edieresis 8#314 /Igrave 8#315 /Iacute
8#316 /Icircumflex 8#317 /Idieresis 8#320 /Eth 8#321 /Ntilde 8#322 /Ograve
8#323 /Oacute 8#324 /Ocircumflex 8#325 /Otilde 8#326 /Odieresis 8#327 /multiply
8#330 /Oslash 8#331 /Ugrave 8#332 /Uacute 8#333 /Ucircumflex
8#334 /Udieresis 8#335 /Yacute 8#336 /Thorn 8#337 /germandbls 8#340 /agrave
8#341 /aacute 8#342 /acircumflex 8#343 /atilde 8#344 /adieresis 8#345 /aring
8#346 /ae 8#347 /ccedilla 8#350 /egrave 8#351 /eacute
8#352 /ecircumflex 8#353 /edieresis 8#354 /igrave 8#355 /iacute
8#356 /icircumflex 8#357 /idieresis 8#360 /eth 8#361 /ntilde 8#362 /ograve
8#363 /oacute 8#364 /ocircumflex 8#365 /otilde 8#366 /odieresis 8#367 /divide
8#370 /oslash 8#371 /ugrave 8#372 /uacute 8#373 /ucircumflex
8#374 /udieresis 8#375 /yacute 8#376 /thorn 8#377 /ydieresis] def
/Helvetica /Helvetica-iso isovec ReEncode
/$F2psBegin {$F2psDict begin /$F2psEnteredState save def} def
/$F2psEnd {$F2psEnteredState restore end} def

/pageheader {
save
newpath 0 354 moveto 0 0 lineto 627 0 lineto 627 354 lineto closepath clip newpath
106.0 346.8 translate
1 -1 scale
$F2psBegin
10 setmiterlimit
0 slj 0 slc
 0.06299 0.06299 sc
} bind def
/pagefooter {
$F2psEnd
restore
} bind def
%%EndProlog
pageheader
%
% Fig objects follow
%
% 
% here starts figure with depth 250
% Polyline
2 slj
0 slc
30.000 slw
 [120] 0 sd
n -893 1853 m -918 1888 l -943 1925 l -968 1962 l -993 2000 l -1018 2040 l
 -1043 2080 l -1067 2121 l -1091 2163 l -1116 2206 l -1140 2249 l
 -1164 2294 l -1187 2340 l -1211 2387 l -1234 2434 l -1257 2483 l
 -1280 2532 l -1302 2582 l -1324 2632 l -1345 2683 l -1366 2735 l
 -1387 2787 l -1406 2839 l -1426 2891 l -1444 2944 l -1462 2997 l
 -1480 3049 l -1496 3102 l -1512 3154 l -1527 3205 l -1541 3257 l
 -1554 3308 l -1567 3358 l -1578 3408 l -1589 3457 l -1599 3506 l
 -1608 3553 l -1616 3600 l -1623 3647 l -1629 3692 l -1635 3737 l
 -1640 3781 l -1643 3824 l -1646 3866 l -1648 3908 l -1650 3949 l
 -1650 3990 l -1650 4032 l -1648 4073 l -1646 4115 l -1643 4155 l
 -1638 4196 l -1633 4236 l -1627 4276 l -1619 4316 l -1611 4356 l
 -1602 4395 l -1591 4434 l -1579 4473 l -1566 4512 l -1553 4550 l
 -1537 4588 l -1521 4626 l -1504 4663 l -1485 4700 l -1466 4736 l
 -1445 4772 l -1424 4806 l -1401 4841 l -1377 4874 l -1352 4907 l
 -1327 4938 l -1300 4969 l -1273 4999 l -1245 5028 l -1216 5056 l
 -1187 5083 l -1156 5109 l -1126 5134 l -1094 5158 l -1062 5180 l
 -1030 5202 l -996 5223 l -963 5243 l -929 5261 l -894 5279 l
 -859 5296 l -823 5312 l -787 5327 l -750 5341 l -713 5355 l
 -674 5368 l -635 5380 l -595 5391 l -554 5402 l -512 5412 l
 -469 5421 l -425 5429 l -380 5437 l -334 5444 l -287 5450 l
 -239 5456 l -190 5461 l -140 5465 l -90 5468 l -38 5470 l
 14 5471 l 66 5472 l 119 5472 l 173 5471 l 226 5469 l
 280 5466 l 334 5462 l 388 5458 l 442 5452 l 496 5446 l
 549 5439 l 602 5431 l 654 5422 l 705 5413 l 756 5403 l
 806 5392 l 855 5380 l 903 5368 l 951 5355 l 997 5341 l
 1042 5327 l 1086 5312 l 1129 5296 l 1171 5280 l 1212 5263 l
 1251 5246 l 1290 5228 l 1328 5209 l 1365 5190 l 1403 5169 l
 1440 5147 l 1476 5125 l 1512 5101 l 1548 5077 l 1583 5051 l
 1617 5025 l 1651 4998 l 1686 4970 l 1719 4941 l 1753 4912 l
 1787 4881 l 1820 4850 l 1853 4818 l 1886 4786 l 1919 4753 l
 1952 4719 l 1985 4685 l 2018 4650 l 2051 4616 l 2083 4581 l
 2116 4546 l 2148 4510 l 2180 4475 l 2212 4440 l 2244 4406 l
 2276 4371 l 2307 4337 l 2339 4303 l 2370 4270 l 2401 4238 l
 2433 4206 l 2464 4174 l 2495 4144 l 2527 4114 l 2558 4084 l
 2590 4056 l 2621 4028 l 2653 4000 l 2686 3974 l 2719 3948 l
 2753 3923 l 2787 3898 l 2822 3873 l 2858 3850 l 2894 3826 l
 2932 3803 l 2970 3780 l 3009 3757 l 3049 3735 l 3090 3712 l
 3132 3690 l 3174 3668 l 3217 3646 l 3261 3624 l 3305 3603 l
 3350 3581 l 3395 3560 l 3440 3538 l 3486 3517 l 3531 3496 l
 3577 3475 l 3622 3454 l 3667 3433 l 3712 3413 l 3756 3392 l
 3799 3372 l 3842 3352 l 3884 3332 l 3925 3312 l 3965 3293 l
 4004 3273 l 4041 3254 l 4078 3235 l 4113 3216 l 4147 3197 l
 4180 3178 l 4211 3159 l 4241 3141 l 4270 3122 l 4298 3103 l
 4324 3084 l 4349 3064 l 4373 3045 l 4399 3022 l 4423 2998 l
 4446 2974 l 4468 2949 l 4489 2923 l 4508 2896 l 4526 2869 l
 4543 2840 l 4559 2811 l 4574 2781 l 4588 2749 l 4601 2717 l
 4613 2683 l 4624 2649 l 4633 2614 l 4642 2578 l 4651 2541 l
 4658 2503 l 4664 2465 l 4670 2426 l 4675 2386 l 4680 2346 l
 4683 2305 l 4687 2265 l 4690 2223 l 4692 2182 l 4694 2140 l
 4696 2099 l 4698 2057 l 4700 2014 l 4701 1972 l 4703 1929 l
 4704 1886 l 4706 1843 l 4708 1799 l 4710 1755 l 4712 1716 l
 4714 1677 l 4717 1637 l 4719 1597 l 4722 1556 l 4724 1514 l
 4727 1471 l 4729 1428 l 4731 1383 l 4733 1339 l 4735 1293 l
 4736 1248 l 4737 1201 l 4737 1155 l 4737 1108 l 4736 1061 l
 4734 1013 l 4732 966 l 4729 919 l 4725 872 l 4721 826 l
 4715 780 l 4709 735 l 4701 690 l 4692 646 l 4683 604 l
 4672 562 l 4660 521 l 4647 482 l 4632 444 l 4617 407 l
 4600 371 l 4582 337 l 4563 305 l 4542 274 l 4520 244 l
 4497 216 l 4472 189 l 4446 164 l 4418 141 l 4389 118 l
 4358 98 l 4328 80 l 4296 63 l 4263 47 l 4229 33 l
 4192 19 l 4155 6 l 4115 -5 l 4074 -16 l 4032 -26 l
 3988 -34 l 3942 -42 l 3895 -49 l 3846 -55 l 3796 -61 l
 3745 -65 l 3692 -68 l 3638 -71 l 3583 -73 l 3527 -74 l
 3471 -74 l 3413 -73 l 3355 -72 l 3297 -70 l 3238 -67 l
 3179 -63 l 3120 -59 l 3060 -54 l 3001 -49 l 2943 -43 l
 2884 -36 l 2826 -30 l 2769 -22 l 2712 -15 l 2657 -7 l
 2602 2 l 2548 10 l 2494 19 l 2442 28 l 2391 37 l
 2341 47 l 2292 56 l 2244 66 l 2197 76 l 2151 85 l
 2106 95 l 2063 105 l 2013 116 l 1965 128 l 1917 139 l
 1870 151 l 1824 163 l 1779 175 l 1733 188 l 1689 200 l
 1645 213 l 1601 226 l 1558 240 l 1515 253 l 1472 267 l
 1430 281 l 1388 296 l 1347 310 l 1306 325 l 1265 341 l
 1225 356 l 1186 371 l 1147 387 l 1109 403 l 1071 419 l
 1034 435 l 997 451 l 962 467 l 926 484 l 892 500 l
 858 516 l 824 533 l 791 549 l 759 565 l 727 582 l
 695 598 l 664 614 l 633 631 l 602 647 l 572 664 l
 541 681 l 510 698 l 480 714 l 451 730 l 420 747 l
 390 765 l 359 782 l 327 801 l 295 819 l 262 839 l
 229 859 l 196 879 l 162 900 l 127 922 l 92 945 l
 56 968 l 21 992 l -16 1017 l -52 1042 l -89 1068 l
 -126 1095 l -162 1122 l -199 1150 l -236 1179 l -273 1208 l
 -310 1238 l -346 1268 l -382 1299 l -418 1331 l -453 1363 l
 -488 1395 l -523 1427 l -556 1461 l -590 1494 l -622 1528 l
 -655 1562 l -686 1597 l -717 1632 l -748 1667 l -778 1703 l
 -807 1739 l -836 1776 l -864 1814 l
 cp gs col32 1.00 shd ef gr gs col32 s gr  [] 0 sd
% here ends figure;
% 
% here starts figure with depth 150
% Polyline
0 slj
0 slc
7.500 slw
n 1845 360 m 4275 360 l 4275 990 l 1845 990 l
 cp gs col7 1.00 shd ef gr gs col9 s gr 
% Polyline
n -1125 2520 m 1305 2520 l 1305 3150 l -1125 3150 l
 cp gs col7 1.00 shd ef gr gs col9 s gr 
% Polyline
n 2250 2520 m 4005 2520 l 4005 3150 l 2250 3150 l
 cp gs col7 1.00 shd ef gr gs col9 s gr 
% Polyline
n -1125 4095 m 1305 4095 l 1305 4725 l -1125 4725 l
 cp gs col7 1.00 shd ef gr gs col9 s gr 
/Helvetica-iso ff 222.25 scf sf
-765 1260 m
gs 1 -1 sc  30.0 rot (Kinetic models) col10 sh gr
% here ends figure;
% 
% here starts figure with depth 50
% Polyline
0 slj
0 slc
30.000 slw
gs  clippath
-5 2455 m -25 2425 l 135 2265 l 203 2364 l cp
eoclip
n 2082 1009 m
 0 2430 l gs col0 s gr gr

% arrowhead
15.000 slw
n 135 2265 m 20 2416 l 203 2364 l 135 2265 l  cp gs 0.00 setgray ef gr  col0 s
% Polyline
30.000 slw
gs  clippath
3123 2538 m 3087 2538 l 3045 2315 l 3165 2315 l cp
eoclip
n 3105 1035 m
 3105 2520 l gs col0 s gr gr

% arrowhead
15.000 slw
n 3045 2315 m 3105 2495 l 3165 2315 l 3045 2315 l  cp gs 0.00 setgray ef gr  col0 s
% Polyline
7.500 slw
n 6300 4095 m 8145 4095 l 8145 4725 l 6300 4725 l
 cp gs col9 s gr 
% Polyline
30.000 slw
gs  clippath
4949 4075 m 4925 4049 l 5057 3865 l 5140 3952 l cp
eoclip
n 5850 3195 m
 4950 4050 l gs col0 s gr gr

% arrowhead
15.000 slw
n 5057 3865 m 4968 4033 l 5140 3952 l 5057 3865 l  cp gs 0.00 setgray ef gr  col0 s
% Polyline
30.000 slw
gs  clippath
7323 4082 m 7298 4107 l 7110 3982 l 7193 3896 l cp
eoclip
n 6435 3240 m
 7298 4082 l gs col0 s gr gr

% arrowhead
15.000 slw
n 7110 3982 m 7280 4065 l 7193 3896 l 7110 3982 l  cp gs 0.00 setgray ef gr  col0 s
% Polyline
30.000 slw
gs  clippath
6138 2493 m 6102 2493 l 6060 2270 l 6180 2270 l cp
eoclip
n 6120 1890 m
 6120 2475 l gs col0 s gr gr

% arrowhead
15.000 slw
n 6060 2270 m 6120 2450 l 6180 2270 l 6060 2270 l  cp gs 0.00 setgray ef gr  col0 s
% Polyline
30.000 slw
gs  clippath
5742 1181 m 5733 1216 l 5507 1206 l 5534 1089 l cp
eoclip
n 4370 879 m
 5720 1194 l gs col0 s gr gr

% arrowhead
15.000 slw
n 5507 1206 m 5696 1188 l 5534 1089 l 5507 1206 l  cp gs 0.00 setgray ef gr  col0 s
% Polyline
30.000 slw
gs  clippath
18 4068 m -18 4068 l -60 3845 l 60 3845 l cp
eoclip
n 0 3150 m
 0 4050 l gs col0 s gr gr

% arrowhead
15.000 slw
n -60 3845 m 0 4025 l 60 3845 l -60 3845 l  cp gs 0.00 setgray ef gr  col0 s
% Polyline
7.500 slw
n 4950 1260 m 7380 1260 l 7380 1890 l 4950 1890 l
 cp gs col9 s gr 
% Polyline
n 4950 2520 m 7380 2520 l 7380 3150 l 4950 3150 l
 cp gs col9 s gr 
% Polyline
n 4095 4095 m 5850 4095 l 5850 4725 l 4095 4725 l
 cp gs col9 s gr 
% Polyline
2 slj
30.000 slw
 [120] 0 sd
n 1350 2880 m 1351 2882 l 1355 2885 l 1360 2892 l 1369 2902 l 1381 2916 l
 1396 2933 l 1413 2954 l 1433 2979 l 1455 3005 l 1477 3034 l
 1500 3064 l 1523 3094 l 1545 3124 l 1566 3155 l 1586 3185 l
 1604 3215 l 1622 3245 l 1639 3275 l 1654 3305 l 1669 3335 l
 1682 3366 l 1696 3398 l 1708 3431 l 1720 3466 l 1733 3503 l
 1740 3527 l 1748 3552 l 1756 3579 l 1764 3606 l 1772 3633 l
 1781 3662 l 1790 3692 l 1799 3722 l 1810 3753 l 1821 3785 l
 1832 3818 l 1845 3851 l 1858 3885 l 1872 3920 l 1888 3955 l
 1904 3990 l 1922 4026 l 1941 4062 l 1961 4098 l 1983 4134 l
 2005 4170 l 2029 4205 l 2055 4241 l 2082 4276 l 2110 4311 l
 2140 4345 l 2171 4378 l 2203 4411 l 2237 4443 l 2273 4474 l
 2309 4504 l 2348 4533 l 2388 4562 l 2429 4589 l 2472 4615 l
 2517 4641 l 2564 4665 l 2612 4688 l 2662 4711 l 2715 4733 l
 2755 4748 l 2797 4763 l 2840 4777 l 2884 4792 l 2930 4805 l
 2977 4819 l 3026 4832 l 3075 4844 l 3127 4856 l 3179 4868 l
 3233 4880 l 3288 4891 l 3345 4902 l 3403 4912 l 3461 4922 l
 3522 4932 l 3583 4941 l 3645 4950 l 3708 4959 l 3772 4967 l
 3837 4975 l 3902 4983 l 3968 4990 l 4034 4997 l 4101 5003 l
 4168 5009 l 4235 5015 l 4302 5020 l 4370 5025 l 4437 5029 l
 4503 5034 l 4569 5037 l 4635 5041 l 4700 5044 l 4765 5047 l
 4829 5049 l 4892 5051 l 4954 5053 l 5015 5055 l 5075 5056 l
 5133 5057 l 5191 5057 l 5247 5058 l 5303 5058 l 5356 5058 l
 5409 5057 l 5460 5057 l 5510 5056 l 5559 5055 l 5606 5054 l
 5652 5053 l 5697 5051 l 5740 5049 l 5783 5048 l 5847 5044 l
 5909 5041 l 5967 5037 l 6023 5032 l 6077 5027 l 6128 5021 l
 6177 5015 l 6224 5008 l 6270 5000 l 6314 4992 l 6357 4983 l
 6400 4973 l 6442 4962 l 6483 4951 l 6523 4939 l 6563 4926 l
 6602 4913 l 6640 4899 l 6677 4885 l 6712 4871 l 6746 4857 l
 6778 4843 l 6807 4830 l 6833 4818 l 6856 4807 l 6876 4798 l
 6893 4789 l 6906 4783 l 6916 4778 l 6922 4774 l 6927 4772 l
 6929 4771 l
 6930 4770 l gs col0 s gr  [] 0 sd
% Polyline
 [120] 0 sd
n 3150 3150 m 3150 3151 l 3149 3154 l 3148 3163 l 3145 3178 l 3141 3199 l
 3137 3226 l 3132 3256 l 3128 3288 l 3124 3320 l 3120 3351 l
 3118 3379 l 3117 3405 l 3117 3429 l 3118 3450 l 3120 3469 l
 3124 3486 l 3129 3502 l 3135 3518 l 3142 3532 l 3151 3546 l
 3161 3560 l 3172 3575 l 3184 3589 l 3197 3603 l 3210 3617 l
 3224 3632 l 3238 3646 l 3252 3661 l 3265 3675 l 3278 3690 l
 3290 3705 l 3300 3719 l 3310 3734 l 3318 3749 l 3325 3764 l
 3330 3780 l 3334 3796 l 3336 3814 l 3338 3832 l 3338 3851 l
 3338 3871 l 3337 3892 l 3336 3913 l 3334 3934 l 3332 3956 l
 3330 3977 l 3329 3998 l 3328 4017 l 3328 4036 l 3329 4054 l
 3331 4070 l 3334 4084 l 3339 4098 l 3345 4110 l 3353 4121 l
 3362 4131 l 3374 4140 l 3387 4148 l 3402 4155 l 3419 4162 l
 3437 4169 l 3457 4174 l 3479 4180 l 3501 4185 l 3523 4190 l
 3547 4194 l 3570 4199 l 3593 4203 l 3616 4207 l 3638 4212 l
 3661 4217 l 3683 4223 l 3702 4228 l 3722 4234 l 3742 4241 l
 3763 4248 l 3784 4257 l 3808 4267 l 3832 4278 l 3859 4290 l
 3887 4304 l 3917 4318 l 3948 4334 l 3978 4349 l 4008 4364 l
 4034 4378 l 4056 4390 l 4074 4399 l 4085 4405 l 4092 4408 l

 4095 4410 l gs col0 s gr  [] 0 sd
/Helvetica-iso ff 190.50 scf sf
2025 855 m
gs 1 -1 sc (kinetic whole-cell model) col9 sh gr
/Helvetica-iso ff 190.50 scf sf
2070 630 m
gs 1 -1 sc (\(Hypothetical\) detailed) col9 sh gr
/Helvetica-iso ff 190.50 scf sf
6750 4365 m
gs 1 -1 sc (Flux balance) col9 sh gr
/Helvetica-iso ff 158.75 scf sf
3330 1800 m
gs 1 -1 sc (lumped ) col0 sh gr
/Helvetica-iso ff 190.50 scf sf
-1080 4455 m
gs 1 -1 sc (Enzyme cost minimisation) col9 sh gr
/Helvetica-iso ff 190.50 scf sf
4995 1665 m
gs 1 -1 sc (Resource balance analysis) col9 sh gr
/Helvetica-iso ff 190.50 scf sf
5265 2790 m
gs 1 -1 sc (Constrained-allocation) col9 sh gr
/Helvetica-iso ff 190.50 scf sf
5355 3060 m
gs 1 -1 sc (flux balance analysis) col9 sh gr
/Helvetica-iso ff 190.50 scf sf
6885 4590 m
gs 1 -1 sc (analysis) col9 sh gr
/Helvetica-iso ff 190.50 scf sf
4545 4320 m
gs 1 -1 sc ("Bacterial) col9 sh gr
/Helvetica-iso ff 190.50 scf sf
4455 4590 m
gs 1 -1 sc (growth laws") col9 sh gr
/Helvetica-iso ff 158.75 scf sf
4545 3510 m
gs 1 -1 sc (Lump) col0 sh gr
/Helvetica-iso ff 158.75 scf sf
4320 3735 m
gs 1 -1 sc (metabolism) col0 sh gr
/Helvetica-iso ff 158.75 scf sf
6975 3510 m
gs 1 -1 sc (Consider) col0 sh gr
/Helvetica-iso ff 158.75 scf sf
7155 3735 m
gs 1 -1 sc (metaboism only) col0 sh gr
/Helvetica-iso ff 158.75 scf sf
4905 675 m
gs 1 -1 sc (Linearise \(assume constant) col0 sh gr
/Helvetica-iso ff 158.75 scf sf
5220 900 m
gs 1 -1 sc (enzyme + machine efficiencies\)) col0 sh gr
/Helvetica-iso ff 158.75 scf sf
0 1485 m
gs 1 -1 sc (metabolism only) col0 sh gr
/Helvetica-iso ff 158.75 scf sf
225 1260 m
gs 1 -1 sc (Consider) col0 sh gr
/Helvetica-iso ff 158.75 scf sf
3330 1620 m
gs 1 -1 sc (Few) col0 sh gr
/Helvetica-iso ff 158.75 scf sf
3330 2025 m
gs 1 -1 sc (variables) col0 sh gr
/Helvetica-iso ff 158.75 scf sf
6300 2205 m
gs 1 -1 sc (Lump cellular machines) col0 sh gr
/Helvetica-iso ff 158.75 scf sf
225 3555 m
gs 1 -1 sc (Predefine) col0 sh gr
/Helvetica-iso ff 158.75 scf sf
225 3780 m
gs 1 -1 sc (flux distribution) col0 sh gr
/Helvetica-iso ff 190.50 scf sf
-900 2925 m
gs 1 -1 sc (Flux cost minimisation) col9 sh gr
/Helvetica-iso ff 190.50 scf sf
2430 2745 m
gs 1 -1 sc (Kinetic "minimal) col9 sh gr
/Helvetica-iso ff 190.50 scf sf
2430 3015 m
gs 1 -1 sc (self-replicator") col9 sh gr
% here ends figure;
pagefooter
showpage
%%Trailer
%EOF
