%!PS-Adobe-3.0 EPSF-3.0
%%Title: RBA_scheme_biological_2.fig
%%Creator: fig2dev Version 3.2 Patchlevel 5e
%%CreationDate: Fri Oct 12 15:02:17 2018
%%BoundingBox: 0 0 864 344
%Magnification: 1.0000
%%EndComments
%%BeginProlog
/$F2psDict 200 dict def
$F2psDict begin
$F2psDict /mtrx matrix put
/col-1 {0 setgray} bind def
/col0 {0.000 0.000 0.000 srgb} bind def
/col1 {0.000 0.000 1.000 srgb} bind def
/col2 {0.000 1.000 0.000 srgb} bind def
/col3 {0.000 1.000 1.000 srgb} bind def
/col4 {1.000 0.000 0.000 srgb} bind def
/col5 {1.000 0.000 1.000 srgb} bind def
/col6 {1.000 1.000 0.000 srgb} bind def
/col7 {1.000 1.000 1.000 srgb} bind def
/col8 {0.000 0.000 0.560 srgb} bind def
/col9 {0.000 0.000 0.690 srgb} bind def
/col10 {0.000 0.000 0.820 srgb} bind def
/col11 {0.530 0.810 1.000 srgb} bind def
/col12 {0.000 0.560 0.000 srgb} bind def
/col13 {0.000 0.690 0.000 srgb} bind def
/col14 {0.000 0.820 0.000 srgb} bind def
/col15 {0.000 0.560 0.560 srgb} bind def
/col16 {0.000 0.690 0.690 srgb} bind def
/col17 {0.000 0.820 0.820 srgb} bind def
/col18 {0.560 0.000 0.000 srgb} bind def
/col19 {0.690 0.000 0.000 srgb} bind def
/col20 {0.820 0.000 0.000 srgb} bind def
/col21 {0.560 0.000 0.560 srgb} bind def
/col22 {0.690 0.000 0.690 srgb} bind def
/col23 {0.820 0.000 0.820 srgb} bind def
/col24 {0.500 0.190 0.000 srgb} bind def
/col25 {0.630 0.250 0.000 srgb} bind def
/col26 {0.750 0.380 0.000 srgb} bind def
/col27 {1.000 0.500 0.500 srgb} bind def
/col28 {1.000 0.630 0.630 srgb} bind def
/col29 {1.000 0.750 0.750 srgb} bind def
/col30 {1.000 0.880 0.880 srgb} bind def
/col31 {1.000 0.840 0.000 srgb} bind def
/col32 {1.000 0.910 0.667 srgb} bind def
/col33 {0.867 0.667 0.400 srgb} bind def
/col34 {0.867 0.800 1.000 srgb} bind def
/col35 {0.533 0.400 0.267 srgb} bind def
/col36 {0.933 0.933 0.933 srgb} bind def
/col37 {0.733 0.733 0.733 srgb} bind def

end

/cp {closepath} bind def
/ef {eofill} bind def
/gr {grestore} bind def
/gs {gsave} bind def
/sa {save} bind def
/rs {restore} bind def
/l {lineto} bind def
/m {moveto} bind def
/rm {rmoveto} bind def
/n {newpath} bind def
/s {stroke} bind def
/sh {show} bind def
/slc {setlinecap} bind def
/slj {setlinejoin} bind def
/slw {setlinewidth} bind def
/srgb {setrgbcolor} bind def
/rot {rotate} bind def
/sc {scale} bind def
/sd {setdash} bind def
/ff {findfont} bind def
/sf {setfont} bind def
/scf {scalefont} bind def
/sw {stringwidth} bind def
/tr {translate} bind def
/tnt {dup dup currentrgbcolor
  4 -2 roll dup 1 exch sub 3 -1 roll mul add
  4 -2 roll dup 1 exch sub 3 -1 roll mul add
  4 -2 roll dup 1 exch sub 3 -1 roll mul add srgb}
  bind def
/shd {dup dup currentrgbcolor 4 -2 roll mul 4 -2 roll mul
  4 -2 roll mul srgb} bind def
/reencdict 12 dict def /ReEncode { reencdict begin
/newcodesandnames exch def /newfontname exch def /basefontname exch def
/basefontdict basefontname findfont def /newfont basefontdict maxlength dict def
basefontdict { exch dup /FID ne { dup /Encoding eq
{ exch dup length array copy newfont 3 1 roll put }
{ exch newfont 3 1 roll put } ifelse } { pop pop } ifelse } forall
newfont /FontName newfontname put newcodesandnames aload pop
128 1 255 { newfont /Encoding get exch /.notdef put } for
newcodesandnames length 2 idiv { newfont /Encoding get 3 1 roll put } repeat
newfontname newfont definefont pop end } def
/isovec [
8#055 /minus 8#200 /grave 8#201 /acute 8#202 /circumflex 8#203 /tilde
8#204 /macron 8#205 /breve 8#206 /dotaccent 8#207 /dieresis
8#210 /ring 8#211 /cedilla 8#212 /hungarumlaut 8#213 /ogonek 8#214 /caron
8#220 /dotlessi 8#230 /oe 8#231 /OE
8#240 /space 8#241 /exclamdown 8#242 /cent 8#243 /sterling
8#244 /currency 8#245 /yen 8#246 /brokenbar 8#247 /section 8#250 /dieresis
8#251 /copyright 8#252 /ordfeminine 8#253 /guillemotleft 8#254 /logicalnot
8#255 /hyphen 8#256 /registered 8#257 /macron 8#260 /degree 8#261 /plusminus
8#262 /twosuperior 8#263 /threesuperior 8#264 /acute 8#265 /mu 8#266 /paragraph
8#267 /periodcentered 8#270 /cedilla 8#271 /onesuperior 8#272 /ordmasculine
8#273 /guillemotright 8#274 /onequarter 8#275 /onehalf
8#276 /threequarters 8#277 /questiondown 8#300 /Agrave 8#301 /Aacute
8#302 /Acircumflex 8#303 /Atilde 8#304 /Adieresis 8#305 /Aring
8#306 /AE 8#307 /Ccedilla 8#310 /Egrave 8#311 /Eacute
8#312 /Ecircumflex 8#313 /Edieresis 8#314 /Igrave 8#315 /Iacute
8#316 /Icircumflex 8#317 /Idieresis 8#320 /Eth 8#321 /Ntilde 8#322 /Ograve
8#323 /Oacute 8#324 /Ocircumflex 8#325 /Otilde 8#326 /Odieresis 8#327 /multiply
8#330 /Oslash 8#331 /Ugrave 8#332 /Uacute 8#333 /Ucircumflex
8#334 /Udieresis 8#335 /Yacute 8#336 /Thorn 8#337 /germandbls 8#340 /agrave
8#341 /aacute 8#342 /acircumflex 8#343 /atilde 8#344 /adieresis 8#345 /aring
8#346 /ae 8#347 /ccedilla 8#350 /egrave 8#351 /eacute
8#352 /ecircumflex 8#353 /edieresis 8#354 /igrave 8#355 /iacute
8#356 /icircumflex 8#357 /idieresis 8#360 /eth 8#361 /ntilde 8#362 /ograve
8#363 /oacute 8#364 /ocircumflex 8#365 /otilde 8#366 /odieresis 8#367 /divide
8#370 /oslash 8#371 /ugrave 8#372 /uacute 8#373 /ucircumflex
8#374 /udieresis 8#375 /yacute 8#376 /thorn 8#377 /ydieresis] def
/Helvetica /Helvetica-iso isovec ReEncode
 /DrawEllipse {
	/endangle exch def
	/startangle exch def
	/yrad exch def
	/xrad exch def
	/y exch def
	/x exch def
	/savematrix mtrx currentmatrix def
	x y tr xrad yrad sc 0 0 1 startangle endangle arc
	closepath
	savematrix setmatrix
	} def

/$F2psBegin {$F2psDict begin /$F2psEnteredState save def} def
/$F2psEnd {$F2psEnteredState restore end} def

/pageheader {
save
newpath 0 344 moveto 0 0 lineto 864 0 lineto 864 344 lineto closepath clip newpath
0.5 356.4 translate
1 -1 scale
$F2psBegin
10 setmiterlimit
0 slj 0 slc
 0.06299 0.06299 sc
} bind def
/pagefooter {
$F2psEnd
restore
} bind def
%%EndProlog
pageheader
%
% Fig objects follow
%
% 
% here starts figure with depth 250
% Polyline
0 slj
0 slc
15.000 slw
n 3150 225 m 900 225 900 2700 2250 arcto 4 {pop} repeat
  900 4950 11430 4950 2250 arcto 4 {pop} repeat
  13680 4950 13680 2475 2250 arcto 4 {pop} repeat
  13680 225 3150 225 2250 arcto 4 {pop} repeat
 cp gs col0 s gr 
% here ends figure;
% 
% here starts figure with depth 200
% Polyline
0 slj
0 slc
7.500 slw
n 1815 1080 m 1710 1080 1710 3720 105 arcto 4 {pop} repeat
  1710 3825 5880 3825 105 arcto 4 {pop} repeat
  5985 3825 5985 1185 105 arcto 4 {pop} repeat
  5985 1080 1815 1080 105 arcto 4 {pop} repeat
 cp gs col36 1.00 shd ef gr gs col0 s gr 
% Polyline
n 7440 1170 m 7335 1170 7335 3720 105 arcto 4 {pop} repeat
  7335 3825 10740 3825 105 arcto 4 {pop} repeat
  10845 3825 10845 1275 105 arcto 4 {pop} repeat
  10845 1170 7440 1170 105 arcto 4 {pop} repeat
 cp gs col36 1.00 shd ef gr gs col0 s gr 
% Polyline
n 11580 1575 m 11475 1575 11475 3180 105 arcto 4 {pop} repeat
  11475 3285 12270 3285 105 arcto 4 {pop} repeat
  12375 3285 12375 1680 105 arcto 4 {pop} repeat
  12375 1575 11580 1575 105 arcto 4 {pop} repeat
 cp gs col36 1.00 shd ef gr gs col0 s gr 
% here ends figure;
% 
% here starts figure with depth 50
% Ellipse
7.500 slw
n 225 2250 225 225 0 360 DrawEllipse gs col37 1.00 shd ef gr gs col0 s gr

% Ellipse
n 2475 2250 225 225 0 360 DrawEllipse gs col37 1.00 shd ef gr gs col0 s gr

% Ellipse
n 5085 2201 225 225 0 360 DrawEllipse gs col37 1.00 shd ef gr gs col0 s gr

% Ellipse
n 6615 2205 225 225 0 360 DrawEllipse gs col37 1.00 shd ef gr gs col0 s gr

% Polyline
0 slj
0 slc
15.000 slw
gs  clippath
cp
eoclip
n 9810 4185 m 9180 4185 l
 9180 3510 l gs col0 s gr gr

% arrowhead
n 9623 4185 m 9803 4275 l 9803 4095 l 9623 4185 l  cp gs col7 1.00 shd ef gr  col0 s
% Polyline
gs  clippath
cp
eoclip
n 11700 3285 m 11700 4320 l
 10980 4320 l gs col0 s gr gr

% arrowhead
n 11168 4320 m 10988 4230 l 10988 4410 l 11168 4320 l  cp gs col7 1.00 shd ef gr  col0 s
% Polyline
gs  clippath
cp
eoclip
n 9810 4365 m 4140 4365 l
 4140 3510 l gs col0 s gr gr

% arrowhead
n 9623 4365 m 9803 4455 l 9803 4275 l 9623 4365 l  cp gs col7 1.00 shd ef gr  col0 s
% Polyline
gs  clippath
4192 2392 m 4192 2295 l 3997 2295 l 3997 2392 l 3997 2392 l cp
eoclip
n 4095 2925 m
 4095 2295 l gs col0 s gr gr

% arrowhead
n 4185 2392 m 4184 2378 l 4180 2363 l 4175 2350 l 4167 2338 l 
4157 2327 l 4146 2318 l 4134 2311 l 4120 2306 l 4106 2303 l 
4091 2302 l 4077 2304 l 4063 2308 l 4050 2314 l 4038 2322 l 
4028 2332 l 4019 2344 l 4012 2357 l 4008 2370 l 4005 2385 l 
4005 2399 l 4008 2414 l 4012 2427 l 4019 2440 l 4028 2452 l 
4038 2462 l 4050 2470 l 4063 2476 l 4077 2480 l 4091 2482 l 
4106 2481 l 4120 2478 l 4134 2473 l 4146 2466 l 4157 2457 l 
4167 2446 l 4175 2434 l 4180 2421 l 4184 2406 l 4185 2392 l 
 cp gs col7 1.00 shd ef gr  col0 s
% Polyline
gs  clippath
9277 2347 m 9277 2250 l 9082 2250 l 9082 2347 l 9082 2347 l cp
eoclip
n 9180 2880 m
 9180 2250 l gs col0 s gr gr

% arrowhead
n 9270 2347 m 9269 2333 l 9265 2318 l 9260 2305 l 9252 2293 l 
9242 2282 l 9231 2273 l 9219 2266 l 9205 2261 l 9191 2258 l 
9176 2257 l 9162 2259 l 9148 2263 l 9135 2269 l 9123 2277 l 
9113 2287 l 9104 2299 l 9097 2312 l 9093 2325 l 9090 2340 l 
9090 2354 l 9093 2369 l 9097 2382 l 9104 2395 l 9113 2407 l 
9123 2417 l 9135 2425 l 9148 2431 l 9162 2435 l 9176 2437 l 
9191 2436 l 9205 2433 l 9219 2428 l 9231 2421 l 9242 2412 l 
9252 2401 l 9260 2389 l 9265 2376 l 9269 2361 l 9270 2347 l 
 cp gs col7 1.00 shd ef gr  col0 s
% Polyline
7.500 slw
n 3780 3195 m 4050 2925 l 4455 3060 l 4500 3240 l 4140 3465 l
 cp gs col37 1.00 shd ef gr gs col0 s gr 
% Polyline
n 8865 3195 m 9225 2925 l 9630 3105 l 9585 3330 l 9180 3465 l
 cp gs col37 1.00 shd ef gr gs col0 s gr 
% Polyline
n 9945 4365 m 10305 4095 l 10800 4275 l 10890 4545 l 10350 4725 l
 cp gs col37 1.00 shd ef gr gs col0 s gr 
% Polyline
30.000 slw
gs  clippath
2020 2265 m 2265 2265 l 2265 2145 l 2020 2145 l 2020 2145 l 2200 2205 l 2020 2265 l cp
eoclip
n 495 2205 m
 2250 2205 l gs col0 s gr gr

% arrowhead
n 2020 2265 m 2200 2205 l 2020 2145 l 2020 2265 l  cp gs 0.00 setgray ef gr  col0 s
% Polyline
gs  clippath
6115 2265 m 6360 2265 l 6360 2145 l 6115 2145 l 6115 2145 l 6295 2205 l 6115 2265 l cp
eoclip
n 5400 2205 m
 6345 2205 l gs col0 s gr gr

% arrowhead
n 6115 2265 m 6295 2205 l 6115 2145 l 6115 2265 l  cp gs 0.00 setgray ef gr  col0 s
% Polyline
gs  clippath
7555 2265 m 7800 2265 l 7800 2145 l 7555 2145 l 7555 2145 l 7735 2205 l 7555 2265 l cp
eoclip
n 6930 2205 m
 7785 2205 l gs col0 s gr gr

% arrowhead
n 7555 2265 m 7735 2205 l 7555 2145 l 7555 2265 l  cp gs 0.00 setgray ef gr  col0 s
% Polyline
gs  clippath
10290 3775 m 10290 4020 l 10410 4020 l 10410 3775 l 10410 3775 l 10350 3955 l 10290 3775 l cp
eoclip
n 8730 2160 m 9945 2160 l 10350 2475 l
 10350 4005 l gs col0 s gr gr

% arrowhead
n 10290 3775 m 10350 3955 l 10410 3775 l 10290 3775 l  cp gs 0.00 setgray ef gr  col0 s
% Polyline
gs  clippath
10335 5395 m 10335 5640 l 10455 5640 l 10455 5395 l 10455 5395 l 10395 5575 l 10335 5395 l cp
eoclip
n 10395 4860 m
 10395 5625 l gs col0 s gr gr

% arrowhead
n 10335 5395 m 10395 5575 l 10455 5395 l 10335 5395 l  cp gs 0.00 setgray ef gr  col0 s
% Polyline
gs  clippath
4540 2265 m 4785 2265 l 4785 2145 l 4540 2145 l 4540 2145 l 4720 2205 l 4540 2265 l cp
eoclip
n 2790 2205 m
 4770 2205 l gs col0 s gr gr

% arrowhead
n 4540 2265 m 4720 2205 l 4540 2145 l 4540 2265 l  cp gs 0.00 setgray ef gr  col0 s
% Polyline
7.500 slw
n 7830 2160 m 8190 1890 l 8595 2070 l 8550 2295 l 8145 2430 l
 cp gs col37 1.00 shd ef gr gs col0 s gr 
/Helvetica-iso ff 190.50 scf sf
3330 1395 m
gs 1 -1 sc (Enzyme) col4 sh gr
/Helvetica-iso ff 190.50 scf sf
3330 1575 m
gs 1 -1 sc (capacity) col4 sh gr
/Helvetica-iso ff 190.50 scf sf
3330 1755 m
gs 1 -1 sc (constraint) col4 sh gr
/Helvetica-iso ff 190.50 scf sf
4635 1395 m
gs 1 -1 sc (Metabolite) col4 sh gr
/Helvetica-iso ff 190.50 scf sf
4635 1575 m
gs 1 -1 sc (mass-balance) col4 sh gr
/Helvetica-iso ff 190.50 scf sf
4635 1755 m
gs 1 -1 sc (constraint) col4 sh gr
/Helvetica-iso ff 190.50 scf sf
8685 1620 m
gs 1 -1 sc (capacity) col4 sh gr
/Helvetica-iso ff 190.50 scf sf
8685 1800 m
gs 1 -1 sc (constraint) col4 sh gr
/Helvetica-iso ff 190.50 scf sf
10890 4770 m
gs 1 -1 sc (constraint) col4 sh gr
/Helvetica-iso ff 190.50 scf sf
12645 2700 m
gs 1 -1 sc (Density) col4 sh gr
/Helvetica-iso ff 190.50 scf sf
12510 2925 m
gs 1 -1 sc (constraint) col4 sh gr
/Helvetica-iso ff 254.00 scf sf
3240 945 m
gs 1 -1 sc (Metabolism) col37 sh gr
/Helvetica-iso ff 254.00 scf sf
7470 990 m
gs 1 -1 sc (Macromolecule production) col37 sh gr
/Helvetica-iso ff 190.50 scf sf
7155 4725 m
gs 1 -1 sc (Macromolecule mass-balance) col4 sh gr
/Helvetica-iso ff 190.50 scf sf
8685 1440 m
gs 1 -1 sc (Machine) col4 sh gr
/Helvetica-iso ff 190.50 scf sf
7740 2745 m
gs 1 -1 sc (Target) col4 sh gr
/Helvetica-iso ff 190.50 scf sf
7740 3195 m
gs 1 -1 sc (constraint) col4 sh gr
/Helvetica-iso ff 190.50 scf sf
7740 2985 m
gs 1 -1 sc (concentration) col4 sh gr
/Helvetica-iso ff 190.50 scf sf
1890 2880 m
gs 1 -1 sc (Target) col4 sh gr
/Helvetica-iso ff 190.50 scf sf
1890 3375 m
gs 1 -1 sc (constraint) col4 sh gr
/Helvetica-iso ff 190.50 scf sf
1890 3105 m
gs 1 -1 sc (flux) col4 sh gr
% here ends figure;
% 
% here starts figure with depth 10
% Arc
30.000 slw
0 slc
n 3675.7 2205.0 255.7 20.6097 -20.6097 arc
gs col4 s gr

% Arc
n 5043.1 2209.0 366.4 76.2858 -83.4385 arc
gs col4 s gr

% Arc
n 9088.0 2235.7 278.4 12.3005 -49.1704 arc
gs col4 s gr

% Arc
n 10408.8 4372.4 458.9 -155.8893 -18.0852 arcn
gs col4 s gr

% Arc
n 12029.7 1521.5 1088.6 123.4296 61.1516 arcn
gs col4 s gr

% Arc
n 8053.0 2235.7 278.4 12.3005 -49.1704 arc
gs col4 s gr

% Arc
n 2113.0 2280.7 278.4 12.3005 -49.1704 arc
gs col4 s gr

% here ends figure;
pagefooter
showpage
%%Trailer
%EOF
