%!PS-Adobe-2.0 EPSF-2.0
%%Title: jacobian.fig
%%Creator: fig2dev Version 3.2 Patchlevel 5a
%%CreationDate: Wed Oct 19 21:51:52 2011
%%BoundingBox: 0 0 326 110
%Magnification: 1.0000
%%EndComments
%%BeginProlog
/$F2psDict 200 dict def
$F2psDict begin
$F2psDict /mtrx matrix put
/col-1 {0 setgray} bind def
/col0 {0.000 0.000 0.000 srgb} bind def
/col1 {0.000 0.000 1.000 srgb} bind def
/col2 {0.000 1.000 0.000 srgb} bind def
/col3 {0.000 1.000 1.000 srgb} bind def
/col4 {1.000 0.000 0.000 srgb} bind def
/col5 {1.000 0.000 1.000 srgb} bind def
/col6 {1.000 1.000 0.000 srgb} bind def
/col7 {1.000 1.000 1.000 srgb} bind def
/col8 {0.000 0.000 0.560 srgb} bind def
/col9 {0.000 0.000 0.690 srgb} bind def
/col10 {0.000 0.000 0.820 srgb} bind def
/col11 {0.530 0.810 1.000 srgb} bind def
/col12 {0.000 0.560 0.000 srgb} bind def
/col13 {0.000 0.690 0.000 srgb} bind def
/col14 {0.000 0.820 0.000 srgb} bind def
/col15 {0.000 0.560 0.560 srgb} bind def
/col16 {0.000 0.690 0.690 srgb} bind def
/col17 {0.000 0.820 0.820 srgb} bind def
/col18 {0.560 0.000 0.000 srgb} bind def
/col19 {0.690 0.000 0.000 srgb} bind def
/col20 {0.820 0.000 0.000 srgb} bind def
/col21 {0.560 0.000 0.560 srgb} bind def
/col22 {0.690 0.000 0.690 srgb} bind def
/col23 {0.820 0.000 0.820 srgb} bind def
/col24 {0.500 0.190 0.000 srgb} bind def
/col25 {0.630 0.250 0.000 srgb} bind def
/col26 {0.750 0.380 0.000 srgb} bind def
/col27 {1.000 0.500 0.500 srgb} bind def
/col28 {1.000 0.630 0.630 srgb} bind def
/col29 {1.000 0.750 0.750 srgb} bind def
/col30 {1.000 0.880 0.880 srgb} bind def
/col31 {1.000 0.840 0.000 srgb} bind def
/col32 {0.867 0.867 0.867 srgb} bind def
/col33 {0.800 0.800 0.800 srgb} bind def
/col34 {1.000 0.898 0.710 srgb} bind def

end

/cp {closepath} bind def
/ef {eofill} bind def
/gr {grestore} bind def
/gs {gsave} bind def
/sa {save} bind def
/rs {restore} bind def
/l {lineto} bind def
/m {moveto} bind def
/rm {rmoveto} bind def
/n {newpath} bind def
/s {stroke} bind def
/sh {show} bind def
/slc {setlinecap} bind def
/slj {setlinejoin} bind def
/slw {setlinewidth} bind def
/srgb {setrgbcolor} bind def
/rot {rotate} bind def
/sc {scale} bind def
/sd {setdash} bind def
/ff {findfont} bind def
/sf {setfont} bind def
/scf {scalefont} bind def
/sw {stringwidth} bind def
/tr {translate} bind def
/tnt {dup dup currentrgbcolor
  4 -2 roll dup 1 exch sub 3 -1 roll mul add
  4 -2 roll dup 1 exch sub 3 -1 roll mul add
  4 -2 roll dup 1 exch sub 3 -1 roll mul add srgb}
  bind def
/shd {dup dup currentrgbcolor 4 -2 roll mul 4 -2 roll mul
  4 -2 roll mul srgb} bind def
/reencdict 12 dict def /ReEncode { reencdict begin
/newcodesandnames exch def /newfontname exch def /basefontname exch def
/basefontdict basefontname findfont def /newfont basefontdict maxlength dict def
basefontdict { exch dup /FID ne { dup /Encoding eq
{ exch dup length array copy newfont 3 1 roll put }
{ exch newfont 3 1 roll put } ifelse } { pop pop } ifelse } forall
newfont /FontName newfontname put newcodesandnames aload pop
128 1 255 { newfont /Encoding get exch /.notdef put } for
newcodesandnames length 2 idiv { newfont /Encoding get 3 1 roll put } repeat
newfontname newfont definefont pop end } def
/isovec [
8#055 /minus 8#200 /grave 8#201 /acute 8#202 /circumflex 8#203 /tilde
8#204 /macron 8#205 /breve 8#206 /dotaccent 8#207 /dieresis
8#210 /ring 8#211 /cedilla 8#212 /hungarumlaut 8#213 /ogonek 8#214 /caron
8#220 /dotlessi 8#230 /oe 8#231 /OE
8#240 /space 8#241 /exclamdown 8#242 /cent 8#243 /sterling
8#244 /currency 8#245 /yen 8#246 /brokenbar 8#247 /section 8#250 /dieresis
8#251 /copyright 8#252 /ordfeminine 8#253 /guillemotleft 8#254 /logicalnot
8#255 /hyphen 8#256 /registered 8#257 /macron 8#260 /degree 8#261 /plusminus
8#262 /twosuperior 8#263 /threesuperior 8#264 /acute 8#265 /mu 8#266 /paragraph
8#267 /periodcentered 8#270 /cedilla 8#271 /onesuperior 8#272 /ordmasculine
8#273 /guillemotright 8#274 /onequarter 8#275 /onehalf
8#276 /threequarters 8#277 /questiondown 8#300 /Agrave 8#301 /Aacute
8#302 /Acircumflex 8#303 /Atilde 8#304 /Adieresis 8#305 /Aring
8#306 /AE 8#307 /Ccedilla 8#310 /Egrave 8#311 /Eacute
8#312 /Ecircumflex 8#313 /Edieresis 8#314 /Igrave 8#315 /Iacute
8#316 /Icircumflex 8#317 /Idieresis 8#320 /Eth 8#321 /Ntilde 8#322 /Ograve
8#323 /Oacute 8#324 /Ocircumflex 8#325 /Otilde 8#326 /Odieresis 8#327 /multiply
8#330 /Oslash 8#331 /Ugrave 8#332 /Uacute 8#333 /Ucircumflex
8#334 /Udieresis 8#335 /Yacute 8#336 /Thorn 8#337 /germandbls 8#340 /agrave
8#341 /aacute 8#342 /acircumflex 8#343 /atilde 8#344 /adieresis 8#345 /aring
8#346 /ae 8#347 /ccedilla 8#350 /egrave 8#351 /eacute
8#352 /ecircumflex 8#353 /edieresis 8#354 /igrave 8#355 /iacute
8#356 /icircumflex 8#357 /idieresis 8#360 /eth 8#361 /ntilde 8#362 /ograve
8#363 /oacute 8#364 /ocircumflex 8#365 /otilde 8#366 /odieresis 8#367 /divide
8#370 /oslash 8#371 /ugrave 8#372 /uacute 8#373 /ucircumflex
8#374 /udieresis 8#375 /yacute 8#376 /thorn 8#377 /ydieresis] def
/Helvetica /Helvetica-iso isovec ReEncode
 /DrawEllipse {
	/endangle exch def
	/startangle exch def
	/yrad exch def
	/xrad exch def
	/y exch def
	/x exch def
	/savematrix mtrx currentmatrix def
	x y tr xrad yrad sc 0 0 1 startangle endangle arc
	closepath
	savematrix setmatrix
	} def

/$F2psBegin {$F2psDict begin /$F2psEnteredState save def} def
/$F2psEnd {$F2psEnteredState restore end} def

/pageheader {
save
newpath 0 110 moveto 0 0 lineto 326 0 lineto 326 110 lineto closepath clip newpath
-89.3 148.5 translate
1 -1 scale
$F2psBegin
10 setmiterlimit
0 slj 0 slc
 0.06000 0.06000 sc
} bind def
/pagefooter {
$F2psEnd
restore
} bind def
%%EndProlog
pageheader
%
% Fig objects follow
%
% 
% here starts figure with depth 100
% Arc
7.500 slw
0 slc
gs  clippath
4056 1288 m 4111 1458 l 4197 1430 l 4141 1260 l 4141 1260 l 4146 1417 l 4056 1288 l cp
eoclip
n 3643.3 1511.0 513.1 -164.0542 -9.0786 arc
gs col4 s gr
 gr

% arrowhead
0 slj
n 4056 1288 m 4146 1417 l 4141 1260 l 4056 1288 l  cp gs col4 1.00 shd ef gr  col4 s
% Arc
gs  clippath
4291 1250 m 4242 1422 l 4329 1446 l 4378 1274 l 4378 1274 l 4294 1407 l 4291 1250 l cp
eoclip
n 4732.8 1461.0 444.7 -10.4909 -174.7142 arcn
gs col4 s gr
 gr

% arrowhead
n 4291 1250 m 4294 1407 l 4378 1274 l 4291 1250 l  cp gs col4 1.00 shd ef gr  col4 s
% Arc
gs  clippath
6227 1284 m 6293 1450 l 6377 1417 l 6310 1251 l 6310 1251 l 6325 1407 l 6227 1284 l cp
eoclip
n 5841.1 1530.3 501.2 -163.7382 -12.7189 arc
gs col4 s gr
 gr

% arrowhead
n 6227 1284 m 6325 1407 l 6310 1251 l 6227 1284 l  cp gs col4 1.00 shd ef gr  col4 s
% Polyline
gs  clippath
6736 1695 m 6915 1695 l 6915 1605 l 6736 1605 l 6736 1605 l 6886 1650 l 6736 1695 l cp
eoclip
n 5550 1650 m
 6900 1650 l gs col0 s gr gr

% arrowhead
n 6736 1695 m 6886 1650 l 6736 1605 l 6736 1695 l  cp gs 0.00 setgray ef gr  col0 s
% Polyline
gs  clippath
2686 1695 m 2865 1695 l 2865 1605 l 2686 1605 l 2686 1605 l 2836 1650 l 2686 1695 l cp
eoclip
n 1500 1650 m
 2850 1650 l gs col0 s gr gr

% arrowhead
n 2686 1695 m 2836 1650 l 2686 1605 l 2686 1695 l  cp gs 0.00 setgray ef gr  col0 s
% Polyline
gs  clippath
4786 1695 m 4965 1695 l 4965 1605 l 4786 1605 l 4786 1605 l 4936 1650 l 4786 1695 l cp
eoclip
n 3450 1650 m
 4950 1650 l gs col0 s gr gr

% arrowhead
n 4786 1695 m 4936 1650 l 4786 1605 l 4786 1695 l  cp gs 0.00 setgray ef gr  col0 s
/Helvetica-iso ff 200.00 scf sf
5830 2450 m
gs 1 -1 sc (22) col0 sh gr
/Helvetica-iso ff 200.00 scf sf
4630 2450 m
gs 1 -1 sc (21) col0 sh gr
/Helvetica-iso ff 200.00 scf sf
3490 2460 m
gs 1 -1 sc (11) col0 sh gr
/Helvetica-iso ff 200.00 scf sf
3620 910 m
gs 1 -1 sc (11) col4 sh gr
/Helvetica-iso ff 200.00 scf sf
4770 910 m
gs 1 -1 sc (12) col4 sh gr
/Helvetica-iso ff 200.00 scf sf
5870 920 m
gs 1 -1 sc (22) col4 sh gr
/Helvetica-iso ff 300.00 scf sf
3444 880 m
gs 1 -1 sc (E) col4 sh gr
/Helvetica-iso ff 300.00 scf sf
5674 881 m
gs 1 -1 sc (E) col4 sh gr
/Helvetica-iso ff 300.00 scf sf
4591 880 m
gs 1 -1 sc (E) col4 sh gr
/Helvetica-iso ff 300.00 scf sf
3324 2400 m
gs 1 -1 sc (n   =-1) col0 sh gr
/Helvetica-iso ff 300.00 scf sf
4464 2400 m
gs 1 -1 sc (n   =1) col0 sh gr
/Helvetica-iso ff 300.00 scf sf
5661 2427 m
gs 1 -1 sc (n   =-1) col0 sh gr
% here ends figure;
% 
% here starts figure with depth 50
% Arc
15.000 slw
0 slc
gs  clippath
3423 1994 m 3319 1864 l 3261 1911 l 3365 2041 l 3365 2041 l 3329 1936 l 3423 1994 l cp
eoclip
n 3737.1 1642.9 507.1 29.1570 149.5408 arc
gs col33 s gr
 gr

% arrowhead
0 slj
30.000 slw
n 3423 1994 m 3329 1936 l 3365 2041 l 3423 1994 l  cp gs col33 1.00 shd ef gr  col33 s
% Arc
15.000 slw
gs  clippath
5155 2071 m 5276 1956 l 5225 1902 l 5103 2016 l 5103 2016 l 5206 1972 l 5155 2071 l cp
eoclip
n 4771.9 1552.7 607.6 147.4046 39.6024 arcn
gs col33 s gr
 gr

% arrowhead
30.000 slw
n 5155 2071 m 5206 1972 l 5103 2016 l 5155 2071 l  cp gs col33 1.00 shd ef gr  col33 s
% Arc
15.000 slw
gs  clippath
5437 2019 m 5328 1894 l 5271 1943 l 5380 2068 l 5380 2068 l 5340 1965 l 5437 2019 l cp
eoclip
n 5777.8 1622.7 559.8 26.2211 146.6998 arc
gs col33 s gr
 gr

% arrowhead
30.000 slw
n 5437 2019 m 5340 1965 l 5380 2068 l 5437 2019 l  cp gs col33 1.00 shd ef gr  col33 s
% Ellipse
7.500 slw
n 3150 1650 212 212 0 360 DrawEllipse gs col32 1.00 shd ef gr gs col32 s gr

% Ellipse
n 5250 1650 212 212 0 360 DrawEllipse gs col32 1.00 shd ef gr gs col32 s gr

% Polyline
n 3900 1500 m 4500 1500 l 4500 1800 l 3900 1800 l
 cp gs col34 1.00 shd ef gr gs col0 s gr 
% Polyline
n 6000 1500 m 6600 1500 l 6600 1800 l 6000 1800 l
 cp gs col34 1.00 shd ef gr gs col0 s gr 
% Polyline
n 1800 1500 m 2400 1500 l 2400 1800 l 1800 1800 l
 cp gs col34 1.00 shd ef gr gs col0 s gr 
% here ends figure;
% 
% here starts figure with depth 10
/Helvetica-iso ff 300.00 scf sf
3090 1745 m
gs 1 -1 sc (1) col0 sh gr
/Helvetica-iso ff 300.00 scf sf
5185 1745 m
gs 1 -1 sc (2) col0 sh gr
/Helvetica-iso ff 266.67 scf sf
2025 1725 m
gs 1 -1 sc (0) col0 sh gr
/Helvetica-iso ff 266.67 scf sf
4115 1740 m
gs 1 -1 sc (1) col0 sh gr
/Helvetica-iso ff 266.67 scf sf
6230 1740 m
gs 1 -1 sc (2) col0 sh gr
% here ends figure;
pagefooter
showpage
%%Trailer
%EOF
