%!PS-Adobe-2.0 EPSF-2.0
%%Title: mca_buch.fig
%%Creator: fig2dev Version 3.2 Patchlevel 5a
%%CreationDate: Wed Oct 19 21:46:46 2011
%%BoundingBox: 0 0 585 145
%Magnification: 1.0000
%%EndComments
%%BeginProlog
/$F2psDict 200 dict def
$F2psDict begin
$F2psDict /mtrx matrix put
/col-1 {0 setgray} bind def
/col0 {0.000 0.000 0.000 srgb} bind def
/col1 {0.000 0.000 1.000 srgb} bind def
/col2 {0.000 1.000 0.000 srgb} bind def
/col3 {0.000 1.000 1.000 srgb} bind def
/col4 {1.000 0.000 0.000 srgb} bind def
/col5 {1.000 0.000 1.000 srgb} bind def
/col6 {1.000 1.000 0.000 srgb} bind def
/col7 {1.000 1.000 1.000 srgb} bind def
/col8 {0.000 0.000 0.560 srgb} bind def
/col9 {0.000 0.000 0.690 srgb} bind def
/col10 {0.000 0.000 0.820 srgb} bind def
/col11 {0.530 0.810 1.000 srgb} bind def
/col12 {0.000 0.560 0.000 srgb} bind def
/col13 {0.000 0.690 0.000 srgb} bind def
/col14 {0.000 0.820 0.000 srgb} bind def
/col15 {0.000 0.560 0.560 srgb} bind def
/col16 {0.000 0.690 0.690 srgb} bind def
/col17 {0.000 0.820 0.820 srgb} bind def
/col18 {0.560 0.000 0.000 srgb} bind def
/col19 {0.690 0.000 0.000 srgb} bind def
/col20 {0.820 0.000 0.000 srgb} bind def
/col21 {0.560 0.000 0.560 srgb} bind def
/col22 {0.690 0.000 0.690 srgb} bind def
/col23 {0.820 0.000 0.820 srgb} bind def
/col24 {0.500 0.190 0.000 srgb} bind def
/col25 {0.630 0.250 0.000 srgb} bind def
/col26 {0.750 0.380 0.000 srgb} bind def
/col27 {1.000 0.500 0.500 srgb} bind def
/col28 {1.000 0.630 0.630 srgb} bind def
/col29 {1.000 0.750 0.750 srgb} bind def
/col30 {1.000 0.880 0.880 srgb} bind def
/col31 {1.000 0.840 0.000 srgb} bind def
/col32 {0.867 0.867 0.867 srgb} bind def

end

/cp {closepath} bind def
/ef {eofill} bind def
/gr {grestore} bind def
/gs {gsave} bind def
/sa {save} bind def
/rs {restore} bind def
/l {lineto} bind def
/m {moveto} bind def
/rm {rmoveto} bind def
/n {newpath} bind def
/s {stroke} bind def
/sh {show} bind def
/slc {setlinecap} bind def
/slj {setlinejoin} bind def
/slw {setlinewidth} bind def
/srgb {setrgbcolor} bind def
/rot {rotate} bind def
/sc {scale} bind def
/sd {setdash} bind def
/ff {findfont} bind def
/sf {setfont} bind def
/scf {scalefont} bind def
/sw {stringwidth} bind def
/tr {translate} bind def
/tnt {dup dup currentrgbcolor
  4 -2 roll dup 1 exch sub 3 -1 roll mul add
  4 -2 roll dup 1 exch sub 3 -1 roll mul add
  4 -2 roll dup 1 exch sub 3 -1 roll mul add srgb}
  bind def
/shd {dup dup currentrgbcolor 4 -2 roll mul 4 -2 roll mul
  4 -2 roll mul srgb} bind def
 /DrawEllipse {
	/endangle exch def
	/startangle exch def
	/yrad exch def
	/xrad exch def
	/y exch def
	/x exch def
	/savematrix mtrx currentmatrix def
	x y tr xrad yrad sc 0 0 1 startangle endangle arc
	closepath
	savematrix setmatrix
	} def

/$F2psBegin {$F2psDict begin /$F2psEnteredState save def} def
/$F2psEnd {$F2psEnteredState restore end} def

/pageheader {
save
newpath 0 145 moveto 0 0 lineto 585 0 lineto 585 145 lineto closepath clip newpath
-45.0 276.4 translate
1 -1 scale
$F2psBegin
10 setmiterlimit
0 slj 0 slc
 0.06299 0.06299 sc
} bind def
/pagefooter {
$F2psEnd
restore
} bind def
%%EndProlog
pageheader
%
% Fig objects follow
%
% 
% here starts figure with depth 50
% Polyline
0 slj
0 slc
7.500 slw
gs  clippath
9827 4085 m 9994 4085 l 9994 4025 l 9827 4025 l 9827 4025 l 9947 4055 l 9827 4085 l cp
7984 2857 m 7984 2690 l 7924 2690 l 7924 2857 l 7924 2857 l 7954 2737 l 7984 2857 l cp
eoclip
n 7954 2705 m 7954 4055 l
 9979 4055 l gs col0 s gr gr

% arrowhead
15.000 slw
n 7984 2857 m 7954 2737 l 7924 2857 l 7984 2857 l  cp gs 0.00 setgray ef gr  col0 s
% arrowhead
n 9827 4085 m 9947 4055 l 9827 4025 l 9827 4085 l  cp gs 0.00 setgray ef gr  col0 s
% Polyline
7.500 slw
gs  clippath
9275 3398 m 9275 3516 l 9335 3516 l 9335 3398 l 9335 3398 l 9305 3488 l 9275 3398 l cp
9335 3277 m 9335 3159 l 9275 3159 l 9275 3277 l 9275 3277 l 9305 3187 l 9335 3277 l cp
eoclip
n 9305 3174 m
 9305 3501 l gs col32 1.00 shd ef gr gs col0 s gr gr

% arrowhead
n 9335 3277 m 9305 3187 l 9275 3277 l  col0 s
% arrowhead
n 9275 3398 m 9305 3488 l 9335 3398 l  col0 s
% Polyline
gs  clippath
8691 3318 m 8691 3436 l 8751 3436 l 8751 3318 l 8751 3318 l 8721 3408 l 8691 3318 l cp
8751 2917 m 8751 2799 l 8691 2799 l 8691 2917 l 8691 2917 l 8721 2827 l 8751 2917 l cp
eoclip
n 8721 2814 m
 8721 3421 l gs col32 1.00 shd ef gr gs col0 s gr gr

% arrowhead
n 8751 2917 m 8721 2827 l 8691 2917 l  col0 s
% arrowhead
n 8691 3318 m 8721 3408 l 8751 3318 l  col0 s
% Polyline
 [60] 0 sd
n 7956 3507 m
 9891 3507 l gs col32 1.00 shd ef gr gs col0 s gr  [] 0 sd
% Polyline
2 slj
15.000 slw
n 7954 4055 m
 9799 2750 l gs col1 s gr 
% Polyline
n 7999 3065 m
 9574 4010 l gs col4 s gr 
% Polyline
 [90] 0 sd
n 8624 2713 m
 9431 3157 l gs col4 s gr  [] 0 sd
% Ellipse
7.500 slw
n 949 3210 182 182 0 360 DrawEllipse gs col32 1.00 shd ef gr gs col32 s gr

% Ellipse
n 2165 3210 193 193 0 360 DrawEllipse gs col32 1.00 shd ef gr gs col32 s gr

% Ellipse
n 3308 3210 182 182 0 360 DrawEllipse gs col32 1.00 shd ef gr gs col32 s gr

% Polyline
0 slj
gs  clippath
1777 3246 m 1922 3246 l 1923 3197 l 1777 3196 l 1777 3196 l 1876 3222 l 1777 3246 l cp
1358 3194 m 1213 3194 l 1212 3243 l 1358 3244 l 1358 3244 l 1260 3219 l 1358 3194 l cp
eoclip
n 1228 3219 m
 1908 3222 l gs col4 s gr gr

% arrowhead
15.000 slw
n 1358 3194 m 1260 3219 l 1358 3244 l 1358 3194 l  cp gs col4 1.00 shd ef gr  col4 s
% arrowhead
n 1777 3246 m 1876 3222 l 1777 3196 l 1777 3246 l  cp gs col4 1.00 shd ef gr  col4 s
% Polyline
7.500 slw
gs  clippath
2956 3233 m 3101 3234 l 3102 3185 l 2956 3184 l 2956 3184 l 3055 3210 l 2956 3233 l cp
2587 3182 m 2442 3181 l 2441 3230 l 2587 3231 l 2587 3231 l 2489 3206 l 2587 3182 l cp
eoclip
n 2457 3206 m
 3087 3210 l gs col1 s gr gr

% arrowhead
15.000 slw
n 2587 3182 m 2489 3206 l 2587 3231 l 2587 3182 l  cp gs col1 1.00 shd ef gr  col1 s
% arrowhead
n 2956 3233 m 3055 3210 l 2956 3184 l 2956 3233 l  cp gs col1 1.00 shd ef gr  col1 s
% Polyline
7.500 slw
gs  clippath
6578 4059 m 6745 4058 l 6744 3998 l 6577 3999 l 6577 3999 l 6698 4029 l 6578 4059 l cp
4635 2798 m 4636 2631 l 4576 2630 l 4575 2797 l 4575 2797 l 4606 2678 l 4635 2798 l cp
eoclip
n 4606 2646 m 4604 4034 l
 6730 4029 l gs col0 s gr gr

% arrowhead
15.000 slw
n 4635 2798 m 4606 2678 l 4575 2797 l 4635 2798 l  cp gs 0.00 setgray ef gr  col0 s
% arrowhead
n 6578 4059 m 6698 4029 l 6577 3999 l 6578 4059 l  cp gs 0.00 setgray ef gr  col0 s
% Polyline
 [90] 0 sd
n 4646 2936 m 4966 3186 l 5324 3404 l 5846 3656 l
 6490 3909 l gs col4 s gr  [] 0 sd
% Polyline
2 slj
n 4604 4034 m 4604 4033 l 4605 4030 l 4607 4025 l 4610 4017 l 4615 4007 l
 4620 3995 l 4627 3980 l 4635 3964 l 4645 3946 l 4656 3926 l
 4670 3905 l 4686 3882 l 4706 3856 l 4730 3827 l 4758 3794 l
 4791 3758 l 4829 3719 l 4860 3689 l 4890 3660 l 4918 3633 l
 4944 3609 l 4966 3588 l 4985 3571 l 5000 3556 l 5012 3544 l
 5022 3534 l 5030 3526 l 5037 3519 l 5043 3513 l 5049 3506 l
 5056 3499 l 5066 3491 l 5077 3482 l 5092 3470 l 5111 3456 l
 5134 3439 l 5163 3419 l 5196 3396 l 5235 3370 l 5278 3342 l
 5324 3314 l 5367 3289 l 5409 3265 l 5448 3243 l 5483 3224 l
 5513 3208 l 5539 3195 l 5560 3183 l 5577 3174 l 5591 3167 l
 5602 3161 l 5610 3156 l 5618 3152 l 5624 3149 l 5631 3146 l
 5638 3142 l 5647 3139 l 5658 3134 l 5673 3129 l 5691 3122 l
 5714 3114 l 5742 3105 l 5775 3094 l 5814 3082 l 5857 3070 l
 5904 3057 l 5954 3044 l 6004 3033 l 6053 3023 l 6100 3014 l
 6144 3007 l 6186 3002 l 6226 2997 l 6264 2994 l 6299 2992 l
 6333 2990 l 6366 2989 l 6397 2989 l 6427 2989 l 6456 2989 l
 6483 2990 l 6509 2991 l 6533 2992 l 6554 2993 l 6573 2995 l
 6590 2996 l 6603 2997 l 6613 2998 l 6620 2998 l 6625 2999 l
 6628 2999 l
 6629 2999 l gs col1 s gr 
% Polyline
n 4645 3174 m 4648 3177 l 4654 3182 l 4664 3192 l 4678 3205 l 4695 3221 l
 4714 3239 l 4734 3258 l 4754 3276 l 4773 3293 l 4792 3309 l
 4810 3325 l 4828 3340 l 4846 3354 l 4865 3369 l 4885 3384 l
 4901 3396 l 4917 3408 l 4934 3420 l 4952 3433 l 4970 3446 l
 4990 3460 l 5011 3474 l 5032 3489 l 5054 3504 l 5077 3519 l
 5100 3535 l 5123 3550 l 5146 3565 l 5169 3580 l 5192 3594 l
 5215 3608 l 5237 3622 l 5258 3635 l 5279 3648 l 5299 3660 l
 5318 3671 l 5338 3682 l 5358 3694 l 5379 3706 l 5399 3717 l
 5420 3728 l 5441 3739 l 5463 3750 l 5484 3760 l 5506 3771 l
 5528 3781 l 5550 3791 l 5572 3801 l 5594 3810 l 5616 3820 l
 5637 3828 l 5659 3837 l 5679 3845 l 5700 3853 l 5720 3860 l
 5740 3868 l 5760 3875 l 5779 3881 l 5798 3888 l 5817 3895 l
 5838 3902 l 5860 3909 l 5884 3916 l 5909 3924 l 5936 3933 l
 5966 3942 l 5997 3952 l 6030 3962 l 6064 3973 l 6098 3983 l
 6132 3993 l 6163 4003 l 6190 4011 l 6212 4018 l 6229 4023 l
 6241 4026 l 6247 4028 l
 6250 4029 l gs col4 s gr 
/Helvetica ff 254.00 scf sf
7605 2340 m
gs 1 -1 sc (\(c\)) col0 sh gr
/Helvetica ff 222.25 scf sf
8555 3158 m
gs 1 -1 sc (x) col0 sh gr
/Helvetica ff 222.25 scf sf
7830 4095 m
gs 1 -1 sc  90.0 rot (Reaction rates) col0 sh gr
/Symbol ff 222.25 scf sf
8407 3163 m
gs 1 -1 sc (D) col0 sh gr
/Helvetica ff 222.25 scf sf
8229 3164 m
gs 1 -1 sc (E) col0 sh gr
/Helvetica-Bold ff 285.75 scf sf
9407 3424 m
gs 1 -1 sc (R) col0 sh gr
/Helvetica-Oblique ff 206.38 scf sf
9769 4324 m
gs 1 -1 sc (y) col0 sh gr
/Helvetica ff 222.25 scf sf
8304 4321 m
gs 1 -1 sc (Concentration) col0 sh gr
/Symbol ff 222.25 scf sf
9633 3413 m
gs 1 -1 sc (D) col0 sh gr
/Helvetica ff 222.25 scf sf
9787 3411 m
gs 1 -1 sc (x) col0 sh gr
/Helvetica ff 254.00 scf sf
730 2334 m
gs 1 -1 sc (\(a\)) col0 sh gr
/Helvetica ff 206.38 scf sf
2765 3476 m
gs 1 -1 sc (2) col0 sh gr
/Helvetica ff 206.38 scf sf
1609 3501 m
gs 1 -1 sc (1) col0 sh gr
/Helvetica ff 206.38 scf sf
899 3296 m
gs 1 -1 sc (X) col0 sh gr
/Helvetica ff 206.38 scf sf
2113 3292 m
gs 1 -1 sc (Y) col0 sh gr
/Helvetica ff 206.38 scf sf
3256 3304 m
gs 1 -1 sc (Z) col0 sh gr
/Helvetica-Oblique ff 206.38 scf sf
1511 3440 m
gs 1 -1 sc (v) col0 sh gr
/Helvetica-Oblique ff 206.38 scf sf
2654 3403 m
gs 1 -1 sc (v) col0 sh gr
/Helvetica ff 254.00 scf sf
4285 2319 m
gs 1 -1 sc (\(b\)) col0 sh gr
/Helvetica ff 222.25 scf sf
4465 4029 m
gs 1 -1 sc  90.0 rot (Reaction rates) col0 sh gr
/Helvetica-Oblique ff 206.38 scf sf
6534 4304 m
gs 1 -1 sc (y) col0 sh gr
/Helvetica ff 222.25 scf sf
5040 4309 m
gs 1 -1 sc (Concentration) col0 sh gr
% here ends figure;
% 
% here starts figure with depth 40
% Ellipse
7.500 slw
n 8739 3501 64 64 0 360 DrawEllipse gs 0.00 setgray ef gr gs col0 s gr

% Ellipse
n 9291 3077 64 64 0 360 DrawEllipse gs col7 1.00 shd ef gr gs col0 s gr

% Ellipse
n 5046 3514 64 64 0 360 DrawEllipse gs 0.00 setgray ef gr gs col0 s gr

% Ellipse
n 5259 3358 64 64 0 360 DrawEllipse gs col7 1.00 shd ef gr gs col0 s gr

% here ends figure;
pagefooter
showpage
%%Trailer
%EOF
