!!!SBtab DocumentName='E. coli central carbon metabolism - balanced parameters' SBtabVersion='1.0'				
!!SBtab TableID='Configuration' TableType='Config'				
!Option	!Value	!Comment		
algorithm	ECM	ECM, or MDF		
p_h	7			
ionic_strength	250 mM			
p_mg	3			
dg_confidence	0.95			
kcat_source	fwd			
denominator	CM			
objective	enzyme			
regularization	volume			
				
!!SBtab TableID='Reaction' TableType='Reaction'				
!ID	!ReactionFormula			
hxk	glc + atp <=> g6p + adp			
zwf	nadp + g6p <=> gluc6p + nadph			
pgl	gluc6p + h2o <=> 6pg			
edd	6pg <=> 2ddg6p + h2o			
eda	2ddg6p <=> g3p + pyr			
gap	pi + nad + g3p <=> nadh + bpg			
pgk	bpg + adp <=> 3pg + atp			
gpm	3pg <=> 2pg			
eno	2pg <=> pep + h2o			
pyk	adp + pep <=> atp + pyr			
ldh	pyr + nadh <=> lac + nad			
				
!!SBtab TableID='Compound' TableType='Compound'				
!ID	!Identifiers			
mal	kegg:C00149			
acecoa	kegg:C00024			
fum	kegg:C00122			
aco	kegg:C00417			
6pg	kegg:C00345			
pi	kegg:C00009			
pyr	kegg:C00022			
nadp	kegg:C00006			
nadph	kegg:C00005			
nadh	kegg:C00004			
nad	kegg:C00003			
atp	kegg:C00002			
h2o	kegg:C00001			
2kg	kegg:C00026			
oxa	kegg:C00036			
uql	kegg:C00399			
e4p	kegg:C00279			
uqn	kegg:C00390			
adp	kegg:C00008			
icit	kegg:C00311			
ru5p	kegg:C00199			
xu5p	kegg:C00231			
g6p	kegg:C00092			
bpg	kegg:C00236			
coa	kegg:C00010			
co2	kegg:C00011			
r5p	kegg:C00117			
dhap	kegg:C00111			
glc	kegg:C00031			
fbp	kegg:C00354			
g3p	kegg:C00118			
pep	kegg:C00074			
cit	kegg:C00158			
succoa	kegg:C00091			
3pg	kegg:C00197			
gluc6p	kegg:C01236			
f6p	kegg:C00085			
2pg	kegg:C00631			
suc	kegg:C00042			
s7p	kegg:C05382			
lac	kegg:C00186			
2ddg6p	kegg:C04442			
				
!!SBtab TableID='Flux' TableType='Quantity' Unit='mM/s'				
!QuantityType	!Reaction	!Value		
rate of reaction	hxk	1		
rate of reaction	zwf	1		
rate of reaction	pgl	1		
rate of reaction	edd	1		
rate of reaction	eda	1		
rate of reaction	gap	1		
rate of reaction	pgk	1		
rate of reaction	gpm	1		
rate of reaction	eno	1		
rate of reaction	pyk	1		
rate of reaction	ldh	2		
				
!!SBtab TableID='ConcentrationConstraint' TableType='Quantity' Unit='mM'				
!QuantityType	!Compound	!Min	!Max	
concentration	2ddg6p	0.001	10	
concentration	2kg	0.001	10	
concentration	2pg	0.001	10	
concentration	3pg	0.001	10	
concentration	6pg	0.001	10	
concentration	acecoa	0.001	10	
concentration	aco	0.001	10	
concentration	adp	0.5	0.5	
concentration	atp	5	5	
concentration	bpg	0.001	10	
concentration	cit	0.001	10	
concentration	co2	0.01	0.01	
concentration	coa	0.001	10	
concentration	dhap	0.001	10	
concentration	e4p	0.001	10	
concentration	f6p	0.001	10	
concentration	fbp	0.001	10	
concentration	fum	0.001	10	
concentration	g3p	0.001	10	
concentration	g6p	0.001	10	
concentration	glc	0.001	10	
concentration	gluc6p	0.001	10	
concentration	icit	0.001	10	
concentration	lac	0.001	10	
concentration	mal	0.001	10	
concentration	nad	5	5	
concentration	nadh	0.05	0.05	
concentration	nadp	0.05	0.05	
concentration	nadph	0.5	0.5	
concentration	oxa	0.001	10	
concentration	pep	0.001	10	
concentration	pi	5	5	
concentration	pyr	0.001	10	
concentration	r5p	0.001	10	
concentration	ru5p	0.001	10	
concentration	s7p	0.001	10	
concentration	suc	0.001	10	
concentration	succoa	0.001	10	
concentration	uql	0.001	10	
concentration	uqn	0.001	10	
concentration	xu5p	0.001	10	
				
!!SBtab TableID='Parameter' TableType='Quantity'				
!QuantityType	!Reaction	!Compound	!Value	!Unit
substrate catalytic rate constant	hxk		200	1/s
substrate catalytic rate constant	zwf		200	1/s
substrate catalytic rate constant	pgl		200	1/s
substrate catalytic rate constant	edd		200	1/s
substrate catalytic rate constant	eda		200	1/s
substrate catalytic rate constant	gap		200	1/s
substrate catalytic rate constant	pgk		200	1/s
substrate catalytic rate constant	gpm		200	1/s
substrate catalytic rate constant	eno		200	1/s
substrate catalytic rate constant	pyk		200	1/s
substrate catalytic rate constant	ldh		200	1/s
Michaelis constant	gap	pi	0.2	mM
Michaelis constant	fbp	pi	0.2	mM
Michaelis constant	hxk	adp	0.2	mM
Michaelis constant	pyk	pyr	0.2	mM
Michaelis constant	ldh	pyr	0.2	mM
Michaelis constant	gap	nadh	0.2	mM
Michaelis constant	ldh	nadh	0.2	mM
Michaelis constant	gap	nad	0.2	mM
Michaelis constant	ldh	lac	0.2	mM
Michaelis constant	ldh	nad	0.2	mM
Michaelis constant	pfk	atp	0.2	mM
Michaelis constant	pgk	atp	0.2	mM
Michaelis constant	pyk	atp	0.2	mM
Michaelis constant	pfk	adp	0.2	mM
Michaelis constant	pgk	adp	0.2	mM
Michaelis constant	pyk	adp	0.2	mM
Michaelis constant	hxk	g6p	0.2	mM
Michaelis constant	pgi	g6p	0.2	mM
Michaelis constant	gap	bpg	0.2	mM
Michaelis constant	pgk	bpg	0.2	mM
Michaelis constant	fba	dhap	0.2	mM
Michaelis constant	tpi	dhap	0.2	mM
Michaelis constant	hxk	glc	0.2	mM
Michaelis constant	pfk	fbp	0.2	mM
Michaelis constant	fba	fbp	0.2	mM
Michaelis constant	fbp	fbp	0.2	mM
Michaelis constant	fba	g3p	0.2	mM
Michaelis constant	tpi	g3p	0.2	mM
Michaelis constant	gap	g3p	0.2	mM
Michaelis constant	hxk	atp	0.2	mM
Michaelis constant	eno	pep	0.2	mM
Michaelis constant	pyk	pep	0.2	mM
Michaelis constant	pgk	3pg	0.2	mM
Michaelis constant	gpm	3pg	0.2	mM
Michaelis constant	pgi	f6p	0.2	mM
Michaelis constant	pfk	f6p	0.2	mM
Michaelis constant	fbp	f6p	0.2	mM
Michaelis constant	gpm	2pg	0.2	mM
Michaelis constant	eno	2pg	0.2	mM
Michaelis constant	zwf	nadp	0.2	mM
Michaelis constant	zwf	g6p	0.2	mM
Michaelis constant	zwf	gluc6p	0.2	mM
Michaelis constant	zwf	nadph	0.2	mM
Michaelis constant	pgl	gluc6p	0.2	mM
Michaelis constant	pgl	6pg	0.2	mM
Michaelis constant	edd	6pg	0.2	mM
Michaelis constant	edd	2ddg6p	0.2	mM
Michaelis constant	eda	2ddg6p	0.2	mM
Michaelis constant	eda	g3p	0.2	mM
Michaelis constant	eda	pyr	0.2	mM
protein molecular mass	hxk		40000	Da
protein molecular mass	zwf		40000	Da
protein molecular mass	pgl		40000	Da
protein molecular mass	edd		40000	Da
protein molecular mass	eda		40000	Da
protein molecular mass	gap		40000	Da
protein molecular mass	pgk		40000	Da
protein molecular mass	gpm		40000	Da
protein molecular mass	eno		40000	Da
protein molecular mass	pyk		40000	Da
protein molecular mass	ldh		40000	Da
molecular mass		mal	134	Da
molecular mass		acecoa	810	Da
molecular mass		fum	116	Da
molecular mass		aco	174	Da
molecular mass		6pg	276	Da
molecular mass		pi	98	Da
molecular mass		pyr	88	Da
molecular mass		nadp	744	Da
molecular mass		nadph	745	Da
molecular mass		nadh	665	Da
molecular mass		nad	664	Da
molecular mass		atp	507	Da
molecular mass		h2o	18	Da
molecular mass		2kg	146	Da
molecular mass		oxa	132	Da
molecular mass		uql	318	Da
molecular mass		e4p	200	Da
molecular mass		uqn	320	Da
molecular mass		adp	427	Da
molecular mass		icit	192	Da
molecular mass		ru5p	230	Da
molecular mass		xu5p	230	Da
molecular mass		g6p	260	Da
molecular mass		bpg	266	Da
molecular mass		coa	768	Da
molecular mass		co2	44	Da
molecular mass		r5p	230	Da
molecular mass		dhap	170	Da
molecular mass		glc	180	Da
molecular mass		fbp	340	Da
molecular mass		g3p	170	Da
molecular mass		pep	168	Da
molecular mass		cit	192	Da
molecular mass		succoa	868	Da
molecular mass		3pg	186	Da
molecular mass		gluc6p	258	Da
molecular mass		f6p	260	Da
molecular mass		2pg	186	Da
molecular mass		suc	118	Da
molecular mass		s7p	290	Da
molecular mass		lac	290	Da
molecular mass		2ddg6p	258	Da
