%!PS-Adobe-3.0 EPSF-3.0
%%Title: four_chain.fig
%%Creator: fig2dev Version 3.2 Patchlevel 5e
%%CreationDate: Mon Mar 14 16:16:43 2016
%%BoundingBox: 0 0 109 278
%Magnification: 1.0000
%%EndComments
%%BeginProlog
/$F2psDict 200 dict def
$F2psDict begin
$F2psDict /mtrx matrix put
/col-1 {0 setgray} bind def
/col0 {0.000 0.000 0.000 srgb} bind def
/col1 {0.000 0.000 1.000 srgb} bind def
/col2 {0.000 1.000 0.000 srgb} bind def
/col3 {0.000 1.000 1.000 srgb} bind def
/col4 {1.000 0.000 0.000 srgb} bind def
/col5 {1.000 0.000 1.000 srgb} bind def
/col6 {1.000 1.000 0.000 srgb} bind def
/col7 {1.000 1.000 1.000 srgb} bind def
/col8 {0.000 0.000 0.560 srgb} bind def
/col9 {0.000 0.000 0.690 srgb} bind def
/col10 {0.000 0.000 0.820 srgb} bind def
/col11 {0.530 0.810 1.000 srgb} bind def
/col12 {0.000 0.560 0.000 srgb} bind def
/col13 {0.000 0.690 0.000 srgb} bind def
/col14 {0.000 0.820 0.000 srgb} bind def
/col15 {0.000 0.560 0.560 srgb} bind def
/col16 {0.000 0.690 0.690 srgb} bind def
/col17 {0.000 0.820 0.820 srgb} bind def
/col18 {0.560 0.000 0.000 srgb} bind def
/col19 {0.690 0.000 0.000 srgb} bind def
/col20 {0.820 0.000 0.000 srgb} bind def
/col21 {0.560 0.000 0.560 srgb} bind def
/col22 {0.690 0.000 0.690 srgb} bind def
/col23 {0.820 0.000 0.820 srgb} bind def
/col24 {0.500 0.190 0.000 srgb} bind def
/col25 {0.630 0.250 0.000 srgb} bind def
/col26 {0.750 0.380 0.000 srgb} bind def
/col27 {1.000 0.500 0.500 srgb} bind def
/col28 {1.000 0.630 0.630 srgb} bind def
/col29 {1.000 0.750 0.750 srgb} bind def
/col30 {1.000 0.880 0.880 srgb} bind def
/col31 {1.000 0.840 0.000 srgb} bind def
/col32 {0.533 0.867 1.000 srgb} bind def
/col33 {0.533 0.533 1.000 srgb} bind def
/col34 {0.867 0.533 0.133 srgb} bind def

end

/cp {closepath} bind def
/ef {eofill} bind def
/gr {grestore} bind def
/gs {gsave} bind def
/sa {save} bind def
/rs {restore} bind def
/l {lineto} bind def
/m {moveto} bind def
/rm {rmoveto} bind def
/n {newpath} bind def
/s {stroke} bind def
/sh {show} bind def
/slc {setlinecap} bind def
/slj {setlinejoin} bind def
/slw {setlinewidth} bind def
/srgb {setrgbcolor} bind def
/rot {rotate} bind def
/sc {scale} bind def
/sd {setdash} bind def
/ff {findfont} bind def
/sf {setfont} bind def
/scf {scalefont} bind def
/sw {stringwidth} bind def
/tr {translate} bind def
/tnt {dup dup currentrgbcolor
  4 -2 roll dup 1 exch sub 3 -1 roll mul add
  4 -2 roll dup 1 exch sub 3 -1 roll mul add
  4 -2 roll dup 1 exch sub 3 -1 roll mul add srgb}
  bind def
/shd {dup dup currentrgbcolor 4 -2 roll mul 4 -2 roll mul
  4 -2 roll mul srgb} bind def
 /DrawEllipse {
	/endangle exch def
	/startangle exch def
	/yrad exch def
	/xrad exch def
	/y exch def
	/x exch def
	/savematrix mtrx currentmatrix def
	x y tr xrad yrad sc 0 0 1 startangle endangle arc
	closepath
	savematrix setmatrix
	} def

/$F2psBegin {$F2psDict begin /$F2psEnteredState save def} def
/$F2psEnd {$F2psEnteredState restore end} def

/pageheader {
save
newpath 0 278 moveto 0 0 lineto 109 0 lineto 109 278 lineto closepath clip newpath
-76.5 321.8 translate
1 -1 scale
$F2psBegin
10 setmiterlimit
0 slj 0 slc
 0.06299 0.06299 sc
} bind def
/pagefooter {
$F2psEnd
restore
} bind def
%%EndProlog
pageheader
%
% Fig objects follow
%
% 
% here starts figure with depth 100
% Ellipse
7.500 slw
n 1815 2250 225 225 0 360 DrawEllipse gs col34 1.00 shd ef gr gs col0 s gr

% Ellipse
n 1815 3555 225 225 0 360 DrawEllipse gs col34 1.00 shd ef gr gs col0 s gr

% here ends figure;
% 
% here starts figure with depth 50
% Ellipse
7.500 slw
n 1800 930 225 225 0 360 DrawEllipse gs col0 s gr

% Ellipse
n 1800 4875 225 225 0 360 DrawEllipse gs col0 s gr

% Polyline
0 slj
0 slc
75.000 slw
gs  clippath
1710 1828 m 1710 2040 l 1890 2040 l 1890 1828 l 1890 1828 l 1800 2008 l 1710 1828 l cp
eoclip
n 1800 1215 m
 1800 2025 l gs col33 s gr gr

% arrowhead
15.000 slw
n 1710 1828 m 1800 2008 l 1890 1828 l 1710 1828 l  cp gs col33 1.00 shd ef gr  col33 s
% Polyline
75.000 slw
gs  clippath
1710 3133 m 1710 3345 l 1890 3345 l 1890 3133 l 1890 3133 l 1800 3313 l 1710 3133 l cp
eoclip
n 1800 2520 m
 1800 3330 l gs col33 s gr gr

% arrowhead
15.000 slw
n 1710 3133 m 1800 3313 l 1890 3133 l 1710 3133 l  cp gs col33 1.00 shd ef gr  col33 s
% Polyline
75.000 slw
gs  clippath
1710 4438 m 1710 4650 l 1890 4650 l 1890 4438 l 1890 4438 l 1800 4618 l 1710 4438 l cp
eoclip
n 1800 3825 m
 1800 4635 l gs col33 s gr gr

% arrowhead
15.000 slw
n 1710 4438 m 1800 4618 l 1890 4438 l 1710 4438 l  cp gs col33 1.00 shd ef gr  col33 s
/Helvetica ff 190.50 scf sf
1740 1035 m
gs 1 -1 sc (X) col0 sh gr
/Helvetica ff 190.50 scf sf
1725 4965 m
gs 1 -1 sc (Y) col0 sh gr
/Helvetica ff 190.50 scf sf
1740 2340 m
gs 1 -1 sc (A) col0 sh gr
/Helvetica ff 190.50 scf sf
1740 3645 m
gs 1 -1 sc (B) col0 sh gr
/Helvetica ff 158.75 scf sf
2205 945 m
gs 1 -1 sc (External) col0 sh gr
/Helvetica ff 158.75 scf sf
2205 1125 m
gs 1 -1 sc (metabolite) col0 sh gr
/Helvetica ff 158.75 scf sf
2205 2385 m
gs 1 -1 sc (metabolite) col0 sh gr
/Helvetica ff 158.75 scf sf
2205 2205 m
gs 1 -1 sc (Internal) col0 sh gr
/Helvetica ff 158.75 scf sf
2160 3510 m
gs 1 -1 sc (Internal) col0 sh gr
/Helvetica ff 158.75 scf sf
2160 3690 m
gs 1 -1 sc (metabolite) col0 sh gr
/Helvetica ff 158.75 scf sf
2160 4815 m
gs 1 -1 sc (External) col0 sh gr
/Helvetica ff 158.75 scf sf
2160 4995 m
gs 1 -1 sc (metabolite) col0 sh gr
/Helvetica ff 158.75 scf sf
1350 4545 m
gs 1 -1 sc  90.0 rot (Reaction 3) col0 sh gr
/Helvetica ff 158.75 scf sf
1350 3240 m
gs 1 -1 sc  90.0 rot (Reaction 2) col0 sh gr
/Helvetica ff 158.75 scf sf
1350 1935 m
gs 1 -1 sc  90.0 rot (Reaction 1) col0 sh gr
% here ends figure;
pagefooter
showpage
%%Trailer
%EOF
