%!PS-Adobe-3.0 EPSF-3.0
%%Title: cost_factors_logarithmic_small.fig
%%Creator: fig2dev Version 3.2 Patchlevel 5e
%%CreationDate: Thu Aug 11 18:00:51 2016
%%BoundingBox: 0 0 1196 504
%Magnification: 1.0000
%%EndComments
%%BeginProlog
/$F2psDict 200 dict def
$F2psDict begin
$F2psDict /mtrx matrix put
/col-1 {0 setgray} bind def
/col0 {0.000 0.000 0.000 srgb} bind def
/col1 {0.000 0.000 1.000 srgb} bind def
/col2 {0.000 1.000 0.000 srgb} bind def
/col3 {0.000 1.000 1.000 srgb} bind def
/col4 {1.000 0.000 0.000 srgb} bind def
/col5 {1.000 0.000 1.000 srgb} bind def
/col6 {1.000 1.000 0.000 srgb} bind def
/col7 {1.000 1.000 1.000 srgb} bind def
/col8 {0.000 0.000 0.560 srgb} bind def
/col9 {0.000 0.000 0.690 srgb} bind def
/col10 {0.000 0.000 0.820 srgb} bind def
/col11 {0.530 0.810 1.000 srgb} bind def
/col12 {0.000 0.560 0.000 srgb} bind def
/col13 {0.000 0.690 0.000 srgb} bind def
/col14 {0.000 0.820 0.000 srgb} bind def
/col15 {0.000 0.560 0.560 srgb} bind def
/col16 {0.000 0.690 0.690 srgb} bind def
/col17 {0.000 0.820 0.820 srgb} bind def
/col18 {0.560 0.000 0.000 srgb} bind def
/col19 {0.690 0.000 0.000 srgb} bind def
/col20 {0.820 0.000 0.000 srgb} bind def
/col21 {0.560 0.000 0.560 srgb} bind def
/col22 {0.690 0.000 0.690 srgb} bind def
/col23 {0.820 0.000 0.820 srgb} bind def
/col24 {0.500 0.190 0.000 srgb} bind def
/col25 {0.630 0.250 0.000 srgb} bind def
/col26 {0.750 0.380 0.000 srgb} bind def
/col27 {1.000 0.500 0.500 srgb} bind def
/col28 {1.000 0.630 0.630 srgb} bind def
/col29 {1.000 0.750 0.750 srgb} bind def
/col30 {1.000 0.880 0.880 srgb} bind def
/col31 {1.000 0.840 0.000 srgb} bind def
/col32 {1.000 0.533 0.000 srgb} bind def
/col33 {0.125 0.000 0.753 srgb} bind def

end

/cp {closepath} bind def
/ef {eofill} bind def
/gr {grestore} bind def
/gs {gsave} bind def
/sa {save} bind def
/rs {restore} bind def
/l {lineto} bind def
/m {moveto} bind def
/rm {rmoveto} bind def
/n {newpath} bind def
/s {stroke} bind def
/sh {show} bind def
/slc {setlinecap} bind def
/slj {setlinejoin} bind def
/slw {setlinewidth} bind def
/srgb {setrgbcolor} bind def
/rot {rotate} bind def
/sc {scale} bind def
/sd {setdash} bind def
/ff {findfont} bind def
/sf {setfont} bind def
/scf {scalefont} bind def
/sw {stringwidth} bind def
/tr {translate} bind def
/tnt {dup dup currentrgbcolor
  4 -2 roll dup 1 exch sub 3 -1 roll mul add
  4 -2 roll dup 1 exch sub 3 -1 roll mul add
  4 -2 roll dup 1 exch sub 3 -1 roll mul add srgb}
  bind def
/shd {dup dup currentrgbcolor 4 -2 roll mul 4 -2 roll mul
  4 -2 roll mul srgb} bind def
/$F2psBegin {$F2psDict begin /$F2psEnteredState save def} def
/$F2psEnd {$F2psEnteredState restore end} def

/pageheader {
save
newpath 0 504 moveto 0 0 lineto 1196 0 lineto 1196 504 lineto closepath clip newpath
544.1 313.2 translate
1 -1 scale
$F2psBegin
10 setmiterlimit
0 slj 0 slc
 0.06299 0.06299 sc
} bind def
/pagefooter {
$F2psEnd
restore
} bind def
%%EndProlog
pageheader
%
% Fig objects follow
%
% 
% here starts figure with depth 50
% Polyline
0 slj
0 slc
15.000 slw
gs  clippath
-7994 -2057 m -7995 -2265 l -8115 -2265 l -8114 -2057 l -8114 -2057 l -8054 -2237 l -7994 -2057 l cp
eoclip
n -8055 4950 m
 -8055 -2250 l gs col0 s gr gr

% arrowhead
7.500 slw
n -7994 -2057 m -8054 -2237 l -8114 -2057 l -7994 -2057 l  cp gs 0.00 setgray ef gr  col0 s
% Polyline
 [60] 0 sd
n -8010 -900 m
 -2295 -900 l gs col0 s gr  [] 0 sd
% Polyline
45.000 slw
gs  clippath
-2759 2023 m -2760 2265 l -2550 2265 l -2549 2023 l -2549 2023 l -2654 2203 l -2759 2023 l cp
eoclip
n -2655 1170 m
 -2655 2250 l gs col22 s gr gr

% arrowhead
n -2759 2023 m -2654 2203 l -2549 2023 l  col22 s
% Polyline
gs  clippath
-4109 2023 m -4110 2265 l -3900 2265 l -3899 2023 l -3899 2023 l -4004 2203 l -4109 2023 l cp
eoclip
n -4005 1170 m
 -4005 2250 l gs col22 s gr gr

% arrowhead
n -4109 2023 m -4004 2203 l -3899 2023 l  col22 s
% Polyline
gs  clippath
-5549 2023 m -5550 2265 l -5340 2265 l -5339 2023 l -5339 2023 l -5444 2203 l -5549 2023 l cp
eoclip
n -5445 1170 m
 -5445 2250 l gs col22 s gr gr

% arrowhead
n -5549 2023 m -5444 2203 l -5339 2023 l  col22 s
% Polyline
gs  clippath
-4109 3103 m -4110 3345 l -3900 3345 l -3899 3103 l -3899 3103 l -4004 3283 l -4109 3103 l cp
eoclip
n -4005 2250 m
 -4005 3330 l gs col4 s gr gr

% arrowhead
n -4109 3103 m -4004 3283 l -3899 3103 l  col4 s
% Polyline
7.500 slw
n -8055 1125 m
 -2295 1125 l gs col9 s gr 
% Polyline
n -8055 2250 m
 -2295 2250 l gs col22 s gr 
% Polyline
n -8025 3330 m
 -2265 3330 l gs col4 s gr 
% Polyline
n -8010 4500 m
 -2295 4500 l gs col32 s gr 
% Polyline
45.000 slw
 [60] 0 sd
gs  clippath
-6809 943 m -6810 1185 l -6600 1185 l -6599 943 l -6599 943 l -6704 1123 l -6809 943 l cp
eoclip
n -6705 -900 m
 -6705 1170 l gs col33 s gr gr
 [] 0 sd
% arrowhead
n -6809 943 m -6704 1123 l -6599 943 l  col33 s
% Polyline
 [60] 0 sd
gs  clippath
-5549 943 m -5550 1185 l -5340 1185 l -5339 943 l -5339 943 l -5444 1123 l -5549 943 l cp
eoclip
n -5445 -900 m
 -5445 1170 l gs col33 s gr gr
 [] 0 sd
% arrowhead
n -5549 943 m -5444 1123 l -5339 943 l  col33 s
% Polyline
 [60] 0 sd
gs  clippath
-4154 898 m -4155 1140 l -3945 1140 l -3944 898 l -3944 898 l -4049 1078 l -4154 898 l cp
eoclip
n -4050 -945 m
 -4050 1125 l gs col33 s gr gr
 [] 0 sd
% arrowhead
n -4154 898 m -4049 1078 l -3944 898 l  col33 s
% Polyline
 [60] 0 sd
gs  clippath
-2759 898 m -2760 1140 l -2550 1140 l -2549 898 l -2549 898 l -2654 1078 l -2759 898 l cp
eoclip
n -2655 -945 m
 -2655 1125 l gs col33 s gr gr
 [] 0 sd
% arrowhead
n -2759 898 m -2654 1078 l -2549 898 l  col33 s
% Polyline
gs  clippath
-2759 4228 m -2760 4470 l -2550 4470 l -2549 4228 l -2549 4228 l -2654 4408 l -2759 4228 l cp
eoclip
n -2655 2250 m
 -2655 4455 l gs col4 s gr gr

% arrowhead
n -2759 4228 m -2654 4408 l -2549 4228 l  col4 s
% Polyline
15.000 slw
gs  clippath
1500 -2057 m 1500 -2265 l 1380 -2265 l 1380 -2057 l 1380 -2057 l 1440 -2237 l 1500 -2057 l cp
eoclip
n 1440 4950 m
 1440 -2250 l gs col0 s gr gr

% arrowhead
7.500 slw
n 1500 -2057 m 1440 -2237 l 1380 -2057 l 1500 -2057 l  cp gs 0.00 setgray ef gr  col0 s
% Polyline
 [60] 0 sd
n 1440 4500 m
 7515 4500 l gs col0 s gr  [] 0 sd
% Polyline
45.000 slw
gs  clippath
4155 1622 m 4155 1380 l 3945 1380 l 3945 1622 l 3945 1622 l 4050 1442 l 4155 1622 l cp
eoclip
n 4050 2475 m
 4050 1395 l gs col22 s gr gr

% arrowhead
n 4155 1622 m 4050 1442 l 3945 1622 l  col22 s
% Polyline
gs  clippath
5550 1622 m 5550 1380 l 5340 1380 l 5340 1622 l 5340 1622 l 5445 1442 l 5550 1622 l cp
eoclip
n 5445 2475 m
 5445 1395 l gs col22 s gr gr

% arrowhead
n 5550 1622 m 5445 1442 l 5340 1622 l  col22 s
% Polyline
gs  clippath
6945 1622 m 6945 1380 l 6735 1380 l 6735 1622 l 6735 1622 l 6840 1442 l 6945 1622 l cp
eoclip
n 6840 2475 m
 6840 1395 l gs col22 s gr gr

% arrowhead
n 6945 1622 m 6840 1442 l 6735 1622 l  col22 s
% Polyline
gs  clippath
6945 -492 m 6945 -735 l 6735 -735 l 6735 -492 l 6735 -492 l 6840 -672 l 6945 -492 l cp
eoclip
n 6840 1350 m
 6840 -720 l gs col4 s gr gr

% arrowhead
n 6945 -492 m 6840 -672 l 6735 -492 l  col4 s
% Polyline
gs  clippath
5550 497 m 5550 255 l 5340 255 l 5340 497 l 5340 497 l 5445 317 l 5550 497 l cp
eoclip
n 5445 1350 m
 5445 270 l gs col4 s gr gr

% arrowhead
n 5550 497 m 5445 317 l 5340 497 l  col4 s
% Polyline
7.500 slw
n 1440 -810 m
 7515 -810 l gs col32 s gr 
% Polyline
n 1485 225 m
 7560 225 l gs col4 s gr 
% Polyline
n 1440 1350 m
 7515 1350 l gs col22 s gr 
% Polyline
n 1485 2475 m
 7560 2475 l gs col9 s gr 
% Polyline
45.000 slw
 [60] 0 sd
gs  clippath
4155 2702 m 4155 2460 l 3945 2460 l 3945 2702 l 3945 2702 l 4050 2522 l 4155 2702 l cp
eoclip
n 4050 4545 m
 4050 2475 l gs col33 s gr gr
 [] 0 sd
% arrowhead
n 4155 2702 m 4050 2522 l 3945 2702 l  col33 s
% Polyline
 [60] 0 sd
gs  clippath
5550 2702 m 5550 2460 l 5340 2460 l 5340 2702 l 5340 2702 l 5445 2522 l 5550 2702 l cp
eoclip
n 5445 4545 m
 5445 2475 l gs col33 s gr gr
 [] 0 sd
% arrowhead
n 5550 2702 m 5445 2522 l 5340 2702 l  col33 s
% Polyline
 [60] 0 sd
gs  clippath
6945 2702 m 6945 2460 l 6735 2460 l 6735 2702 l 6735 2702 l 6840 2522 l 6945 2702 l cp
eoclip
n 6840 4545 m
 6840 2475 l gs col33 s gr gr
 [] 0 sd
% arrowhead
n 6945 2702 m 6840 2522 l 6735 2702 l  col33 s
% Polyline
 [60] 0 sd
gs  clippath
2895 2702 m 2895 2460 l 2685 2460 l 2685 2702 l 2685 2702 l 2790 2522 l 2895 2702 l cp
eoclip
n 2790 4545 m
 2790 2475 l gs col33 s gr gr
 [] 0 sd
% arrowhead
n 2895 2702 m 2790 2522 l 2685 2702 l  col33 s
/Helvetica ff 254.00 scf sf
-7875 510 m
gs 1 -1 sc (catalytic) col0 sh gr
/Symbol ff 381.00 scf sf
-5310 1890 m
gs 1 -1 sc (h) col0 sh gr
/Helvetica ff 254.00 scf sf
-5085 1755 m
gs 1 -1 sc (th) col0 sh gr
/Helvetica ff 254.00 scf sf
-6345 2025 m
gs 1 -1 sc (factor) col0 sh gr
/Symbol ff 381.00 scf sf
-3870 3015 m
gs 1 -1 sc (h) col0 sh gr
/Helvetica ff 254.00 scf sf
-4905 3105 m
gs 1 -1 sc (factor) col0 sh gr
/Helvetica ff 381.00 scf sf
-6570 720 m
gs 1 -1 sc (k) col0 sh gr
/Helvetica ff 254.00 scf sf
-6390 540 m
gs 1 -1 sc (cat) col0 sh gr
/Helvetica ff 254.00 scf sf
-7920 810 m
gs 1 -1 sc (constant) col0 sh gr
/Helvetica ff 254.00 scf sf
-3645 2835 m
gs 1 -1 sc (kin) col0 sh gr
/Helvetica ff 254.00 scf sf
-3600 3780 m
gs 1 -1 sc (kinetic) col0 sh gr
/Helvetica ff 254.00 scf sf
-3555 4095 m
gs 1 -1 sc (factor) col0 sh gr
/Symbol ff 381.00 scf sf
-2520 3915 m
gs 1 -1 sc (h) col0 sh gr
/Helvetica ff 254.00 scf sf
-2340 3690 m
gs 1 -1 sc (kin) col0 sh gr
/Helvetica ff 317.50 scf sf
-2115 -945 m
gs 1 -1 sc (Enzyme) col0 sh gr
/Helvetica ff 317.50 scf sf
-2115 -630 m
gs 1 -1 sc (level) col0 sh gr
/Helvetica ff 317.50 scf sf
-1620 450 m
gs 1 -1 sc (Rate v:) col0 sh gr
/Helvetica ff 317.50 scf sf
-1620 1170 m
gs 1 -1 sc (ECF1) col0 sh gr
/Helvetica ff 317.50 scf sf
-1620 1440 m
gs 1 -1 sc (estimate) col0 sh gr
/Helvetica ff 317.50 scf sf
-1620 2520 m
gs 1 -1 sc (estimate) col0 sh gr
/Helvetica ff 317.50 scf sf
-1620 3240 m
gs 1 -1 sc (ECF3\(1SP\)) col0 sh gr
/Helvetica ff 317.50 scf sf
-1620 3555 m
gs 1 -1 sc (estimate) col0 sh gr
/Helvetica ff 317.50 scf sf
-1620 4320 m
gs 1 -1 sc (ECF4) col0 sh gr
/Helvetica ff 317.50 scf sf
-1620 4635 m
gs 1 -1 sc (estimate) col0 sh gr
/Helvetica ff 317.50 scf sf
-8370 2475 m
gs 1 -1 sc  90.0 rot (Flux \(logarithmic sclae\)) col0 sh gr
/Helvetica ff 381.00 scf sf
-8235 -2700 m
gs 1 -1 sc (\(a\) Reaction rate \(logarithmic scale\)) col0 sh gr
/Helvetica ff 254.00 scf sf
1620 3015 m
gs 1 -1 sc (catalytic) col0 sh gr
/Helvetica ff 254.00 scf sf
5895 -90 m
gs 1 -1 sc (factor) col0 sh gr
/Helvetica ff 254.00 scf sf
4500 720 m
gs 1 -1 sc (kinetic) col0 sh gr
/Helvetica ff 254.00 scf sf
4590 990 m
gs 1 -1 sc (factor) col0 sh gr
/Helvetica ff 254.00 scf sf
3195 2115 m
gs 1 -1 sc (factor) col0 sh gr
/Helvetica ff 254.00 scf sf
1575 3330 m
gs 1 -1 sc (constant) col0 sh gr
/Helvetica ff 381.00 scf sf
5535 900 m
gs 1 -1 sc (1/) col0 sh gr
/Symbol ff 381.00 scf sf
5850 900 m
gs 1 -1 sc (h) col0 sh gr
/Helvetica ff 381.00 scf sf
4140 1980 m
gs 1 -1 sc (1/) col0 sh gr
/Symbol ff 381.00 scf sf
4455 1980 m
gs 1 -1 sc (h) col0 sh gr
/Helvetica ff 254.00 scf sf
4680 1845 m
gs 1 -1 sc (th) col0 sh gr
/Helvetica ff 381.00 scf sf
2880 3150 m
gs 1 -1 sc (1/) col0 sh gr
/Helvetica ff 381.00 scf sf
3195 3150 m
gs 1 -1 sc (k) col0 sh gr
/Helvetica ff 254.00 scf sf
3375 2925 m
gs 1 -1 sc (cat) col0 sh gr
/Helvetica ff 381.00 scf sf
6975 -180 m
gs 1 -1 sc (1/) col0 sh gr
/Symbol ff 381.00 scf sf
7290 -180 m
gs 1 -1 sc (h) col0 sh gr
/Helvetica ff 254.00 scf sf
6075 810 m
gs 1 -1 sc (sat) col0 sh gr
/Helvetica ff 254.00 scf sf
7515 -315 m
gs 1 -1 sc (kin) col0 sh gr
/Helvetica ff 254.00 scf sf
5805 -360 m
gs 1 -1 sc (kinetic) col0 sh gr
/Helvetica ff 317.50 scf sf
8235 -1440 m
gs 1 -1 sc (Enzyme level:) col0 sh gr
/Helvetica ff 317.50 scf sf
8235 -810 m
gs 1 -1 sc (ECF4) col0 sh gr
/Helvetica ff 317.50 scf sf
8235 -540 m
gs 1 -1 sc (estimate) col0 sh gr
/Helvetica ff 317.50 scf sf
8235 135 m
gs 1 -1 sc (ECF3\(1SP\)) col0 sh gr
/Helvetica ff 317.50 scf sf
8235 450 m
gs 1 -1 sc (estimate) col0 sh gr
/Helvetica ff 317.50 scf sf
8235 1215 m
gs 1 -1 sc (ECF2\(S\)) col0 sh gr
/Helvetica ff 317.50 scf sf
8235 1530 m
gs 1 -1 sc (estimate) col0 sh gr
/Helvetica ff 317.50 scf sf
8235 2340 m
gs 1 -1 sc (ECF1) col0 sh gr
/Helvetica ff 317.50 scf sf
8235 2655 m
gs 1 -1 sc (estimate) col0 sh gr
/Helvetica ff 317.50 scf sf
7785 4590 m
gs 1 -1 sc (Flux v) col0 sh gr
/Helvetica ff 317.50 scf sf
1125 3150 m
gs 1 -1 sc  90.0 rot (Enzyme demand \(logarithmic scale\)) col0 sh gr
/Helvetica ff 381.00 scf sf
1260 -2700 m
gs 1 -1 sc (\(b\) Enzyme demand \(logarithmic scale\)) col0 sh gr
/Helvetica ff 254.00 scf sf
-4950 2835 m
gs 1 -1 sc (kinetic) col0 sh gr
/Helvetica ff 254.00 scf sf
-6975 1755 m
gs 1 -1 sc (reversibility) col0 sh gr
/Helvetica ff 254.00 scf sf
2520 1845 m
gs 1 -1 sc (reversibility) col0 sh gr
/Helvetica ff 317.50 scf sf
-1620 2205 m
gs 1 -1 sc (ECF2\(S\)) col0 sh gr
% here ends figure;
pagefooter
showpage
%%Trailer
%EOF
