%!PS-Adobe-2.0 EPSF-1.2
%%Creator: MATLAB, The MathWorks, Inc. Version 7.13.0.564 (R2011b). Operating System: Linux 4.2.0-34-generic #39~14.04.1-Ubuntu SMP Fri Mar 11 11:38:02 UTC 2016 x86_64.
%%Title: ./ecoli_ccm_ProteinComposition_Haverkorn_emc2s_arrow_cost_diagram_bar.eps
%%CreationDate: 03/30/2016  20:02:49
%%DocumentNeededFonts: Helvetica
%%DocumentProcessColors: Cyan Magenta Yellow Black
%%Extensions: CMYK
%%Pages: 1
%%BoundingBox:    57   186   573   608
%%EndComments

%%BeginProlog
% MathWorks dictionary
/MathWorks 160 dict begin
% definition operators
/bdef {bind def} bind def
/ldef {load def} bind def
/xdef {exch def} bdef
/xstore {exch store} bdef
% operator abbreviations
/c  /clip ldef
/cc /concat ldef
/cp /closepath ldef
/gr /grestore ldef
/gs /gsave ldef
/mt /moveto ldef
/np /newpath ldef
/cm /currentmatrix ldef
/sm /setmatrix ldef
/rm /rmoveto ldef
/rl /rlineto ldef
/s {show newpath} bdef
/sc {setcmykcolor} bdef
/sr /setrgbcolor ldef
/sg /setgray ldef
/w /setlinewidth ldef
/j /setlinejoin ldef
/cap /setlinecap ldef
/rc {rectclip} bdef
/rf {rectfill} bdef
% page state control
/pgsv () def
/bpage {/pgsv save def} bdef
/epage {pgsv restore} bdef
/bplot /gsave ldef
/eplot {stroke grestore} bdef
% orientation switch
/portraitMode 0 def /landscapeMode 1 def /rotateMode 2 def
% coordinate system mappings
/dpi2point 0 def
% font control
/FontSize 0 def
/FMS {/FontSize xstore findfont [FontSize 0 0 FontSize neg 0 0]
  makefont setfont} bdef
/reencode {exch dup where {pop load} {pop StandardEncoding} ifelse
  exch dup 3 1 roll findfont dup length dict begin
  { 1 index /FID ne {def}{pop pop} ifelse } forall
  /Encoding exch def currentdict end definefont pop} bdef
/isroman {findfont /CharStrings get /Agrave known} bdef
/FMSR {3 1 roll 1 index dup isroman {reencode} {pop pop} ifelse
  exch FMS} bdef
/csm {1 dpi2point div -1 dpi2point div scale neg translate
 dup landscapeMode eq {pop -90 rotate}
  {rotateMode eq {90 rotate} if} ifelse} bdef
% line types: solid, dotted, dashed, dotdash
/SO { [] 0 setdash } bdef
/DO { [.5 dpi2point mul 4 dpi2point mul] 0 setdash } bdef
/DA { [6 dpi2point mul] 0 setdash } bdef
/DD { [.5 dpi2point mul 4 dpi2point mul 6 dpi2point mul 4
  dpi2point mul] 0 setdash } bdef
% macros for lines and objects
/L {lineto stroke} bdef
/MP {3 1 roll moveto 1 sub {rlineto} repeat} bdef
/AP {{rlineto} repeat} bdef
/PDlw -1 def
/W {/PDlw currentlinewidth def setlinewidth} def
/PP {closepath eofill} bdef
/DP {closepath stroke} bdef
/MR {4 -2 roll moveto dup  0 exch rlineto exch 0 rlineto
  neg 0 exch rlineto closepath} bdef
/FR {MR stroke} bdef
/PR {MR fill} bdef
/L1i {{currentfile picstr readhexstring pop} image} bdef
/tMatrix matrix def
/MakeOval {newpath tMatrix currentmatrix pop translate scale
0 0 1 0 360 arc tMatrix setmatrix} bdef
/FO {MakeOval stroke} bdef
/PO {MakeOval fill} bdef
/PD {currentlinewidth 2 div 0 360 arc fill
   PDlw -1 eq not {PDlw w /PDlw -1 def} if} def
/FA {newpath tMatrix currentmatrix pop translate scale
  0 0 1 5 -2 roll arc tMatrix setmatrix stroke} bdef
/PA {newpath tMatrix currentmatrix pop	translate 0 0 moveto scale
  0 0 1 5 -2 roll arc closepath tMatrix setmatrix fill} bdef
/FAn {newpath tMatrix currentmatrix pop translate scale
  0 0 1 5 -2 roll arcn tMatrix setmatrix stroke} bdef
/PAn {newpath tMatrix currentmatrix pop translate 0 0 moveto scale
  0 0 1 5 -2 roll arcn closepath tMatrix setmatrix fill} bdef
/vradius 0 def /hradius 0 def /lry 0 def
/lrx 0 def /uly 0 def /ulx 0 def /rad 0 def
/MRR {/vradius xdef /hradius xdef /lry xdef /lrx xdef /uly xdef
  /ulx xdef newpath tMatrix currentmatrix pop ulx hradius add uly
  vradius add translate hradius vradius scale 0 0 1 180 270 arc 
  tMatrix setmatrix lrx hradius sub uly vradius add translate
  hradius vradius scale 0 0 1 270 360 arc tMatrix setmatrix
  lrx hradius sub lry vradius sub translate hradius vradius scale
  0 0 1 0 90 arc tMatrix setmatrix ulx hradius add lry vradius sub
  translate hradius vradius scale 0 0 1 90 180 arc tMatrix setmatrix
  closepath} bdef
/FRR {MRR stroke } bdef
/PRR {MRR fill } bdef
/MlrRR {/lry xdef /lrx xdef /uly xdef /ulx xdef /rad lry uly sub 2 div def
  newpath tMatrix currentmatrix pop ulx rad add uly rad add translate
  rad rad scale 0 0 1 90 270 arc tMatrix setmatrix lrx rad sub lry rad
  sub translate rad rad scale 0 0 1 270 90 arc tMatrix setmatrix
  closepath} bdef
/FlrRR {MlrRR stroke } bdef
/PlrRR {MlrRR fill } bdef
/MtbRR {/lry xdef /lrx xdef /uly xdef /ulx xdef /rad lrx ulx sub 2 div def
  newpath tMatrix currentmatrix pop ulx rad add uly rad add translate
  rad rad scale 0 0 1 180 360 arc tMatrix setmatrix lrx rad sub lry rad
  sub translate rad rad scale 0 0 1 0 180 arc tMatrix setmatrix
  closepath} bdef
/FtbRR {MtbRR stroke } bdef
/PtbRR {MtbRR fill } bdef
/stri 6 array def /dtri 6 array def
/smat 6 array def /dmat 6 array def
/tmat1 6 array def /tmat2 6 array def /dif 3 array def
/asub {/ind2 exch def /ind1 exch def dup dup
  ind1 get exch ind2 get sub exch } bdef
/tri_to_matrix {
  2 0 asub 3 1 asub 4 0 asub 5 1 asub
  dup 0 get exch 1 get 7 -1 roll astore } bdef
/compute_transform {
  dmat dtri tri_to_matrix tmat1 invertmatrix 
  smat stri tri_to_matrix tmat2 concatmatrix } bdef
/ds {stri astore pop} bdef
/dt {dtri astore pop} bdef
/db {2 copy /cols xdef /rows xdef mul dup 3 mul string
  currentfile exch readhexstring pop
  dup 0 3 index getinterval /rbmap xdef
  dup 2 index dup getinterval /gbmap xdef
  1 index dup 2 mul exch getinterval /bbmap xdef pop pop}bdef
/it {gs np dtri aload pop moveto lineto lineto cp c
  cols rows 8 compute_transform 
  rbmap gbmap bbmap true 3 colorimage gr}bdef
/il {newpath moveto lineto stroke}bdef
currentdict end def
%%EndProlog

%%BeginSetup
MathWorks begin

0 cap

end
%%EndSetup

%%Page: 1 1
%%BeginPageSetup
%%PageBoundingBox:    57   186   573   608
MathWorks begin
bpage
%%EndPageSetup

%%BeginObject: obj1
bplot

/dpi2point 12 def
portraitMode 0216 7344 csm

  476    44  6195  5059 MR c np
54 dict begin %Colortable dictionary
/c0 { 0.000000 0.000000 0.000000 sr} bdef
/c1 { 1.000000 1.000000 1.000000 sr} bdef
/c2 { 0.900000 0.000000 0.000000 sr} bdef
/c3 { 0.000000 0.820000 0.000000 sr} bdef
/c4 { 0.000000 0.000000 0.800000 sr} bdef
/c5 { 0.910000 0.820000 0.320000 sr} bdef
/c6 { 1.000000 0.260000 0.820000 sr} bdef
/c7 { 0.000000 0.820000 0.820000 sr} bdef
c0
1 j
1 sg
   0    0 6913 5186 PR
6 w
0 778 5529 0 0 -778 1037 1037 4 MP
PP
-5529 0 0 778 5529 0 0 -778 1037 1037 5 MP stroke
4 w
DO
SO
6 w
0 sg
1037 1037 mt 6566 1037 L
1037 1037 mt 1037  259 L
1037 1037 mt 1092 1037 L
%%IncludeResource: font Helvetica
/Helvetica /ISOLatin1Encoding 144 FMSR

 722 1090 mt 
(0.01) s
1037  648 mt 1092  648 L
 802  701 mt 
(0.1) s
1037  259 mt 1092  259 L
 922  312 mt 
(1) s
gs 1037 259 5530 779 MR c np
gr

gs 1040 173 363 363 MR c np
60 W
1221 354 PD
gr

gs 1037 259 5530 779 MR c np
gr

gs 1224 239 363 363 MR c np
60 W
1405 420 PD
gr

gs 1037 259 5530 779 MR c np
gr

gs 1408 216 363 363 MR c np
60 W
1589 397 PD
gr

gs 1037 259 5530 779 MR c np
gr

gs 1593 214 363 363 MR c np
60 W
1774 395 PD
gr

gs 1037 259 5530 779 MR c np
gr

gs 1777 214 363 363 MR c np
60 W
1958 395 PD
gr

gs 1037 259 5530 779 MR c np
gr

gs 1961 92 363 363 MR c np
60 W
2142 273 PD
gr

gs 1037 259 5530 779 MR c np
gr

gs 2146 96 363 363 MR c np
60 W
2327 277 PD
gr

gs 1037 259 5530 779 MR c np
gr

gs 2330 100 363 363 MR c np
60 W
2511 281 PD
gr

gs 1037 259 5530 779 MR c np
gr

gs 2514 92 363 363 MR c np
60 W
2695 273 PD
gr

gs 1037 259 5530 779 MR c np
gs 2699 363 363 363 MR c np
60 W
2880 544 PD
gr

gr

gs 2883 242 363 363 MR c np
60 W
3064 423 PD
gr

gs 1037 259 5530 779 MR c np
gs 3067 366 363 363 MR c np
60 W
3248 547 PD
gr

gs 3251 391 363 363 MR c np
60 W
3432 572 PD
gr

gs 3436 419 363 363 MR c np
60 W
3617 600 PD
gr

gs 3620 584 363 363 MR c np
60 W
3801 765 PD
gr

gs 3804 510 363 363 MR c np
60 W
3985 691 PD
gr

gs 3989 602 363 363 MR c np
60 W
4170 783 PD
gr

gs 4173 602 363 363 MR c np
60 W
4354 783 PD
gr

gr

gs 4357 686 363 363 MR c np
60 W
4538 867 PD
gr

gs 1037 259 5530 779 MR c np
gs 4542 394 363 363 MR c np
60 W
4723 575 PD
gr

gs 4726 394 363 363 MR c np
60 W
4907 575 PD
gr

gs 4910 394 363 363 MR c np
60 W
5091 575 PD
gr

gs 5094 394 363 363 MR c np
60 W
5275 575 PD
gr

gs 5279 480 363 363 MR c np
60 W
5460 661 PD
gr

gs 5463 380 363 363 MR c np
60 W
5644 561 PD
gr

gs 5647 480 363 363 MR c np
60 W
5828 661 PD
gr

gs 5832 480 363 363 MR c np
60 W
6013 661 PD
gr

gs 6016 552 363 363 MR c np
60 W
6197 733 PD
gr

gs 6200 340 363 363 MR c np
60 W
6381 521 PD
gr

gr

 635 1021 mt  -90 rotate
(Flux [mM/s]) s
90 rotate
1 sg
0 3371 5529 0 0 -3371 1037 4667 4 MP
PP
-5529 0 0 3371 5529 0 0 -3371 1037 4667 5 MP stroke
4 w
DO
SO
6 w
0 sg
1037 4667 mt 6566 4667 L
1037 4667 mt 1037 1296 L
1037 4667 mt 1092 4667 L
 722 4720 mt 
(0.01) s
1037 3844 mt 1092 3844 L
 802 3897 mt 
(0.1) s
1037 3022 mt 1092 3022 L
 922 3075 mt 
(1) s
1037 2200 mt 1092 2200 L
 842 2253 mt 
(10) s
1037 1378 mt 1092 1378 L
 762 1431 mt 
(100) s
gs 1037 1296 5530 3372 MR c np
/c8 { 0.350000 0.350000 0.900000 sr} bdef
c8
0 2802 148 0 0 -2802 1147 4667 4 MP
PP
0 sg
-148 0 0 2802 148 0 0 -2802 1147 4667 5 MP stroke
c8
0 1679 148 0 0 -1679 1331 4667 4 MP
PP
0 sg
-148 0 0 1679 148 0 0 -1679 1331 4667 5 MP stroke
c8
0 1728 147 0 0 -1728 1516 4667 4 MP
PP
0 sg
-147 0 0 1728 147 0 0 -1728 1516 4667 5 MP stroke
c8
0 1732 147 0 0 -1732 1700 4667 4 MP
PP
0 sg
-147 0 0 1732 147 0 0 -1732 1700 4667 5 MP stroke
c8
0 818 148 0 0 -818 1884 4667 4 MP
PP
0 sg
-148 0 0 818 148 0 0 -818 1884 4667 5 MP stroke
c8
0 2331 147 0 0 -2331 2069 4667 4 MP
PP
0 sg
-147 0 0 2331 147 0 0 -2331 2069 4667 5 MP stroke
c8
0 2569 147 0 0 -2569 2253 4667 4 MP
PP
0 sg
-147 0 0 2569 147 0 0 -2569 2253 4667 5 MP stroke
c8
0 1823 148 0 0 -1823 2437 4667 4 MP
PP
0 sg
-148 0 0 1823 148 0 0 -1823 2437 4667 5 MP stroke
c8
0 2193 148 0 0 -2193 2621 4667 4 MP
PP
0 sg
-148 0 0 2193 148 0 0 -2193 2621 4667 5 MP stroke
c8
0 2006 147 0 0 -2006 2806 4667 4 MP
PP
0 sg
-147 0 0 2006 147 0 0 -2006 2806 4667 5 MP stroke
c8
0 2467 148 0 0 -2467 2990 4667 4 MP
PP
0 sg
-148 0 0 2467 148 0 0 -2467 2990 4667 5 MP stroke
c8
0 1660 148 0 0 -1660 3174 4667 4 MP
PP
0 sg
-148 0 0 1660 148 0 0 -1660 3174 4667 5 MP stroke
c8
0 1254 147 0 0 -1254 3359 4667 4 MP
PP
0 sg
-147 0 0 1254 147 0 0 -1254 3359 4667 5 MP stroke
c8
0 1298 147 0 0 -1298 3543 4667 4 MP
PP
0 sg
-147 0 0 1298 147 0 0 -1298 3543 4667 5 MP stroke
c8
0 453 148 0 0 -453 3727 4667 4 MP
PP
0 sg
-148 0 0 453 148 0 0 -453 3727 4667 5 MP stroke
c8
0 637 147 0 0 -637 3912 4667 4 MP
PP
0 sg
-147 0 0 637 147 0 0 -637 3912 4667 5 MP stroke
c8
0 1643 147 0 0 -1643 4096 4667 4 MP
PP
0 sg
-147 0 0 1643 147 0 0 -1643 4096 4667 5 MP stroke
c8
0 2338 148 0 0 -2338 4280 4667 4 MP
PP
0 sg
-148 0 0 2338 148 0 0 -2338 4280 4667 5 MP stroke
c8
0 1314 148 0 0 -1314 4464 4667 4 MP
PP
0 sg
-148 0 0 1314 148 0 0 -1314 4464 4667 5 MP stroke
c8
0 463 147 0 0 -463 4649 4667 4 MP
PP
0 sg
-147 0 0 463 147 0 0 -463 4649 4667 5 MP stroke
c8
0 2429 148 0 0 -2429 4833 4667 4 MP
PP
0 sg
-148 0 0 2429 148 0 0 -2429 4833 4667 5 MP stroke
c8
0 2415 148 0 0 -2415 5017 4667 4 MP
PP
0 sg
-148 0 0 2415 148 0 0 -2415 5017 4667 5 MP stroke
c8
0 1150 147 0 0 -1150 5202 4667 4 MP
PP
0 sg
-147 0 0 1150 147 0 0 -1150 5202 4667 5 MP stroke
c8
0 387 147 0 0 -387 5386 4667 4 MP
PP
0 sg
-147 0 0 387 147 0 0 -387 5386 4667 5 MP stroke
c8
0 1643 148 0 0 -1643 5570 4667 4 MP
PP
0 sg
-148 0 0 1643 148 0 0 -1643 5570 4667 5 MP stroke
c8
0 841 147 0 0 -841 5755 4667 4 MP
PP
0 sg
-147 0 0 841 147 0 0 -841 5755 4667 5 MP stroke
c8
0 1156 147 0 0 -1156 5939 4667 4 MP
PP
0 sg
-147 0 0 1156 147 0 0 -1156 5939 4667 5 MP stroke
c8
0 1397 148 0 0 -1397 6123 4667 4 MP
PP
0 sg
-148 0 0 1397 148 0 0 -1397 6123 4667 5 MP stroke
c8
0 1066 148 0 0 -1066 6307 4667 4 MP
PP
0 sg
-148 0 0 1066 148 0 0 -1066 6307 4667 5 MP stroke
5529 0 1037 4667 2 MP stroke
/c9 { 0.800000 0.200000 0.700000 sr} bdef
c9
0 0 148 0 0 0 1147 1865 4 MP
PP
0 sg
-148 0 0 0 148 0 0 0 1147 1865 5 MP stroke
c9
0 347 148 0 0 -347 1331 2988 4 MP
PP
0 sg
-148 0 0 347 148 0 0 -347 1331 2988 5 MP stroke
c9
0 0 147 0 0 0 1516 2939 4 MP
PP
0 sg
-147 0 0 0 147 0 0 0 1516 2939 5 MP stroke
c9
0 479 147 0 0 -479 1700 2935 4 MP
PP
0 sg
-147 0 0 479 147 0 0 -479 1700 2935 5 MP stroke
c9
0 1165 148 0 0 -1165 1884 3849 4 MP
PP
0 sg
-148 0 0 1165 148 0 0 -1165 1884 3849 5 MP stroke
c9
0 455 147 0 0 -455 2069 2336 4 MP
PP
0 sg
-147 0 0 455 147 0 0 -455 2069 2336 5 MP stroke
c9
0 150 147 0 0 -150 2253 2098 4 MP
PP
0 sg
-147 0 0 150 147 0 0 -150 2253 2098 5 MP stroke
c9
0 546 148 0 0 -546 2437 2844 4 MP
PP
0 sg
-148 0 0 546 148 0 0 -546 2437 2844 5 MP stroke
c9
0 179 148 0 0 -179 2621 2474 4 MP
PP
0 sg
-148 0 0 179 148 0 0 -179 2621 2474 5 MP stroke
c9
0 0 147 0 0 0 2806 2661 4 MP
PP
0 sg
-147 0 0 0 147 0 0 0 2806 2661 5 MP stroke
c9
0 0 148 0 0 0 2990 2200 4 MP
PP
0 sg
-148 0 0 0 148 0 0 0 2990 2200 5 MP stroke
c9
0 18 148 0 0 -18 3174 3007 4 MP
PP
0 sg
-148 0 0 18 148 0 0 -18 3174 3007 5 MP stroke
c9
0 0 147 0 0 0 3359 3413 4 MP
PP
0 sg
-147 0 0 0 147 0 0 0 3359 3413 5 MP stroke
c9
0 0 147 0 0 0 3543 3369 4 MP
PP
0 sg
-147 0 0 0 147 0 0 0 3543 3369 5 MP stroke
c9
0 220 148 0 0 -220 3727 4214 4 MP
PP
0 sg
-148 0 0 220 148 0 0 -220 3727 4214 5 MP stroke
c9
0 111 147 0 0 -111 3912 4030 4 MP
PP
0 sg
-147 0 0 111 147 0 0 -111 3912 4030 5 MP stroke
c9
0 75 147 0 0 -75 4096 3024 4 MP
PP
0 sg
-147 0 0 75 147 0 0 -75 4096 3024 5 MP stroke
c9
0 108 148 0 0 -108 4280 2329 4 MP
PP
0 sg
-148 0 0 108 148 0 0 -108 4280 2329 5 MP stroke
c9
0 2 148 0 0 -2 4464 3353 4 MP
PP
0 sg
-148 0 0 2 148 0 0 -2 4464 3353 5 MP stroke
c9
0 2 147 0 0 -2 4649 4204 4 MP
PP
0 sg
-147 0 0 2 147 0 0 -2 4649 4204 5 MP stroke
c9
0 231 148 0 0 -231 4833 2238 4 MP
PP
0 sg
-148 0 0 231 148 0 0 -231 4833 2238 5 MP stroke
c9
0 181 148 0 0 -181 5017 2252 4 MP
PP
0 sg
-148 0 0 181 148 0 0 -181 5017 2252 5 MP stroke
c9
0 0 147 0 0 0 5202 3517 4 MP
PP
0 sg
-147 0 0 0 147 0 0 0 5202 3517 5 MP stroke
c9
0 0 147 0 0 0 5386 4280 4 MP
PP
0 sg
-147 0 0 0 147 0 0 0 5386 4280 5 MP stroke
c9
0 347 148 0 0 -347 5570 3024 4 MP
PP
0 sg
-148 0 0 347 148 0 0 -347 5570 3024 5 MP stroke
c9
0 1 147 0 0 -1 5755 3826 4 MP
PP
0 sg
-147 0 0 1 147 0 0 -1 5755 3826 5 MP stroke
c9
0 803 147 0 0 -803 5939 3511 4 MP
PP
0 sg
-147 0 0 803 147 0 0 -803 5939 3511 5 MP stroke
c9
0 955 148 0 0 -955 6123 3270 4 MP
PP
0 sg
-148 0 0 955 148 0 0 -955 6123 3270 5 MP stroke
c9
0 0 148 0 0 0 6307 3601 4 MP
PP
0 sg
-148 0 0 0 148 0 0 0 6307 3601 5 MP stroke
/c10 { 1.000000 0.300000 0.200000 sr} bdef
c10
0 0 148 0 0 0 1147 1865 4 MP
PP
0 sg
-148 0 0 0 148 0 0 0 1147 1865 5 MP stroke
c10
0 0 148 0 0 0 1331 2641 4 MP
PP
0 sg
-148 0 0 0 148 0 0 0 1331 2641 5 MP stroke
c10
0 0 147 0 0 0 1516 2939 4 MP
PP
0 sg
-147 0 0 0 147 0 0 0 1516 2939 5 MP stroke
c10
0 0 147 0 0 0 1700 2456 4 MP
PP
0 sg
-147 0 0 0 147 0 0 0 1700 2456 5 MP stroke
c10
0 0 148 0 0 0 1884 2684 4 MP
PP
0 sg
-148 0 0 0 148 0 0 0 1884 2684 5 MP stroke
c10
0 0 147 0 0 0 2069 1881 4 MP
PP
0 sg
-147 0 0 0 147 0 0 0 2069 1881 5 MP stroke
c10
0 0 147 0 0 0 2253 1948 4 MP
PP
0 sg
-147 0 0 0 147 0 0 0 2253 1948 5 MP stroke
c10
0 0 148 0 0 0 2437 2298 4 MP
PP
0 sg
-148 0 0 0 148 0 0 0 2437 2298 5 MP stroke
c10
0 0 148 0 0 0 2621 2295 4 MP
PP
0 sg
-148 0 0 0 148 0 0 0 2621 2295 5 MP stroke
c10
0 0 147 0 0 0 2806 2661 4 MP
PP
0 sg
-147 0 0 0 147 0 0 0 2806 2661 5 MP stroke
c10
0 0 148 0 0 0 2990 2200 4 MP
PP
0 sg
-148 0 0 0 148 0 0 0 2990 2200 5 MP stroke
c10
0 0 148 0 0 0 3174 2989 4 MP
PP
0 sg
-148 0 0 0 148 0 0 0 3174 2989 5 MP stroke
c10
0 0 147 0 0 0 3359 3413 4 MP
PP
0 sg
-147 0 0 0 147 0 0 0 3359 3413 5 MP stroke
c10
0 0 147 0 0 0 3543 3369 4 MP
PP
0 sg
-147 0 0 0 147 0 0 0 3543 3369 5 MP stroke
c10
0 0 148 0 0 0 3727 3994 4 MP
PP
0 sg
-148 0 0 0 148 0 0 0 3727 3994 5 MP stroke
c10
0 0 147 0 0 0 3912 3919 4 MP
PP
0 sg
-147 0 0 0 147 0 0 0 3912 3919 5 MP stroke
c10
0 0 147 0 0 0 4096 2949 4 MP
PP
0 sg
-147 0 0 0 147 0 0 0 4096 2949 5 MP stroke
c10
0 0 148 0 0 0 4280 2221 4 MP
PP
0 sg
-148 0 0 0 148 0 0 0 4280 2221 5 MP stroke
c10
0 0 148 0 0 0 4464 3351 4 MP
PP
0 sg
-148 0 0 0 148 0 0 0 4464 3351 5 MP stroke
c10
0 0 147 0 0 0 4649 4202 4 MP
PP
0 sg
-147 0 0 0 147 0 0 0 4649 4202 5 MP stroke
c10
0 0 148 0 0 0 4833 2007 4 MP
PP
0 sg
-148 0 0 0 148 0 0 0 4833 2007 5 MP stroke
c10
0 0 148 0 0 0 5017 2071 4 MP
PP
0 sg
-148 0 0 0 148 0 0 0 5017 2071 5 MP stroke
c10
0 0 147 0 0 0 5202 3517 4 MP
PP
0 sg
-147 0 0 0 147 0 0 0 5202 3517 5 MP stroke
c10
0 0 147 0 0 0 5386 4280 4 MP
PP
0 sg
-147 0 0 0 147 0 0 0 5386 4280 5 MP stroke
c10
0 0 148 0 0 0 5570 2677 4 MP
PP
0 sg
-148 0 0 0 148 0 0 0 5570 2677 5 MP stroke
c10
0 0 147 0 0 0 5755 3825 4 MP
PP
0 sg
-147 0 0 0 147 0 0 0 5755 3825 5 MP stroke
c10
0 0 147 0 0 0 5939 2708 4 MP
PP
0 sg
-147 0 0 0 147 0 0 0 5939 2708 5 MP stroke
c10
0 0 148 0 0 0 6123 2315 4 MP
PP
0 sg
-148 0 0 0 148 0 0 0 6123 2315 5 MP stroke
c10
0 0 148 0 0 0 6307 3601 4 MP
PP
0 sg
-148 0 0 0 148 0 0 0 6307 3601 5 MP stroke
gr

80 W
/c11 { 1.000000 0.700000 0.000000 sr} bdef
c11
1221 1918 PD
80 W
1405 2296 PD
80 W
1589 2530 PD
80 W
1774 1734 PD
80 W
1958 2125 PD
80 W
2142 1466 PD
80 W
2327 1523 PD
80 W
2511 1872 PD
80 W
2695 1560 PD
80 W
2880 1991 PD
80 W
3064 2212 PD
80 W
3248 2766 PD
80 W
3432 2631 PD
80 W
3617 1896 PD
80 W
3801 2479 PD
80 W
3985 3072 PD
80 W
4170 2293 PD
80 W
4354 1951 PD
80 W
4538 2293 PD
80 W
4723 2031 PD
gs 1037 1296 5530 3372 MR c np
gr

80 W
5091 2090 PD
80 W
5275 1585 PD
80 W
5460 2650 PD
80 W
5644 2189 PD
80 W
5828 2895 PD
80 W
6013 2618 PD
80 W
6197 1422 PD
80 W
6381 2380 PD
gs 1037 1296 5530 3372 MR c np
gr

/c12 { 0.212500 0.144500 0.882188 sr} bdef
c12
1272 5078 mt  -90 rotate
(PTS) s
90 rotate
/c13 { 0.212500 0.144500 0.888884 sr} bdef
c13
1456 5078 mt  -90 rotate
(PGI) s
90 rotate
/c14 { 0.212833 0.147119 0.895703 sr} bdef
c14
1640 5078 mt  -90 rotate
(PFK) s
90 rotate
/c15 { 0.218265 0.186258 0.903302 sr} bdef
c15
1825 5078 mt  -90 rotate
(FBA) s
90 rotate
/c16 { 0.223480 0.211974 0.906661 sr} bdef
c16
2009 5078 mt  -90 rotate
(TPI) s
90 rotate
/c17 { 0.330246 0.548463 0.993064 sr} bdef
c17
2193 5078 mt  -90 rotate
(GAP) s
90 rotate
/c18 { 0.346542 0.562488 0.996408 sr} bdef
c18
2378 5078 mt  -90 rotate
(PGK) s
90 rotate
/c19 { 0.370164 0.575898 0.999414 sr} bdef
c19
2562 5078 mt  -90 rotate
(GPM) s
90 rotate
/c20 { 0.381112 0.588570 0.999414 sr} bdef
c20
2746 5078 mt  -90 rotate
(ENO) s
90 rotate
/c21 { 0.389901 0.598484 0.999212 sr} bdef
c21
2931 5078 mt  -90 rotate
(PYK) s
90 rotate
/c22 { 0.397673 0.605533 0.995741 sr} bdef
c22
3115 5078 mt  -90 rotate
(PDH) s
90 rotate
/c23 { 0.901916 0.227925 0.184033 sr} bdef
c23
3299 5078 mt  -90 rotate
(ZWF) s
90 rotate
/c24 { 0.918022 0.231296 0.178971 sr} bdef
c24
3483 5078 mt  -90 rotate
(PGL) s
90 rotate
/c25 { 0.933471 0.230639 0.168910 sr} bdef
c25
3668 5078 mt  -90 rotate
(GND) s
90 rotate
/c26 { 0.945195 0.228555 0.153828 sr} bdef
c26
3852 5078 mt  -90 rotate
(RPI) s
90 rotate
/c27 { 0.949186 0.227086 0.138885 sr} bdef
c27
4036 5078 mt  -90 rotate
(RPE) s
90 rotate
/c28 { 0.951576 0.224886 0.121457 sr} bdef
c28
4221 5078 mt  -90 rotate
(TKT1) s
90 rotate
/c29 { 0.953204 0.220067 0.099220 sr} bdef
c29
4405 5078 mt  -90 rotate
(TAL) s
90 rotate
/c30 { 0.954992 0.212484 0.080847 sr} bdef
c30
4589 5078 mt  -90 rotate
(TKT1) s
90 rotate
/c31 { 0.956803 0.200913 0.066550 sr} bdef
c31
4774 5078 mt  -90 rotate
(CSN) s
90 rotate
/c32 { 0.956914 0.190035 0.058736 sr} bdef
c32
4958 5078 mt  -90 rotate
(ACN1) s
90 rotate
/c33 { 0.931414 0.603750 0.181719 sr} bdef
c33
5142 5078 mt  -90 rotate
(ACN1) s
90 rotate
/c34 { 0.931414 0.590989 0.179877 sr} bdef
c34
5326 5078 mt  -90 rotate
(ICD) s
90 rotate
/c35 { 0.931414 0.576412 0.178371 sr} bdef
c35
5511 5078 mt  -90 rotate
(KGD) s
90 rotate
/c36 { 0.931414 0.559091 0.176696 sr} bdef
c36
5695 5078 mt  -90 rotate
(SCS) s
90 rotate
/c37 { 0.930741 0.540469 0.174851 sr} bdef
c37
5879 5078 mt  -90 rotate
(SDH) s
90 rotate
/c38 { 0.926758 0.522797 0.173041 sr} bdef
c38
6064 5078 mt  -90 rotate
(FUM) s
90 rotate
/c39 { 0.920617 0.521719 0.172930 sr} bdef
c39
6248 5078 mt  -90 rotate
(MDH) s
90 rotate
/c40 { 0.910906 0.521719 0.172930 sr} bdef
c40
6432 5078 mt  -90 rotate
(PPC) s
90 rotate
gs 1037 1296 5530 3372 MR c np
1 sg
-5492 0 0 -403 5492 0 1055 4658 4 MP
PP
0 403 -5492 0 0 -403 5492 0 1055 4658 5 MP stroke
DA
0 sg
5529 0 1037 4255 2 MP stroke
gr

0 sg
DA
%%IncludeResource: font Helvetica
/Helvetica /ISOLatin1Encoding 120 FMSR

4907 4462 mt 
(Arbitrary baseline capacity) s
%%IncludeResource: font Helvetica
/Helvetica /ISOLatin1Encoding 144 FMSR

 635 3682 mt  -90 rotate
(Enzyme demand [uM]) s
90 rotate
%%IncludeResource: font Helvetica
/Helvetica /ISOLatin1Encoding 120 FMSR

1020 4710 mt 
( ) s
6550 1338 mt 
( ) s
SO
1 sg
0 738 1160 0 0 -738 1096 4608 4 MP
PP
-1160 0 0 738 1160 0 0 -738 1096 4608 5 MP stroke
4 w
DO
SO
6 w
0 sg
1096 4608 mt 2256 4608 L
1096 3870 mt 2256 3870 L
1096 4608 mt 1096 3870 L
2256 4608 mt 2256 3870 L
1096 4608 mt 2256 4608 L
1096 4608 mt 1096 3870 L
1096 4608 mt 2256 4608 L
1096 3870 mt 2256 3870 L
1096 4608 mt 1096 3870 L
2256 4608 mt 2256 3870 L
%%IncludeResource: font Helvetica
/Helvetica /ISOLatin1Encoding 144 FMSR

1570 4026 mt 
(Capacity) s
gs 1096 3870 1161 739 MR c np
c8
-364 0 0 132 364 0 0 -132 1168 4040 5 MP
PP
0 sg
0 0 -364 0 0 132 364 0 0 -132 1168 4040 6 MP stroke
gr

1570 4202 mt 
(Energetic) s
gs 1096 3870 1161 739 MR c np
c9
-364 0 0 133 364 0 0 -133 1168 4217 5 MP
PP
0 sg
0 0 -364 0 0 133 364 0 0 -133 1168 4217 6 MP stroke
gr

1570 4379 mt 
(Saturation) s
gs 1096 3870 1161 739 MR c np
c10
-364 0 0 133 364 0 0 -133 1168 4393 5 MP
PP
0 sg
0 0 -364 0 0 133 364 0 0 -133 1168 4393 6 MP stroke
gr

1570 4555 mt 
(Data) s
gs 1096 3870 1161 739 MR c np
gr

gs 1109 4262 483 483 MR c np
80 W
c11
1350 4503 PD
gr

c11
gs 1096 3870 1161 739 MR c np
gr


end %%Color Dict

eplot
%%EndObject

epage
end

showpage

%%Trailer
%%EOF
