%!PS-Adobe-3.0 EPSF-3.0
%%Title: efficiencies.fig
%%Creator: fig2dev Version 3.2 Patchlevel 5e
%%CreationDate: Wed Jan 20 15:45:57 2016
%%BoundingBox: 0 0 1072 436
%Magnification: 1.0000
%%EndComments
%%BeginProlog
/$F2psDict 200 dict def
$F2psDict begin
$F2psDict /mtrx matrix put
/col-1 {0 setgray} bind def
/col0 {0.000 0.000 0.000 srgb} bind def
/col1 {0.000 0.000 1.000 srgb} bind def
/col2 {0.000 1.000 0.000 srgb} bind def
/col3 {0.000 1.000 1.000 srgb} bind def
/col4 {1.000 0.000 0.000 srgb} bind def
/col5 {1.000 0.000 1.000 srgb} bind def
/col6 {1.000 1.000 0.000 srgb} bind def
/col7 {1.000 1.000 1.000 srgb} bind def
/col8 {0.000 0.000 0.560 srgb} bind def
/col9 {0.000 0.000 0.690 srgb} bind def
/col10 {0.000 0.000 0.820 srgb} bind def
/col11 {0.530 0.810 1.000 srgb} bind def
/col12 {0.000 0.560 0.000 srgb} bind def
/col13 {0.000 0.690 0.000 srgb} bind def
/col14 {0.000 0.820 0.000 srgb} bind def
/col15 {0.000 0.560 0.560 srgb} bind def
/col16 {0.000 0.690 0.690 srgb} bind def
/col17 {0.000 0.820 0.820 srgb} bind def
/col18 {0.560 0.000 0.000 srgb} bind def
/col19 {0.690 0.000 0.000 srgb} bind def
/col20 {0.820 0.000 0.000 srgb} bind def
/col21 {0.560 0.000 0.560 srgb} bind def
/col22 {0.690 0.000 0.690 srgb} bind def
/col23 {0.820 0.000 0.820 srgb} bind def
/col24 {0.500 0.190 0.000 srgb} bind def
/col25 {0.630 0.250 0.000 srgb} bind def
/col26 {0.750 0.380 0.000 srgb} bind def
/col27 {1.000 0.500 0.500 srgb} bind def
/col28 {1.000 0.630 0.630 srgb} bind def
/col29 {1.000 0.750 0.750 srgb} bind def
/col30 {1.000 0.880 0.880 srgb} bind def
/col31 {1.000 0.840 0.000 srgb} bind def
/col32 {1.000 0.933 0.533 srgb} bind def
/col33 {1.000 0.875 0.333 srgb} bind def
/col34 {0.800 0.753 1.000 srgb} bind def

end

/cp {closepath} bind def
/ef {eofill} bind def
/gr {grestore} bind def
/gs {gsave} bind def
/sa {save} bind def
/rs {restore} bind def
/l {lineto} bind def
/m {moveto} bind def
/rm {rmoveto} bind def
/n {newpath} bind def
/s {stroke} bind def
/sh {show} bind def
/slc {setlinecap} bind def
/slj {setlinejoin} bind def
/slw {setlinewidth} bind def
/srgb {setrgbcolor} bind def
/rot {rotate} bind def
/sc {scale} bind def
/sd {setdash} bind def
/ff {findfont} bind def
/sf {setfont} bind def
/scf {scalefont} bind def
/sw {stringwidth} bind def
/tr {translate} bind def
/tnt {dup dup currentrgbcolor
  4 -2 roll dup 1 exch sub 3 -1 roll mul add
  4 -2 roll dup 1 exch sub 3 -1 roll mul add
  4 -2 roll dup 1 exch sub 3 -1 roll mul add srgb}
  bind def
/shd {dup dup currentrgbcolor 4 -2 roll mul 4 -2 roll mul
  4 -2 roll mul srgb} bind def
/reencdict 12 dict def /ReEncode { reencdict begin
/newcodesandnames exch def /newfontname exch def /basefontname exch def
/basefontdict basefontname findfont def /newfont basefontdict maxlength dict def
basefontdict { exch dup /FID ne { dup /Encoding eq
{ exch dup length array copy newfont 3 1 roll put }
{ exch newfont 3 1 roll put } ifelse } { pop pop } ifelse } forall
newfont /FontName newfontname put newcodesandnames aload pop
128 1 255 { newfont /Encoding get exch /.notdef put } for
newcodesandnames length 2 idiv { newfont /Encoding get 3 1 roll put } repeat
newfontname newfont definefont pop end } def
/isovec [
8#055 /minus 8#200 /grave 8#201 /acute 8#202 /circumflex 8#203 /tilde
8#204 /macron 8#205 /breve 8#206 /dotaccent 8#207 /dieresis
8#210 /ring 8#211 /cedilla 8#212 /hungarumlaut 8#213 /ogonek 8#214 /caron
8#220 /dotlessi 8#230 /oe 8#231 /OE
8#240 /space 8#241 /exclamdown 8#242 /cent 8#243 /sterling
8#244 /currency 8#245 /yen 8#246 /brokenbar 8#247 /section 8#250 /dieresis
8#251 /copyright 8#252 /ordfeminine 8#253 /guillemotleft 8#254 /logicalnot
8#255 /hyphen 8#256 /registered 8#257 /macron 8#260 /degree 8#261 /plusminus
8#262 /twosuperior 8#263 /threesuperior 8#264 /acute 8#265 /mu 8#266 /paragraph
8#267 /periodcentered 8#270 /cedilla 8#271 /onesuperior 8#272 /ordmasculine
8#273 /guillemotright 8#274 /onequarter 8#275 /onehalf
8#276 /threequarters 8#277 /questiondown 8#300 /Agrave 8#301 /Aacute
8#302 /Acircumflex 8#303 /Atilde 8#304 /Adieresis 8#305 /Aring
8#306 /AE 8#307 /Ccedilla 8#310 /Egrave 8#311 /Eacute
8#312 /Ecircumflex 8#313 /Edieresis 8#314 /Igrave 8#315 /Iacute
8#316 /Icircumflex 8#317 /Idieresis 8#320 /Eth 8#321 /Ntilde 8#322 /Ograve
8#323 /Oacute 8#324 /Ocircumflex 8#325 /Otilde 8#326 /Odieresis 8#327 /multiply
8#330 /Oslash 8#331 /Ugrave 8#332 /Uacute 8#333 /Ucircumflex
8#334 /Udieresis 8#335 /Yacute 8#336 /Thorn 8#337 /germandbls 8#340 /agrave
8#341 /aacute 8#342 /acircumflex 8#343 /atilde 8#344 /adieresis 8#345 /aring
8#346 /ae 8#347 /ccedilla 8#350 /egrave 8#351 /eacute
8#352 /ecircumflex 8#353 /edieresis 8#354 /igrave 8#355 /iacute
8#356 /icircumflex 8#357 /idieresis 8#360 /eth 8#361 /ntilde 8#362 /ograve
8#363 /oacute 8#364 /ocircumflex 8#365 /otilde 8#366 /odieresis 8#367 /divide
8#370 /oslash 8#371 /ugrave 8#372 /uacute 8#373 /ucircumflex
8#374 /udieresis 8#375 /yacute 8#376 /thorn 8#377 /ydieresis] def
/Helvetica /Helvetica-iso isovec ReEncode
 /DrawEllipse {
	/endangle exch def
	/startangle exch def
	/yrad exch def
	/xrad exch def
	/y exch def
	/x exch def
	/savematrix mtrx currentmatrix def
	x y tr xrad yrad sc 0 0 1 startangle endangle arc
	closepath
	savematrix setmatrix
	} def

/$F2psBegin {$F2psDict begin /$F2psEnteredState save def} def
/$F2psEnd {$F2psEnteredState restore end} def

/pageheader {
save
newpath 0 436 moveto 0 0 lineto 1072 0 lineto 1072 436 lineto closepath clip newpath
-19.3 443.1 translate
1 -1 scale
$F2psBegin
10 setmiterlimit
0 slj 0 slc
 0.06299 0.06299 sc
} bind def
/pagefooter {
$F2psEnd
restore
} bind def
%%EndProlog
pageheader
%
% Fig objects follow
%
% 
% here starts figure with depth 250
% Ellipse
7.500 slw
n 2747 6539 565 281 0 360 DrawEllipse gs col33 1.00 shd ef gr gs col33 s gr

% Ellipse
n 2677 6194 565 281 0 360 DrawEllipse gs col32 1.00 shd ef gr gs col32 s gr

% Ellipse
n 3101 6269 565 281 0 360 DrawEllipse gs col32 1.00 shd ef gr gs col32 s gr

% Ellipse
n 3125 6574 565 281 0 360 DrawEllipse gs col33 1.00 shd ef gr gs col33 s gr

% Ellipse
n 2456 6361 565 281 0 360 DrawEllipse gs col32 1.00 shd ef gr gs col32 s gr

% Ellipse
n 2567 4139 565 281 0 360 DrawEllipse gs col33 1.00 shd ef gr gs col33 s gr

% Ellipse
n 2497 3794 565 281 0 360 DrawEllipse gs col32 1.00 shd ef gr gs col32 s gr

% Ellipse
n 2921 3869 565 281 0 360 DrawEllipse gs col32 1.00 shd ef gr gs col32 s gr

% Ellipse
n 2945 4174 565 281 0 360 DrawEllipse gs col33 1.00 shd ef gr gs col33 s gr

% Ellipse
n 2276 3961 565 281 0 360 DrawEllipse gs col32 1.00 shd ef gr gs col32 s gr

% Ellipse
n 2537 1754 565 281 0 360 DrawEllipse gs col33 1.00 shd ef gr gs col33 s gr

% Ellipse
n 2467 1409 565 281 0 360 DrawEllipse gs col32 1.00 shd ef gr gs col32 s gr

% Ellipse
n 2891 1484 565 281 0 360 DrawEllipse gs col32 1.00 shd ef gr gs col32 s gr

% Ellipse
n 2915 1789 565 281 0 360 DrawEllipse gs col33 1.00 shd ef gr gs col33 s gr

% Ellipse
n 2246 1576 565 281 0 360 DrawEllipse gs col32 1.00 shd ef gr gs col32 s gr

% Arc
0 slc
gs  clippath
4615 3821 m 4767 3734 l 4708 3630 l 4556 3717 l 4556 3717 l 4716 3695 l 4615 3821 l cp
eoclip
n 3970.8 2538.6 1376.5 90.4479 56.7730 arcn
gs col0 s gr
 gr

% arrowhead
0 slj
n 4615 3821 m 4716 3695 l 4556 3717 l  col0 s
% Arc
gs  clippath
4206 4281 m 4039 4228 l 4002 4342 l 4169 4396 l 4169 4396 l 4045 4293 l 4206 4281 l cp
eoclip
n 3809.0 5241.4 977.9 -33.9709 -76.6387 arcn
gs col0 s gr
 gr

% arrowhead
n 4206 4281 m 4045 4293 l 4169 4396 l  col0 s
% Arc
gs  clippath
4400 6169 m 4545 6071 l 4478 5971 l 4333 6070 l 4333 6070 l 4491 6036 l 4400 6169 l cp
eoclip
n 4117.5 5602.5 573.6 101.3099 48.1798 arcn
gs col0 s gr
 gr

% arrowhead
n 4400 6169 m 4491 6036 l 4333 6070 l  col0 s
% Arc
gs  clippath
4249 6531 m 4078 6493 l 4052 6610 l 4223 6648 l 4223 6648 l 4090 6557 l 4249 6531 l cp
eoclip
n 3800.6 8182.5 1651.3 -67.2200 -80.2596 arcn
gs col0 s gr
 gr

% arrowhead
n 4249 6531 m 4090 6557 l 4223 6648 l  col0 s
% Ellipse
n 540 1890 90 90 0 360 DrawEllipse gs col34 1.00 shd ef gr gs col9 s gr

% Ellipse
n 465 1455 90 90 0 360 DrawEllipse gs col34 1.00 shd ef gr gs col9 s gr

% Ellipse
n 960 1449 90 90 0 360 DrawEllipse gs col34 1.00 shd ef gr gs col9 s gr

% Ellipse
n 810 1035 90 90 0 360 DrawEllipse gs col34 1.00 shd ef gr gs col9 s gr

% Ellipse
n 951 1245 90 90 0 360 DrawEllipse gs col34 1.00 shd ef gr gs col9 s gr

% Ellipse
n 1094 1673 90 90 0 360 DrawEllipse gs col34 1.00 shd ef gr gs col9 s gr

% Ellipse
n 810 1680 90 90 0 360 DrawEllipse gs col34 1.00 shd ef gr gs col9 s gr

% Ellipse
n 855 2160 90 90 0 360 DrawEllipse gs col34 1.00 shd ef gr gs col9 s gr

% Ellipse
n 981 1953 90 90 0 360 DrawEllipse gs col34 1.00 shd ef gr gs col9 s gr

% Ellipse
n 1260 1845 90 90 0 360 DrawEllipse gs col34 1.00 shd ef gr gs col9 s gr

% Ellipse
n 1350 1620 90 90 0 360 DrawEllipse gs col34 1.00 shd ef gr gs col9 s gr

% Ellipse
n 1170 1485 90 90 0 360 DrawEllipse gs col34 1.00 shd ef gr gs col9 s gr

% Ellipse
n 405 3690 90 90 0 360 DrawEllipse gs col34 1.00 shd ef gr gs col9 s gr

% Ellipse
n 780 3750 90 90 0 360 DrawEllipse gs col34 1.00 shd ef gr gs col9 s gr

% Ellipse
n 972 3602 90 90 0 360 DrawEllipse gs col34 1.00 shd ef gr gs col9 s gr

% Ellipse
n 810 3375 90 90 0 360 DrawEllipse gs col34 1.00 shd ef gr gs col9 s gr

% Ellipse
n 1090 4010 90 90 0 360 DrawEllipse gs col34 1.00 shd ef gr gs col9 s gr

% Ellipse
n 870 4095 90 90 0 360 DrawEllipse gs col34 1.00 shd ef gr gs col9 s gr

% Ellipse
n 540 4230 90 90 0 360 DrawEllipse gs col34 1.00 shd ef gr gs col9 s gr

% Ellipse
n 855 4500 90 90 0 360 DrawEllipse gs col34 1.00 shd ef gr gs col9 s gr

% Ellipse
n 1260 4185 90 90 0 360 DrawEllipse gs col34 1.00 shd ef gr gs col9 s gr

% Ellipse
n 1157 3740 90 90 0 360 DrawEllipse gs col34 1.00 shd ef gr gs col9 s gr

% Ellipse
n 1350 3960 90 90 0 360 DrawEllipse gs col34 1.00 shd ef gr gs col9 s gr

% Ellipse
n 990 4320 90 90 0 360 DrawEllipse gs col34 1.00 shd ef gr gs col9 s gr

% Ellipse
n 420 5640 90 90 0 360 DrawEllipse gs col34 1.00 shd ef gr gs col9 s gr

% Ellipse
n 915 5970 90 90 0 360 DrawEllipse gs col34 1.00 shd ef gr gs col9 s gr

% Ellipse
n 1245 6240 90 90 0 360 DrawEllipse gs col34 1.00 shd ef gr gs col9 s gr

% Ellipse
n 765 6690 90 90 0 360 DrawEllipse gs col34 1.00 shd ef gr gs col9 s gr

% Polyline
15.000 slw
gs  clippath
12765 643 m 12765 375 l 12615 375 l 12615 643 l 12615 643 l 12690 403 l 12765 643 l cp
eoclip
n 12690 6975 m
 12690 390 l gs col0 s gr gr

% arrowhead
7.500 slw
n 12765 643 m 12690 403 l 12615 643 l 12765 643 l  cp gs 0.00 setgray ef gr  col0 s
% Polyline
15.000 slw
n 13562 1215 m
 15492 1215 l gs col4 s gr 
% Polyline
n 13535 3393 m
 15465 3393 l gs col22 s gr 
% Polyline
n 13446 5787 m
 15376 5787 l gs col9 s gr 
% Polyline
n 1575 6345 m
 990 6930 l gs col32 1.00 shd ef gr gs col0 s gr 
% Polyline
n 967 5557 m
 1552 6142 l gs col32 1.00 shd ef gr gs col0 s gr 
% Polyline
n 1530 4095 m
 945 4680 l gs col32 1.00 shd ef gr gs col0 s gr 
% Polyline
n 922 3307 m
 1507 3892 l gs col32 1.00 shd ef gr gs col0 s gr 
% Polyline
n 1530 1755 m
 945 2340 l gs col32 1.00 shd ef gr gs col0 s gr 
% Polyline
n 922 967 m
 1507 1552 l gs col32 1.00 shd ef gr gs col0 s gr 
% Polyline
7.500 slw
n 4725 5895 m 4815 5985 l 4725 6075 l 4635 5985 l
 cp gs col11 1.00 shd ef gr gs col9 s gr 
% Polyline
n 4590 6615 m 4680 6705 l 4590 6795 l 4500 6705 l
 cp gs col11 1.00 shd ef gr gs col9 s gr 
% Polyline
n 4770 4815 m 4860 4905 l 4770 4995 l 4680 4905 l
 cp gs col11 1.00 shd ef gr gs col9 s gr 
% Polyline
n 4905 3555 m 4995 3645 l 4905 3735 l 4815 3645 l
 cp gs col11 1.00 shd ef gr gs col9 s gr 
% Polyline
n 4680 4050 m 4770 4140 l 4680 4230 l 4590 4140 l
 cp gs col11 1.00 shd ef gr gs col9 s gr 
% Polyline
n 5085 3915 m 5175 4005 l 5085 4095 l 4995 4005 l
 cp gs col11 1.00 shd ef gr gs col9 s gr 
% Polyline
n 5310 4455 m 5400 4545 l 5310 4635 l 5220 4545 l
 cp gs col11 1.00 shd ef gr gs col9 s gr 
% Polyline
15.000 slw
gs  clippath
6960 598 m 6960 330 l 6810 330 l 6810 598 l 6810 598 l 6885 358 l 6960 598 l cp
eoclip
n 6885 6930 m
 6885 345 l gs col0 s gr gr

% arrowhead
7.500 slw
n 6960 598 m 6885 358 l 6810 598 l 6960 598 l  cp gs 0.00 setgray ef gr  col0 s
% Polyline
15.000 slw
n 7730 3933 m
 9660 3933 l gs col22 s gr 
% Polyline
n 7641 6327 m
 9571 6327 l gs col4 s gr 
% Polyline
n 7757 1755 m
 9687 1755 l gs col9 s gr 
% Polyline
30.000 slw
gs  clippath
8397 3592 m 8397 3840 l 8612 3840 l 8612 3592 l 8612 3592 l 8505 3807 l 8397 3592 l cp
eoclip
n 8505 1935 m
 8505 3825 l gs col22 s gr gr

% arrowhead
15.000 slw
n 8397 3592 m 8505 3807 l 8612 3592 l  col22 s
% Polyline
30.000 slw
gs  clippath
8408 5987 m 8408 6235 l 8623 6235 l 8623 5987 l 8623 5987 l 8516 6202 l 8408 5987 l cp
eoclip
n 8516 4004 m
 8516 6220 l gs col4 s gr gr

% arrowhead
15.000 slw
n 8408 5987 m 8516 6202 l 8623 5987 l  col4 s
% Polyline
30.000 slw
gs  clippath
14382 1558 m 14384 1311 l 14169 1308 l 14167 1556 l 14167 1556 l 14277 1343 l 14382 1558 l cp
eoclip
n 14257 3242 m
 14277 1325 l gs col4 s gr gr

% arrowhead
15.000 slw
n 14382 1558 m 14277 1343 l 14167 1556 l  col4 s
% Polyline
30.000 slw
gs  clippath
14372 3732 m 14372 3485 l 14157 3485 l 14157 3732 l 14157 3732 l 14265 3518 l 14372 3732 l cp
eoclip
n 14265 5716 m
 14265 3500 l gs col22 s gr gr

% arrowhead
15.000 slw
n 14372 3732 m 14265 3518 l 14157 3732 l  col22 s
/Helvetica-iso ff 301.62 scf sf
14625 1620 m
gs 1 -1 sc (Higher demand) col4 sh gr
/Helvetica-iso ff 301.62 scf sf
14625 1980 m
gs 1 -1 sc (to compensate) col4 sh gr
/Helvetica-iso ff 301.62 scf sf
14580 3825 m
gs 1 -1 sc (Higher demand) col22 sh gr
/Helvetica-iso ff 301.62 scf sf
14625 4185 m
gs 1 -1 sc (to compensate) col22 sh gr
/Helvetica-iso ff 301.62 scf sf
14625 4560 m
gs 1 -1 sc (reverse flux) col22 sh gr
/Helvetica-iso ff 301.62 scf sf
13680 6255 m
gs 1 -1 sc (Minimal demand) col9 sh gr
/Helvetica-iso ff 301.62 scf sf
8892 3557 m
gs 1 -1 sc (reverse flux) col22 sh gr
/Helvetica-iso ff 301.62 scf sf
7695 1170 m
gs 1 -1 sc (Maximal rate:) col9 sh gr
/Helvetica-iso ff 301.62 scf sf
7695 1575 m
gs 1 -1 sc (Catalytic constant) col9 sh gr
/Helvetica-iso ff 349.25 scf sf
12285 6840 m
gs 1 -1 sc  90.0 rot (Enzyme demand at given desired flux) col0 sh gr
/Helvetica-iso ff 349.25 scf sf
6480 7020 m
gs 1 -1 sc  90.0 rot (Catalytic rate \(rate per enzmye molecule\)) col0 sh gr
/Helvetica-iso ff 301.62 scf sf
8892 3236 m
gs 1 -1 sc (Rate lowered by) col22 sh gr
/Helvetica-iso ff 301.62 scf sf
14625 2355 m
gs 1 -1 sc (non-saturation and) col4 sh gr
/Helvetica-iso ff 301.62 scf sf
8910 5265 m
gs 1 -1 sc (Rate lowered by) col4 sh gr
/Helvetica-iso ff 301.62 scf sf
8910 5625 m
gs 1 -1 sc (non-saturation) col4 sh gr
/Helvetica-iso ff 301.62 scf sf
8910 5985 m
gs 1 -1 sc (or allosteric effects) col4 sh gr
/Helvetica-iso ff 301.62 scf sf
14625 2730 m
gs 1 -1 sc (allosteric effects) col4 sh gr
% here ends figure;
% 
% here starts figure with depth 100
% Polyline
0 slj
0 slc
135.000 slw
gs  clippath
3591 1845 m 3975 1845 l 3975 1485 l 3591 1485 l 3591 1485 l 3951 1665 l 3591 1845 l cp
eoclip
n 1530 1665 m
 3960 1665 l gs col11 1.00 shd ef gr gs col9 s gr gr

% arrowhead
7.500 slw
n 3591 1845 m 3951 1665 l 3591 1485 l 3591 1845 l  cp gs col9 1.00 shd ef gr  col9 s
% Polyline
45.000 slw
gs  clippath
1644 4065 m 1380 4065 l 1380 4305 l 1644 4305 l 1644 4305 l 1404 4185 l 1644 4065 l cp
eoclip
n 3825 4185 m
 1395 4185 l gs col11 1.00 shd ef gr gs col22 s gr gr

% arrowhead
7.500 slw
n 1644 4065 m 1404 4185 l 1644 4305 l 1644 4065 l  cp gs col22 1.00 shd ef gr  col22 s
% Polyline
75.000 slw
gs  clippath
3726 6390 m 4020 6390 l 4020 6120 l 3726 6120 l 3726 6120 l 3996 6255 l 3726 6390 l cp
eoclip
n 1575 6255 m
 4005 6255 l gs col11 1.00 shd ef gr gs col4 s gr gr

% arrowhead
7.500 slw
n 3726 6390 m 3996 6255 l 3726 6120 l 3726 6390 l  cp gs col4 1.00 shd ef gr  col4 s
% Polyline
30.000 slw
gs  clippath
1719 6435 m 1515 6435 l 1515 6615 l 1719 6615 l 1719 6615 l 1539 6525 l 1719 6435 l cp
eoclip
n 3960 6525 m
 1530 6525 l gs col11 1.00 shd ef gr gs col4 s gr gr

% arrowhead
7.500 slw
n 1719 6435 m 1539 6525 l 1719 6615 l 1719 6435 l  cp gs col4 1.00 shd ef gr  col4 s
% Polyline
135.000 slw
gs  clippath
3546 4095 m 3930 4095 l 3930 3735 l 3546 3735 l 3546 3735 l 3906 3915 l 3546 4095 l cp
eoclip
n 1485 3915 m
 3915 3915 l gs col11 1.00 shd ef gr gs col22 s gr gr

% arrowhead
7.500 slw
n 3546 4095 m 3906 3915 l 3546 3735 l 3546 4095 l  cp gs col22 1.00 shd ef gr  col22 s
% here ends figure;
% 
% here starts figure with depth 50
/Helvetica-iso ff 254.00 scf sf
1395 900 m
gs 1 -1 sc (high driving force) col9 sh gr
/Helvetica-iso ff 254.00 scf sf
1440 3330 m
gs 1 -1 sc (low driving force) col22 sh gr
/Helvetica-iso ff 254.00 scf sf
1395 585 m
gs 1 -1 sc (Saturated and) col9 sh gr
/Helvetica-iso ff 254.00 scf sf
1440 3015 m
gs 1 -1 sc (Saturated and) col22 sh gr
/Helvetica-iso ff 254.00 scf sf
1485 5445 m
gs 1 -1 sc (Unsaturated or inhibited) col4 sh gr
/Helvetica-iso ff 254.00 scf sf
1485 5760 m
gs 1 -1 sc (and low driving force) col4 sh gr
% here ends figure;
pagefooter
showpage
%%Trailer
%EOF
