<?xml version="1.0" encoding="UTF-8" standalone="no"?>
<!-- Created with Inkscape (http://www.inkscape.org/) -->

<svg
   version="1.1"
   id="svg2"
   xml:space="preserve"
   width="262.6626"
   height="224.6275"
   viewBox="0 0 262.6626 224.6275"
   sodipodi:docname="figure_1_2.svg"
   inkscape:version="1.1.2 (0a00cf5339, 2022-02-04)"
   xmlns:inkscape="http://www.inkscape.org/namespaces/inkscape"
   xmlns:sodipodi="http://sodipodi.sourceforge.net/DTD/sodipodi-0.dtd"
   xmlns="http://www.w3.org/2000/svg"
   xmlns:svg="http://www.w3.org/2000/svg"
   xmlns:rdf="http://www.w3.org/1999/02/22-rdf-syntax-ns#"
   xmlns:cc="http://creativecommons.org/ns#"
   xmlns:dc="http://purl.org/dc/elements/1.1/"><metadata
     id="metadata8"><rdf:RDF><cc:Work
         rdf:about=""><dc:format>image/svg+xml</dc:format><dc:type
           rdf:resource="http://purl.org/dc/dcmitype/StillImage" /></cc:Work></rdf:RDF></metadata><defs
     id="defs6"><marker
       style="overflow:visible"
       id="TriangleInM"
       refX="0"
       refY="0"
       orient="auto"
       inkscape:stockid="TriangleInM"
       inkscape:isstock="true"><path
         transform="scale(-0.4)"
         style="fill:context-stroke;fill-rule:evenodd;stroke:context-stroke;stroke-width:1pt"
         d="M 5.77,0 -2.88,5 V -5 Z"
         id="path1856" /></marker><marker
       style="overflow:visible"
       id="TriangleInS"
       refX="0"
       refY="0"
       orient="auto"
       inkscape:stockid="TriangleInS"
       inkscape:isstock="true"><path
         transform="scale(-0.2)"
         style="fill:context-stroke;fill-rule:evenodd;stroke:context-stroke;stroke-width:1pt"
         d="M 5.77,0 -2.88,5 V -5 Z"
         id="path1859" /></marker><marker
       style="overflow:visible"
       id="TriangleOutM"
       refX="0"
       refY="0"
       orient="auto"
       inkscape:stockid="TriangleOutM"
       inkscape:isstock="true"><path
         transform="scale(0.4)"
         style="fill:context-stroke;fill-rule:evenodd;stroke:context-stroke;stroke-width:1pt"
         d="M 5.77,0 -2.88,5 V -5 Z"
         id="path1865" /></marker><marker
       style="overflow:visible"
       id="TriangleOutL"
       refX="0"
       refY="0"
       orient="auto"
       inkscape:stockid="TriangleOutL"
       inkscape:isstock="true"><path
         transform="scale(0.8)"
         style="fill:context-stroke;fill-rule:evenodd;stroke:context-stroke;stroke-width:1pt"
         d="M 5.77,0 -2.88,5 V -5 Z"
         id="path1862" /></marker><marker
       style="overflow:visible"
       id="Arrow2Mend"
       refX="0"
       refY="0"
       orient="auto"
       inkscape:stockid="Arrow2Mend"
       inkscape:isstock="true"><path
         transform="scale(-0.6)"
         d="M 8.7185878,4.0337352 -2.2072895,0.01601326 8.7185884,-4.0017078 c -1.7454984,2.3720609 -1.7354408,5.6174519 -6e-7,8.035443 z"
         style="fill:context-stroke;fill-rule:evenodd;stroke:context-stroke;stroke-width:0.625;stroke-linejoin:round"
         id="path1747" /></marker></defs><sodipodi:namedview
     pagecolor="#ffffff"
     bordercolor="#666666"
     borderopacity="1"
     objecttolerance="10"
     gridtolerance="10"
     guidetolerance="10"
     inkscape:pageopacity="0"
     inkscape:pageshadow="2"
     inkscape:window-width="1846"
     inkscape:window-height="1136"
     id="namedview4"
     showgrid="false"
     inkscape:zoom="2.1613509"
     inkscape:cx="28.685763"
     inkscape:cy="111.73567"
     inkscape:window-x="0"
     inkscape:window-y="0"
     inkscape:window-maximized="1"
     inkscape:current-layer="g10"
     inkscape:pagecheckerboard="0"
     showguides="true"
     inkscape:guide-bbox="true"
     fit-margin-top="0"
     fit-margin-left="0"
     fit-margin-right="0"
     fit-margin-bottom="0"><inkscape:grid
       type="xygrid"
       id="grid1459"
       originx="-214.84975"
       originy="-12.76669" /><sodipodi:guide
       position="174.27838,204.78769"
       orientation="1,0"
       id="guide47855" /></sodipodi:namedview><g
     id="g10"
     inkscape:groupmode="layer"
     inkscape:label="mdf"
     transform="matrix(1.3333333,0,0,-1.3333333,-214.84975,236.74446)"><g
       transform="matrix(0.93137267,0,0,0.93137267,162.00154,180.36811)"
       id="g378"
       style="stroke-width:0.805263;stroke-miterlimit:4;stroke-dasharray:none"><path
         inkscape:connector-curvature="0"
         id="path380"
         style="fill:none;stroke:#231f20;stroke-width:0.805263;stroke-linecap:butt;stroke-linejoin:miter;stroke-miterlimit:4;stroke-dasharray:none;stroke-opacity:1"
         d="m 137.816,-146.098 h -122.3 v 106.993 h 0.566" /></g><g
       transform="matrix(0.93137267,0,0,0.93137267,162.00154,180.36811)"
       id="g382"
       style="stroke-width:1.07368"><path
         inkscape:connector-curvature="0"
         id="path384"
         style="fill:none;stroke:#999999;stroke-width:0.282447;stroke-linecap:butt;stroke-linejoin:miter;stroke-miterlimit:3.86369;stroke-dasharray:1.00658, 1.00658;stroke-dashoffset:0;stroke-opacity:1"
         d="M 15.516,-134.129 H 136.863" /></g><g
       transform="matrix(0.93137267,0,0,0.93137267,162.00154,180.36811)"
       id="g386"
       style="stroke-width:1.07368"><path
         inkscape:connector-curvature="0"
         id="path388"
         style="fill:none;stroke:#999999;stroke-width:0.282447;stroke-linecap:butt;stroke-linejoin:miter;stroke-miterlimit:3.86369;stroke-dasharray:1.00658, 1.00658;stroke-dashoffset:0;stroke-opacity:1"
         d="M 15.516,-110.504 H 136.863" /></g><g
       transform="matrix(0.93137267,0,0,0.93137267,162.00154,180.36811)"
       id="g390"
       style="stroke-width:1.07368"><path
         inkscape:connector-curvature="0"
         id="path392"
         style="fill:none;stroke:#999999;stroke-width:0.282447;stroke-linecap:butt;stroke-linejoin:miter;stroke-miterlimit:3.86369;stroke-dasharray:1.00658, 1.00658;stroke-dashoffset:0;stroke-opacity:1"
         d="M 15.516,-86.617 H 136.863" /></g><g
       transform="matrix(0.93137267,0,0,0.93137267,162.00154,180.36811)"
       id="g394"
       style="stroke-width:1.07368"><path
         inkscape:connector-curvature="0"
         id="path396"
         style="fill:none;stroke:#999999;stroke-width:0.282447;stroke-linecap:butt;stroke-linejoin:miter;stroke-miterlimit:3.86369;stroke-dasharray:1.00658, 1.00658;stroke-dashoffset:0;stroke-opacity:1"
         d="M 15.516,-62.73 H 136.863" /></g><g
       transform="matrix(0.93137267,0,0,0.93137267,162.00154,180.36811)"
       id="g398"
       style="stroke-width:1.07368"><path
         inkscape:connector-curvature="0"
         id="path400"
         style="fill:none;stroke:#999999;stroke-width:0.282447;stroke-linecap:butt;stroke-linejoin:miter;stroke-miterlimit:3.86369;stroke-dasharray:1.00658, 1.00658;stroke-dashoffset:0;stroke-opacity:1"
         d="M 15.516,-39.105 H 136.863" /></g><g
       transform="matrix(0.93137267,0,0,0.93137267,162.00154,180.36811)"
       id="g402"
       style="stroke-width:1.07368"><path
         inkscape:connector-curvature="0"
         id="path404"
         style="fill:none;stroke:#231f20;stroke-width:0.281842;stroke-linecap:butt;stroke-linejoin:miter;stroke-miterlimit:3.86371;stroke-dasharray:none;stroke-opacity:1"
         d="m 39.27,-146.098 v 1.313" /></g><g
       transform="matrix(0.93137267,0,0,0.93137267,162.00154,180.36811)"
       id="g406"
       style="stroke-width:1.07368"><path
         inkscape:connector-curvature="0"
         id="path408"
         style="fill:none;stroke:#231f20;stroke-width:0.281842;stroke-linecap:butt;stroke-linejoin:miter;stroke-miterlimit:3.86371;stroke-dasharray:none;stroke-opacity:1"
         d="m 63.684,-146.098 v 1.313" /></g><g
       transform="matrix(0.93137267,0,0,0.93137267,162.00154,180.36811)"
       id="g410"
       style="stroke-width:1.07368"><path
         inkscape:connector-curvature="0"
         id="path412"
         style="fill:none;stroke:#231f20;stroke-width:0.281842;stroke-linecap:butt;stroke-linejoin:miter;stroke-miterlimit:3.86371;stroke-dasharray:none;stroke-opacity:1"
         d="m 88.094,-146.098 v 1.313" /></g><g
       transform="matrix(0.93137267,0,0,0.93137267,162.00154,180.36811)"
       id="g414"
       style="stroke-width:1.07368"><path
         inkscape:connector-curvature="0"
         id="path416"
         style="fill:none;stroke:#231f20;stroke-width:0.281842;stroke-linecap:butt;stroke-linejoin:miter;stroke-miterlimit:3.86371;stroke-dasharray:none;stroke-opacity:1"
         d="m 112.508,-146.098 v 1.313" /></g><g
       transform="matrix(0.93137267,0,0,0.93137267,162.00154,180.36811)"
       id="g418"
       style="stroke-width:1.07368"><path
         inkscape:connector-curvature="0"
         id="path420"
         style="fill:none;stroke:#231f20;stroke-width:0.281842;stroke-linecap:butt;stroke-linejoin:miter;stroke-miterlimit:3.86371;stroke-dasharray:none;stroke-opacity:1"
         d="m 136.77,-146.098 v 1.313" /></g><g
       transform="matrix(0.93137267,0,0,0.93137267,162.00154,180.36811)"
       id="g422"
       style="fill:#d35f5f;stroke:#d35f5f;stroke-width:1.07368"><path
         inkscape:connector-curvature="0"
         id="path424"
         style="fill:#d35f5f;stroke:#d35f5f;stroke-width:1.93263;stroke-linecap:butt;stroke-linejoin:miter;stroke-miterlimit:3.86369;stroke-dasharray:none;stroke-opacity:1"
         d="m 115.27,-17.137 h 14.582" /></g><g
       transform="matrix(0.93137267,0,0,0.93137267,162.00154,180.36811)"
       id="g426"
       style="fill:#d35f5f;stroke:#d35f5f;stroke-width:1.07368"><path
         inkscape:connector-curvature="0"
         id="path428"
         style="fill:#d35f5f;fill-opacity:1;fill-rule:evenodd;stroke:#d35f5f;stroke-width:1.03074;stroke-linecap:butt;stroke-linejoin:miter;stroke-miterlimit:4;stroke-dasharray:none;stroke-opacity:1"
         d="m 134.004,-17.137 -6.227,3.602 v -7.199 z" /></g><g
       transform="matrix(0.93137267,0,0,0.93137267,162.00154,180.36811)"
       id="g430"
       style="fill:#d35f5f;stroke:#d35f5f;stroke-width:1.07368"><path
         inkscape:connector-curvature="0"
         id="path432"
         style="fill:#d35f5f;stroke:#d35f5f;stroke-width:0.966316;stroke-linecap:butt;stroke-linejoin:miter;stroke-miterlimit:3.86369;stroke-dasharray:none;stroke-opacity:1"
         d="M 134.902,-23.793 H 117.68" /></g><g
       transform="matrix(-0.93137267,0,0,-0.93137267,162.00154,180.36811)"
       id="g434"
       style="fill:#d35f5f;stroke:#d35f5f;stroke-width:1.07368"><path
         inkscape:connector-curvature="0"
         id="path436"
         style="fill:#d35f5f;fill-opacity:1;fill-rule:evenodd;stroke:#d35f5f;stroke-width:0.515368;stroke-linecap:butt;stroke-linejoin:miter;stroke-miterlimit:4;stroke-dasharray:none;stroke-opacity:1"
         d="m -115.602,23.793 -3.113,1.797 v -3.598 z" /></g><g
       transform="matrix(0.93137267,0,0,0.93137267,162.00154,180.36811)"
       id="g438"
       style="stroke-width:1.07368"><path
         inkscape:connector-curvature="0"
         id="path440"
         style="fill:none;stroke:#000000;stroke-width:1.20789;stroke-linecap:butt;stroke-linejoin:miter;stroke-miterlimit:3.86369;stroke-dasharray:none;stroke-opacity:1"
         d="m 115.301,-32.789 h 16.484" /></g><g
       transform="matrix(0.93137267,0,0,0.93137267,162.00154,180.36811)"
       id="g442"
       style="stroke-width:1.07368"><path
         inkscape:connector-curvature="0"
         id="path444"
         style="fill:#000000;fill-opacity:1;fill-rule:evenodd;stroke:#000000;stroke-width:0.64421;stroke-linecap:butt;stroke-linejoin:miter;stroke-miterlimit:4;stroke-dasharray:none;stroke-opacity:1"
         d="m 134.379,-32.789 -3.891,2.25 v -4.5 z" /></g><g
       transform="matrix(0.93137267,0,0,0.93137267,162.00154,180.36811)"
       id="g506"
       style="stroke-width:1.07368"><path
         inkscape:connector-curvature="0"
         id="path508"
         style="fill:none;stroke:#70a4d0;stroke-width:1.44947;stroke-linecap:butt;stroke-linejoin:miter;stroke-miterlimit:3.86369;stroke-dasharray:none;stroke-opacity:1"
         d="M 42.223,-163.102 H 58.188" /></g><g
       transform="matrix(0.93137267,0,0,0.93137267,162.00154,180.36811)"
       id="g510"
       style="stroke-width:1.07368"><path
         inkscape:connector-curvature="0"
         id="path512"
         style="fill:#70a4d0;fill-opacity:1;fill-rule:evenodd;stroke:#70a4d0;stroke-width:0.773053;stroke-linecap:butt;stroke-linejoin:miter;stroke-miterlimit:4;stroke-dasharray:none;stroke-opacity:1"
         d="m 61.305,-163.102 -4.672,2.7 v -5.399 z" /></g><g
       transform="matrix(0.93137267,0,0,0.93137267,162.00154,180.36811)"
       id="g514"
       style="stroke-width:1.07368"><path
         inkscape:connector-curvature="0"
         id="path516"
         style="fill:none;stroke:#70a4d0;stroke-width:4.83158;stroke-linecap:butt;stroke-linejoin:miter;stroke-miterlimit:3.86369;stroke-dasharray:none;stroke-opacity:1"
         d="m 115.27,-163.102 h 13.273" /></g><g
       transform="matrix(0.93137267,0,0,0.93137267,162.00154,180.36811)"
       id="g518"
       style="stroke-width:1.07368"><path
         inkscape:connector-curvature="0"
         id="path520"
         style="fill:#70a4d0;fill-opacity:1;fill-rule:evenodd;stroke:#70a4d0;stroke-width:1.28842;stroke-linecap:butt;stroke-linejoin:miter;stroke-miterlimit:4;stroke-dasharray:none;stroke-opacity:1"
         d="m 133.734,-163.102 -7.781,4.5 v -9 z" /></g><g
       transform="matrix(0.93137267,0,0,0.93137267,162.00154,180.36811)"
       id="g522"
       style="stroke-width:1.07368"><path
         inkscape:connector-curvature="0"
         id="path524"
         style="fill:none;stroke:#70a4d0;stroke-width:4.02632;stroke-linecap:butt;stroke-linejoin:miter;stroke-miterlimit:3.86369;stroke-dasharray:none;stroke-opacity:1"
         d="M 134.902,-169.992 H 120.434" /></g><g
       transform="matrix(-0.93137267,0,0,-0.93137267,162.00154,180.36811)"
       id="g526"
       style="stroke-width:1.07368"><path
         inkscape:connector-curvature="0"
         id="path528"
         style="fill:#70a4d0;fill-opacity:1;fill-rule:evenodd;stroke:#70a4d0;stroke-width:1.07368;stroke-linecap:butt;stroke-linejoin:miter;stroke-miterlimit:4;stroke-dasharray:none;stroke-opacity:1"
         d="m -116.105,169.992 -6.489,3.75 v -7.5 z" /></g><g
       transform="matrix(0.93137267,0,0,0.93137267,162.00154,180.36811)"
       id="g530"
       style="stroke-width:1.07368"><path
         inkscape:connector-curvature="0"
         id="path532"
         style="fill:none;stroke:#70a4d0;stroke-width:0.402632;stroke-linecap:butt;stroke-linejoin:miter;stroke-miterlimit:3.86369;stroke-dasharray:none;stroke-opacity:1"
         d="M 61.859,-169.992 H 43.73" /></g><g
       transform="matrix(-0.93137267,0,0,-0.93137267,162.00154,180.36811)"
       id="g534"
       style="stroke-width:1.07368"><path
         inkscape:connector-curvature="0"
         id="path536"
         style="fill:#70a4d0;fill-opacity:1;fill-rule:evenodd;stroke:#70a4d0;stroke-width:0.214737;stroke-linecap:butt;stroke-linejoin:miter;stroke-miterlimit:4;stroke-dasharray:none;stroke-opacity:1"
         d="m -42.867,169.992 -1.297,0.75 v -1.5 z" /></g><path
       inkscape:connector-curvature="0"
       id="path538"
       style="fill:#231f20;fill-opacity:1;fill-rule:nonzero;stroke:none;stroke-width:0.999996"
       d="m 177.81625,50.513933 v 2.896569 h 0.43682 v -0.436814 c 0.11642,0.20397 0.22259,0.338088 0.32039,0.407941 0.095,0.0652 0.19652,0.10152 0.30549,0.10152 0.1751,0 0.34181,-0.05495 0.50946,-0.160196 l -0.1602,-0.465687 c -0.12759,0.07637 -0.24774,0.116422 -0.36416,0.116422 -0.10897,0 -0.20304,-0.03632 -0.29059,-0.10152 -0.0876,-0.06892 -0.15275,-0.15647 -0.18907,-0.262647 -0.0512,-0.174167 -0.0727,-0.370686 -0.0727,-0.582108 v -1.51348 z" /><path
       inkscape:connector-curvature="0"
       id="path540"
       style="fill:#231f20;fill-opacity:1;fill-rule:nonzero;stroke:none;stroke-width:0.999996"
       d="m 181.67679,51.445305 0.50946,-0.05774 c -0.0875,-0.301765 -0.24029,-0.534608 -0.45078,-0.698529 -0.21515,-0.167647 -0.49177,-0.247745 -0.82985,-0.247745 -0.42937,0 -0.76746,0.131323 -1.01893,0.393039 -0.24402,0.261716 -0.36416,0.629608 -0.36416,1.106471 0,0.483382 0.12387,0.862451 0.37907,1.134412 0.25054,0.270098 0.57465,0.407941 0.97514,0.407941 0.38559,0 0.70226,-0.137843 0.94535,-0.407941 0.25147,-0.261716 0.37906,-0.632403 0.37906,-1.10554 0,-0.02887 -0.007,-0.07265 -0.0149,-0.131323 h -2.15426 c 0.0186,-0.319461 0.10617,-0.567206 0.26265,-0.742304 0.16299,-0.166716 0.36696,-0.246814 0.61098,-0.246814 0.18161,0 0.33808,0.0475 0.46568,0.145294 0.12387,0.095 0.22539,0.247745 0.30549,0.450784 z m -1.615,0.800981 h 1.615 c -0.0214,0.240294 -0.0838,0.421912 -0.18907,0.538333 -0.15647,0.192794 -0.36044,0.290589 -0.61098,0.290589 -0.22632,0 -0.41539,-0.07917 -0.56813,-0.232844 -0.1453,-0.145294 -0.22912,-0.345539 -0.24682,-0.596078 z" /><path
       inkscape:connector-curvature="0"
       id="path542"
       style="fill:#231f20;fill-opacity:1;fill-rule:nonzero;stroke:none;stroke-width:0.999996"
       d="m 184.68513,50.878099 c -0.17417,-0.15647 -0.34927,-0.269166 -0.52344,-0.334362 -0.16764,-0.06613 -0.34553,-0.102451 -0.53833,-0.102451 -0.32039,0 -0.56814,0.07637 -0.7423,0.232843 -0.16765,0.163921 -0.24775,0.367892 -0.24775,0.611912 0,0.134117 0.0298,0.261715 0.0875,0.378137 0.0652,0.116421 0.15275,0.207696 0.26172,0.276618 0.10617,0.07637 0.22259,0.134117 0.34926,0.174166 0.095,0.01863 0.2403,0.04378 0.43682,0.07265 0.39676,0.0475 0.68735,0.102451 0.87362,0.160196 0.007,0.06613 0.014,0.108971 0.014,0.131324 0,0.203971 -0.0503,0.341814 -0.14529,0.421912 -0.1276,0.116421 -0.31294,0.174167 -0.55324,0.174167 -0.23284,0 -0.40701,-0.04284 -0.52343,-0.130393 -0.10897,-0.0801 -0.18627,-0.218872 -0.23284,-0.421911 l -0.48059,0.05775 c 0.0363,0.211421 0.10525,0.381862 0.20397,0.50946 0.10525,0.123873 0.25054,0.221667 0.43682,0.29152 0.19279,0.0652 0.41446,0.10152 0.66872,0.10152 0.2403,0 0.44054,-0.02887 0.59701,-0.08755 0.15275,-0.05775 0.26544,-0.137843 0.33436,-0.232843 0.0764,-0.08755 0.13133,-0.19652 0.1602,-0.320393 0.0186,-0.08662 0.0289,-0.243088 0.0289,-0.465686 V 51.72193 c 0,-0.458235 0.007,-0.748824 0.0298,-0.872696 0.0177,-0.116422 0.0577,-0.229118 0.11642,-0.335294 h -0.50946 c -0.0512,0.106176 -0.0838,0.226323 -0.10245,0.364166 z m -0.0428,1.091569 c -0.1751,-0.0801 -0.44426,-0.141569 -0.80098,-0.189069 -0.19652,-0.02887 -0.33436,-0.0652 -0.42191,-0.102451 -0.0875,-0.02887 -0.15647,-0.08289 -0.20397,-0.159264 -0.0401,-0.06985 -0.0577,-0.146226 -0.0577,-0.232843 0,-0.127598 0.0475,-0.232844 0.1453,-0.320393 0.095,-0.08755 0.24029,-0.131323 0.43681,-0.131323 0.1928,0 0.36324,0.03632 0.50946,0.116421 0.1453,0.08755 0.25054,0.203971 0.31946,0.349265 0.0475,0.106177 0.0736,0.269167 0.0736,0.494559 z" /><path
       inkscape:connector-curvature="0"
       id="path544"
       style="fill:#231f20;fill-opacity:1;fill-rule:nonzero;stroke:none;stroke-width:0.999996"
       d="m 187.79591,51.576629 0.48059,-0.05774 c -0.0512,-0.342745 -0.18534,-0.608187 -0.40794,-0.800981 -0.21422,-0.185343 -0.47593,-0.276617 -0.78515,-0.276617 -0.40049,0 -0.72088,0.131323 -0.96118,0.393039 -0.24308,0.261716 -0.36323,0.633333 -0.36323,1.120441 0,0.309216 0.0475,0.582108 0.14529,0.814951 0.10525,0.232843 0.26544,0.407941 0.48059,0.524363 0.21049,0.123873 0.44333,0.189069 0.69853,0.189069 0.30922,0 0.55976,-0.08382 0.75628,-0.247745 0.20397,-0.156471 0.33529,-0.378138 0.39303,-0.668726 l -0.48058,-0.07358 c -0.0401,0.193725 -0.11643,0.339019 -0.23285,0.436813 -0.11642,0.095 -0.25799,0.145295 -0.42191,0.145295 -0.24309,0 -0.44333,-0.09407 -0.59608,-0.275687 -0.15647,-0.175098 -0.23284,-0.451716 -0.23284,-0.829853 0,-0.389314 0.0726,-0.677108 0.21794,-0.858725 0.14529,-0.174167 0.33809,-0.261716 0.58211,-0.261716 0.19279,0 0.35299,0.05775 0.48059,0.174167 0.13411,0.123872 0.21794,0.309215 0.24681,0.553235 z" /><path
       inkscape:connector-curvature="0"
       id="path546"
       style="fill:#231f20;fill-opacity:1;fill-rule:nonzero;stroke:none;stroke-width:0.999996"
       d="m 189.77508,50.950746 0.0726,-0.436813 c -0.13784,-0.02887 -0.26171,-0.04284 -0.37813,-0.04284 -0.17417,0 -0.31294,0.02887 -0.40701,0.08662 -0.0987,0.05868 -0.16765,0.131324 -0.20397,0.218873 -0.0401,0.09407 -0.0587,0.290588 -0.0587,0.582108 v 1.673676 h -0.36324 v 0.378138 h 0.36324 v 0.7125 l 0.48059,0.306421 v -1.018921 h 0.49456 V 53.03237 h -0.49456 v -1.70348 c 0,-0.137843 0.007,-0.225392 0.0289,-0.261716 0.0186,-0.04005 0.0475,-0.07265 0.0875,-0.10152 0.0363,-0.02235 0.0913,-0.02887 0.1602,-0.02887 0.0577,0 0.13132,0.0037 0.21794,0.01397 z" /><path
       inkscape:connector-curvature="0"
       id="path548"
       style="fill:#231f20;fill-opacity:1;fill-rule:nonzero;stroke:none;stroke-width:0.999996"
       d="m 190.26312,53.948835 v 0.567206 h 0.47965 v -0.567206 z m 0,-3.434902 v 2.896569 h 0.47965 v -2.896569 z" /><path
       inkscape:connector-curvature="0"
       id="path550"
       style="fill:#231f20;fill-opacity:1;fill-rule:nonzero;stroke:none;stroke-width:0.999996"
       d="m 191.31836,51.969668 c 0,0.530883 0.14902,0.931373 0.45079,1.193089 0.24029,0.211421 0.54206,0.320392 0.9025,0.320392 0.39583,0 0.71995,-0.131324 0.97514,-0.39304 0.25054,-0.261715 0.37814,-0.625882 0.37814,-1.091568 0,-0.370687 -0.0587,-0.662206 -0.1751,-0.872696 -0.10897,-0.215148 -0.26916,-0.385589 -0.47965,-0.509461 -0.21515,-0.116422 -0.44799,-0.175098 -0.69853,-0.175098 -0.40794,0 -0.73858,0.131323 -0.99005,0.393039 -0.24402,0.261716 -0.36324,0.640784 -0.36324,1.135343 z m 0.49456,0 c 0,-0.378137 0.0801,-0.662206 0.24681,-0.843823 0.16393,-0.185344 0.3679,-0.276618 0.61192,-0.276618 0.24029,0 0.44333,0.09127 0.61098,0.276618 0.16392,0.192794 0.24774,0.479656 0.24774,0.858725 0,0.355784 -0.0838,0.628677 -0.24774,0.814951 -0.16765,0.181618 -0.37069,0.275687 -0.61098,0.275687 -0.24402,0 -0.44799,-0.09407 -0.61192,-0.275687 -0.16671,-0.186274 -0.24681,-0.461961 -0.24681,-0.829853 z" /><path
       inkscape:connector-curvature="0"
       id="path552"
       style="fill:#231f20;fill-opacity:1;fill-rule:nonzero;stroke:none;stroke-width:0.999996"
       d="m 194.60331,50.513933 v 2.896569 h 0.45079 V 53.00256 c 0.21142,0.320393 0.51691,0.480589 0.9174,0.480589 0.17417,0 0.33436,-0.03632 0.47966,-0.10152 0.14622,-0.05868 0.25147,-0.1425 0.32039,-0.247745 0.0764,-0.09779 0.13132,-0.217941 0.1602,-0.364167 0.0177,-0.08662 0.0289,-0.246813 0.0289,-0.479657 v -1.776127 h -0.49456 v 1.761225 c 0,0.203971 -0.0223,0.352991 -0.0587,0.450785 -0.0289,0.095 -0.0978,0.175098 -0.20304,0.232843 -0.0987,0.05868 -0.21142,0.08755 -0.33529,0.08755 -0.21422,0 -0.39956,-0.06892 -0.55231,-0.203971 -0.14622,-0.126666 -0.21887,-0.374411 -0.21887,-0.741372 v -1.587059 z" /><path
       inkscape:connector-curvature="0"
       id="path554"
       style="fill:#231f20;fill-opacity:1;fill-rule:nonzero;stroke:none;stroke-width:0.999996"
       d="m 187.92723,44.925697 h -0.49455 v 3.129412 c -0.11643,-0.116422 -0.2729,-0.232843 -0.46569,-0.349265 -0.18628,-0.108971 -0.35672,-0.189069 -0.50946,-0.247745 v 0.480588 c 0.26916,0.123873 0.50946,0.280343 0.7125,0.465687 0.21142,0.181617 0.35671,0.363235 0.43681,0.538333 h 0.32039 z" /><g
       transform="matrix(0.93137267,0,0,0.93137267,162.00154,180.36811)"
       id="g556"
       style="stroke-width:1.07368"><path
         inkscape:connector-curvature="0"
         id="path558"
         style="fill:none;stroke:#999999;stroke-width:0.282447;stroke-linecap:butt;stroke-linejoin:miter;stroke-miterlimit:3.86369;stroke-dasharray:1.00658, 1.00658;stroke-dashoffset:0;stroke-opacity:1"
         d="M 39.43,-145.781 V -39.113" /></g><g
       transform="matrix(0.93137267,0,0,0.93137267,162.00154,180.36811)"
       id="g560"
       style="stroke-width:1.07368"><path
         inkscape:connector-curvature="0"
         id="path562"
         style="fill:none;stroke:#999999;stroke-width:0.282447;stroke-linecap:butt;stroke-linejoin:miter;stroke-miterlimit:3.86369;stroke-dasharray:1.00658, 1.00658;stroke-dashoffset:0;stroke-opacity:1"
         d="M 63.805,-145.781 V -39.113" /></g><g
       transform="matrix(0.93137267,0,0,0.93137267,162.00154,180.36811)"
       id="g564"
       style="stroke-width:1.07368"><path
         inkscape:connector-curvature="0"
         id="path566"
         style="fill:none;stroke:#999999;stroke-width:0.282447;stroke-linecap:butt;stroke-linejoin:miter;stroke-miterlimit:3.86369;stroke-dasharray:1.00658, 1.00658;stroke-dashoffset:0;stroke-opacity:1"
         d="M 88.18,-145.781 V -39.113" /></g><g
       transform="matrix(0.93137267,0,0,0.93137267,162.00154,180.36811)"
       id="g568"
       style="stroke-width:1.07368"><path
         inkscape:connector-curvature="0"
         id="path570"
         style="fill:none;stroke:#999999;stroke-width:0.282447;stroke-linecap:butt;stroke-linejoin:miter;stroke-miterlimit:3.86369;stroke-dasharray:1.00658, 1.00658;stroke-dashoffset:0;stroke-opacity:1"
         d="M 112.555,-145.781 V -39.113" /></g><g
       transform="matrix(0.93137267,0,0,0.93137267,162.00154,180.36811)"
       id="g572"
       style="stroke-width:1.07368"><path
         inkscape:connector-curvature="0"
         id="path574"
         style="fill:none;stroke:#999999;stroke-width:0.282447;stroke-linecap:butt;stroke-linejoin:miter;stroke-miterlimit:3.86369;stroke-dasharray:1.00658, 1.00658;stroke-dashoffset:0;stroke-opacity:1"
         d="M 136.93,-145.781 V -39.113" /></g><g
       transform="matrix(0.93137267,0,0,0.93137267,162.00154,180.36811)"
       id="g576"
       style="stroke-width:1.07368"><path
         inkscape:connector-curvature="0"
         id="path578"
         style="fill:none;stroke:#70a4d0;stroke-width:4.83158;stroke-linecap:butt;stroke-linejoin:miter;stroke-miterlimit:3.86369;stroke-dasharray:none;stroke-opacity:1"
         d="M 90.922,-163.102 H 104.32" /></g><g
       transform="matrix(0.93137267,0,0,0.93137267,162.00154,180.36811)"
       id="g580"
       style="stroke-width:1.07368"><path
         inkscape:connector-curvature="0"
         id="path582"
         style="fill:#70a4d0;fill-opacity:1;fill-rule:evenodd;stroke:#70a4d0;stroke-width:1.28842;stroke-linecap:butt;stroke-linejoin:miter;stroke-miterlimit:4;stroke-dasharray:none;stroke-opacity:1"
         d="m 109.512,-163.102 -7.782,4.5 v -9 z" /></g><g
       transform="matrix(0.93137267,0,0,0.93137267,162.00154,180.36811)"
       id="g584"
       style="stroke-width:1.07368"><path
         inkscape:connector-curvature="0"
         id="path586"
         style="fill:none;stroke:#70a4d0;stroke-width:4.02632;stroke-linecap:butt;stroke-linejoin:miter;stroke-miterlimit:3.86369;stroke-dasharray:none;stroke-opacity:1"
         d="M 110.555,-169.992 H 96.184" /></g><g
       transform="matrix(-0.93137267,0,0,-0.93137267,162.00154,180.36811)"
       id="g588"
       style="stroke-width:1.07368"><path
         inkscape:connector-curvature="0"
         id="path590"
         style="fill:#70a4d0;fill-opacity:1;fill-rule:evenodd;stroke:#70a4d0;stroke-width:1.07368;stroke-linecap:butt;stroke-linejoin:miter;stroke-miterlimit:4;stroke-dasharray:none;stroke-opacity:1"
         d="m -91.855,169.992 -6.489,3.75 v -7.5 z" /></g><g
       transform="matrix(0.93137267,0,0,0.93137267,162.00154,180.36811)"
       id="g592"
       style="stroke-width:1.07368"><path
         inkscape:connector-curvature="0"
         id="path594"
         style="fill:none;stroke:#70a4d0;stroke-width:4.83158;stroke-linecap:butt;stroke-linejoin:miter;stroke-miterlimit:3.86369;stroke-dasharray:none;stroke-opacity:1"
         d="M 66.574,-163.102 H 80.078" /></g><g
       transform="matrix(0.93137267,0,0,0.93137267,162.00154,180.36811)"
       id="g596"
       style="stroke-width:1.07368"><path
         inkscape:connector-curvature="0"
         id="path598"
         style="fill:#70a4d0;fill-opacity:1;fill-rule:evenodd;stroke:#70a4d0;stroke-width:1.28842;stroke-linecap:butt;stroke-linejoin:miter;stroke-miterlimit:4;stroke-dasharray:none;stroke-opacity:1"
         d="m 85.27,-163.102 -7.786,4.5 v -9 z" /></g><g
       transform="matrix(0.93137267,0,0,0.93137267,162.00154,180.36811)"
       id="g600"
       style="stroke-width:1.07368"><path
         inkscape:connector-curvature="0"
         id="path602"
         style="fill:none;stroke:#70a4d0;stroke-width:4.02632;stroke-linecap:butt;stroke-linejoin:miter;stroke-miterlimit:3.86369;stroke-dasharray:none;stroke-opacity:1"
         d="M 86.254,-169.992 H 70.945" /></g><g
       transform="matrix(-0.93137267,0,0,-0.93137267,162.00154,180.36811)"
       id="g604"
       style="stroke-width:1.07368"><path
         inkscape:connector-curvature="0"
         id="path606"
         style="fill:#70a4d0;fill-opacity:1;fill-rule:evenodd;stroke:#70a4d0;stroke-width:1.07368;stroke-linecap:butt;stroke-linejoin:miter;stroke-miterlimit:4;stroke-dasharray:none;stroke-opacity:1"
         d="m -66.617,169.992 -6.488,3.75 v -7.5 z" /></g><g
       transform="matrix(0.93137267,0,0,0.93137267,162.00154,180.36811)"
       id="g608"
       style="stroke-width:1.07368"><path
         inkscape:connector-curvature="0"
         id="path610"
         style="fill:none;stroke:#70a4d0;stroke-width:1.44947;stroke-linecap:butt;stroke-linejoin:miter;stroke-miterlimit:3.86369;stroke-dasharray:none;stroke-opacity:1"
         d="M 17.785,-163.102 H 34.047" /></g><g
       transform="matrix(0.93137267,0,0,0.93137267,162.00154,180.36811)"
       id="g612"
       style="stroke-width:1.07368"><path
         inkscape:connector-curvature="0"
         id="path614"
         style="fill:#70a4d0;fill-opacity:1;fill-rule:evenodd;stroke:#70a4d0;stroke-width:0.773053;stroke-linecap:butt;stroke-linejoin:miter;stroke-miterlimit:4;stroke-dasharray:none;stroke-opacity:1"
         d="m 37.16,-163.102 -4.668,2.7 v -5.399 z" /></g><g
       transform="matrix(0.93137267,0,0,0.93137267,162.00154,180.36811)"
       id="g616"
       style="stroke-width:1.07368"><path
         inkscape:connector-curvature="0"
         id="path618"
         style="fill:none;stroke:#70a4d0;stroke-width:0.402632;stroke-linecap:butt;stroke-linejoin:miter;stroke-miterlimit:3.86369;stroke-dasharray:none;stroke-opacity:1"
         d="M 37.512,-169.992 H 19.32" /></g><g
       transform="matrix(-0.93137267,0,0,-0.93137267,162.00154,180.36811)"
       id="g620"
       style="stroke-width:1.07368"><path
         inkscape:connector-curvature="0"
         id="path622"
         style="fill:#70a4d0;fill-opacity:1;fill-rule:evenodd;stroke:#70a4d0;stroke-width:0.214737;stroke-linecap:butt;stroke-linejoin:miter;stroke-miterlimit:4;stroke-dasharray:none;stroke-opacity:1"
         d="m -18.457,169.992 -1.297,0.75 v -1.5 z" /></g><g
       transform="matrix(0.93137267,0,0,0.93137267,162.00154,180.36811)"
       id="g624"
       style="fill:#d35f5f;stroke:#d35f5f;stroke-width:1.07368"><path
         inkscape:connector-curvature="0"
         id="path626"
         style="fill:#d35f5f;stroke:#d35f5f;stroke-width:1.93263;stroke-linecap:butt;stroke-linejoin:miter;stroke-miterlimit:3.86369;stroke-dasharray:none;stroke-opacity:1"
         d="m 90.922,-17.137 h 14.637" /></g><g
       transform="matrix(0.93137267,0,0,0.93137267,162.00154,180.36811)"
       id="g628"
       style="fill:#d35f5f;stroke:#d35f5f;stroke-width:1.07368"><path
         inkscape:connector-curvature="0"
         id="path630"
         style="fill:#d35f5f;fill-opacity:1;fill-rule:evenodd;stroke:#d35f5f;stroke-width:1.03074;stroke-linecap:butt;stroke-linejoin:miter;stroke-miterlimit:4;stroke-dasharray:none;stroke-opacity:1"
         d="m 109.711,-17.137 -6.227,3.602 v -7.199 z" /></g><g
       transform="matrix(0.93137267,0,0,0.93137267,162.00154,180.36811)"
       id="g632"
       style="fill:#d35f5f;stroke:#d35f5f;stroke-width:1.07368"><path
         inkscape:connector-curvature="0"
         id="path634"
         style="fill:#d35f5f;stroke:#d35f5f;stroke-width:0.966316;stroke-linecap:butt;stroke-linejoin:miter;stroke-miterlimit:3.86369;stroke-dasharray:none;stroke-opacity:1"
         d="M 110.555,-23.793 H 93.477" /></g><g
       transform="matrix(-0.93137267,0,0,-0.93137267,162.00154,180.36811)"
       id="g636"
       style="fill:#d35f5f;stroke:#d35f5f;stroke-width:1.07368"><path
         inkscape:connector-curvature="0"
         id="path638"
         style="fill:#d35f5f;fill-opacity:1;fill-rule:evenodd;stroke:#d35f5f;stroke-width:0.515368;stroke-linecap:butt;stroke-linejoin:miter;stroke-miterlimit:4;stroke-dasharray:none;stroke-opacity:1"
         d="m -91.398,23.793 -3.114,1.797 v -3.598 z" /></g><g
       transform="matrix(0.93137267,0,0,0.93137267,162.00154,180.36811)"
       id="g640"
       style="stroke-width:1.07368"><path
         inkscape:connector-curvature="0"
         id="path642"
         style="fill:none;stroke:#000000;stroke-width:1.20789;stroke-linecap:butt;stroke-linejoin:miter;stroke-miterlimit:3.86369;stroke-dasharray:none;stroke-opacity:1"
         d="m 90.926,-32.789 h 16.402" /></g><g
       transform="matrix(0.93137267,0,0,0.93137267,162.00154,180.36811)"
       id="g644"
       style="stroke-width:1.07368"><path
         inkscape:connector-curvature="0"
         id="path646"
         style="fill:#000000;fill-opacity:1;fill-rule:evenodd;stroke:#000000;stroke-width:0.64421;stroke-linecap:butt;stroke-linejoin:miter;stroke-miterlimit:4;stroke-dasharray:none;stroke-opacity:1"
         d="m 109.926,-32.789 -3.895,2.25 v -4.5 z" /></g><g
       transform="matrix(0.93137267,0,0,0.93137267,162.00154,180.36811)"
       id="g648"
       style="fill:#d35f5f;stroke:#d35f5f;stroke-width:1.07368"><path
         inkscape:connector-curvature="0"
         id="path650"
         style="fill:#d35f5f;stroke:#d35f5f;stroke-width:1.93263;stroke-linecap:butt;stroke-linejoin:miter;stroke-miterlimit:3.86369;stroke-dasharray:none;stroke-opacity:1"
         d="M 66.574,-17.137 H 81.137" /></g><g
       transform="matrix(0.93137267,0,0,0.93137267,162.00154,180.36811)"
       id="g652"
       style="fill:#d35f5f;stroke:#d35f5f;stroke-width:1.07368"><path
         inkscape:connector-curvature="0"
         id="path654"
         style="fill:#d35f5f;fill-opacity:1;fill-rule:evenodd;stroke:#d35f5f;stroke-width:1.03074;stroke-linecap:butt;stroke-linejoin:miter;stroke-miterlimit:4;stroke-dasharray:none;stroke-opacity:1"
         d="m 85.293,-17.137 -6.231,3.602 v -7.199 z" /></g><g
       transform="matrix(0.93137267,0,0,0.93137267,162.00154,180.36811)"
       id="g656"
       style="fill:#d35f5f;stroke:#d35f5f;stroke-width:1.07368"><path
         inkscape:connector-curvature="0"
         id="path658"
         style="fill:#d35f5f;stroke:#d35f5f;stroke-width:0.966316;stroke-linecap:butt;stroke-linejoin:miter;stroke-miterlimit:3.86369;stroke-dasharray:none;stroke-opacity:1"
         d="M 86.254,-23.793 H 69.148" /></g><g
       transform="matrix(-0.93137267,0,0,-0.93137267,162.00154,180.36811)"
       id="g660"
       style="fill:#d35f5f;stroke:#d35f5f;stroke-width:1.07368"><path
         inkscape:connector-curvature="0"
         id="path662"
         style="fill:#d35f5f;fill-opacity:1;fill-rule:evenodd;stroke:#d35f5f;stroke-width:0.515368;stroke-linecap:butt;stroke-linejoin:miter;stroke-miterlimit:4;stroke-dasharray:none;stroke-opacity:1"
         d="m -67.07,23.793 -3.114,1.797 v -3.598 z" /></g><g
       transform="matrix(0.93137267,0,0,0.93137267,162.00154,180.36811)"
       id="g664"
       style="stroke-width:1.07368"><path
         inkscape:connector-curvature="0"
         id="path666"
         style="fill:none;stroke:#000000;stroke-width:1.20789;stroke-linecap:butt;stroke-linejoin:miter;stroke-miterlimit:3.86369;stroke-dasharray:none;stroke-opacity:1"
         d="M 66.551,-32.789 H 83.047" /></g><g
       transform="matrix(0.93137267,0,0,0.93137267,162.00154,180.36811)"
       id="g668"
       style="stroke-width:1.07368"><path
         inkscape:connector-curvature="0"
         id="path670"
         style="fill:#000000;fill-opacity:1;fill-rule:evenodd;stroke:#000000;stroke-width:0.64421;stroke-linecap:butt;stroke-linejoin:miter;stroke-miterlimit:4;stroke-dasharray:none;stroke-opacity:1"
         d="m 85.641,-32.789 -3.891,2.25 v -4.5 z" /></g><g
       transform="matrix(0.93137267,0,0,0.93137267,162.00154,180.36811)"
       id="g672"
       style="fill:#d35f5f;stroke:#d35f5f;stroke-width:1.07368"><path
         inkscape:connector-curvature="0"
         id="path674"
         style="fill:#d35f5f;stroke:#d35f5f;stroke-width:1.93263;stroke-linecap:butt;stroke-linejoin:miter;stroke-miterlimit:3.86369;stroke-dasharray:none;stroke-opacity:1"
         d="M 42.223,-17.137 H 56.824" /></g><g
       transform="matrix(0.93137267,0,0,0.93137267,162.00154,180.36811)"
       id="g676"
       style="fill:#d35f5f;stroke:#d35f5f;stroke-width:1.07368"><path
         inkscape:connector-curvature="0"
         id="path678"
         style="fill:#d35f5f;fill-opacity:1;fill-rule:evenodd;stroke:#d35f5f;stroke-width:1.03074;stroke-linecap:butt;stroke-linejoin:miter;stroke-miterlimit:4;stroke-dasharray:none;stroke-opacity:1"
         d="m 60.977,-17.137 -6.227,3.602 v -7.199 z" /></g><g
       transform="matrix(0.93137267,0,0,0.93137267,162.00154,180.36811)"
       id="g680"
       style="fill:#d35f5f;stroke:#d35f5f;stroke-width:1.07368"><path
         inkscape:connector-curvature="0"
         id="path682"
         style="fill:#d35f5f;stroke:#d35f5f;stroke-width:0.966316;stroke-linecap:butt;stroke-linejoin:miter;stroke-miterlimit:3.86369;stroke-dasharray:none;stroke-opacity:1"
         d="M 61.859,-23.793 H 44.637" /></g><g
       transform="matrix(-0.93137267,0,0,-0.93137267,162.00154,180.36811)"
       id="g684"
       style="fill:#d35f5f;stroke:#d35f5f;stroke-width:1.07368"><path
         inkscape:connector-curvature="0"
         id="path686"
         style="fill:#d35f5f;fill-opacity:1;fill-rule:evenodd;stroke:#d35f5f;stroke-width:0.515368;stroke-linecap:butt;stroke-linejoin:miter;stroke-miterlimit:4;stroke-dasharray:none;stroke-opacity:1"
         d="m -42.559,23.793 -3.113,1.797 v -3.598 z" /></g><g
       transform="matrix(0.93137267,0,0,0.93137267,162.00154,180.36811)"
       id="g688"
       style="stroke-width:1.07368"><path
         inkscape:connector-curvature="0"
         id="path690"
         style="fill:none;stroke:#000000;stroke-width:1.20789;stroke-linecap:butt;stroke-linejoin:miter;stroke-miterlimit:3.86369;stroke-dasharray:none;stroke-opacity:1"
         d="M 42.176,-32.789 H 58.762" /></g><g
       transform="matrix(0.93137267,0,0,0.93137267,162.00154,180.36811)"
       id="g692"
       style="stroke-width:1.07368"><path
         inkscape:connector-curvature="0"
         id="path694"
         style="fill:#000000;fill-opacity:1;fill-rule:evenodd;stroke:#000000;stroke-width:0.64421;stroke-linecap:butt;stroke-linejoin:miter;stroke-miterlimit:4;stroke-dasharray:none;stroke-opacity:1"
         d="m 61.359,-32.789 -3.894,2.25 v -4.5 z" /></g><g
       transform="matrix(0.93137267,0,0,0.93137267,162.00154,180.36811)"
       id="g696"
       style="fill:#d35f5f;stroke:#d35f5f;stroke-width:1.07368"><path
         inkscape:connector-curvature="0"
         id="path698"
         style="fill:#d35f5f;stroke:#d35f5f;stroke-width:1.93263;stroke-linecap:butt;stroke-linejoin:miter;stroke-miterlimit:3.86369;stroke-dasharray:none;stroke-opacity:1"
         d="M 17.785,-17.137 H 32.582" /></g><g
       transform="matrix(0.93137267,0,0,0.93137267,162.00154,180.36811)"
       id="g700"
       style="fill:#d35f5f;stroke:#d35f5f;stroke-width:1.07368"><path
         inkscape:connector-curvature="0"
         id="path702"
         style="fill:#d35f5f;fill-opacity:1;fill-rule:evenodd;stroke:#d35f5f;stroke-width:1.03074;stroke-linecap:butt;stroke-linejoin:miter;stroke-miterlimit:4;stroke-dasharray:none;stroke-opacity:1"
         d="m 36.734,-17.137 -6.226,3.602 v -7.199 z" /></g><g
       transform="matrix(0.93137267,0,0,0.93137267,162.00154,180.36811)"
       id="g704"
       style="fill:#d35f5f;stroke:#d35f5f;stroke-width:1.07368"><path
         inkscape:connector-curvature="0"
         id="path706"
         style="fill:#d35f5f;stroke:#d35f5f;stroke-width:0.966316;stroke-linecap:butt;stroke-linejoin:miter;stroke-miterlimit:3.86369;stroke-dasharray:none;stroke-opacity:1"
         d="M 37.512,-23.793 H 20.305" /></g><g
       transform="matrix(-0.93137267,0,0,-0.93137267,162.00154,180.36811)"
       id="g708"
       style="fill:#d35f5f;stroke:#d35f5f;stroke-width:1.07368"><path
         inkscape:connector-curvature="0"
         id="path710"
         style="fill:#d35f5f;fill-opacity:1;fill-rule:evenodd;stroke:#d35f5f;stroke-width:0.515368;stroke-linecap:butt;stroke-linejoin:miter;stroke-miterlimit:4;stroke-dasharray:none;stroke-opacity:1"
         d="m -18.23,23.793 -3.114,1.797 v -3.598 z" /></g><g
       transform="matrix(0.93137267,0,0,0.93137267,162.00154,180.36811)"
       id="g712"
       style="stroke-width:1.07368"><path
         inkscape:connector-curvature="0"
         id="path714"
         style="fill:none;stroke:#000000;stroke-width:1.20789;stroke-linecap:butt;stroke-linejoin:miter;stroke-miterlimit:3.86369;stroke-dasharray:none;stroke-opacity:1"
         d="M 17.801,-32.789 H 34.297" /></g><g
       transform="matrix(0.93137267,0,0,0.93137267,162.00154,180.36811)"
       id="g716"
       style="stroke-width:1.07368"><path
         inkscape:connector-curvature="0"
         id="path718"
         style="fill:#000000;fill-opacity:1;fill-rule:evenodd;stroke:#000000;stroke-width:0.64421;stroke-linecap:butt;stroke-linejoin:miter;stroke-miterlimit:4;stroke-dasharray:none;stroke-opacity:1"
         d="M 36.891,-32.789 33,-30.539 v -4.5 z" /></g><path
       inkscape:connector-curvature="0"
       id="path720"
       style="fill:#d38d5f;fill-opacity:1;fill-rule:nonzero;stroke:none;stroke-width:0.999996"
       d="m 272.63465,16.119271 h 11.73716 c 1.80779,0 3.27377,-1.46598 3.27377,-3.274706 0,-1.807794 -1.46598,-3.2737749 -3.27377,-3.2737749 h -11.73716 c -1.8078,0 -3.27378,1.4659809 -3.27378,3.2737749 0,1.808726 1.46598,3.274706 3.27378,3.274706" /><path
       inkscape:connector-curvature="0"
       id="path756"
       style="fill:#d38d5f;fill-opacity:1;fill-rule:nonzero;stroke:none;stroke-width:0.999996"
       d="m 249.95852,16.119271 h 11.73622 c 1.8078,0 3.27471,-1.46598 3.27471,-3.274706 0,-1.807794 -1.46691,-3.2737749 -3.27471,-3.2737749 h -11.73622 c -1.80873,0 -3.27471,1.4659809 -3.27471,3.2737749 0,1.808726 1.46598,3.274706 3.27471,3.274706" /><path
       inkscape:connector-curvature="0"
       id="path758"
       style="fill:#d38d5f;fill-opacity:1;fill-rule:nonzero;stroke:none;stroke-width:0.999996"
       d="m 227.28145,16.119271 h 11.78001 c 1.80872,0 3.2747,-1.46598 3.2747,-3.274706 0,-1.807794 -1.46598,-3.2737749 -3.2747,-3.2737749 h -11.78001 c -1.80872,0 -3.2747,1.4659809 -3.2747,3.2737749 0,1.808726 1.46598,3.274706 3.2747,3.274706" /><path
       inkscape:connector-curvature="0"
       id="path760"
       style="fill:#d38d5f;fill-opacity:1;fill-rule:nonzero;stroke:none;stroke-width:0.999996"
       d="m 210.68719,16.119271 c 1.36446,0 2.47466,-1.46598 2.47466,-3.274706 0,-1.807794 -1.1102,-3.2737749 -2.47466,-3.2737749 -1.36726,0 -2.47745,1.4659809 -2.47745,3.2737749 0,1.808726 1.11019,3.274706 2.47745,3.274706" /><path
       inkscape:connector-curvature="0"
       id="path762"
       style="fill:#d38d5f;fill-opacity:1;fill-rule:nonzero;stroke:none;stroke-width:0.999996"
       d="m 188.41807,16.119271 c 1.36446,0 2.47465,-1.46598 2.47465,-3.274706 0,-1.807794 -1.11019,-3.2737749 -2.47465,-3.2737749 -1.36726,0 -2.47745,1.4659809 -2.47745,3.2737749 0,1.808726 1.11019,3.274706 2.47745,3.274706" /><path
       inkscape:connector-curvature="0"
       id="path764"
       style="fill:#d38d5f;fill-opacity:1;fill-rule:nonzero;stroke:none;stroke-width:0.999996"
       d="m 277.7572,176.61341 h 2.11421 c 1.8078,0 3.27378,-1.46598 3.27378,-3.27471 0,-1.81152 -1.46598,-3.27377 -3.27378,-3.27377 h -2.11421 c -1.8078,0 -3.27378,1.46225 -3.27378,3.27377 0,1.80873 1.46598,3.27471 3.27378,3.27471" /><path
       inkscape:connector-curvature="0"
       id="path800"
       style="fill:#d38d5f;fill-opacity:1;fill-rule:nonzero;stroke:none;stroke-width:0.999996"
       d="m 254.9246,176.61341 h 2.11328 c 1.80779,0 3.27471,-1.46598 3.27471,-3.27471 0,-1.81152 -1.46692,-3.27377 -3.27471,-3.27377 h -2.11328 c -1.80873,0 -3.27471,1.46225 -3.27471,3.27377 0,1.80873 1.46598,3.27471 3.27471,3.27471" /><path
       inkscape:connector-curvature="0"
       id="path802"
       style="fill:#d38d5f;fill-opacity:1;fill-rule:nonzero;stroke:none;stroke-width:0.999996"
       d="m 232.09106,176.61341 h 2.11329 c 1.80872,0 3.2747,-1.46598 3.2747,-3.27471 0,-1.81152 -1.46598,-3.27377 -3.2747,-3.27377 h -2.11329 c -1.80872,0 -3.2747,1.46225 -3.2747,3.27377 0,1.80873 1.46598,3.27471 3.2747,3.27471" /><path
       inkscape:connector-curvature="0"
       id="path804"
       style="fill:#d38d5f;fill-opacity:1;fill-rule:nonzero;stroke:none;stroke-width:0.999996"
       d="m 209.25753,176.61341 h 2.11422 c 1.80779,0 3.27377,-1.46598 3.27377,-3.27471 0,-1.81152 -1.46598,-3.27377 -3.27377,-3.27377 h -2.11422 c -1.80779,0 -3.27377,1.46225 -3.27377,3.27377 0,1.80873 1.46598,3.27471 3.27377,3.27471" /><path
       inkscape:connector-curvature="0"
       id="path806"
       style="fill:#d38d5f;fill-opacity:1;fill-rule:nonzero;stroke:none;stroke-width:0.999996"
       d="m 186.42493,176.61341 h 2.11328 c 1.80873,0 3.27471,-1.46598 3.27471,-3.27471 0,-1.81152 -1.46598,-3.27377 -3.27471,-3.27377 h -2.11328 c -1.80873,0 -3.27471,1.46225 -3.27471,3.27377 0,1.80873 1.46598,3.27471 3.27471,3.27471" /><path
       inkscape:connector-curvature="0"
       id="path876"
       style="fill:#231f20;fill-opacity:1;fill-rule:nonzero;stroke:none;stroke-width:0.999996"
       d="m 200.47189,50.513933 v 2.896569 h 0.43589 v -0.436814 c 0.11642,0.20397 0.22259,0.338088 0.32039,0.407941 0.095,0.0652 0.19652,0.10152 0.30549,0.10152 0.1751,0 0.34181,-0.05495 0.50946,-0.160196 l -0.1602,-0.465687 c -0.12666,0.07637 -0.24681,0.116422 -0.36323,0.116422 -0.10991,0 -0.20397,-0.03632 -0.29152,-0.10152 -0.0875,-0.06892 -0.15275,-0.15647 -0.18907,-0.262647 -0.0512,-0.174167 -0.0726,-0.370686 -0.0726,-0.582108 v -1.51348 z" /><path
       inkscape:connector-curvature="0"
       id="path878"
       style="fill:#231f20;fill-opacity:1;fill-rule:nonzero;stroke:none;stroke-width:0.999996"
       d="m 204.3315,51.445305 0.50946,-0.05774 c -0.0875,-0.301765 -0.24029,-0.534608 -0.45078,-0.698529 -0.21515,-0.167647 -0.49177,-0.247745 -0.82986,-0.247745 -0.42936,0 -0.76745,0.131323 -1.01892,0.393039 -0.24309,0.261716 -0.36323,0.629608 -0.36323,1.106471 0,0.483382 0.12387,0.862451 0.37813,1.134412 0.25054,0.270098 0.57466,0.407941 0.97515,0.407941 0.38559,0 0.70226,-0.137843 0.94535,-0.407941 0.25147,-0.261716 0.37906,-0.632403 0.37906,-1.10554 0,-0.02887 -0.007,-0.07265 -0.0149,-0.131323 h -2.15333 c 0.0177,-0.319461 0.10524,-0.567206 0.26171,-0.742304 0.16393,-0.166716 0.36696,-0.246814 0.61098,-0.246814 0.18162,0 0.33809,0.0475 0.46569,0.145294 0.12387,0.095 0.22539,0.247745 0.30549,0.450784 z m -1.615,0.800981 h 1.615 c -0.0214,0.240294 -0.0838,0.421912 -0.18907,0.538333 -0.15647,0.192794 -0.36044,0.290589 -0.61098,0.290589 -0.22539,0 -0.41446,-0.07917 -0.56814,-0.232844 -0.14529,-0.145294 -0.22911,-0.345539 -0.24681,-0.596078 z" /><path
       inkscape:connector-curvature="0"
       id="path880"
       style="fill:#231f20;fill-opacity:1;fill-rule:nonzero;stroke:none;stroke-width:0.999996"
       d="m 207.34077,50.878099 c -0.1751,-0.15647 -0.34927,-0.269166 -0.52437,-0.334362 -0.16671,-0.06613 -0.34554,-0.102451 -0.53833,-0.102451 -0.32039,0 -0.56721,0.07637 -0.7423,0.232843 -0.16765,0.163921 -0.24682,0.367892 -0.24682,0.611912 0,0.134117 0.0289,0.261715 0.0866,0.378137 0.0661,0.116421 0.15274,0.207696 0.26265,0.276618 0.10524,0.07637 0.22166,0.134117 0.34926,0.174166 0.0941,0.01863 0.23936,0.04378 0.43588,0.07265 0.39677,0.0475 0.68829,0.102451 0.87363,0.160196 0.007,0.06613 0.014,0.108971 0.014,0.131324 0,0.203971 -0.0503,0.341814 -0.14529,0.421912 -0.1276,0.116421 -0.31294,0.174167 -0.55324,0.174167 -0.23284,0 -0.40701,-0.04284 -0.52343,-0.130393 -0.10897,-0.0801 -0.18534,-0.218872 -0.23284,-0.421911 l -0.48059,0.05775 c 0.0363,0.211421 0.10618,0.381862 0.20397,0.50946 0.10525,0.123873 0.25147,0.221667 0.43681,0.29152 0.1928,0.0652 0.41446,0.10152 0.66966,0.10152 0.23936,0 0.43961,-0.02887 0.59608,-0.08755 0.15274,-0.05775 0.26544,-0.137843 0.33529,-0.232843 0.0764,-0.08755 0.1304,-0.19652 0.15927,-0.320393 0.0186,-0.08662 0.0298,-0.243088 0.0298,-0.465686 V 51.72193 c 0,-0.458235 0.007,-0.748824 0.0289,-0.872696 0.0177,-0.116422 0.0577,-0.229118 0.11643,-0.335294 h -0.50946 c -0.0512,0.106176 -0.0838,0.226323 -0.10152,0.364166 z m -0.0438,1.091569 c -0.1751,-0.0801 -0.44426,-0.141569 -0.80098,-0.189069 -0.19652,-0.02887 -0.33436,-0.0652 -0.42191,-0.102451 -0.0866,-0.02887 -0.15647,-0.08289 -0.20304,-0.159264 -0.0401,-0.06985 -0.0587,-0.146226 -0.0587,-0.232843 0,-0.127598 0.0475,-0.232844 0.1453,-0.320393 0.095,-0.08755 0.24029,-0.131323 0.43681,-0.131323 0.1928,0 0.36417,0.03632 0.50946,0.116421 0.1453,0.08755 0.25054,0.203971 0.32039,0.349265 0.0466,0.106177 0.0726,0.269167 0.0726,0.494559 z" /><path
       inkscape:connector-curvature="0"
       id="path882"
       style="fill:#231f20;fill-opacity:1;fill-rule:nonzero;stroke:none;stroke-width:0.999996"
       d="m 210.45155,51.576629 0.47966,-0.05774 c -0.0512,-0.342745 -0.18535,-0.608187 -0.40701,-0.800981 -0.21515,-0.185343 -0.47686,-0.276617 -0.78608,-0.276617 -0.40049,0 -0.72088,0.131323 -0.96025,0.393039 -0.24402,0.261716 -0.36416,0.633333 -0.36416,1.120441 0,0.309216 0.0475,0.582108 0.14529,0.814951 0.10618,0.232843 0.26544,0.407941 0.48059,0.524363 0.21049,0.123873 0.44333,0.189069 0.69853,0.189069 0.30922,0 0.55975,-0.08382 0.75627,-0.247745 0.20397,-0.156471 0.3353,-0.378138 0.39304,-0.668726 l -0.47965,-0.07358 c -0.0401,0.193725 -0.11643,0.339019 -0.23285,0.436813 -0.11642,0.095 -0.25892,0.145295 -0.42191,0.145295 -0.24402,0 -0.44426,-0.09407 -0.59701,-0.275687 -0.15647,-0.175098 -0.23284,-0.451716 -0.23284,-0.829853 0,-0.389314 0.0727,-0.677108 0.21794,-0.858725 0.14622,-0.174167 0.33902,-0.261716 0.58211,-0.261716 0.19279,0 0.35299,0.05775 0.48059,0.174167 0.13411,0.123872 0.21794,0.309215 0.24774,0.553235 z" /><path
       inkscape:connector-curvature="0"
       id="path884"
       style="fill:#231f20;fill-opacity:1;fill-rule:nonzero;stroke:none;stroke-width:0.999996"
       d="m 212.43072,50.950746 0.0726,-0.436813 c -0.13877,-0.02887 -0.26264,-0.04284 -0.37906,-0.04284 -0.17417,0 -0.31295,0.02887 -0.40701,0.08662 -0.0987,0.05868 -0.16765,0.131324 -0.20397,0.218873 -0.04,0.09407 -0.0577,0.290588 -0.0577,0.582108 v 1.673676 h -0.36417 v 0.378138 h 0.36417 v 0.7125 l 0.47966,0.306421 v -1.018921 h 0.49549 V 53.03237 h -0.49549 v -1.70348 c 0,-0.137843 0.007,-0.225392 0.0298,-0.261716 0.0177,-0.04005 0.0466,-0.07265 0.0866,-0.10152 0.0363,-0.02235 0.0913,-0.02887 0.1602,-0.02887 0.0587,0 0.13132,0.0037 0.21887,0.01397 z" /><path
       inkscape:connector-curvature="0"
       id="path886"
       style="fill:#231f20;fill-opacity:1;fill-rule:nonzero;stroke:none;stroke-width:0.999996"
       d="m 212.91783,53.948835 v 0.567206 h 0.48058 v -0.567206 z m 0,-3.434902 v 2.896569 h 0.48058 v -2.896569 z" /><path
       inkscape:connector-curvature="0"
       id="path888"
       style="fill:#231f20;fill-opacity:1;fill-rule:nonzero;stroke:none;stroke-width:0.999996"
       d="m 213.97307,51.969668 c 0,0.530883 0.14902,0.931373 0.45079,1.193089 0.24029,0.211421 0.54205,0.320392 0.9025,0.320392 0.39676,0 0.71995,-0.131324 0.97514,-0.39304 0.25054,-0.261715 0.37814,-0.625882 0.37814,-1.091568 0,-0.370687 -0.0577,-0.662206 -0.17417,-0.872696 -0.1099,-0.215148 -0.27009,-0.385589 -0.48059,-0.509461 -0.21514,-0.116422 -0.44799,-0.175098 -0.69852,-0.175098 -0.40795,0 -0.73858,0.131323 -0.99005,0.393039 -0.24309,0.261716 -0.36324,0.640784 -0.36324,1.135343 z m 0.49456,0 c 0,-0.378137 0.0801,-0.662206 0.24774,-0.843823 0.163,-0.185344 0.36697,-0.276618 0.61099,-0.276618 0.24029,0 0.44333,0.09127 0.61098,0.276618 0.16392,0.192794 0.24774,0.479656 0.24774,0.858725 0,0.355784 -0.0838,0.628677 -0.24774,0.814951 -0.16765,0.181618 -0.37069,0.275687 -0.61098,0.275687 -0.24402,0 -0.44799,-0.09407 -0.61099,-0.275687 -0.16764,-0.186274 -0.24774,-0.461961 -0.24774,-0.829853 z" /><path
       inkscape:connector-curvature="0"
       id="path890"
       style="fill:#231f20;fill-opacity:1;fill-rule:nonzero;stroke:none;stroke-width:0.999996"
       d="m 217.25802,50.513933 v 2.896569 h 0.45079 V 53.00256 c 0.21142,0.320393 0.51691,0.480589 0.9174,0.480589 0.17417,0 0.33436,-0.03632 0.47966,-0.10152 0.14622,-0.05868 0.25147,-0.1425 0.32039,-0.247745 0.0764,-0.09779 0.13132,-0.217941 0.16019,-0.364167 0.0186,-0.08662 0.0289,-0.246813 0.0289,-0.479657 v -1.776127 h -0.49456 v 1.761225 c 0,0.203971 -0.0214,0.352991 -0.0577,0.450785 -0.0298,0.095 -0.0987,0.175098 -0.20397,0.232843 -0.0987,0.05868 -0.21142,0.08755 -0.33436,0.08755 -0.21515,0 -0.40049,-0.06892 -0.55324,-0.203971 -0.14529,-0.126666 -0.21887,-0.374411 -0.21887,-0.741372 v -1.587059 z" /><path
       inkscape:connector-curvature="0"
       id="path892"
       style="fill:#231f20;fill-opacity:1;fill-rule:nonzero;stroke:none;stroke-width:0.999996"
       d="m 211.30935,45.391383 v -0.465686 h -2.63393 c -0.0102,0.116421 0.007,0.226323 0.0587,0.335294 0.0652,0.181617 0.17417,0.363235 0.32039,0.538333 0.1453,0.174167 0.35579,0.378138 0.63985,0.610981 0.43682,0.349264 0.72741,0.625882 0.87363,0.829853 0.15275,0.21049 0.23285,0.410735 0.23285,0.596078 0,0.203971 -0.0699,0.367892 -0.20398,0.49549 -0.13877,0.134118 -0.31666,0.20304 -0.53833,0.20304 -0.24402,0 -0.43681,-0.07265 -0.58211,-0.217941 -0.13877,-0.137844 -0.20397,-0.330638 -0.20397,-0.582108 l -0.50946,0.05868 c 0.0363,0.366961 0.16765,0.647304 0.39304,0.843824 0.22167,0.20397 0.52343,0.30549 0.9025,0.30549 0.38559,0 0.69108,-0.108971 0.91647,-0.320392 0.22167,-0.214216 0.33437,-0.475932 0.33437,-0.786079 0,-0.166715 -0.0363,-0.326912 -0.10152,-0.479657 -0.0689,-0.15647 -0.18162,-0.320392 -0.33437,-0.494559 -0.14622,-0.167647 -0.39304,-0.40049 -0.7423,-0.698529 -0.30177,-0.24402 -0.49456,-0.407941 -0.58211,-0.49549 -0.0801,-0.08662 -0.1425,-0.181618 -0.18907,-0.276618 z" /><path
       inkscape:connector-curvature="0"
       id="path894"
       style="fill:#231f20;fill-opacity:1;fill-rule:nonzero;stroke:none;stroke-width:0.999996"
       d="m 223.1266,50.513933 v 2.896569 h 0.43682 v -0.436814 c 0.11642,0.20397 0.22166,0.338088 0.31946,0.407941 0.095,0.0652 0.19652,0.10152 0.30642,0.10152 0.17416,0 0.34181,-0.05495 0.50853,-0.160196 l -0.15927,-0.465687 c -0.1276,0.07637 -0.24774,0.116422 -0.36416,0.116422 -0.10897,0 -0.20397,-0.03632 -0.29152,-0.10152 -0.0866,-0.06892 -0.15275,-0.15647 -0.18907,-0.262647 -0.0503,-0.174167 -0.0727,-0.370686 -0.0727,-0.582108 v -1.51348 z" /><path
       inkscape:connector-curvature="0"
       id="path896"
       style="fill:#231f20;fill-opacity:1;fill-rule:nonzero;stroke:none;stroke-width:0.999996"
       d="m 226.98621,51.445305 0.50946,-0.05774 c -0.0866,-0.301765 -0.24029,-0.534608 -0.45078,-0.698529 -0.21515,-0.167647 -0.49084,-0.247745 -0.82986,-0.247745 -0.42936,0 -0.76745,0.131323 -1.01799,0.393039 -0.24402,0.261716 -0.36416,0.629608 -0.36416,1.106471 0,0.483382 0.12387,0.862451 0.37813,1.134412 0.25147,0.270098 0.57466,0.407941 0.97515,0.407941 0.38559,0 0.70226,-0.137843 0.94628,-0.407941 0.25053,-0.261716 0.37813,-0.632403 0.37813,-1.10554 0,-0.02887 -0.007,-0.07265 -0.0149,-0.131323 h -2.15333 c 0.0177,-0.319461 0.10524,-0.567206 0.26171,-0.742304 0.16392,-0.166716 0.36789,-0.246814 0.61098,-0.246814 0.18255,0 0.33902,0.0475 0.46569,0.145294 0.12387,0.095 0.22632,0.247745 0.30549,0.450784 z m -1.615,0.800981 h 1.615 c -0.0214,0.240294 -0.0829,0.421912 -0.18907,0.538333 -0.15647,0.192794 -0.35951,0.290589 -0.61098,0.290589 -0.22539,0 -0.41446,-0.07917 -0.56721,-0.232844 -0.14622,-0.145294 -0.22911,-0.345539 -0.24774,-0.596078 z" /><path
       inkscape:connector-curvature="0"
       id="path898"
       style="fill:#231f20;fill-opacity:1;fill-rule:nonzero;stroke:none;stroke-width:0.999996"
       d="m 229.99547,50.878099 c -0.17509,-0.15647 -0.34926,-0.269166 -0.52436,-0.334362 -0.16671,-0.06613 -0.34554,-0.102451 -0.53833,-0.102451 -0.31946,0 -0.56721,0.07637 -0.74231,0.232843 -0.16671,0.163921 -0.24681,0.367892 -0.24681,0.611912 0,0.134117 0.0289,0.261715 0.0875,0.378137 0.0652,0.116421 0.15275,0.207696 0.26172,0.276618 0.10524,0.07637 0.22166,0.134117 0.34926,0.174166 0.0941,0.01863 0.24029,0.04378 0.43681,0.07265 0.39584,0.0475 0.68736,0.102451 0.8727,0.160196 0.007,0.06613 0.0149,0.108971 0.0149,0.131324 0,0.203971 -0.0512,0.341814 -0.14622,0.421912 -0.12667,0.116421 -0.31294,0.174167 -0.55231,0.174167 -0.23284,0 -0.40794,-0.04284 -0.52436,-0.130393 -0.10897,-0.0801 -0.18534,-0.218872 -0.23284,-0.421911 l -0.47966,0.05775 c 0.0363,0.211421 0.10525,0.381862 0.20304,0.50946 0.10618,0.123873 0.25147,0.221667 0.43681,0.29152 0.1928,0.0652 0.41446,0.10152 0.66966,0.10152 0.24029,0 0.43961,-0.02887 0.59608,-0.08755 0.15274,-0.05775 0.26637,-0.137843 0.33529,-0.232843 0.0764,-0.08755 0.13039,-0.19652 0.1602,-0.320393 0.0177,-0.08662 0.0289,-0.243088 0.0289,-0.465686 V 51.72193 c 0,-0.458235 0.007,-0.748824 0.0289,-0.872696 0.0186,-0.116422 0.0587,-0.229118 0.11643,-0.335294 H 230.097 c -0.0503,0.106176 -0.0838,0.226323 -0.10152,0.364166 z m -0.0438,1.091569 c -0.17417,-0.0801 -0.44426,-0.141569 -0.80005,-0.189069 -0.19652,-0.02887 -0.33529,-0.0652 -0.42191,-0.102451 -0.0875,-0.02887 -0.15647,-0.08289 -0.20397,-0.159264 -0.0401,-0.06985 -0.0587,-0.146226 -0.0587,-0.232843 0,-0.127598 0.0475,-0.232844 0.14623,-0.320393 0.0941,-0.08755 0.23936,-0.131323 0.43588,-0.131323 0.19279,0 0.36417,0.03632 0.50946,0.116421 0.1453,0.08755 0.25147,0.203971 0.32039,0.349265 0.0475,0.106177 0.0726,0.269167 0.0726,0.494559 z" /><path
       inkscape:connector-curvature="0"
       id="path900"
       style="fill:#231f20;fill-opacity:1;fill-rule:nonzero;stroke:none;stroke-width:0.999996"
       d="m 233.10626,51.576629 0.47966,-0.05774 c -0.0503,-0.342745 -0.18535,-0.608187 -0.40701,-0.800981 -0.21515,-0.185343 -0.47687,-0.276617 -0.78608,-0.276617 -0.40049,0 -0.71995,0.131323 -0.96025,0.393039 -0.24402,0.261716 -0.36416,0.633333 -0.36416,1.120441 0,0.309216 0.0475,0.582108 0.14529,0.814951 0.10618,0.232843 0.26637,0.407941 0.48059,0.524363 0.21142,0.123873 0.44426,0.189069 0.69853,0.189069 0.30921,0 0.56068,-0.08382 0.7572,-0.247745 0.20304,-0.156471 0.33437,-0.378138 0.39211,-0.668726 l -0.47965,-0.07358 c -0.0401,0.193725 -0.11643,0.339019 -0.23285,0.436813 -0.11642,0.095 -0.25799,0.145295 -0.42191,0.145295 -0.24402,0 -0.44426,-0.09407 -0.59701,-0.275687 -0.15647,-0.175098 -0.23284,-0.451716 -0.23284,-0.829853 0,-0.389314 0.0726,-0.677108 0.21887,-0.858725 0.14529,-0.174167 0.33809,-0.261716 0.58118,-0.261716 0.19372,0 0.35299,0.05775 0.48058,0.174167 0.13505,0.123872 0.21795,0.309215 0.24775,0.553235 z" /><path
       inkscape:connector-curvature="0"
       id="path902"
       style="fill:#231f20;fill-opacity:1;fill-rule:nonzero;stroke:none;stroke-width:0.999996"
       d="m 235.08543,50.950746 0.0726,-0.436813 c -0.13877,-0.02887 -0.26171,-0.04284 -0.37813,-0.04284 -0.1751,0 -0.31294,0.02887 -0.40794,0.08662 -0.0978,0.05868 -0.16765,0.131324 -0.20398,0.218873 -0.04,0.09407 -0.0577,0.290588 -0.0577,0.582108 v 1.673676 h -0.36417 v 0.378138 h 0.36417 v 0.7125 l 0.48059,0.306421 v -1.018921 h 0.49456 V 53.03237 h -0.49456 v -1.70348 c 0,-0.137843 0.007,-0.225392 0.0289,-0.261716 0.0177,-0.04005 0.0475,-0.07265 0.0866,-0.10152 0.0373,-0.02235 0.0913,-0.02887 0.16019,-0.02887 0.0587,0 0.13133,0.0037 0.21888,0.01397 z" /><path
       inkscape:connector-curvature="0"
       id="path904"
       style="fill:#231f20;fill-opacity:1;fill-rule:nonzero;stroke:none;stroke-width:0.999996"
       d="m 235.57253,53.948835 v 0.567206 h 0.48059 v -0.567206 z m 0,-3.434902 v 2.896569 h 0.48059 v -2.896569 z" /><path
       inkscape:connector-curvature="0"
       id="path906"
       style="fill:#231f20;fill-opacity:1;fill-rule:nonzero;stroke:none;stroke-width:0.999996"
       d="m 236.62778,51.969668 c 0,0.530883 0.14902,0.931373 0.45078,1.193089 0.2403,0.211421 0.54206,0.320392 0.9025,0.320392 0.39677,0 0.72089,-0.131324 0.97515,-0.39304 0.25147,-0.261715 0.37814,-0.625882 0.37814,-1.091568 0,-0.370687 -0.0577,-0.662206 -0.17417,-0.872696 -0.10897,-0.215148 -0.26916,-0.385589 -0.48059,-0.509461 -0.21421,-0.116422 -0.44706,-0.175098 -0.69853,-0.175098 -0.40701,0 -0.73857,0.131323 -0.98911,0.393039 -0.24402,0.261716 -0.36417,0.640784 -0.36417,1.135343 z m 0.49456,0 c 0,-0.378137 0.0801,-0.662206 0.24774,-0.843823 0.16393,-0.185344 0.36696,-0.276618 0.61098,-0.276618 0.2403,0 0.44427,0.09127 0.61098,0.276618 0.16393,0.192794 0.24775,0.479656 0.24775,0.858725 0,0.355784 -0.0838,0.628677 -0.24775,0.814951 -0.16671,0.181618 -0.37068,0.275687 -0.61098,0.275687 -0.24402,0 -0.44705,-0.09407 -0.61098,-0.275687 -0.16764,-0.186274 -0.24774,-0.461961 -0.24774,-0.829853 z" /><path
       inkscape:connector-curvature="0"
       id="path908"
       style="fill:#231f20;fill-opacity:1;fill-rule:nonzero;stroke:none;stroke-width:0.999996"
       d="m 239.91273,50.513933 v 2.896569 h 0.45172 V 53.00256 c 0.21049,0.320393 0.51598,0.480589 0.91647,0.480589 0.1751,0 0.33436,-0.03632 0.48059,-0.10152 0.14529,-0.05868 0.25054,-0.1425 0.31946,-0.247745 0.0764,-0.09779 0.13132,-0.217941 0.16019,-0.364167 0.0186,-0.08662 0.0298,-0.246813 0.0298,-0.479657 v -1.776127 h -0.49549 v 1.761225 c 0,0.203971 -0.0214,0.352991 -0.0577,0.450785 -0.0289,0.095 -0.0987,0.175098 -0.20397,0.232843 -0.0978,0.05868 -0.21049,0.08755 -0.33436,0.08755 -0.21515,0 -0.40049,-0.06892 -0.55324,-0.203971 -0.14529,-0.126666 -0.21794,-0.374411 -0.21794,-0.741372 v -1.587059 z" /><path
       inkscape:connector-curvature="0"
       id="path910"
       style="fill:#231f20;fill-opacity:1;fill-rule:nonzero;stroke:none;stroke-width:0.999996"
       d="m 231.38881,45.988393 0.49456,0.05868 c 0.0587,-0.284068 0.15274,-0.488039 0.29152,-0.611912 0.13411,-0.116421 0.29804,-0.174166 0.49456,-0.174166 0.23284,0 0.42563,0.07637 0.5821,0.232843 0.15275,0.163922 0.23285,0.363235 0.23285,0.596078 0,0.232844 -0.0726,0.422844 -0.21794,0.568138 -0.14623,0.145294 -0.33157,0.217941 -0.55324,0.217941 -0.0987,0 -0.21515,-0.02142 -0.34926,-0.05774 l 0.0438,0.435882 c 0.0363,-0.01025 0.0652,-0.01397 0.0876,-0.01397 0.20304,0 0.38559,0.05123 0.5523,0.160196 0.1751,0.116421 0.26172,0.283137 0.26172,0.509461 0,0.181617 -0.0652,0.334362 -0.18907,0.450784 -0.11642,0.116422 -0.27289,0.174167 -0.46569,0.174167 -0.19652,0 -0.35578,-0.05774 -0.47965,-0.174167 -0.1276,-0.116422 -0.21142,-0.298039 -0.24775,-0.538333 l -0.48059,0.08755 c 0.0587,0.326911 0.19373,0.582108 0.40794,0.756274 0.21143,0.181618 0.47314,0.276618 0.78608,0.276618 0.22167,0 0.42564,-0.05123 0.61098,-0.145294 0.18162,-0.08755 0.32412,-0.215147 0.42192,-0.379069 0.095,-0.166716 0.14529,-0.334363 0.14529,-0.508529 0,-0.175098 -0.0503,-0.335294 -0.14529,-0.480589 -0.0876,-0.137843 -0.2254,-0.247745 -0.40701,-0.334362 0.23284,-0.05868 0.41073,-0.175098 0.53833,-0.349265 0.13412,-0.167647 0.20304,-0.379069 0.20304,-0.640785 0,-0.349264 -0.12667,-0.647304 -0.37814,-0.887598 -0.25426,-0.244019 -0.57466,-0.364166 -0.96024,-0.364166 -0.36045,0 -0.65476,0.102451 -0.8876,0.30549 -0.22539,0.211421 -0.35672,0.488039 -0.39304,0.829853 z" /><path
       inkscape:connector-curvature="0"
       id="path912"
       style="fill:#231f20;fill-opacity:1;fill-rule:nonzero;stroke:none;stroke-width:0.999996"
       d="m 245.78131,50.513933 v 2.896569 h 0.43681 v -0.436814 c 0.11643,0.20397 0.22167,0.338088 0.3204,0.407941 0.0941,0.0652 0.19652,0.10152 0.30549,0.10152 0.17416,0 0.34181,-0.05495 0.50946,-0.160196 l -0.1602,-0.465687 c -0.1276,0.07637 -0.24774,0.116422 -0.36417,0.116422 -0.10897,0 -0.20397,-0.03632 -0.29058,-0.10152 -0.0875,-0.06892 -0.15275,-0.15647 -0.19,-0.262647 -0.0503,-0.174167 -0.0727,-0.370686 -0.0727,-0.582108 v -1.51348 z" /><path
       inkscape:connector-curvature="0"
       id="path914"
       style="fill:#231f20;fill-opacity:1;fill-rule:nonzero;stroke:none;stroke-width:0.999996"
       d="m 249.64185,51.445305 0.50946,-0.05774 c -0.0875,-0.301765 -0.24029,-0.534608 -0.45171,-0.698529 -0.21422,-0.167647 -0.49084,-0.247745 -0.82893,-0.247745 -0.42936,0 -0.76838,0.131323 -1.01892,0.393039 -0.24402,0.261716 -0.36416,0.629608 -0.36416,1.106471 0,0.483382 0.12387,0.862451 0.37813,1.134412 0.25147,0.270098 0.57559,0.407941 0.97515,0.407941 0.38559,0 0.70225,-0.137843 0.94627,-0.407941 0.25054,-0.261716 0.37814,-0.632403 0.37814,-1.10554 0,-0.02887 -0.007,-0.07265 -0.014,-0.131323 h -2.15426 c 0.0186,-0.319461 0.10524,-0.567206 0.26171,-0.742304 0.16392,-0.166716 0.36789,-0.246814 0.61191,-0.246814 0.18162,0 0.33809,0.0475 0.46569,0.145294 0.12294,0.095 0.22539,0.247745 0.30549,0.450784 z m -1.61593,0.800981 h 1.61593 c -0.0224,0.240294 -0.0838,0.421912 -0.18907,0.538333 -0.15647,0.192794 -0.36044,0.290589 -0.61191,0.290589 -0.22539,0 -0.41446,-0.07917 -0.56721,-0.232844 -0.14529,-0.145294 -0.22911,-0.345539 -0.24774,-0.596078 z" /><path
       inkscape:connector-curvature="0"
       id="path916"
       style="fill:#231f20;fill-opacity:1;fill-rule:nonzero;stroke:none;stroke-width:0.999996"
       d="m 252.65018,50.878099 c -0.17416,-0.15647 -0.34926,-0.269166 -0.52343,-0.334362 -0.16764,-0.06613 -0.34554,-0.102451 -0.53833,-0.102451 -0.32039,0 -0.56814,0.07637 -0.74231,0.232843 -0.16764,0.163921 -0.24774,0.367892 -0.24774,0.611912 0,0.134117 0.0289,0.261715 0.0876,0.378137 0.0652,0.116421 0.15274,0.207696 0.26171,0.276618 0.10525,0.07637 0.22167,0.134117 0.34927,0.174166 0.095,0.01863 0.24029,0.04378 0.43681,0.07265 0.39677,0.0475 0.68736,0.102451 0.8727,0.160196 0.007,0.06613 0.0149,0.108971 0.0149,0.131324 0,0.203971 -0.0512,0.341814 -0.14529,0.421912 -0.1276,0.116421 -0.31294,0.174167 -0.55324,0.174167 -0.23284,0 -0.40794,-0.04284 -0.52436,-0.130393 -0.10897,-0.0801 -0.18534,-0.218872 -0.23284,-0.421911 l -0.47966,0.05775 c 0.0363,0.211421 0.10524,0.381862 0.20397,0.50946 0.10524,0.123873 0.25054,0.221667 0.43588,0.29152 0.1928,0.0652 0.41539,0.10152 0.66966,0.10152 0.24029,0 0.44054,-0.02887 0.59701,-0.08755 0.15274,-0.05775 0.26544,-0.137843 0.33436,-0.232843 0.0764,-0.08755 0.13132,-0.19652 0.1602,-0.320393 0.0177,-0.08662 0.0289,-0.243088 0.0289,-0.465686 V 51.72193 c 0,-0.458235 0.007,-0.748824 0.0289,-0.872696 0.0186,-0.116422 0.0587,-0.229118 0.11642,-0.335294 h -0.50853 c -0.0512,0.106176 -0.0838,0.226323 -0.10245,0.364166 z m -0.0438,1.091569 c -0.17417,-0.0801 -0.44333,-0.141569 -0.80005,-0.189069 -0.19652,-0.02887 -0.33529,-0.0652 -0.42191,-0.102451 -0.0875,-0.02887 -0.15647,-0.08289 -0.20397,-0.159264 -0.04,-0.06985 -0.0577,-0.146226 -0.0577,-0.232843 0,-0.127598 0.0466,-0.232844 0.1453,-0.320393 0.0941,-0.08755 0.24029,-0.131323 0.43588,-0.131323 0.19372,0 0.36417,0.03632 0.50946,0.116421 0.14623,0.08755 0.25147,0.203971 0.32039,0.349265 0.0475,0.106177 0.0727,0.269167 0.0727,0.494559 z" /><path
       inkscape:connector-curvature="0"
       id="path918"
       style="fill:#231f20;fill-opacity:1;fill-rule:nonzero;stroke:none;stroke-width:0.999996"
       d="m 255.76097,51.576629 0.48059,-0.05774 c -0.0512,-0.342745 -0.18628,-0.608187 -0.40794,-0.800981 -0.21422,-0.185343 -0.47687,-0.276617 -0.78608,-0.276617 -0.39956,0 -0.71995,0.131323 -0.96025,0.393039 -0.24402,0.261716 -0.36416,0.633333 -0.36416,1.120441 0,0.309216 0.0475,0.582108 0.14622,0.814951 0.10525,0.232843 0.26544,0.407941 0.47966,0.524363 0.21142,0.123873 0.44426,0.189069 0.69853,0.189069 0.30921,0 0.56068,-0.08382 0.7572,-0.247745 0.20397,-0.156471 0.33437,-0.378138 0.39304,-0.668726 l -0.48059,-0.07358 c -0.04,0.193725 -0.11642,0.339019 -0.23284,0.436813 -0.11642,0.095 -0.25799,0.145295 -0.42191,0.145295 -0.24402,0 -0.44427,-0.09407 -0.59701,-0.275687 -0.15647,-0.175098 -0.23284,-0.451716 -0.23284,-0.829853 0,-0.389314 0.0726,-0.677108 0.21887,-0.858725 0.14529,-0.174167 0.33809,-0.261716 0.58211,-0.261716 0.19279,0 0.35299,0.05775 0.47965,0.174167 0.13505,0.123872 0.21888,0.309215 0.24775,0.553235 z" /><path
       inkscape:connector-curvature="0"
       id="path920"
       style="fill:#231f20;fill-opacity:1;fill-rule:nonzero;stroke:none;stroke-width:0.999996"
       d="m 257.74014,50.950746 0.0726,-0.436813 c -0.13784,-0.02887 -0.26171,-0.04284 -0.37813,-0.04284 -0.1751,0 -0.31295,0.02887 -0.40795,0.08662 -0.0978,0.05868 -0.16671,0.131324 -0.20304,0.218873 -0.04,0.09407 -0.0587,0.290588 -0.0587,0.582108 v 1.673676 h -0.36417 v 0.378138 h 0.36417 v 0.7125 l 0.48059,0.306421 v -1.018921 h 0.49456 V 53.03237 h -0.49456 v -1.70348 c 0,-0.137843 0.007,-0.225392 0.0289,-0.261716 0.0177,-0.04005 0.0475,-0.07265 0.0876,-0.10152 0.0363,-0.02235 0.0903,-0.02887 0.16019,-0.02887 0.0577,0 0.1304,0.0037 0.21795,0.01397 z" /><path
       inkscape:connector-curvature="0"
       id="path922"
       style="fill:#231f20;fill-opacity:1;fill-rule:nonzero;stroke:none;stroke-width:0.999996"
       d="m 258.22724,53.948835 v 0.567206 h 0.48059 v -0.567206 z m 0,-3.434902 v 2.896569 h 0.48059 v -2.896569 z" /><path
       inkscape:connector-curvature="0"
       id="path924"
       style="fill:#231f20;fill-opacity:1;fill-rule:nonzero;stroke:none;stroke-width:0.999996"
       d="m 259.28249,51.969668 c 0,0.530883 0.14902,0.931373 0.45171,1.193089 0.23937,0.211421 0.54206,0.320392 0.90157,0.320392 0.39677,0 0.72089,-0.131324 0.97515,-0.39304 0.25147,-0.261715 0.37814,-0.625882 0.37814,-1.091568 0,-0.370687 -0.0577,-0.662206 -0.17417,-0.872696 -0.10897,-0.215148 -0.26917,-0.385589 -0.48059,-0.509461 -0.21421,-0.116422 -0.44706,-0.175098 -0.69853,-0.175098 -0.40701,0 -0.73858,0.131323 -0.98911,0.393039 -0.24402,0.261716 -0.36417,0.640784 -0.36417,1.135343 z m 0.49456,0 c 0,-0.378137 0.0801,-0.662206 0.24774,-0.843823 0.16392,-0.185344 0.36789,-0.276618 0.61098,-0.276618 0.2403,0 0.44427,0.09127 0.61191,0.276618 0.163,0.192794 0.24682,0.479656 0.24682,0.858725 0,0.355784 -0.0838,0.628677 -0.24682,0.814951 -0.16764,0.181618 -0.37161,0.275687 -0.61191,0.275687 -0.24309,0 -0.44706,-0.09407 -0.61098,-0.275687 -0.16764,-0.186274 -0.24774,-0.461961 -0.24774,-0.829853 z" /><path
       inkscape:connector-curvature="0"
       id="path926"
       style="fill:#231f20;fill-opacity:1;fill-rule:nonzero;stroke:none;stroke-width:0.999996"
       d="m 262.56837,50.513933 v 2.896569 h 0.45079 V 53.00256 c 0.21142,0.320393 0.51691,0.480589 0.91647,0.480589 0.17509,0 0.33529,-0.03632 0.48058,-0.10152 0.1453,-0.05868 0.25054,-0.1425 0.3204,-0.247745 0.0764,-0.09779 0.13039,-0.217941 0.16019,-0.364167 0.0177,-0.08662 0.0289,-0.246813 0.0289,-0.479657 v -1.776127 h -0.49456 v 1.761225 c 0,0.203971 -0.0224,0.352991 -0.0587,0.450785 -0.0289,0.095 -0.0978,0.175098 -0.20397,0.232843 -0.0978,0.05868 -0.21049,0.08755 -0.33436,0.08755 -0.21515,0 -0.40049,-0.06892 -0.55324,-0.203971 -0.14529,-0.126666 -0.21794,-0.374411 -0.21794,-0.741372 v -1.587059 z" /><path
       inkscape:connector-curvature="0"
       id="path928"
       style="fill:#231f20;fill-opacity:1;fill-rule:nonzero;stroke:none;stroke-width:0.999996"
       d="m 255.61567,44.925697 v 0.961176 h -1.73235 v 0.450785 l 1.81897,2.590147 h 0.40794 v -2.590147 h 0.53834 v -0.450785 h -0.53834 v -0.961176 z m 0,1.411961 v 1.805 l -1.25176,-1.805 z" /><path
       inkscape:connector-curvature="0"
       id="path930"
       style="fill:#231f20;fill-opacity:1;fill-rule:nonzero;stroke:none;stroke-width:0.999996"
       d="m 268.43229,50.513933 v 2.896569 h 0.43682 v -0.436814 c 0.11642,0.20397 0.22166,0.338088 0.32039,0.407941 0.095,0.0652 0.19652,0.10152 0.30549,0.10152 0.1751,0 0.34181,-0.05495 0.50946,-0.160196 l -0.1602,-0.465687 c -0.12759,0.07637 -0.24774,0.116422 -0.36416,0.116422 -0.10897,0 -0.20304,-0.03632 -0.29059,-0.10152 -0.0876,-0.06892 -0.15275,-0.15647 -0.18907,-0.262647 -0.0512,-0.174167 -0.0727,-0.370686 -0.0727,-0.582108 v -1.51348 z" /><path
       inkscape:connector-curvature="0"
       id="path932"
       style="fill:#231f20;fill-opacity:1;fill-rule:nonzero;stroke:none;stroke-width:0.999996"
       d="m 272.29283,51.445305 0.50946,-0.05774 c -0.0875,-0.301765 -0.24029,-0.534608 -0.45171,-0.698529 -0.21422,-0.167647 -0.49083,-0.247745 -0.82892,-0.247745 -0.42937,0 -0.76745,0.131323 -1.01892,0.393039 -0.24402,0.261716 -0.36417,0.629608 -0.36417,1.106471 0,0.483382 0.12387,0.862451 0.37907,1.134412 0.25054,0.270098 0.57465,0.407941 0.97514,0.407941 0.38559,0 0.70133,-0.137843 0.94535,-0.407941 0.25147,-0.261716 0.37813,-0.632403 0.37813,-1.10554 0,-0.02887 -0.007,-0.07265 -0.014,-0.131323 H 270.648 c 0.0186,-0.319461 0.10618,-0.567206 0.26265,-0.742304 0.16299,-0.166716 0.36696,-0.246814 0.61098,-0.246814 0.18161,0 0.33809,0.0475 0.46568,0.145294 0.12388,0.095 0.2254,0.247745 0.30549,0.450784 z m -1.615,0.800981 h 1.615 c -0.0214,0.240294 -0.0838,0.421912 -0.18907,0.538333 -0.15647,0.192794 -0.36044,0.290589 -0.61098,0.290589 -0.22632,0 -0.41539,-0.07917 -0.56813,-0.232844 -0.1453,-0.145294 -0.22912,-0.345539 -0.24682,-0.596078 z" /><path
       inkscape:connector-curvature="0"
       id="path934"
       style="fill:#231f20;fill-opacity:1;fill-rule:nonzero;stroke:none;stroke-width:0.999996"
       d="m 275.30117,50.878099 c -0.17417,-0.15647 -0.34927,-0.269166 -0.52343,-0.334362 -0.16765,-0.06613 -0.34554,-0.102451 -0.53834,-0.102451 -0.32039,0 -0.56814,0.07637 -0.7423,0.232843 -0.16765,0.163921 -0.24775,0.367892 -0.24775,0.611912 0,0.134117 0.0298,0.261715 0.0876,0.378137 0.0652,0.116421 0.15275,0.207696 0.26172,0.276618 0.10617,0.07637 0.2226,0.134117 0.34926,0.174166 0.095,0.01863 0.2403,0.04378 0.43682,0.07265 0.39676,0.0475 0.68735,0.102451 0.87362,0.160196 0.007,0.06613 0.014,0.108971 0.014,0.131324 0,0.203971 -0.0512,0.341814 -0.14529,0.421912 -0.1276,0.116421 -0.31294,0.174167 -0.55323,0.174167 -0.23285,0 -0.40701,-0.04284 -0.52344,-0.130393 -0.10897,-0.0801 -0.18627,-0.218872 -0.23284,-0.421911 l -0.48059,0.05775 c 0.0363,0.211421 0.10525,0.381862 0.20397,0.50946 0.10525,0.123873 0.25054,0.221667 0.43682,0.29152 0.19279,0.0652 0.41446,0.10152 0.66872,0.10152 0.2403,0 0.44054,-0.02887 0.59701,-0.08755 0.15275,-0.05775 0.26544,-0.137843 0.33436,-0.232843 0.0764,-0.08755 0.13133,-0.19652 0.1602,-0.320393 0.0186,-0.08662 0.0289,-0.243088 0.0289,-0.465686 V 51.72193 c 0,-0.458235 0.007,-0.748824 0.0298,-0.872696 0.0177,-0.116422 0.0577,-0.229118 0.11642,-0.335294 h -0.50946 c -0.0512,0.106176 -0.0838,0.226323 -0.10245,0.364166 z m -0.0428,1.091569 c -0.17509,-0.0801 -0.44426,-0.141569 -0.80098,-0.189069 -0.19652,-0.02887 -0.33436,-0.0652 -0.42191,-0.102451 -0.0876,-0.02887 -0.15647,-0.08289 -0.20397,-0.159264 -0.0401,-0.06985 -0.0577,-0.146226 -0.0577,-0.232843 0,-0.127598 0.0475,-0.232844 0.14529,-0.320393 0.095,-0.08755 0.24029,-0.131323 0.43681,-0.131323 0.1928,0 0.36324,0.03632 0.50946,0.116421 0.1453,0.08755 0.25054,0.203971 0.31947,0.349265 0.0475,0.106177 0.0736,0.269167 0.0736,0.494559 z" /><path
       inkscape:connector-curvature="0"
       id="path936"
       style="fill:#231f20;fill-opacity:1;fill-rule:nonzero;stroke:none;stroke-width:0.999996"
       d="m 278.41195,51.576629 0.48059,-0.05774 c -0.0512,-0.342745 -0.18534,-0.608187 -0.40794,-0.800981 -0.21422,-0.185343 -0.47593,-0.276617 -0.78515,-0.276617 -0.40049,0 -0.72088,0.131323 -0.96117,0.393039 -0.24309,0.261716 -0.36324,0.633333 -0.36324,1.120441 0,0.309216 0.0475,0.582108 0.14529,0.814951 0.10525,0.232843 0.26545,0.407941 0.48059,0.524363 0.21049,0.123873 0.44334,0.189069 0.69853,0.189069 0.30922,0 0.55976,-0.08382 0.75628,-0.247745 0.20397,-0.156471 0.33529,-0.378138 0.39304,-0.668726 l -0.48059,-0.07358 c -0.0401,0.193725 -0.11642,0.339019 -0.23285,0.436813 -0.11642,0.095 -0.25799,0.145295 -0.42191,0.145295 -0.24309,0 -0.44333,-0.09407 -0.59608,-0.275687 -0.15647,-0.175098 -0.23284,-0.451716 -0.23284,-0.829853 0,-0.389314 0.0727,-0.677108 0.21794,-0.858725 0.1453,-0.174167 0.33809,-0.261716 0.58211,-0.261716 0.19279,0 0.35299,0.05775 0.48059,0.174167 0.13412,0.123872 0.21794,0.309215 0.24681,0.553235 z" /><path
       inkscape:connector-curvature="0"
       id="path938"
       style="fill:#231f20;fill-opacity:1;fill-rule:nonzero;stroke:none;stroke-width:0.999996"
       d="m 280.39112,50.950746 0.0727,-0.436813 c -0.13785,-0.02887 -0.26172,-0.04284 -0.37814,-0.04284 -0.17417,0 -0.31294,0.02887 -0.40701,0.08662 -0.0987,0.05868 -0.16765,0.131324 -0.20397,0.218873 -0.0401,0.09407 -0.0587,0.290588 -0.0587,0.582108 v 1.673676 h -0.36323 v 0.378138 h 0.36323 v 0.7125 l 0.48059,0.306421 v -1.018921 h 0.49456 V 53.03237 h -0.49456 v -1.70348 c 0,-0.137843 0.007,-0.225392 0.0289,-0.261716 0.0186,-0.04005 0.0475,-0.07265 0.0876,-0.10152 0.0363,-0.02235 0.0913,-0.02887 0.1602,-0.02887 0.0577,0 0.13132,0.0037 0.21794,0.01397 z" /><path
       inkscape:connector-curvature="0"
       id="path940"
       style="fill:#231f20;fill-opacity:1;fill-rule:nonzero;stroke:none;stroke-width:0.999996"
       d="m 280.87916,53.948835 v 0.567206 h 0.47965 v -0.567206 z m 0,-3.434902 v 2.896569 h 0.47965 v -2.896569 z" /><path
       inkscape:connector-curvature="0"
       id="path942"
       style="fill:#231f20;fill-opacity:1;fill-rule:nonzero;stroke:none;stroke-width:0.999996"
       d="m 281.9344,51.969668 c 0,0.530883 0.14902,0.931373 0.45079,1.193089 0.24029,0.211421 0.54206,0.320392 0.9025,0.320392 0.39583,0 0.71995,-0.131324 0.97514,-0.39304 0.25054,-0.261715 0.37814,-0.625882 0.37814,-1.091568 0,-0.370687 -0.0587,-0.662206 -0.1751,-0.872696 -0.10897,-0.215148 -0.26916,-0.385589 -0.47965,-0.509461 -0.21515,-0.116422 -0.44799,-0.175098 -0.69853,-0.175098 -0.40794,0 -0.73858,0.131323 -0.99005,0.393039 -0.24402,0.261716 -0.36324,0.640784 -0.36324,1.135343 z m 0.49456,0 c 0,-0.378137 0.0801,-0.662206 0.24682,-0.843823 0.16392,-0.185344 0.36789,-0.276618 0.61191,-0.276618 0.23936,0 0.44333,0.09127 0.61098,0.276618 0.16392,0.192794 0.24774,0.479656 0.24774,0.858725 0,0.355784 -0.0838,0.628677 -0.24774,0.814951 -0.16765,0.181618 -0.37162,0.275687 -0.61098,0.275687 -0.24402,0 -0.44799,-0.09407 -0.61191,-0.275687 -0.16672,-0.186274 -0.24682,-0.461961 -0.24682,-0.829853 z" /><path
       inkscape:connector-curvature="0"
       id="path944"
       style="fill:#231f20;fill-opacity:1;fill-rule:nonzero;stroke:none;stroke-width:0.999996"
       d="m 285.21935,50.513933 v 2.896569 h 0.45079 V 53.00256 c 0.21142,0.320393 0.51691,0.480589 0.9174,0.480589 0.17417,0 0.33436,-0.03632 0.47966,-0.10152 0.14622,-0.05868 0.25147,-0.1425 0.32039,-0.247745 0.0764,-0.09779 0.13132,-0.217941 0.1602,-0.364167 0.0177,-0.08662 0.0289,-0.246813 0.0289,-0.479657 v -1.776127 h -0.49456 v 1.761225 c 0,0.203971 -0.0224,0.352991 -0.0587,0.450785 -0.0289,0.095 -0.0978,0.175098 -0.20304,0.232843 -0.0987,0.05868 -0.21142,0.08755 -0.33529,0.08755 -0.21422,0 -0.39956,-0.06892 -0.55324,-0.203971 -0.14529,-0.126666 -0.21794,-0.374411 -0.21794,-0.741372 v -1.587059 z" /><path
       inkscape:connector-curvature="0"
       id="path946"
       style="fill:#231f20;fill-opacity:1;fill-rule:nonzero;stroke:none;stroke-width:0.999996"
       d="m 276.69543,45.973491 0.50853,0.04377 c 0.0363,-0.254264 0.12387,-0.443333 0.26265,-0.567206 0.14529,-0.127598 0.31294,-0.189068 0.50946,-0.189068 0.23936,0 0.43961,0.08755 0.59608,0.261716 0.16392,0.181617 0.24774,0.421911 0.24774,0.713431 0,0.280343 -0.0801,0.498284 -0.23284,0.654755 -0.15647,0.163922 -0.36044,0.246814 -0.61098,0.246814 -0.16765,0 -0.31294,-0.03632 -0.43681,-0.10152 -0.1276,-0.06892 -0.2254,-0.160196 -0.29152,-0.276618 l -0.46569,0.05868 0.39304,2.051814 h 1.97917 v -0.465686 h -1.58613 l -0.21794,-1.076667 c 0.23936,0.16299 0.49456,0.246814 0.75627,0.246814 0.34927,0 0.64079,-0.123873 0.87363,-0.363236 0.23936,-0.244019 0.36323,-0.553235 0.36323,-0.931372 0,-0.360442 -0.10897,-0.669657 -0.31946,-0.931373 -0.25519,-0.331569 -0.60446,-0.49549 -1.04779,-0.49549 -0.36044,0 -0.65569,0.102451 -0.88853,0.30549 -0.23284,0.20397 -0.36324,0.473137 -0.39211,0.814952 z" /><g
       transform="matrix(0.93137267,0,0,0.93137267,162.00154,180.36811)"
       id="g948"
       style="fill:#d35f5f;stroke:#d35f5f;stroke-width:1.07368"><path
         inkscape:connector-curvature="0"
         id="path950"
         style="fill:#d35f5f;stroke:#d35f5f;stroke-width:1.61053;stroke-linecap:round;stroke-linejoin:miter;stroke-miterlimit:3.86369;stroke-dasharray:none;stroke-opacity:1"
         d="m 16.23,-39.676 120.301,-94.566" /></g><g
       transform="matrix(0.93137267,0,0,0.93137267,162.00154,180.36811)"
       id="g952"
       style="stroke-width:1.07368"><path
         inkscape:connector-curvature="0"
         id="path954"
         style="fill:none;stroke:#5291c6;stroke-width:1.61053;stroke-linecap:round;stroke-linejoin:round;stroke-miterlimit:3.86369;stroke-dasharray:none;stroke-opacity:1"
         d="m 136.77,-134.508 -73.727,16.973 -46.887,77.789" /></g><g
       transform="matrix(0.93137267,0,0,0.93137267,162.00154,180.36811)"
       id="g956"
       style="stroke-width:1.07368"><path
         inkscape:connector-curvature="0"
         id="path958"
         style="fill:none;stroke:#000000;stroke-width:1.14106;stroke-linecap:butt;stroke-linejoin:miter;stroke-miterlimit:3.86369;stroke-dasharray:none;stroke-opacity:1"
         d="m 115.301,-152.645 h 16.722" /></g><g
       transform="matrix(0.93137267,0,0,0.93137267,162.00154,180.36811)"
       id="g960"
       style="stroke-width:1.07368"><path
         inkscape:connector-curvature="0"
         id="path962"
         style="fill:#000000;fill-opacity:1;fill-rule:evenodd;stroke:#000000;stroke-width:0.608564;stroke-linecap:butt;stroke-linejoin:miter;stroke-miterlimit:4;stroke-dasharray:none;stroke-opacity:1"
         d="m 134.477,-152.645 -3.676,2.125 v -4.25 z" /></g><g
       transform="matrix(0.93137267,0,0,0.93137267,162.00154,180.36811)"
       id="g964"
       style="stroke-width:1.07368"><path
         inkscape:connector-curvature="0"
         id="path966"
         style="fill:none;stroke:#000000;stroke-width:1.14106;stroke-linecap:butt;stroke-linejoin:miter;stroke-miterlimit:3.86369;stroke-dasharray:none;stroke-opacity:1"
         d="m 90.926,-152.645 h 16.722" /></g><g
       transform="matrix(0.93137267,0,0,0.93137267,162.00154,180.36811)"
       id="g968"
       style="stroke-width:1.07368"><path
         inkscape:connector-curvature="0"
         id="path970"
         style="fill:#000000;fill-opacity:1;fill-rule:evenodd;stroke:#000000;stroke-width:0.608564;stroke-linecap:butt;stroke-linejoin:miter;stroke-miterlimit:4;stroke-dasharray:none;stroke-opacity:1"
         d="m 110.102,-152.645 -3.676,2.125 v -4.25 z" /></g><g
       transform="matrix(0.93137267,0,0,0.93137267,162.00154,180.36811)"
       id="g972"
       style="stroke-width:1.07368"><path
         inkscape:connector-curvature="0"
         id="path974"
         style="fill:none;stroke:#000000;stroke-width:1.14106;stroke-linecap:butt;stroke-linejoin:miter;stroke-miterlimit:3.86369;stroke-dasharray:none;stroke-opacity:1"
         d="M 66.551,-152.645 H 83.273" /></g><g
       transform="matrix(0.93137267,0,0,0.93137267,162.00154,180.36811)"
       id="g976"
       style="stroke-width:1.07368"><path
         inkscape:connector-curvature="0"
         id="path978"
         style="fill:#000000;fill-opacity:1;fill-rule:evenodd;stroke:#000000;stroke-width:0.608564;stroke-linecap:butt;stroke-linejoin:miter;stroke-miterlimit:4;stroke-dasharray:none;stroke-opacity:1"
         d="m 85.727,-152.645 -3.676,2.125 v -4.25 z" /></g><g
       transform="matrix(0.93137267,0,0,0.93137267,162.00154,180.36811)"
       id="g980"
       style="stroke-width:1.07368"><path
         inkscape:connector-curvature="0"
         id="path982"
         style="fill:none;stroke:#000000;stroke-width:1.14106;stroke-linecap:butt;stroke-linejoin:miter;stroke-miterlimit:3.86369;stroke-dasharray:none;stroke-opacity:1"
         d="M 42.176,-152.645 H 58.898" /></g><g
       transform="matrix(0.93137267,0,0,0.93137267,162.00154,180.36811)"
       id="g984"
       style="stroke-width:1.07368"><path
         inkscape:connector-curvature="0"
         id="path986"
         style="fill:#000000;fill-opacity:1;fill-rule:evenodd;stroke:#000000;stroke-width:0.608564;stroke-linecap:butt;stroke-linejoin:miter;stroke-miterlimit:4;stroke-dasharray:none;stroke-opacity:1"
         d="m 61.352,-152.645 -3.676,2.125 v -4.25 z" /></g><g
       transform="matrix(0.93137267,0,0,0.93137267,162.00154,180.36811)"
       id="g988"
       style="stroke-width:1.07368"><path
         inkscape:connector-curvature="0"
         id="path990"
         style="fill:none;stroke:#000000;stroke-width:1.14106;stroke-linecap:butt;stroke-linejoin:miter;stroke-miterlimit:3.86369;stroke-dasharray:none;stroke-opacity:1"
         d="M 17.801,-152.645 H 34.523" /></g><g
       transform="matrix(0.93137267,0,0,0.93137267,162.00154,180.36811)"
       id="g992"
       style="stroke-width:1.07368"><path
         inkscape:connector-curvature="0"
         id="path994"
         style="fill:#000000;fill-opacity:1;fill-rule:evenodd;stroke:#000000;stroke-width:0.608564;stroke-linecap:butt;stroke-linejoin:miter;stroke-miterlimit:4;stroke-dasharray:none;stroke-opacity:1"
         d="m 36.977,-152.645 -3.676,2.125 v -4.25 z" /></g><text
       xml:space="preserve"
       style="font-size:8px;line-height:1.25;font-family:sans-serif;word-spacing:0px;fill:#d38d5f;fill-opacity:1;stroke-width:0.75"
       x="291.8335"
       y="-171.48022"
       id="text40332"
       transform="scale(1,-1)"><tspan
         sodipodi:role="line"
         id="tspan40330"
         style="font-size:8px;fill:#d38d5f;fill-opacity:1;stroke-width:0.75"
         x="291.8335"
         y="-171.48022">enzyme demand</tspan></text><text
       xml:space="preserve"
       style="font-size:8px;line-height:1.25;font-family:sans-serif;word-spacing:0px;fill:#d38d5f;fill-opacity:1;stroke-width:0.75"
       x="291.8335"
       y="-10.751776"
       id="text47853"
       transform="scale(1,-1)"><tspan
         sodipodi:role="line"
         id="tspan47851"
         style="font-size:8px;fill:#d38d5f;fill-opacity:1;stroke-width:0.75"
         x="291.8335"
         y="-10.751776">enzyme demand</tspan></text><text
       xml:space="preserve"
       style="font-size:6px;line-height:0.95;font-family:sans-serif;word-spacing:0px;fill:#d35f5f;fill-opacity:1;stroke-width:0.75"
       x="291.8335"
       y="-163.08435"
       id="text48019"
       transform="scale(1,-1)"><tspan
         sodipodi:role="line"
         id="tspan48017"
         style="font-size:6px;fill:#d35f5f;fill-opacity:1;stroke-width:0.75"
         x="291.8335"
         y="-163.08435">forward flux</tspan><tspan
         sodipodi:role="line"
         style="font-size:6px;fill:#d35f5f;fill-opacity:1;stroke-width:0.75"
         x="291.8335"
         y="-157.38435"
         id="tspan51557">backward flux</tspan></text><text
       xml:space="preserve"
       style="font-size:8px;line-height:1.25;font-family:sans-serif;word-spacing:0px;fill:#000000;fill-opacity:1;stroke-width:0.75"
       x="291.8335"
       y="-147.52083"
       id="text62540"
       transform="scale(1,-1)"><tspan
         sodipodi:role="line"
         id="tspan62538"
         style="font-size:8px;fill:#000000;fill-opacity:1;stroke-width:0.75"
         x="291.8335"
         y="-147.52083">net flux</tspan></text><text
       xml:space="preserve"
       style="font-size:8px;line-height:1.25;font-family:sans-serif;word-spacing:0px;fill:#000000;fill-opacity:1;stroke-width:0.75"
       x="291.8335"
       y="-35.609539"
       id="text68659"
       transform="scale(1,-1)"><tspan
         sodipodi:role="line"
         id="tspan68657"
         style="font-size:8px;fill:#000000;fill-opacity:1;stroke-width:0.75"
         x="291.8335"
         y="-35.609539">net flux</tspan></text><text
       xml:space="preserve"
       style="font-size:6px;line-height:0.95;font-family:sans-serif;word-spacing:0px;fill:#70a4d0;fill-opacity:1;stroke-width:0.75"
       x="291.8335"
       y="-26.966766"
       id="text68665"
       transform="scale(1,-1)"><tspan
         sodipodi:role="line"
         id="tspan68661"
         style="font-size:6px;fill:#70a4d0;fill-opacity:1;stroke-width:0.75"
         x="291.8335"
         y="-26.966766">forward flux</tspan><tspan
         sodipodi:role="line"
         style="font-size:6px;fill:#70a4d0;fill-opacity:1;stroke-width:0.75"
         x="291.8335"
         y="-21.266766"
         id="tspan68663">backward flux</tspan></text><text
       xml:space="preserve"
       style="font-size:12px;line-height:1.25;font-family:sans-serif;word-spacing:0px;stroke-width:0.75"
       x="84.010857"
       y="170.04356"
       id="text73826"
       transform="matrix(0,1,1,0,0,0)"><tspan
         sodipodi:role="line"
         id="tspan73824"
         style="font-style:italic;stroke-width:0.75"
         x="84.010857"
         y="170.04356">Δ<tspan
   style="font-size:65%;baseline-shift:sub"
   id="tspan75002">r</tspan>G'</tspan></text></g></svg>
