%!PS-Adobe-3.0 EPSF-3.0
%%Title: one_way_fluxes.fig
%%Creator: fig2dev Version 3.2.6a
%%CreationDate: 2019-03-30 16:53:02
%%BoundingBox: 0 0 195 60
%Magnification: 1.0000
%%EndComments
%%BeginProlog
/$F2psDict 200 dict def
$F2psDict begin
$F2psDict /mtrx matrix put
/col-1 {0 setgray} bind def
/col0 {0.000 0.000 0.000 srgb} bind def
/col7 {1.000 1.000 1.000 srgb} bind def

end

/cp {closepath} bind def
/ef {eofill} bind def
/gr {grestore} bind def
/gs {gsave} bind def
/sa {save} bind def
/rs {restore} bind def
/l {lineto} bind def
/m {moveto} bind def
/rm {rmoveto} bind def
/n {newpath} bind def
/s {stroke} bind def
/sh {show} bind def
/slc {setlinecap} bind def
/slj {setlinejoin} bind def
/slw {setlinewidth} bind def
/srgb {setrgbcolor} bind def
/rot {rotate} bind def
/sc {scale} bind def
/sd {setdash} bind def
/ff {findfont} bind def
/sf {setfont} bind def
/scf {scalefont} bind def
/sw {stringwidth} bind def
/tr {translate} bind def
/tnt {dup dup currentrgbcolor
  4 -2 roll dup 1 exch sub 3 -1 roll mul add
  4 -2 roll dup 1 exch sub 3 -1 roll mul add
  4 -2 roll dup 1 exch sub 3 -1 roll mul add srgb}
  bind def
/shd {dup dup currentrgbcolor 4 -2 roll mul 4 -2 roll mul
  4 -2 roll mul srgb} bind def
 /DrawEllipse {
	/endangle exch def
	/startangle exch def
	/yrad exch def
	/xrad exch def
	/y exch def
	/x exch def
	/savematrix mtrx currentmatrix def
	x y tr xrad yrad sc 0 0 1 startangle endangle arc
	closepath
	savematrix setmatrix
	} def

/$F2psBegin {$F2psDict begin /$F2psEnteredState save def} def
/$F2psEnd {$F2psEnteredState restore end} def

/pageheader {
save
newpath 0 60 moveto 0 0 lineto 195 0 lineto 195 60 lineto closepath clip newpath
-77.2 114.3 translate
1 -1 scale
$F2psBegin
10 setmiterlimit
0 slj 0 slc
 0.06299 0.06299 sc
} bind def
/pagefooter {
$F2psEnd
restore
} bind def
%%EndProlog
pageheader
%
% Fig objects follow
%
% 
% here starts figure with depth 50
% Ellipse
7.500 slw
n 1395 1350 162 162 0 360 DrawEllipse gs col0 s gr

% Ellipse
n 4140 1350 162 162 0 360 DrawEllipse gs col0 s gr

% Polyline
0 slj
0 slc
60.000 slw
gs  clippath
3768 1182 m 3768 1248 l 3546 1305 l 3546 1125 l cp
eoclip
n 1800 1215 m
 3735 1215 l gs col0 s gr gr

% arrowhead
7.500 slw
n 3546 1305 m 3726 1215 l 3546 1125 l 3546 1305 l  cp gs 0.00 setgray ef gr  col0 s
% Polyline
gs  clippath
1793 1447 m 1793 1433 l 1931 1395 l 1931 1485 l cp
eoclip
n 3735 1440 m
 1800 1440 l gs col0 s gr gr

% arrowhead
n 1931 1395 m 1811 1440 l 1931 1485 l 1931 1395 l  cp gs 0.00 setgray ef gr  col0 s
/Helvetica ff 190.50 scf sf
2430 1035 m
gs 1 -1 sc (Forward) col0 sh gr
/Helvetica ff 190.50 scf sf
2340 1800 m
gs 1 -1 sc (Reverse) col0 sh gr
% here ends figure;
pagefooter
showpage
%%Trailer
%EOF
